iter,time,reward,steps,convergence
1,0.0011665190000016423,-205.9,200.0,89.61197999999999
2,0.002107560999998981,-211.42,200.0,80.02193823799999
3,0.0030279419999992285,-223.34,200.0,70.206795296
4,0.003942494000000352,-290.16,200.0,60.816795295999995
5,0.004651680000002045,-249.06,200.0,51.02665806810622
6,0.005542524000002658,-227.52,200.0,41.679912312868225
7,0.006608468000003143,-221.04,200.0,32.05526778745385
8,0.0074661190000036015,-333.4,200.0,22.401865804384034
9,0.00830982700000149,-257.34,200.0,12.811449603948471
10,0.00920622099999946,-205.84,200.0,3.2376256241916748
11,0.010065068999999482,-214.68,200.0,3.2428386154205056
12,0.010918490000001668,-210.02,200.0,3.042206635365241
13,0.01177792700000424,-211.98,200.0,3.4668395773652407
14,0.012626075000003567,-202.22,200.0,3.4718364995983135
15,0.013463977000004235,-207.22,200.0,3.431449594952163
16,0.014333994000001127,-267.56,200.0,3.3659080062760096
17,0.015188328000000695,-411.96,200.0,3.321503406816298
18,0.016096883999999534,-212.82,200.0,3.1838653305908364
19,0.016941373000001647,-249.26,199.26,2.9831900365548707
20,0.017938956000001838,-213.08,200.0,2.994578536261146
21,0.018819010000001413,-251.06,200.0,2.831569049812825
22,0.019680223000001718,-268.22,200.0,2.9077834174586146
23,0.020606397000001664,-207.58,200.0,2.5140727863778864
24,0.02151538100000394,-250.32,200.0,2.1257647288837918
25,0.022419247000005527,-219.96,200.0,2.4862565872685294
26,0.023259593000005907,-216.14,200.0,2.1678836236864782
27,0.024113980000006308,-203.78,200.0,2.1325283940085056
28,0.024953900000006968,-221.08,200.0,2.1322982194253313
29,0.025796606000007216,-218.42,200.0,2.1368863048092295
30,0.02663718900000589,-199.36,200.0,1.9304541694885287
31,0.027108912000006313,-236.3,200.0,1.90742948845496
32,0.027967935000006605,-201.06,200.0,1.8796468897330585
33,0.028813913000007574,-274.76,200.0,1.9295774739195721
34,0.030032895000005055,-225.64,200.0,2.3156953578261907
35,0.03090302800000444,-234.24,200.0,2.007189309177521
36,0.031408265000003155,-264.76,200.0,2.3749322186878827
37,0.032353919000005504,-220.4,200.0,2.300744859749949
38,0.033196917000005044,-331.36,200.0,2.5001580489975423
39,0.034040857000004365,-224.78,200.0,2.870174439070324
40,0.03525510700000467,-213.28,200.0,2.846252476287218
41,0.03612569300000601,-215.1,200.0,2.6222329386475325
42,0.03696655100000612,-228.58,200.0,2.980439262073797
43,0.03798100700000617,-223.34,200.0,3.2378844359386365
44,0.03885466700000606,-205.74,200.0,2.841356148912432
45,0.03971401400000829,-278.7,200.0,2.8267835838204802
46,0.04059138700000631,-201.28,200.0,2.476344345234112
47,0.04150743100000298,-220.62,200.0,2.7430496227484182
48,0.04239440300000297,-203.86,200.0,2.5644848925224153
49,0.043308611000000496,-217.18,200.0,2.590002911537263
50,0.04420623500000076,-211.58,200.0,2.5932268770838234
51,0.04511953400000124,-212.08,200.0,2.8265475045865216
52,0.046348516000001894,-209.94,200.0,2.462257577575335
53,0.0468718310000007,-206.5,200.0,2.1341472105617627
54,0.04776020599999953,-201.28,200.0,2.109601995939203
55,0.04864080499999801,-209.3,200.0,2.1322955239175365
56,0.04917700399999703,-214.56,200.0,2.0862796270118245
57,0.05005588699999919,-216.94,200.0,2.2020869354482904
58,0.050778981000000556,-212.86,200.0,2.1864585087182804
59,0.05165968500000062,-200.84,200.0,2.1401750211190773
60,0.05265655300000205,-217.6,198.66,2.362655126851206
61,0.05351420900000292,-204.8,200.0,2.1056763192383756
62,0.054361549000002896,-229.4,200.0,2.250390644189481
63,0.05523567600000234,-247.76,200.0,2.516434972931593
64,0.05611177100000475,-196.98,195.56,2.935273681140014
65,0.05699219300000635,-192.08,188.3,2.928584954355697
66,0.057576184000005526,-215.06,200.0,2.9393837050125535
67,0.05842398000000415,-210.22,200.0,2.7909720588670317
68,0.05927579400000482,-230.44,200.0,3.1635002201999867
69,0.05996303700000283,-208.32,200.0,3.100110217873515
70,0.06054387000000361,-217.38,200.0,2.8334367194717474
71,0.061394495000001825,-213.44,200.0,2.8920580118922126
72,0.06260735700000097,-202.46,200.0,2.684375299895147
73,0.06347960800000152,-202.2,199.54,2.8312954717340304
74,0.0643334969999998,-243.32,198.52,2.436117934188662
75,0.0648380849999981,-197.62,174.14,2.3907978692010277
76,0.06546743199999838,-359.32,200.0,2.369438679403025
77,0.06631738700000156,-208.74,200.0,2.3546423247631965
78,0.06727988000000096,-219.5,200.0,2.3926875367473386
79,0.06813225500000186,-220.84,200.0,2.579158663117499
80,0.06898820299999997,-234.62,198.74,2.8202038859851086
81,0.06984125700000021,-294.7,200.0,2.9340728238867846
82,0.07068792800000168,-329.2,200.0,2.955522174514242
83,0.07153253700000306,-276.66,200.0,2.754056768276704
84,0.07207951200000196,-223.68,200.0,2.748360364888197
85,0.07273401400000168,-215.66,200.0,2.7897373857839716
86,0.07333689900000095,-213.4,200.0,3.171613406884858
87,0.07406731800000088,-212.0,200.0,3.410105117286765
88,0.07499950700000113,-227.48,194.7,2.931218254702505
89,0.07622558600000318,-224.66,195.54,2.379557113208231
90,0.07650862100000566,-221.44,199.92,2.5716878247818196
91,0.07697476800000658,-210.4,200.0,2.391039950687125
92,0.07783359400000833,-203.78,199.46,2.7878921770086373
93,0.07816289400000898,-211.7,200.0,2.599280275866549
94,0.07903796200001167,-203.88,195.78,2.6376428378302945
95,0.0798691820000137,-249.84,200.0,2.639035132695342
96,0.08074037400001188,-186.36,182.86,2.4334266613219553
97,0.08109571300001406,-208.84,193.16,1.9426043209034014
98,0.08158621500001573,-251.36,200.0,2.2658042369619382
99,0.08193414400001586,-213.3,200.0,2.5341287613780823
100,0.08238651100001704,-200.92,200.0,2.138854652790773
101,0.08326541100001705,-207.66,200.0,2.5872592896590954
102,0.08355094000001984,-219.72,199.54,2.2212307363120978
103,0.08435908200002018,-247.9,200.0,2.610472360899757
104,0.08475187700001996,-206.42,194.98,2.596505150485671
105,0.08527498100001907,-229.0,200.0,2.8682006402463225
106,0.08613612500001722,-216.48,199.04,2.8070167084547615
107,0.08680222300001716,-202.96,200.0,2.8499794934822744
108,0.08785769400001797,-218.04,200.0,2.6082720008150226
109,0.08813416400001728,-220.22,198.66,2.812690846483752
110,0.08850441600001702,-208.78,200.0,3.033977943718097
111,0.0895070850000188,-206.18,197.92,2.660677683632185
112,0.09036183800002107,-240.04,200.0,2.9957458747467043
113,0.09122130500001902,-235.36,193.68,2.9250537616551107
114,0.0924371870000158,-275.54,200.0,2.899836246893623
115,0.09269471000001772,-242.56,200.0,3.060679474641565
116,0.09360852700001843,-388.16,200.0,3.0864423393187677
117,0.0941374690000174,-307.1,198.8,3.2604523093239934
118,0.09501343800002005,-204.06,195.02,3.438466716700424
119,0.0958954730000201,-206.04,199.82,3.0524074931431344
120,0.09679909000001885,-172.88,169.72,3.2332714420274966
121,0.09769680300001937,-227.54,200.0,3.198766442360229
122,0.09856969600001975,-199.54,200.0,2.8311039427181415
123,0.09916604000001783,-198.22,196.64,2.5122395704787293
124,0.10001905600001848,-204.3,187.12,2.941846188511468
125,0.1002384270000185,-204.22,200.0,2.7084511193719463
126,0.10108837000001714,-341.12,200.0,2.5273657275641375
127,0.10232572000001738,-218.92,200.0,2.7285896835650663
128,0.10260859000002043,-201.96,191.8,2.5452129910398256
129,0.10283327200001935,-220.46,198.86,2.730306755232276
130,0.10307145000001938,-188.96,177.58,2.2907223128584384
131,0.10347315600002105,-206.78,194.28,2.4981376500166137
132,0.10474354500001937,-251.4,199.72,2.647869612097028
133,0.10506848700001825,-300.4,196.12,2.924950579629911
134,0.10591506800001582,-203.0,200.0,2.7025426444137457
135,0.10610762100001736,-241.72,200.0,2.54706285916184
136,0.10715797600001764,-195.5,195.8,2.5660457942520587
137,0.10789238900001763,-314.14,183.2,2.1681335971968565
138,0.10814740300001802,-34.58,71.52,2.3898377252704153
139,0.10849603000001551,-204.66,200.0,2.3893362944197754
140,0.10909379300001376,-253.36,200.0,2.4465633745500583
141,0.11003047800001298,-192.82,195.18,2.223848176163018
142,0.11016501800001421,-335.38,200.0,2.2971050436526568
143,0.11113703500001293,-216.6,192.38,1.9839932983112434
144,0.11127928700001277,-187.64,172.82,1.77077684370024
145,0.11149335500001101,-74.42,117.32,1.6586162761968382
146,0.11164760500000881,-47.64,90.92,1.8557162844997221
147,0.11182506100000822,-21.22,65.12,1.8560604360203512
148,0.11198904800000875,-171.48,169.02,1.5601751311943162
149,0.11232185600000832,-23.84,66.24,1.3988397086342097
150,0.1125144010000092,-32.78,80.06,1.7838427952183522
151,0.11260117800000913,-232.08,189.22,1.7289028379183535
152,0.1127567400000089,-124.16,117.46,1.506367653048231
153,0.11289091600000845,-36.74,74.86,1.5335941301033729
154,0.1130053570000058,-138.18,153.54,1.5973793761406256
155,0.11386310300000346,-18.0,65.38,1.5850807225223562
156,0.11393809600000182,-132.16,138.88,1.3128203103031837
157,0.11420993300000148,-97.36,119.14,1.5095664141736833
158,0.11438306400000187,-365.76,181.12,1.5286757920592215
159,0.11465568400000237,-173.3,151.96,1.6899952915147765
160,0.11480576900000017,-38.92,80.18,1.7199340710804507
161,0.1151647849999975,-12.44,52.42,1.8575699841868953
162,0.11543641999999465,-23.48,65.84,1.805271980048196
163,0.11564226899999497,-45.96,85.74,1.7930769557755704
164,0.11580576899999429,-49.3,84.9,1.9599875191600815
165,0.11599259699999465,-30.24,71.4,2.0401215813264955
166,0.11617926699999614,-95.04,97.68,2.311849850363861
167,0.11627333799999562,-189.4,179.14,2.11766728076372
168,0.1165675289999939,-185.26,186.04,2.443707775793613
169,0.11712738399999623,-584.54,184.4,2.462755537117564
170,0.11733516699999669,-170.72,179.98,2.441903422640813
171,0.11756771299999613,-200.84,197.54,2.760946797572326
172,0.11850035499999478,-198.2,196.96,2.9541492079432716
173,0.11934706399999584,-264.7,180.66,3.0043235428095665
174,0.11956296499999652,-47.42,96.54,3.0858677552762144
175,0.12043610499999602,-157.8,167.62,3.069642443887736
176,0.12070923199999584,-205.0,197.34,3.36916986849783
177,0.12127325499999486,-197.28,195.1,3.386088274513998
178,0.12218244699999303,-172.04,175.5,3.1330108043121663
179,0.12231657699999587,-201.68,189.46,3.0969270481840874
180,0.12278797899999461,-41.02,86.52,3.0906104147091247
181,0.12313845799999612,-207.5,194.1,2.7079536380478286
182,0.12339091799999835,-98.2,127.48,2.8037813761010146
183,0.12373301899999589,-179.86,178.96,2.759970151837512
184,0.1239839219999972,-164.32,175.26,2.6498466871142723
185,0.12425361399999701,-205.04,193.18,2.786360559047573
186,0.12452477199999734,-80.3,115.22,2.281652307428633
187,0.12472320199999842,-153.04,159.06,2.4932127378306
188,0.12484851999999691,-25.38,76.82,2.4459404485542273
189,0.12494020999999833,-18.48,63.78,2.46269210949671
190,0.12518767299999922,-152.16,162.22,2.3510374257691
191,0.12530506799999586,-129.16,143.82,2.2793049018970395
192,0.1261839339999966,-60.54,100.96,1.9802765061272427
193,0.12633366299999693,0.48,48.88,1.9437215552701168
194,0.1264438689999956,-50.28,92.34,1.7140047792296962
195,0.1265523119999976,-13.46,56.9,1.5691109033842772
196,0.127397442999996,-45.96,64.78,1.5543570220802123
197,0.12754068099999571,-21.06,64.58,1.2845073916314262
198,0.12774325999999547,3.36,49.92,1.5351928833016686
199,0.12858093199999487,-64.62,89.66,1.3388273770968155
200,0.12867222299999526,-146.74,138.34,1.2513506431605044
201,0.12882468599999441,14.22,32.88,1.2711354602718408
202,0.12897025399999507,8.9,38.38,1.529555349359854
203,0.12904800899999458,-118.74,117.56,1.5719687950049255
204,0.12914243399999492,10.74,35.82,1.6562752488233259
205,0.12925389199999415,-178.98,158.44,1.6398123752103182
206,0.12942358799999454,-99.34,109.82,1.6215165730378118
207,0.12954104999999316,-9.66,50.16,1.9645188374675207
208,0.12965917699999352,-22.6,55.46,1.6719275910703835
209,0.1297475589999948,-17.86,56.22,1.6064571795567744
210,0.12984838699999557,-3.22,48.84,1.4366404453532553
211,0.13080540299999655,7.38,38.86,1.4257633091638282
212,0.13091234699999887,20.92,32.3,1.6369068849793522
213,0.13101202199999662,21.0,30.22,1.8887185354903728
214,0.1311179869999961,15.96,34.34,1.7609907797256816
215,0.13121330199999548,17.96,31.1,2.0216957475085175
216,0.1313144419999972,20.68,29.24,2.008223501525271
217,0.13139806999999593,14.88,34.72,1.7039769012085002
218,0.13149777399999607,20.58,28.48,1.6869039195809385
219,0.13159915899999675,22.52,29.54,1.6774655770384428
220,0.13170371699999706,15.66,34.88,1.8735425943442139
221,0.13178932699999635,15.02,36.34,1.970720501910499
222,0.1318795109999975,16.98,34.82,1.486754496018022
223,0.131962154,19.8,33.52,1.1504328520091989
224,0.13206074300000026,16.2,33.54,1.2302960797672426
225,0.13216299100000128,16.42,28.4,0.9299664252027903
226,0.13226824099999845,15.94,33.04,1.007598985397842
227,0.1323640459999993,18.86,30.38,0.9608346530500349
228,0.13242963100000082,-4.74,49.2,1.2328145943876905
229,0.1325097090000007,12.86,36.78,1.5669102525339214
230,0.13265073200000188,21.14,28.82,1.5583544841522332
231,0.1327562990000004,-6.34,52.32,1.4588303797694337
232,0.13285123,20.1,32.14,1.4717512685976473
233,0.13295331199999794,14.76,33.06,1.5146807464982508
234,0.13304327599999866,20.36,30.76,1.463617697780156
235,0.13313025199999728,16.32,36.0,1.4932503613198969
236,0.13326356799999672,24.62,28.7,1.4974187108391874
237,0.13338775699999772,19.14,31.7,1.5058596005506857
238,0.1334807910000002,18.34,32.94,1.4786492948774643
239,0.13356586000000092,20.96,27.76,1.2267059219292384
240,0.13366458100000145,21.5,27.88,1.2012318798101191
241,0.13376093400000144,-144.74,160.68,1.437523785831872
242,0.1340391909999994,-10.58,60.22,1.5211846706688825
243,0.13430512399999728,-20.4,66.88,1.6465232554794298
244,0.1351463099999961,-53.14,86.94,1.7496958551048105
245,0.135251592999996,9.14,40.54,1.7897130649168669
246,0.1353551179999961,5.22,42.24,1.7334678805944481
247,0.13551025499999625,-0.2,46.92,1.7557180883397767
248,0.1356733749999961,13.94,31.24,1.5314002729874479
249,0.13586013799999463,-24.02,73.16,1.459793404696617
250,0.13601662099999245,-134.94,156.44,1.2621956222360264
251,0.13614397199999217,-22.96,67.06,1.3371471461975855
252,0.13623327299999133,-21.54,69.42,1.276791406683874
253,0.13639572099999242,13.86,38.06,1.1394014005941084
254,0.13648791399999283,-18.76,67.64,1.093635724340355
255,0.1373310889999928,-129.4,111.6,1.1303328015884972
256,0.1375083139999944,-22.66,56.18,1.1022767954600567
257,0.13801214399999395,26.7,26.7,1.3439686236101338
258,0.13809006599999307,24.96,26.78,1.4524238974521964
259,0.1381896149999946,20.22,32.28,1.467633173332772
260,0.13826432899999475,22.1,29.02,1.4178658582360406
261,0.13840999299999623,10.6,33.62,1.0928340907710379
262,0.13851334299999607,14.84,31.76,1.0688608775200357
263,0.13865357499999575,11.24,34.46,1.053543450603653
264,0.13876929999999277,18.3,32.28,1.2794091262479121
265,0.13895127399999296,18.36,31.5,1.2163305736719785
266,0.1390691359999927,10.62,34.64,1.274150118271304
267,0.13918212599999435,18.0,30.18,1.0232202820705876
268,0.13926379199999417,13.52,30.32,1.036796790008601
269,0.13936585099999377,13.0,31.4,1.2823884041277307
270,0.13945659199999483,10.0,32.2,1.392070739581241
271,0.13957501099999803,4.92,32.72,1.4099013799688147
272,0.139699169,9.0,33.34,1.4139930319604996
273,0.13979299400000045,23.82,26.28,1.4418770167430413
274,0.1398966370000032,29.5,26.04,1.206697918848349
275,0.139975462000006,23.54,27.42,1.1672080305548367
276,0.1400851990000085,27.34,26.92,1.1634481391313785
277,0.14020851700000847,21.22,29.54,1.115788958107047
278,0.14034306300000665,12.32,31.06,0.9903088067698953
279,0.1404703920000081,15.72,29.32,0.9515771141673561
280,0.14058060400000727,21.88,27.9,1.112583723054918
281,0.14073407300000795,20.94,28.52,1.236732133534413
282,0.14084574900000746,18.66,28.04,1.2606924050204498
283,0.14093518700001084,28.26,28.36,1.520281422956817
284,0.14105040000001168,20.26,29.66,1.6124025685570735
285,0.1411854260000105,18.42,31.64,1.663333843735569
286,0.14127569600001166,18.56,28.28,1.895139223017842
287,0.1413572630000104,19.78,29.74,2.189541053350708
288,0.1414574710000096,16.5,29.66,2.2253720457265507
289,0.14155099300000984,24.44,27.08,2.0289543153617395
290,0.1416505060000084,26.16,26.78,2.19310515586902
291,0.14173569600000846,24.4,28.28,2.3775687855354968
292,0.14182845400000943,23.14,25.9,2.6312306879756107
293,0.141935009000008,24.46,26.0,2.417964086329839
294,0.14204917500001102,25.08,27.46,2.3114515058513563
295,0.14211304900000954,-0.34,45.96,2.297307380857905
296,0.14220856700000795,25.32,26.56,2.0374454430917397
297,0.142319894000007,19.9,27.16,1.7627405989160798
298,0.1424534340000072,23.32,27.12,1.7852244302097922
299,0.14262419100001011,24.46,27.46,1.7858900459016418
300,0.1427456910000089,25.12,26.1,1.3520409739894936
301,0.14282864700000886,25.2,27.0,1.033102145347177
302,0.14294654300000786,20.06,28.46,0.8282801932544374
303,0.14303224000000725,20.92,28.72,1.0132490998279042
304,0.1431268060000086,21.46,26.98,1.0446113147377436
305,0.14322610800000746,28.52,27.16,1.2701118771054465
306,0.14334113700000728,22.44,27.98,1.3199020881293042
307,0.143470580000006,21.5,26.94,1.6607287939863338
308,0.14355011600000722,20.92,27.44,1.6085388997025472
309,0.14363180300000877,20.46,27.54,1.7068769013910692
310,0.14371784200000803,24.7,25.98,1.9878620145380612
311,0.14378649800000787,20.06,26.74,2.007727843883828
312,0.14388648500000656,26.26,29.64,2.2590654405028547
313,0.14412008400000786,21.0,27.22,2.264375314840347
314,0.14422616200000604,20.18,28.88,2.4429923736019363
315,0.14438718900000325,-30.94,78.62,2.2877894534796885
316,0.14451073000000392,-15.72,65.56,2.314087941499552
317,0.14468872600000182,-24.7,70.84,2.244752501301245
318,0.14481978300000264,-130.26,153.6,2.3152755857446357
319,0.1451613930000022,-196.46,190.32,2.234966065874574
320,0.14565299999999937,-172.14,176.36,2.004389449743578
321,0.14581317899999746,-56.96,92.62,2.0738976135312033
322,0.14651837499999942,-116.08,141.36,2.032994616885975
323,0.14730983499999795,8.88,37.86,1.8087304247348388
324,0.14749706599999612,4.72,42.52,1.808995913500254
325,0.14758796799999274,-170.54,174.88,2.0047125498187546
326,0.147808727999994,-174.88,181.8,2.1726784485467117
327,0.14824122399999595,-148.44,162.98,1.9135293560561184
328,0.14835742399999674,-9.92,56.62,1.8569291682237494
329,0.14854331899999806,-27.52,77.78,1.9182467409809856
330,0.14866433999999984,-17.76,62.04,1.9510462360062957
331,0.14884925599999832,-190.98,156.94,1.8635776942327156
332,0.1489936209999989,-232.92,177.72,1.5811661315250989
333,0.14915380899999775,-50.56,87.86,1.5547001918138372
334,0.1493081049999958,-49.86,89.24,1.3107177517387862
335,0.1494660609999947,5.68,45.76,1.270465682804132
336,0.14958761699999457,-53.98,93.66,0.9973875430050333
337,0.14969110999999558,9.86,37.2,0.9857126312676063
338,0.14975561899999335,16.2,33.68,1.0575984343959985
339,0.14983938199999258,3.3,43.96,1.0224160347168625
340,0.14993154899999084,20.7,25.48,0.9391292090957842
341,0.15001358299998913,2.88,40.98,1.1942636766464436
342,0.1502168419999883,25.58,27.9,1.2539481371579957
343,0.15033621399998864,26.66,27.14,1.2717181184355073
344,0.15044665199998875,20.54,25.78,1.574141611411783
345,0.15059856599998866,14.4,29.54,1.4113763311577183
346,0.15073141599998863,17.06,30.84,1.4975946566920224
347,0.15082860099998996,21.02,29.16,1.4848389705001086
348,0.1509034339999893,19.24,29.6,1.6363310322396867
349,0.15099673699998917,21.24,27.34,1.8265919185790327
350,0.15111810099998735,27.76,26.4,1.8769203085796675
351,0.15119416699998922,20.76,28.48,1.689762944183144
352,0.15129878699998756,18.08,27.82,1.7010733326217704
353,0.15137589799998707,23.42,26.36,1.9342870277524156
354,0.15145847099998733,28.78,27.22,1.9874594398303522
355,0.1515406469999867,24.08,27.76,1.9097062235981865
356,0.15162306899998867,19.94,28.06,1.8591258254180396
357,0.15171347499998689,26.66,26.12,1.8921502147375904
358,0.15181136399998607,26.16,26.48,1.7211027299989616
359,0.15191508999998504,20.04,27.24,1.7207316249350413
360,0.15200519599998685,23.42,28.54,1.7229317801751356
361,0.15208103699998432,24.16,26.84,1.7260537194120986
362,0.15225163199998448,24.18,30.96,1.945178127164882
363,0.15236111799998397,20.8,28.44,1.8210847772922043
364,0.15244599299998285,22.62,26.76,1.4692621704743871
365,0.15254998899998284,22.08,27.06,1.5131969885012502
366,0.15265027299998124,21.34,28.14,1.570433156007989
367,0.15274611299998142,19.52,26.7,1.5581523880085602
368,0.1528586699999792,28.68,26.16,1.4881452521578116
369,0.15389929999997776,9.82,31.46,1.2382110933593569
370,0.15398221199997764,8.18,31.5,1.164864723722033
371,0.15409980999997686,11.58,34.34,1.3547871133704887
372,0.15420940799997496,11.98,31.34,1.0797272892380172
373,0.15434086799997715,18.94,29.9,0.9365244098102217
374,0.1544495139999782,25.94,28.7,0.9471152546383219
375,0.15457643599997795,21.78,26.94,1.174292602971749
376,0.15469189999997823,23.22,29.16,1.1610683829327868
377,0.15478515599997777,26.74,27.02,1.4030793652036002
378,0.15488176899997796,29.62,25.26,1.4589513588029057
379,0.15497786899997834,26.46,24.94,1.4763129945170277
380,0.15522593799997964,17.14,27.34,1.5302664057405484
381,0.1553447319999819,22.9,26.3,1.3837255172852676
382,0.1554829879999815,17.16,33.92,1.4717433125265795
383,0.1556203559999787,22.2,27.22,1.5557485872232444
384,0.15572363999998018,22.6,28.52,1.5748336442551498
385,0.15586209599997858,2.6,47.14,1.3594574211719483
386,0.15593622599998014,6.34,48.26,1.3352021894345527
387,0.1560437949999809,-24.72,67.58,1.1452774325021635
388,0.1561615029999821,21.88,29.32,1.1367819017096898
389,0.15625680199998015,16.82,28.0,1.1484568283393606
390,0.15635494999997945,18.9,26.48,1.1976899872458446
391,0.15646060599997824,11.8,32.72,1.0922412904592917
392,0.15654832299997778,25.18,27.06,0.9885896051409915
393,0.15663831099997694,25.54,26.58,0.9082591081350145
394,0.15672837699997544,21.48,26.56,1.1644190086033064
395,0.1568332349999757,25.88,26.1,1.0886767064666003
396,0.15691196199997748,27.56,28.34,1.2901376867286616
397,0.15698815599997573,23.72,27.82,1.477444768583561
398,0.1570872329999773,24.58,28.06,1.5306394050494596
399,0.15716097399997508,-0.16,55.3,1.750552322832221
400,0.15735101799997508,-27.04,78.06,2.1039863101069614
401,0.1575807139999732,-57.68,95.92,2.1448296139416754
402,0.15822593699997256,-185.24,182.88,2.23827439701733
403,0.15883485199997338,-202.78,195.98,2.3175300994540065
404,0.15915730799997618,-78.04,116.28,2.5461925760789272
405,0.15934645799997682,-178.58,174.18,2.8281967618333743
406,0.1596420639999785,-192.42,195.32,2.8461863402316894
407,0.16028460999998018,-120.14,146.28,2.6689010923003367
408,0.16113147299997976,-193.68,176.06,3.0661608590676956
409,0.16128413699998134,-102.02,120.7,2.9685180611900965
410,0.1613836299999818,-148.82,145.84,2.5787624680699666
411,0.16167172199998348,-182.64,177.56,2.859495024604258
412,0.16178901599998596,-147.26,128.66,2.790880747294957
413,0.16200255499998661,-5.6,50.32,2.7566448390570755
414,0.16246280199998608,-41.24,87.52,2.2421993172957038
415,0.16258464899998515,4.04,47.56,2.0242426452172126
416,0.1626989889999848,11.34,39.52,2.0056053826280427
417,0.1628420689999821,-7.16,48.44,2.1889813092551966
418,0.16301026199998248,16.32,31.32,1.7507380914299575
419,0.16313302799998297,3.2,46.56,1.8693769630483104
420,0.1632243859999818,20.84,29.7,1.8365231579123438
421,0.16336609299998273,17.14,32.58,1.5141349606821657
422,0.16346748199998373,19.62,31.48,1.487269342636567
423,0.16356025899998627,25.18,29.12,1.46085038545517
424,0.1636746009999861,21.94,26.2,1.7331755596074927
425,0.1637712679999872,24.48,26.78,1.9455907491150348
426,0.1638562319999899,28.1,26.46,1.791760751872441
427,0.16399728799999025,18.0,28.52,1.902062935945321
428,0.1641678489999876,24.86,29.56,1.8485551680107264
429,0.16427954099998843,31.0,25.84,1.8284253364520175
430,0.16440801299998498,23.68,26.56,1.8594189819863913
431,0.1645606199999854,22.6,29.68,2.10553332011988
432,0.16464826699998625,22.46,27.9,2.1583212996568575
433,0.16476527599998647,22.68,25.94,2.4341276108355476
434,0.1648477379999882,22.38,25.98,2.401759004345082
435,0.16491898099998537,23.74,28.5,2.1963046298423867
436,0.16502563799998526,24.78,26.64,2.140032252242176
437,0.16513370699998475,16.4,29.88,2.0246528646963844
438,0.16526143699998386,28.44,29.92,2.0747713866197617
439,0.16536623899998304,24.2,27.24,1.84327957878662
440,0.16545142699998294,18.9,29.36,2.070225587188929
441,0.16556708499998152,9.9,38.38,1.9210649148913643
442,0.16569816299998408,19.32,32.52,2.2554941446863164
443,0.1657787519999836,21.88,29.16,2.0390952651937133
444,0.1658716259999835,28.6,27.84,1.8560718014101674
445,0.1659615099999847,22.28,28.32,1.7904116854554553
446,0.16603507699998588,18.24,29.04,1.7432220236186127
447,0.1661330619999859,15.58,33.96,1.488511358415352
448,0.16621733599998478,14.4,31.76,1.488478453417432
449,0.16631720799998462,15.26,32.64,1.7204582023953647
450,0.16644188099998303,29.14,27.08,1.4425251798933556
451,0.1665296509999834,19.14,26.82,1.380480668664386
452,0.16660166499998397,16.68,27.48,1.251750447922158
453,0.16671637699998598,22.7,29.26,1.4374890323587382
454,0.16684631899998337,16.2,31.88,1.4811616959696914
455,0.16693921299998493,21.8,29.78,1.5657570477538765
456,0.1670792729999846,15.66,32.9,1.889188427764514
457,0.16717034399998454,14.82,37.58,1.9216676604869836
458,0.1672637059999822,15.92,34.76,1.953355954815203
459,0.16735198599998213,14.92,31.82,1.7125251818785476
460,0.16742056199998245,22.58,27.2,1.8038256465021927
461,0.1675276169999833,24.02,27.5,1.767513016726229
462,0.16764276499998587,24.86,26.84,1.5384938110664557
463,0.16776388799998543,27.56,25.62,1.5445109547541258
464,0.16783386699998815,23.96,27.26,1.4676198152056714
465,0.16792351599999122,27.84,27.66,1.441702657077093
466,0.16803670799999182,15.38,28.78,1.1361422834767914
467,0.16816325199998872,24.1,26.26,1.1106732812286069
468,0.1682671879999873,14.2,31.96,1.1276342856329051
469,0.16837280399998988,28.9,26.1,1.1095310387384565
470,0.16851374999998825,20.98,26.58,1.075471902293217
471,0.16861705799998816,22.96,27.5,1.0631737098686542
472,0.1687179399999863,23.44,26.38,1.144729918292923
473,0.16880236499998702,25.58,26.26,0.942728465403615
474,0.16887006199998567,27.68,26.88,0.917812754592503
475,0.16897180899998787,23.66,26.2,0.8625678817067286
476,0.16906414899998623,25.38,26.1,0.9554193940778181
477,0.16915868399998857,23.46,28.78,1.0636764801927914
478,0.16924184999998815,22.54,28.26,0.9784519080743413
479,0.16932695699998845,23.42,28.64,0.984586052330686
480,0.16941498999998572,22.6,29.28,1.1813466178690495
481,0.1695067379999884,18.22,28.14,1.2209310943945313
482,0.1695977759999856,19.62,28.74,1.1329413727956075
483,0.1697386269999832,22.6,28.52,1.3658883386211778
484,0.16985372099998486,22.18,26.92,1.4582748905139007
485,0.16997168899998627,20.36,26.66,1.4542282031677514
486,0.17009360599998402,21.14,26.72,1.3697911269257252
487,0.17017355799998413,24.96,27.42,1.3738667224485501
488,0.17029027599998514,27.76,25.24,1.3719406349600642
489,0.17039761999998504,22.88,27.92,1.3665744610922228
490,0.17048022799998463,30.88,25.16,1.16967763189682
491,0.17055113799998267,25.36,27.24,1.1391193275423326
492,0.1706641919999825,24.7,26.42,1.1564175930121976
493,0.1707349539999825,14.96,27.86,1.1712039903474114
494,0.1708181399999802,21.16,27.38,1.0806807987473415
495,0.17090758899998093,27.58,26.04,1.3223813791428634
496,0.17099921299998044,26.26,25.9,1.5542439282998566
497,0.17112635599998072,23.6,26.94,1.545445122418307
498,0.17126277799998135,25.98,25.72,1.613157272569903
499,0.17132836399997942,27.0,25.86,1.948691596703408
500,0.1714166789999787,22.6,26.48,1.9048892837184568
501,0.17150159799998121,24.72,27.9,1.9129824215234705
502,0.17162618899997995,23.28,26.98,1.8862640643727608
503,0.1717414239999826,20.72,26.4,1.5840627332954649
504,0.17185527299998427,26.68,25.92,1.5975945822315842
505,0.17196007299998328,22.14,27.92,1.373014845222837
506,0.17206108199998127,28.88,25.86,1.1244012605438307
507,0.17216726299998086,25.12,27.12,1.0109020345145674
508,0.17227267199998053,21.22,27.68,0.9817912751739591
509,0.1723555819999838,26.7,25.72,0.6898107932210429
510,0.17244573099998206,28.74,25.78,0.9455827957673144
511,0.1725546749999829,24.58,25.96,0.9716679357935802
512,0.17265801399998537,24.56,27.24,0.98335623766027
513,0.1727624299999846,28.66,26.62,1.3273111700912132
514,0.17285822999998146,21.78,27.38,1.2971282864682727
515,0.1729834959999792,29.14,26.98,1.5841708005298032
516,0.17312293599998085,28.9,26.02,1.5790867588628708
517,0.17320075399998203,24.2,26.74,1.5999129557154674
518,0.17327872899998198,21.66,26.6,1.5998007276942516
519,0.17337203099998177,20.92,27.48,1.554537289470987
520,0.1734711849999826,28.42,26.14,1.342837339257322
521,0.17356724899998,25.72,26.6,1.4051045423419275
522,0.17367168699998103,23.18,27.54,1.3820500643079872
523,0.1737432819999789,25.44,26.98,1.3307088703584047
524,0.17383925499997588,25.9,27.18,1.368595629308165
525,0.17392779899997635,24.26,25.62,1.1237150451798452
526,0.17402328499997566,23.16,27.6,1.4465709066874477
527,0.17409968899997708,22.6,27.5,1.703281869694499
528,0.17419031899997606,22.18,27.52,1.6785835637373228
529,0.17428859799997554,29.68,26.44,1.6850643056392829
530,0.1744150279999772,19.86,27.52,1.7153037739088082
531,0.17447739199997514,24.22,26.72,1.7243368467236213
532,0.17454853899997502,22.58,26.14,1.7446452642110017
533,0.17462733699997557,24.38,26.08,1.45753686751344
534,0.17474547599997692,26.66,27.76,1.4309143302322167
535,0.1748191189999737,28.5,26.24,1.3726647670487933
536,0.17489089299997218,20.62,26.94,1.0455957635673454
537,0.17498991599997282,28.34,26.88,0.8298045230600632
538,0.17508797699997558,19.6,27.06,0.8543462169070946
539,0.17517638599997554,17.88,27.94,1.148461711505409
540,0.1752833679999739,19.02,26.84,1.1180201005769246
541,0.1753699239999733,23.26,26.22,1.318187504211799
542,0.17549207699997638,21.78,27.84,1.3076832732522068
543,0.17557539599997796,24.48,26.56,1.3000292573234784
544,0.17566307899997824,26.5,27.08,1.3871429410246052
545,0.17575018499997697,19.06,27.06,1.3973877144747504
546,0.1758435649999761,32.02,25.58,1.6551319715275028
547,0.1760070029999774,27.2,25.72,1.630319700792804
548,0.17620154299997637,29.24,26.34,1.5946700014690265
549,0.17635579099997756,25.18,26.26,1.6263998528965438
550,0.17651360199997868,20.88,26.94,1.569590057383523
551,0.1766137169999773,26.28,26.14,1.5543731696285348
552,0.1767453639999772,23.16,26.5,1.6044848037228454
553,0.17686449099997859,28.06,26.68,1.8573575966480873
554,0.1769665919999781,16.5,27.62,1.7759468757631254
555,0.17709252299997758,24.92,25.94,2.0201348693718666
556,0.1772318839999798,20.04,27.02,1.8065320932267261
557,0.17733724699997921,23.54,26.38,2.0273670328670135
558,0.1774305989999796,16.2,34.44,2.06275291326264
559,0.17753730599998008,25.94,26.96,1.754932121524694
560,0.17762922699998285,17.34,26.64,1.7608076419171312
561,0.17775206799998244,26.16,27.06,1.4915303245361706
562,0.1778962619999831,22.52,29.14,1.5378117718435966
563,0.17805435799998293,23.02,28.28,1.575258945376131
564,0.17821584599998275,17.3,29.54,1.833986338942627
565,0.1783078739999837,20.62,29.3,1.608021543646781
566,0.17840966499998245,17.82,30.8,1.5811712373285594
567,0.17855054399998238,19.52,28.56,1.3291125595790774
568,0.17867389299998138,19.24,29.26,1.3117403117355906
569,0.17880708299998105,19.26,29.22,1.315421135205502
570,0.1789264719999828,14.5,30.54,1.5974859989775438
571,0.1790174519999823,26.08,27.54,1.5917240077301529
572,0.17912795399998416,19.16,28.7,1.5452242938738194
573,0.17927322799998535,26.12,25.86,1.5078980722607085
574,0.1794508059999842,21.54,26.16,1.2446471457280814
575,0.1795841499999824,22.38,26.82,1.3061227951656846
576,0.17976055999998408,23.4,27.14,1.3039056695787985
577,0.179985940999984,21.56,27.92,1.3017025092999845
578,0.18008368899998217,19.32,27.7,1.2547048260170073
579,0.18020280299998248,22.86,27.56,1.267381093972316
580,0.18029617499998096,22.36,26.56,0.9963722035581533
581,0.18038718399997933,26.54,26.68,1.0115209308851447
582,0.18049409999997934,22.18,28.62,1.2078205835856735
583,0.18058548899998073,24.86,26.48,1.0114135128980124
584,0.18066925399998013,21.22,27.62,1.0096329118252085
585,0.18075759599998165,27.16,26.28,1.1741911088074537
586,0.18086467399998085,25.58,26.4,1.1749453783921147
587,0.18095439199997898,19.94,26.72,1.1755494996620357
588,0.1810503049999781,24.24,26.56,1.1819965490966187
589,0.18116665899998097,24.18,26.14,1.1514322817475584
590,0.1812403319999838,21.64,27.28,1.3771284778142405
591,0.18133011099998697,19.2,26.62,1.342662160438388
592,0.1814504509999857,33.0,25.9,1.342558668568945
593,0.18154285199998554,19.48,26.36,1.5385984165142506
594,0.1816270269999869,31.86,25.96,1.5515278955526004
595,0.1817287329999857,16.66,27.44,1.282445093001746
596,0.181812281999985,25.06,25.88,1.2784631445699173
597,0.18193260799998612,25.1,25.18,1.2754978619257027
598,0.1820185359999833,24.28,25.96,1.3337300252075885
599,0.18209406099998304,23.6,26.9,1.3377019558595244
600,0.18216934899998094,20.2,27.12,1.202028014048802
601,0.18231489499997977,23.84,26.78,1.3140587462652988
602,0.18244441499997777,29.82,25.14,1.0507794341554137
603,0.18257752299997776,27.8,25.42,1.0510734327439004
604,0.1826889229999793,25.98,27.24,1.1105184200216591
605,0.18279724599998204,29.34,26.2,1.3795414849029222
606,0.18291147099998284,20.66,26.26,1.3845255295047074
607,0.18299678299998234,24.74,26.66,1.3897377344873731
608,0.18308342099998143,25.06,26.12,1.5859838824241195
609,0.1832061819999815,20.1,26.28,1.5885200961466168
610,0.18330228399998205,29.42,25.98,1.538391611366191
611,0.18339703999998136,19.42,26.62,1.4351884241953763
612,0.18348783599998342,22.28,26.08,1.435162753258942
613,0.18356640299998261,27.04,27.62,1.1765562505458882
614,0.18364781399998265,20.74,28.16,1.0933094085579094
615,0.183745029999983,18.22,25.86,0.8365360227398213
616,0.18382499099998384,22.44,26.94,0.8192151072315044
617,0.1839161679999819,25.46,26.42,0.8229990728677665
618,0.1840151009999822,24.02,26.34,0.6563660052619186
619,0.18411795799998387,24.86,26.4,0.8943019768040701
620,0.1842463189999819,24.54,26.94,1.1278507928862838
621,0.184443448999982,29.76,26.32,1.4792462571083562
622,0.18456687199998356,27.2,26.16,1.7424352845985354
623,0.18470407799998156,10.5,31.82,1.7656890819041897
624,0.18485724599997866,-3.1,49.68,1.8576607191584835
625,0.1850228139999821,2.68,47.4,2.113220970059647
626,0.18514073099998285,-166.02,177.62,2.5184946692656043
627,0.18534889699997947,-25.5,72.86,2.9011660638257206
628,0.1859287689999789,-30.34,76.14,3.067090132389415
629,0.18606511099998002,-17.66,72.4,2.8826745594245127
630,0.18621480499997745,-145.12,166.28,2.859654880265065
631,0.1864117819999791,-154.82,170.9,2.5628888903177605
632,0.1867043809999771,-35.84,85.78,2.4105683723513116
633,0.18683245499997625,-8.02,56.1,2.467441781258317
634,0.1869293129999754,-11.3,59.16,2.4327847493584422
635,0.18701573399997784,16.42,35.96,2.2704426954624326
636,0.1872196659999794,8.96,39.88,1.8918016915439062
637,0.18738811099997932,5.1,43.82,1.5607563510768798
638,0.18754754499997972,19.16,28.08,1.3148679883995742
639,0.18766489499997974,26.8,25.98,1.2557765611832357
640,0.18776643999997944,22.36,27.16,1.2416835334994167
641,0.18785871999997994,17.64,30.3,1.2105597458400585
642,0.1879407099999817,19.96,27.14,1.125757097047873
643,0.18802561299998288,18.98,26.74,1.1558940516393326
644,0.18809139599998304,11.58,32.96,1.3940584428755805
645,0.1881933819999837,22.14,26.62,1.3191017194939332
646,0.1883425839999866,23.02,26.36,1.3111727432110996
647,0.18841952499998627,22.0,26.66,1.2793599163357974
648,0.18851095399998385,22.24,26.48,1.2694568844297278
649,0.18863782499998294,26.32,26.14,1.5567761474692312
650,0.18878520199998405,21.22,27.04,1.3334291698936265
651,0.18888269299998584,26.16,26.56,1.6025144993480702
652,0.18897917299998923,26.12,26.86,1.6059056162781715
653,0.18907909399998957,29.72,25.56,1.5578731233931538
654,0.18916059299998977,29.14,25.78,1.3369539879739571
655,0.18927869399998798,21.14,26.76,1.342730361404374
656,0.18938624399998716,24.42,26.44,1.407624606562503
657,0.18950368399998752,26.58,26.96,1.397483370757064
658,0.1895957109999884,26.38,26.0,1.4574829801110805
659,0.18969259499998614,23.58,26.16,1.16906468369848
660,0.189820333999986,28.22,25.94,1.1354449339517525
661,0.18995025199998494,28.6,25.84,0.8335758607760626
662,0.19011675599998412,22.36,26.22,0.8348425453190187
663,0.19026289799998253,23.28,27.18,0.7885512194042328
664,0.19040856899998104,23.12,26.22,0.7303716706570178
665,0.19049245699997996,25.52,25.56,0.7010567947336535
666,0.19060694999998162,24.12,26.06,0.6347532166504701
667,0.19070519499998184,25.56,25.52,0.9042018562570705
668,0.1907950039999804,23.06,27.7,0.8573453623501956
669,0.19086601599997977,24.42,26.66,0.8480327085358562
670,0.19095105599997808,19.14,30.58,0.9381208073633169
671,0.1910441029999781,21.84,26.2,0.9285560027264703
672,0.19113994599997497,19.06,26.4,0.9303432661919524
673,0.19122539099997482,25.74,26.72,0.9341541160724463
674,0.19131578099997526,13.54,31.1,1.1747640273962376
675,0.19138277299997597,23.68,26.16,1.240577956183888
676,0.19146407699997425,25.86,26.42,1.231501737963188
677,0.19154561599997422,20.12,28.64,1.2002890749875652
678,0.19164364999997474,23.24,27.32,1.4432230573302858
679,0.19171705699997688,20.28,27.76,1.4998937733678799
680,0.1918010379999764,24.04,25.26,1.4518472216729548
681,0.1918752139999782,24.76,25.96,1.73053228028579
682,0.1919517749999784,27.08,26.32,1.7475506705136312
683,0.19202811699997824,17.8,27.16,1.9861670693102795
684,0.1920989109999809,24.72,26.36,1.8134595029512084
685,0.19220837899998244,25.64,26.38,2.0094362448381062
686,0.1923089919999832,25.52,26.9,2.0823410224929346
687,0.1924075459999841,21.6,26.4,1.9353617119490507
688,0.1925509359999822,25.68,26.42,1.7585093565665395
689,0.19267646999998078,25.26,25.86,1.9899998680902435
690,0.1927896599999812,17.54,27.42,2.0123671205266156
691,0.1929152899999842,24.14,27.12,1.9981651433340821
692,0.19299149399998683,25.62,28.04,2.051691153419663
693,0.19308536499998752,26.78,27.34,1.8648286532897287
694,0.1932041579999897,17.0,30.24,1.8269051962077654
695,0.19330787599999155,22.6,26.7,1.68695768401208
696,0.19339320399999238,17.4,30.14,1.6223085674700997
697,0.19349274999999366,25.66,26.58,1.6144790219804215
698,0.19358248199999295,22.26,26.46,1.5818056962510354
699,0.19368672599999215,25.98,26.52,1.3245892637333412
700,0.19386613999999014,24.54,26.9,1.274597074517694
701,0.19398113799999095,26.96,26.26,1.2963374834365973
702,0.19407453299999133,20.32,27.5,1.2451424639680844
703,0.19420647299999416,29.26,26.24,1.2655396871526379
704,0.19434684799999502,25.9,26.12,1.2952015104626597
705,0.19444627299999695,25.88,26.04,1.205755020131091
706,0.19461327699999487,21.66,28.88,1.2558605046707456
707,0.19470777599999423,26.78,25.68,1.2781085013506868
708,0.19478687699999142,26.46,27.24,1.6293793064075373
709,0.19487606099999155,28.8,25.32,1.6612487942052354
710,0.19578735699998973,20.98,27.06,1.7555599824750452
711,0.19588952899999157,26.64,25.82,1.5335669165821209
712,0.19598563399999236,19.9,26.9,1.5625661815054799
713,0.19609533099999155,21.74,26.26,1.4993582158699823
714,0.19617877499998926,21.3,26.7,1.4837451063286395
715,0.1962697159999891,19.82,26.26,1.762308677133054
716,0.19634027699998668,24.2,26.38,1.6980954028489001
717,0.19642475199998444,23.32,26.42,1.8589332469828697
718,0.19655983399998433,27.36,27.82,1.7158524377993778
719,0.1966334639999836,23.8,26.16,2.020274166653121
720,0.1967315749999834,22.94,25.94,1.9581655848383064
721,0.19681412599998183,24.34,26.88,2.251878950397071
722,0.1969011719999827,26.02,25.56,2.1975360714567787
723,0.19699715599998413,23.1,26.78,2.459514499925573
724,0.19708172699998627,21.16,27.1,2.6555332806821412
725,0.19715782299998708,29.78,25.54,2.6060705666651787
726,0.19733149599998967,28.2,26.0,2.6403905186329197
727,0.1974122029999883,24.56,26.34,2.415907864010394
728,0.19755198799998652,25.04,27.88,2.221470883185448
729,0.1976340949999873,25.82,27.18,2.1520253337640334
730,0.1977249309999891,16.74,27.46,2.1773664950602134
731,0.19780608799998944,23.66,26.12,2.176043445361547
732,0.19789049799998892,23.88,26.94,2.2543521377222584
733,0.19799176199999025,23.8,25.76,2.300360922783441
734,0.19808172899998766,27.46,26.48,2.1045191788335815
735,0.1981659569999863,24.66,26.06,1.9277026993310078
736,0.19825569599998616,19.86,26.7,1.8952887089652255
737,0.19834011799998308,26.34,26.44,1.8543367754133275
738,0.19839998099998368,26.16,26.34,1.8543118122625462
739,0.19849704999998607,29.26,25.94,1.5686961417825873
740,0.19859807199998514,24.38,27.02,1.5002377083638627
741,0.1987255619999857,19.4,29.0,1.4655502234066617
742,0.19883458399998588,29.84,26.78,1.3588084820101503
743,0.19894513699998484,26.54,26.5,1.0240081493834932
744,0.19903724699998193,21.48,26.92,1.3007133421660757
745,0.19911525599998114,22.26,26.76,1.3320447586693138
746,0.199205779999982,25.8,26.18,1.5846499735885278
747,0.19929638899997926,20.46,27.14,1.921493517366414
748,0.19936633999997966,25.48,26.36,1.8671873110559833
749,0.19945680299997903,17.74,27.48,1.937561499933047
750,0.1996044249999791,21.22,26.24,1.9458847493804332
751,0.19968404999997702,23.22,25.76,2.0106800234327222
752,0.19982961499997742,27.0,25.78,2.0840818012401976
753,0.19992751499997752,22.04,27.12,2.1370110231490798
754,0.2000161529999751,22.72,27.74,1.8851394286956868
755,0.20010680099997558,19.28,30.1,1.8348375779265147
756,0.20020603099997558,25.12,26.36,1.8355492167205938
757,0.20031935999997685,24.04,25.48,1.5629559458655784
758,0.2003986369999744,11.68,32.9,1.6021874501436735
759,0.2004883739999741,21.3,26.74,1.643142758920255
760,0.20056141799997462,24.06,26.04,1.6494291217606936
761,0.20065860799997282,25.08,26.5,1.328623414335707
762,0.20077032699997233,24.72,27.52,1.2843351613038188
763,0.20090423999997498,20.04,26.88,1.2343366319138007
764,0.20100643199997847,23.04,26.82,1.4058852376210127
765,0.2010924579999802,24.18,26.42,1.3564079932492
766,0.20119199299998058,19.68,27.02,1.3571454479071954
767,0.20128373899997953,25.84,26.4,1.2898889703555192
768,0.20136981599998194,22.62,26.76,1.5010071933823732
769,0.20145466899998254,21.94,27.38,1.4157721903805247
770,0.20153461399998207,25.22,27.34,1.443474038957995
771,0.2016233649999819,22.78,26.82,1.6676395149224235
772,0.20170270199998086,27.6,25.72,1.665734353728687
773,0.20179285899998334,20.3,27.42,2.012958362989464
774,0.20188644999998573,18.26,26.54,1.8168016345684854
775,0.201962171999984,19.38,27.46,1.8665030725505758
776,0.2020218879999831,25.24,26.38,1.8935551378042235
777,0.20211378899998422,22.48,27.08,1.8990031207158915
778,0.20218755899998442,21.42,26.8,1.6567685450898118
779,0.20226886299998625,21.82,26.22,1.8772389973211197
780,0.20235424599998453,25.28,25.8,1.8808682720829624
781,0.2024491679999869,21.3,26.74,1.633114404054512
782,0.20252795399998647,23.02,26.58,1.8574969791422427
783,0.20261511899998652,23.8,26.88,1.5680901157553726
784,0.20272006499998696,25.8,26.98,1.5254791829928613
785,0.2028181009999841,13.04,27.56,1.4669019177271643
786,0.202937589999987,14.96,27.1,1.188784001748406
787,0.20299735799998686,23.6,25.64,1.161581477419873
788,0.2030997779999879,19.22,27.36,1.1546714777301292
789,0.20319276999999047,30.38,25.74,1.1756657211478074
790,0.20332174699998973,15.46,27.54,1.1217631763841116
791,0.20342379999999238,21.54,26.94,1.1843526723058422
792,0.20352669799999035,20.66,26.1,1.2242271203422963
793,0.20360161199998927,26.48,26.26,1.3991781797213332
794,0.20370430899998837,22.04,25.7,1.4201642275006772
795,0.20377518899998748,25.84,26.0,1.4930086133947764
796,0.2038629829999863,24.9,27.22,1.8454866895818636
797,0.20398308799998688,20.5,27.14,2.242857306699039
798,0.20407678299998366,-8.96,62.68,2.2570467749875602
799,0.2042095479999837,26.72,26.26,1.9999577471271857
800,0.2042917079999853,-15.78,65.56,2.0516299252549652
801,0.2044052779999852,-24.02,74.06,2.32883720265862
802,0.20456715799998548,16.34,36.48,2.098662540456688
803,0.20473882399998544,17.06,35.04,1.8819607785182548
804,0.20485423199998465,23.32,26.78,1.9076119565608807
805,0.20496456799998697,25.36,25.86,1.8893808147361661
806,0.2051310429999873,17.6,36.78,1.5755369616576047
807,0.20524352099998566,15.16,39.8,1.247377967635419
808,0.20539384799998572,14.3,33.48,1.3270504874866753
809,0.20555570499998765,18.52,30.72,1.3130414882260468
810,0.20567333899998985,14.82,36.44,1.5223910881134146
811,0.2057849579999882,21.72,33.56,1.1740126036968632
812,0.20594042999998763,12.4,37.38,1.1820898945175933
813,0.2060486069999854,12.26,35.78,1.1726214703438393
814,0.20621380299998648,13.94,35.12,1.1096923746830876
815,0.20637540499998508,23.52,26.4,1.0583275532182035
816,0.20651725799998388,20.46,26.34,1.0555445770351368
817,0.20664448799998425,17.68,27.56,1.0727197925458731
818,0.20677772999998467,23.92,26.88,1.3299931206347968
819,0.20693113299998345,20.36,28.14,1.3714912139016624
820,0.2070668989999831,21.58,25.48,1.127458649795615
821,0.20714913099998356,22.86,25.9,1.191007121876729
822,0.20723877799998291,23.66,26.44,1.1909544378087438
823,0.20733733099998375,21.16,26.7,1.438160875138527
824,0.20748526199998452,23.58,26.52,1.496866737499848
825,0.2075665339999837,19.24,27.38,1.5176437393255806
826,0.20768106699998157,22.42,26.78,1.5882228878578768
827,0.2077980559999837,21.58,27.36,1.5388702052051595
828,0.20792159799998444,24.76,27.12,1.4371601282152706
829,0.20801087199998491,25.94,26.44,1.4497888288434138
830,0.20810627199998777,15.52,27.06,1.7982899931622018
831,0.2082299109999859,22.66,26.6,2.075896633910025
832,0.2083158629999886,9.44,30.34,2.1486089563162207
833,0.2083888769999902,26.88,26.44,2.2433311032594827
834,0.20848595699998995,19.74,26.52,2.2177540610144515
835,0.20859742099998968,16.96,26.8,2.215278857466072
836,0.20868077299999044,24.74,26.88,2.1181558322430987
837,0.20876043199998762,23.86,26.82,2.1776799735543717
838,0.20884777599998827,29.78,27.0,1.932871595391191
839,0.20892129499998902,23.66,26.88,2.1346749311927575
840,0.20904764899998796,27.08,26.28,1.8083739472120803
841,0.20914271399998796,26.84,26.38,1.466682029755097
842,0.2092321079999877,26.06,27.16,1.6022133381568402
843,0.2093177409999889,29.16,25.7,1.3048568954683766
844,0.2094072619999885,15.48,29.3,1.3010604852559013
845,0.2095453189999894,24.56,26.92,1.5763943699378316
846,0.20968037299998699,18.5,27.36,1.6152123058328995
847,0.20981388999998885,23.62,25.98,1.6158316932099404
848,0.20995042699998834,21.64,27.66,1.8598973418718194
849,0.2100964589999883,18.92,26.94,1.7033796167023283
850,0.21020396199998714,20.94,27.9,1.9547116754848433
851,0.2102947469999883,19.04,27.76,2.3120661082570515
852,0.21041005999998674,19.88,27.36,2.3699319402165195
853,0.21049774199998694,31.96,26.54,2.6515029664000593
854,0.21060202499998582,19.26,27.04,2.652862756224473
855,0.21073805599998607,27.14,26.8,2.3713422793424948
856,0.21083668899998642,25.96,26.94,2.322814006217379
857,0.2109382179999848,22.92,26.46,2.2913685377223265
858,0.2110408829999848,21.16,27.28,2.037052428781481
859,0.21111553499998692,24.7,26.38,2.1878564493032995
860,0.21121201199998652,27.64,26.3,1.9961372888424491
861,0.21128870799998722,19.92,26.9,1.8707244540079457
862,0.21141873599998817,24.4,26.72,1.5668110361168104
863,0.2115221179999871,24.18,26.98,1.4874875643144363
864,0.21162370999998714,22.92,26.14,1.49844938704042
865,0.2117115909999896,21.82,26.0,1.7372628761687756
866,0.2118206689999873,30.2,26.5,1.8680058175314258
867,0.21191097399998782,6.46,41.58,1.9105240305226219
868,0.21210586199998716,18.96,34.7,1.985069010166999
869,0.2122570439999869,-32.52,80.5,2.000662740655268
870,0.21241385199998675,-101.24,136.78,2.0138037378049667
871,0.21257776999998512,16.06,36.68,2.0508354380377343
872,0.21276569199998718,3.16,45.34,2.082178594157822
873,0.21289640999998483,17.9,29.52,1.866607579151936
874,0.2129952699999862,11.54,33.92,1.8780070804741662
875,0.21309983499998708,6.84,45.44,1.6618215310455604
876,0.2132128579999879,28.0,27.06,1.5805327635286104
877,0.213293661999991,20.78,26.14,1.561257533839641
878,0.21341982799999215,26.5,25.44,1.5083128371613796
879,0.21350702399999122,24.04,26.28,1.2756091885666208
880,0.21360513899999134,23.44,26.26,1.247828610846748
881,0.2137033009999918,22.88,27.04,1.3216452895447248
882,0.21379827799999163,27.66,27.16,1.2956199469673613
883,0.21391335699999203,23.4,27.9,1.511328686194399
884,0.21403858799999398,24.46,27.1,1.4861757001998783
885,0.2141709579999933,24.74,27.1,1.4697233858263388
886,0.21430766099999232,26.76,26.1,1.4298787350040627
887,0.21444655399999135,22.46,26.38,1.4363531168633727
888,0.21453706099999081,20.32,27.36,1.4389073714332938
889,0.21461407699998958,21.52,27.9,1.4148341916251517
890,0.21468462899998997,19.4,26.64,1.658120293349763
891,0.21477491399998883,18.08,27.16,1.351378200128059
892,0.21487055899999064,28.64,26.42,1.3838670434127713
893,0.2149655389999907,21.54,27.32,1.382898261354785
894,0.215077438999991,22.66,26.5,1.4925825237628616
895,0.21513977399999007,8.7,42.88,1.5838531190103162
896,0.21523299699999043,28.52,26.32,1.6262158992407394
897,0.2153165049999899,19.44,26.54,1.5637236535247403
898,0.215406007999988,29.52,26.26,1.5644059750164871
899,0.21547591199998806,25.12,26.72,1.8784893724217426
900,0.21556686299998873,28.7,26.22,1.5966120781247155
901,0.2156595999999915,20.94,27.02,1.565420224804059
902,0.2157290439999926,23.92,26.26,1.5653525482446953
903,0.21584156599999105,21.72,25.84,1.320832987034398
904,0.21596026699998916,21.0,25.84,1.2749311512976498
905,0.21603950399998695,19.9,26.76,1.166923535511815
906,0.2161338959999881,29.78,26.0,1.1351714578966128
907,0.21621592099998566,18.66,27.5,1.1210737348233824
908,0.2162993609999866,30.74,25.88,1.2063066815699248
909,0.21638828299998636,21.3,26.3,1.1877432370911645
910,0.21739798999998428,27.32,26.84,1.1745703905326028
911,0.21752519599998266,26.94,26.24,1.2057062723674907
912,0.21763231999998567,21.5,27.0,1.4015406775553916
913,0.2177178359999843,26.74,26.44,1.6525815983792338
914,0.2178196029999846,25.5,25.94,1.6196162235471259
915,0.2179250899999836,19.1,27.3,1.7015370902934577
916,0.21800150699998255,30.36,26.34,1.7439580587312045
917,0.21809256899998175,29.6,26.22,1.7403999035992057
918,0.2181840839999829,21.78,26.5,1.630362874864644
919,0.21830708799998177,19.52,27.02,1.5759720217266704
920,0.21839805899998055,22.0,27.16,1.569390339511613
921,0.21847175099997784,19.9,26.58,1.520174208898439
922,0.21856764299997522,23.8,26.44,1.2676630358707115
923,0.21865190699997328,23.42,26.06,1.0663365370175462
924,0.21874475799997484,27.96,26.16,1.0397851886836982
925,0.2188512819999744,27.14,25.9,1.207431661407614
926,0.21893504899997396,22.3,26.46,1.3956615617367163
927,0.21903402499997426,27.34,26.06,1.432884288680229
928,0.21910463299997573,22.94,26.84,1.491742546687231
929,0.2192011889999783,24.52,26.48,1.2542591156817522
930,0.21930550099997603,27.04,26.98,1.2398987344521053
931,0.21939025299997894,27.78,26.48,1.2321965866978317
932,0.21949115499997873,24.52,26.64,1.221103790303475
933,0.2195866059999787,19.56,27.06,1.1606155760102297
934,0.21967962699998012,18.7,26.44,1.1335795944285891
935,0.21975876599998045,25.6,26.78,1.1339057982474081
936,0.2198621839999788,19.64,26.96,0.9381293191311911
937,0.21995366099998037,24.04,25.7,0.8929095832553628
938,0.22005120899998332,29.38,25.98,0.8787032145040093
939,0.22017666599998265,25.76,25.98,0.8719373765366143
940,0.22026604599998478,26.6,25.68,0.8898904568638741
941,0.22033064399998636,23.66,26.16,0.9032651783102785
942,0.22043934199998816,14.42,26.84,0.996199396066008
943,0.22051538399998805,27.4,26.48,1.2518512805500948
944,0.22058778399998857,26.78,26.66,1.3387293379998788
945,0.22065776399998782,19.02,26.84,1.3379395455969578
946,0.22073355099998793,10.66,42.34,1.5919096423228623
947,0.22087246299998853,17.7,27.18,1.6631972952072516
948,0.22095112099998815,27.54,26.04,1.6677445128452881
949,0.2210521669999892,21.7,26.88,1.6914840113386105
950,0.2211476109999886,22.32,26.48,1.7270456779177827
951,0.2212608109999863,26.54,27.08,1.7703252869591224
952,0.2213413369999877,22.46,26.96,1.9413648883087276
953,0.22143678399998734,22.02,26.88,1.7039063894184558
954,0.22153150099998697,20.18,27.6,1.6625108789746559
955,0.22180328399998928,-2.46,34.22,1.4477437785055092
956,0.2219025359999911,23.44,26.7,1.3895834285787205
957,0.2220402039999918,22.54,27.02,1.3805674895855202
958,0.22223695699999269,20.46,27.1,1.585297628494097
959,0.2223955559999915,-56.52,104.34,1.8754215562160739
960,0.22255609099999063,-52.14,100.32,1.9070328556694733
961,0.22268200699998886,-10.86,65.64,1.9414890153570852
962,0.22281112899998945,-20.34,69.94,2.0734496374032134
963,0.22291119999998799,-0.62,47.98,2.1063748416811983
964,0.22300368899998801,22.86,26.66,2.0962724842729763
965,0.2231431819999905,9.26,42.44,2.0795751394784054
966,0.2232690499999883,16.04,35.18,2.095080242505601
967,0.22339937199998872,17.7,32.98,2.108181405712494
968,0.22352016399998575,23.0,32.86,1.9256582015170616
969,0.22363346299998454,8.86,44.26,1.6461972456216294
970,0.22373345299998704,9.06,43.62,1.635097749169325
971,0.22387813299998882,15.88,35.0,1.6620669839880982
972,0.22399461799998832,22.5,26.26,1.353827920939203
973,0.22406024599998986,24.32,26.58,1.3143416982632712
974,0.22423416599998802,19.82,27.16,1.281613292506653
975,0.22436181199999083,31.16,25.78,1.276562523276961
976,0.224491443999991,24.86,26.12,1.0866053554619728
977,0.22459999099999095,26.78,26.9,1.0164190331544485
978,0.22474749299999175,24.14,25.34,0.9388888178623997
979,0.2248538029999949,27.66,26.68,0.8832767586636493
980,0.22493331299999397,28.38,25.96,0.7960728442929396
981,0.22503446099999636,21.24,26.14,0.969460121175967
982,0.22513274599999633,21.24,26.54,0.8834691865440798
983,0.2252139639999946,24.86,26.52,0.8649319495451582
984,0.22530643399999306,20.28,26.74,0.9159042287270441
985,0.2253718449999944,25.38,25.66,0.8957837751669278
986,0.22544723599999372,21.14,25.48,0.8068477451172005
987,0.22553159799999278,23.02,26.98,1.0565506547026149
988,0.22560367499999145,19.6,26.44,1.0916879980920662
989,0.22571504799999076,24.04,25.48,1.0965050214121566
990,0.22582334399999127,24.32,25.78,1.1960046928648724
991,0.22590649799998985,26.14,26.46,0.9041855773605258
992,0.2260276969999886,19.44,26.82,0.9341576332432476
993,0.22613240499999065,19.44,29.36,0.9531470958335145
994,0.22622586299998915,20.68,26.38,0.891310434509084
995,0.22629206999998885,26.48,26.92,0.8839567472972977
996,0.22640364099998678,20.1,27.58,1.1834279165849613
997,0.22650761899998884,20.44,26.62,0.9434147651596241
998,0.22659805599998606,22.08,26.1,0.9921959356013328
999,0.22668204299998607,23.08,27.28,1.0035695221570025
1000,0.22679323199998436,30.42,25.88,1.2092752723659645
