iter,time,reward,steps,convergence
1,0.0012150479999917252,-219.64,200.0,91.89
2,0.0022206099999806383,-211.42,200.0,82.42503964331198
3,0.0031940109999766264,-236.18,200.0,73.59258817434275
4,0.004074213999984977,-291.54,200.0,64.93117717434276
5,0.005347463999981983,-254.02,200.0,56.11879119376581
6,0.006248884999976667,-744.96,200.0,48.08004129954249
7,0.007141301999979532,-268.16,200.0,40.944931299542496
8,0.00801082699999256,-217.12,200.0,32.36879418872962
9,0.009229109999992602,-444.92,200.0,25.377421267343575
10,0.010079735999994455,-201.06,200.0,17.93443631778241
11,0.010933460999993372,-233.22,200.0,22.720289158958767
12,0.011793704999988108,-244.98,199.22,26.709323456555722
13,0.01266635199998234,-239.14,197.96,30.460384529309568
14,0.01350734499999362,-224.36,200.0,34.47386141099639
15,0.013885208999994347,-236.14,200.0,37.986375892916996
16,0.01477169099999287,-255.12,200.0,39.7705530704224
17,0.015665467999994576,-249.14,200.0,38.16261155073407
18,0.016512047999995616,-232.0,197.06,39.7456833199045
19,0.016835956999997848,-214.4,197.82,37.85719117284684
20,0.017681949999996505,-310.44,197.46,38.565970990032
21,0.018077843999989796,-205.38,104.12,32.39457177424844
22,0.018209586999986982,-193.42,157.26,30.89026222527994
23,0.019059635999994384,-201.48,199.38,30.570102734135652
24,0.019983525999990093,-193.48,192.18,31.50086371881175
25,0.020999715000002084,-203.88,165.6,31.41034764013586
26,0.021856484000011278,-165.68,177.26,28.673322779180097
27,0.02271011999999928,-182.86,183.0,29.66687112012255
28,0.02304677299999014,-28.3,76.2,29.324941909546375
29,0.02389598300000273,-274.2,194.98,32.858382861954986
30,0.024080238999999892,-256.5,200.0,31.766577203660496
31,0.02492698100000723,-285.72,197.06,39.49653751625014
32,0.025704126999997357,-118.22,130.68,44.03417079334055
33,0.025960419000000456,-279.3,198.46,47.33266001205636
34,0.02682137899999759,-138.7,155.76,47.45695647681534
35,0.02772336399999631,-204.94,200.0,47.88464921526315
36,0.027968986999994172,-220.04,194.62,48.08477206562439
37,0.028172696999988034,-195.66,191.48,50.92925956090515
38,0.028301101999986145,-71.06,102.88,51.20471091061736
39,0.02847736299999326,-53.12,88.84,49.310239025224355
40,0.029321066999997925,-208.42,199.02,49.936871663201956
41,0.030130792000008455,-222.96,192.96,42.859364976545834
42,0.030984815000010713,-46.18,85.86,35.63122078089817
43,0.03127975900001445,-121.5,148.16,29.446248693772663
44,0.031404585000004204,-75.94,76.26,25.18095411095742
45,0.03170639400001107,-42.42,81.3,23.442451965690637
46,0.032102609000006055,0.3,46.38,25.602790322602413
47,0.03224035700000627,10.06,39.24,23.421962263348483
48,0.03236853900000369,-26.16,65.98,23.07565106371354
49,0.032511228000004166,-3.94,53.06,23.613563567023146
50,0.03264643200000705,18.84,31.96,23.921467008730097
51,0.032882938000014406,-16.74,66.16,23.990326201682176
52,0.03310122400002058,-72.92,107.06,27.05443121129965
53,0.034092965000013464,-263.64,184.86,28.271399032560574
54,0.034591659000014374,-220.94,183.3,33.11025613946507
55,0.03497242600002437,-185.08,190.56,32.1825588628609
56,0.03530217000002267,-59.36,96.2,32.30032098524061
57,0.035508973000020205,-112.44,142.88,32.44084746032722
58,0.03609853200001112,25.52,28.02,32.50031687467417
59,0.0361913790000159,16.6,32.82,32.72067030458195
60,0.036289539000023296,2.62,48.24,33.27008514331037
61,0.036887891000020545,-64.84,107.32,34.3516741055066
62,0.037114512000016475,-67.0,111.08,33.315316160158446
63,0.03741032100001007,26.66,27.26,33.364199272017956
64,0.03749378900000977,27.96,26.34,30.58827345374915
65,0.03761722000000134,23.1,29.5,31.07483961132703
66,0.03817086300000483,-45.96,93.72,30.38339564905213
67,0.03841868400000692,-239.74,190.56,32.62737717562936
68,0.03860500800000466,-117.34,125.8,32.83283870354249
69,0.038962373000003936,19.92,36.02,32.75452899174722
70,0.03911651299999619,-143.2,155.26,32.342840057146525
71,0.03949486800000557,-52.66,104.08,31.656999605546087
72,0.03965573500001085,7.12,43.82,31.820274955850767
73,0.039805209000007835,-69.62,106.68,31.67832703025899
74,0.03998488700001701,-60.32,103.2,29.61505996355345
75,0.040400650000023575,-190.48,194.3,29.90249802504445
76,0.04055884200002424,-123.58,148.84,31.470059194091327
77,0.040656337000015697,-138.7,143.66,28.045506682499735
78,0.04122262800001408,-55.76,93.24,26.875973312185124
79,0.041442944000010584,-123.36,101.06,25.869768692239365
80,0.04157160200001897,-31.26,77.88,25.600101344268733
81,0.04174527700001818,-22.02,68.32,24.796252861910556
82,0.04191283100001897,-1.42,51.56,27.40023849646841
83,0.04276537300002303,-181.14,192.14,27.06222531520107
84,0.04306080200001361,-177.68,174.68,28.231249971673652
85,0.04326834300002247,-9.14,58.4,27.461453413185364
86,0.043406792000027394,-88.0,119.06,26.208414114589353
87,0.04353940800002931,-8.7,59.82,26.480498823461126
88,0.04362364000003538,-31.16,50.28,30.163665624933696
89,0.043766788000027645,15.24,30.66,28.65450788595053
90,0.04395264300002566,12.56,33.2,27.38867868476107
91,0.04404187000002935,10.08,34.04,28.41880416929265
92,0.044103355000018496,9.86,35.12,26.327001747600708
93,0.04420646700002351,-32.76,69.8,25.960382217655393
94,0.04444468200003371,-66.58,79.88,25.502261663809698
95,0.044539547000027824,-207.02,113.66,24.71841006073877
96,0.044642684000024246,-27.28,60.24,23.555265561128284
97,0.044730039000029365,17.18,31.4,22.816980181761686
98,0.04483864500004131,17.76,31.0,18.52888074202939
99,0.04494612100003792,-1.48,46.66,20.63487350221223
100,0.04514008400003888,-129.24,143.16,21.88101398198188
101,0.04569038200003206,-12.22,59.32,20.941974005114915
102,0.04578976200002671,-6.78,56.12,20.175656965106118
103,0.04606782600002646,-18.38,59.38,19.98987668419996
104,0.046204350000024874,-39.54,72.32,19.952594552766477
105,0.046357185000019285,-35.24,76.5,19.75999639114813
106,0.0466532910000268,-14.32,67.84,19.980316832981284
107,0.04677346200001864,-464.4,82.12,21.995430715381872
108,0.04691069000001846,-189.1,193.12,27.75483018290611
109,0.04775398000001019,-224.12,192.74,30.091309310409894
110,0.048751486000014665,-249.3,200.0,30.15571030007494
111,0.049224621000021784,-217.96,144.74,32.45035816579965
112,0.0495159780000165,24.72,28.76,32.1312364796254
113,0.049595640000021035,-20.54,61.38,31.62186545953241
114,0.04974581300001546,25.52,27.66,29.88861087462741
115,0.049875290000017,0.92,48.02,30.9727631577968
116,0.0500576190000146,-67.3,99.4,31.33163662696553
117,0.05033559600002491,-185.28,155.52,29.02072553264234
118,0.05071262700002421,-77.0,98.06,24.65442494817283
119,0.05088557800003457,-60.38,88.94,21.104223120475986
120,0.051150594000034744,-26.9,59.6,20.93576554132541
121,0.05141119300003538,22.12,27.84,19.928535091905278
122,0.051506923000033566,6.0,42.86,20.11861916037849
123,0.051584468000029915,-173.98,182.1,21.424462780703042
124,0.05276635700003851,-87.44,122.2,25.399071068996314
125,0.05313608800003067,-168.68,180.16,25.55602425138852
126,0.053306577000029165,-46.88,94.88,26.543541847584873
127,0.05354453300002149,-35.98,87.82,28.07155015760903
128,0.053807777000031365,-16.08,67.7,29.685772532983396
129,0.053914409000029195,4.84,43.08,30.802615728812185
130,0.05411275100001944,-99.62,126.58,31.25613562385064
131,0.054346646000013266,-34.96,79.04,31.087956323343736
132,0.054552023000013605,-88.6,118.58,32.73332498761986
133,0.05483075500001178,-74.96,105.84,32.036169158793896
134,0.05516417700000886,-39.04,79.06,30.158836443167623
135,0.055354211000008036,-98.08,118.66,30.50105607176223
136,0.05619427500000995,-92.78,127.36,29.836359294079635
137,0.056349685000014915,-194.48,181.48,30.05654780480571
138,0.05657443300002285,-182.52,171.4,29.39261140923307
139,0.05685611200001972,-176.24,181.46,28.800170313966316
140,0.05773652500000992,-184.56,190.98,28.3599429676406
141,0.058039695000019265,-207.52,188.76,27.77771315869677
142,0.058349057000015137,-73.4,114.12,31.223064711717985
143,0.05867867400000648,-199.08,123.84,31.356291033705144
144,0.059547981999998,-39.72,65.16,30.236483687891667
145,0.059733246999996936,2.22,46.0,29.149486107164044
146,0.05981364899999164,3.7,34.74,28.21744406264717
147,0.059894888999991736,-4.64,38.9,26.797250274286785
148,0.05998504599999421,-32.68,66.38,25.831521183578076
149,0.06011706099998548,-22.92,72.5,25.995314082066578
150,0.060218667999990316,-21.96,71.66,25.944479631973543
151,0.061332724999985544,-28.56,67.62,27.04181444918088
152,0.06151997799997844,-28.56,79.14,22.64993835529923
153,0.06185607699998741,-134.58,158.04,21.768351536963458
154,0.06201594099998431,-126.1,126.46,24.93784439871519
155,0.0638030509999794,-182.62,189.72,25.294199457954857
156,0.06430901299998482,-171.2,179.12,26.269962039379074
157,0.0644281139999805,-167.66,179.34,27.435395582554417
158,0.06456854599998962,20.38,34.58,28.13499056138837
159,0.06475715899998136,19.8,34.14,27.241126930046725
160,0.06499933899998211,-72.4,111.26,27.605059858648378
161,0.06513611499998717,-2.34,48.54,31.678567173708547
162,0.06525825599997859,-13.54,66.92,32.431714992977604
163,0.06539189899997666,-93.32,131.26,35.00041434253678
164,0.06573041599997964,-205.3,195.12,36.927950067949794
165,0.06659845499999051,-48.14,78.9,36.71678762785261
166,0.06700866399998517,-170.26,163.88,35.88829036492202
167,0.06726394899997956,-24.84,65.8,35.537021248303205
168,0.06756487399998434,-103.5,95.7,36.170827523218485
169,0.06770781599999509,17.26,28.94,35.84171134705015
170,0.06782130399999176,12.94,39.44,33.93527665009343
171,0.06801044399999512,-237.06,193.24,29.137272727271096
172,0.06832653099999675,-166.14,51.58,30.465590221694004
173,0.06841897799999686,4.14,47.66,29.20278632856614
174,0.06852156899999784,-196.94,114.16,25.265991934867873
175,0.06879125100000749,-241.24,163.52,27.776851360303716
176,0.06896972799999901,-44.68,74.74,27.973637071919377
177,0.06907330699999648,-378.42,193.34,28.99970243860637
178,0.06993246999999769,-207.48,200.0,27.945268248961032
179,0.07073431499999572,-199.0,200.0,28.254651642315984
180,0.07157344300000545,-200.18,194.0,30.244526446769505
181,0.0719179390000022,-189.34,193.96,30.637117317168666
182,0.07249304900000197,-59.68,79.76,28.855970772181546
183,0.07271196599999996,1.74,47.72,28.739253710813024
184,0.07292948300001001,-44.52,81.62,28.57177088839734
185,0.07306821100000604,-66.44,58.18,26.589964862691925
186,0.07319540000000302,-8.9,55.1,26.829023469649023
187,0.07341504400000076,-74.94,90.42,28.464947197924555
188,0.07376156200000139,-54.58,58.18,29.185094704095707
189,0.07389847499999291,-61.24,66.18,29.931535194734018
190,0.07408961199999453,-15.94,65.56,29.24551044282125
191,0.07420424000000025,-17.04,66.64,28.243192394003433
192,0.07432184399999642,-180.0,169.26,29.667372946328094
193,0.07444776500000216,-79.06,112.88,31.483503460575513
194,0.07456271300000594,-5.5,51.64,29.70222040711595
195,0.07471151300001111,-34.08,42.5,30.24484838589168
196,0.07486767500000724,-27.06,78.9,30.59206793242844
197,0.07570037700000398,-192.9,195.3,29.220076033180938
198,0.07631312600000228,-156.94,170.14,28.506927183508832
199,0.07656099799999083,-102.7,127.28,35.21214664087503
200,0.0768263229999917,-123.72,144.0,35.434374214867105
201,0.07703208299999176,-30.92,80.08,36.457124808904396
202,0.07773493799999187,-107.76,113.36,34.147409524785175
203,0.0778813559999918,-35.2,78.18,34.2699493991269
204,0.07801818499999058,-92.1,118.18,37.59086298519712
205,0.07818667999998752,6.34,45.14,36.97546849281369
206,0.07841774099998133,-132.96,155.24,39.377161992823396
207,0.0787035299999701,-41.62,90.28,38.33904617375183
208,0.07881606599997326,-15.1,61.98,37.93827984853829
209,0.07891391899997302,8.86,39.58,32.21061330859874
210,0.07914966899996045,2.66,48.64,32.92084605601208
211,0.0792384419999621,-3.24,51.86,41.38194851576203
212,0.07955791199995588,-252.46,190.94,40.99102616270933
213,0.07997701099995425,5.06,45.4,40.34080536300101
214,0.0800725719999491,-38.04,78.64,40.069030973054524
215,0.0802895029999462,-61.24,103.1,39.840197777959496
216,0.08046522899994102,-5.24,50.58,36.870658195251636
217,0.08062440799993453,0.08,49.62,36.65606486841304
218,0.08073249099993518,-152.0,167.54,36.668828329085166
219,0.08092359299993745,-42.1,91.5,35.30258797877865
220,0.08105484299994714,2.68,41.66,32.71218640900743
221,0.0811642449999539,-399.92,148.42,26.267056000773557
222,0.08154385299995681,-194.76,196.02,29.953300476956837
223,0.08241302999995526,-197.86,199.94,29.52008767955458
224,0.0827791949999579,-135.06,157.86,28.30312085976687
225,0.08307030699995721,-25.82,68.56,29.03651883131812
226,0.08322814299995684,-252.86,147.96,28.424971100699633
227,0.0833965219999584,-9.04,58.3,27.84782111771141
228,0.08365407399995206,22.5,32.56,26.606944510455655
229,0.0838015849999465,-68.96,109.9,26.86575028885026
230,0.0840345369999369,0.98,49.84,27.7211390747208
231,0.08411487899994086,-70.34,107.1,25.47656697850944
232,0.08469892499994103,-61.88,88.02,22.110017678649683
233,0.08485303999994187,-259.78,181.88,21.758464779046413
234,0.0851766859999401,-174.22,182.16,20.812208305346235
235,0.08536671899993564,-5.78,56.08,19.59752555815614
236,0.08548170199993876,16.52,32.34,23.01357572276338
237,0.08557897699994044,-1.08,37.44,23.105414079762163
238,0.08573244199993724,18.14,31.28,23.51671982747994
239,0.08581919699993534,-114.12,144.46,24.78229225213121
240,0.08665588799993884,-192.36,192.52,25.57183402487245
241,0.0874879569999365,-93.92,130.98,27.44852419109363
242,0.08768680699994036,-51.1,102.9,28.392396026301924
243,0.08848551799994198,-94.48,108.42,28.250706403919775
244,0.08877852899993854,-101.88,131.96,29.068073818210536
245,0.08910576699993555,7.14,40.06,29.829665798455835
246,0.089264496999931,-262.06,179.22,27.57630649205597
247,0.08946528999992154,-20.88,75.54,28.404516049199948
248,0.08963334099992437,23.9,29.82,29.56546482912946
249,0.08985888899992744,-195.66,160.22,29.39017597630062
250,0.09010100099993679,-196.34,197.38,30.36110567535166
251,0.09097537699993552,-201.02,198.36,28.339224419575732
252,0.0917108589999458,-181.32,184.66,27.158154430023473
253,0.09257261899995228,-88.2,118.62,27.596442753670356
254,0.09288838999994198,-46.96,89.46,27.819873060169762
255,0.0930150569999455,-102.74,130.32,27.397424229135254
256,0.09318439699994485,12.54,32.86,27.4682925507581
257,0.0932968529999556,19.92,30.4,26.89333268292046
258,0.09339320499995551,9.74,42.0,27.446406835220976
259,0.09347477299995433,-33.48,87.2,29.11126913533584
260,0.09359469899996498,-146.6,163.94,29.32264239385853
261,0.09379056599996716,16.68,30.74,28.708876726304233
262,0.09419110399997521,4.74,43.18,30.88005798444915
263,0.0942957119999761,23.98,26.34,30.433059265557837
264,0.09438451199997644,2.9,44.88,29.547612858365323
265,0.09460769699997229,24.0,27.08,30.771418447205
266,0.0947093339999725,0.8,51.76,29.34729019368468
267,0.09483929599997509,-4.22,55.06,29.430887456180216
268,0.09497017799996854,2.92,46.38,27.46551300467853
269,0.09510254299996745,-8.86,57.7,25.3577570494978
270,0.09521243899996534,18.7,32.92,22.933696652402382
271,0.09531199399997092,22.14,31.08,24.724260119147193
272,0.09542598799997393,2.52,47.66,24.501178599980285
273,0.09555344899996498,1.22,50.26,24.64472847869726
274,0.0956626629999704,-121.14,150.56,26.5825002902466
275,0.09583393299998022,-133.6,154.64,28.132077419782906
276,0.09607128899997974,29.24,28.72,29.733646287718717
277,0.09623541799997781,11.7,39.2,28.70488360408725
278,0.09648222699998144,-10.2,59.62,31.159167031991196
279,0.09668140599997344,-24.26,61.14,29.66724535137153
280,0.09678374199997108,-91.68,125.28,32.40346760782133
281,0.09703094699996484,24.0,27.92,29.268137961667424
282,0.09719861499995375,-28.88,43.14,28.232084432216823
283,0.09733124999995368,-28.64,75.56,30.9094578398951
284,0.09793850399995563,3.26,49.3,28.603101149503477
285,0.09828533299995001,-128.34,48.2,25.08537835086001
286,0.09849053299994637,8.72,41.78,26.466285135394763
287,0.09860626099994363,-32.18,86.78,26.160667012805312
288,0.09871370899993792,-45.36,91.52,25.51972945203036
289,0.09889815999993345,-221.2,189.64,25.56212264837483
290,0.09917129499993393,-13.64,67.5,24.947371994893153
291,0.09934657699993465,-184.56,173.82,25.753209753319492
292,0.09993729499993265,-514.26,148.74,25.870500549624957
293,0.10019544499992605,-274.98,200.0,23.370377908007217
294,0.10057505199992534,-199.0,200.0,23.09351845763397
295,0.10106552599992824,-180.94,188.86,24.717909990956308
296,0.10132588599992687,-97.68,124.38,22.826803748522558
297,0.10202278899993189,-204.04,193.56,25.53640222479891
298,0.10249861299993768,-167.6,150.3,24.650622175086372
299,0.10275350399993499,-22.02,69.16,26.088041272913905
300,0.10288523599993482,4.92,45.84,24.706635781311423
301,0.10312714899993125,-17.22,63.92,27.72067344248337
302,0.10329142599994157,-285.6,191.78,33.53746588468111
303,0.10392241099994237,-550.46,177.64,33.72359157393114
304,0.10512838999994756,-187.06,190.44,36.40699563447667
305,0.10530005599994752,-186.04,189.12,35.330423047529834
306,0.1055755319999605,-45.7,90.44,36.12675949553845
307,0.10581918499995879,-67.7,108.96,34.764649019894655
308,0.10638331699995263,-19.54,65.34,35.39671138391143
309,0.10651199199995176,8.4,39.2,35.721963578518846
310,0.10678584099996158,-95.72,101.66,36.9236341112204
311,0.10709744099996499,19.06,31.52,36.11595146976099
312,0.10717735499996195,19.74,27.1,30.52770297189368
313,0.10724747499996568,13.64,27.88,29.821993124373943
314,0.1073691079999719,-8.58,57.34,28.63366912827045
315,0.10748642599997993,19.88,34.06,29.805991612286704
316,0.1075768429999755,15.0,34.16,28.950551559614684
317,0.1076829599999769,22.12,26.82,27.85515200365483
318,0.10775658099997543,16.04,29.08,28.678476430771205
319,0.10784316399997351,0.74,52.4,30.72112511877736
320,0.10796379699998226,-3.94,52.64,30.13449581689157
321,0.10807105899998248,13.84,35.76,29.0789074608956
322,0.10817111799998713,22.02,28.6,29.13191300736521
323,0.108289116999984,19.78,30.14,30.90096927483605
324,0.10842417699997497,-7.78,54.5,32.05086570614618
325,0.10854346799996506,-122.14,143.62,32.069483094303436
326,0.1091193699999593,-103.0,120.48,33.90963455997555
327,0.10930775099996026,-44.14,77.8,35.99835453318839
328,0.10940511499995864,-206.34,182.96,36.12758684463172
329,0.11002793899996277,-178.34,188.02,34.880600080766
330,0.11018480499997452,-442.72,123.8,37.45893125208328
331,0.11140160099998297,-65.26,111.72,39.171794377797426
332,0.11187805899997727,-8.24,52.42,38.131754077384976
333,0.11199456099997462,-94.9,116.46,36.7360503792298
334,0.11219745699996508,-199.36,179.66,34.70494514628251
335,0.11246275999997124,-41.14,81.9,33.808760189648964
336,0.11269103799996572,-30.66,86.56,31.895513139920173
337,0.11286889699997005,4.36,47.62,32.00165975538382
338,0.1130026189999711,-59.62,106.84,30.405630776096
339,0.11326406299995995,-63.86,110.3,29.873696855318002
340,0.11343155699996998,-48.32,90.56,26.555031044747
341,0.11360592599996266,-103.78,131.38,24.833620713221553
342,0.11380409799996016,-180.96,57.68,25.46681352556499
343,0.11401297399996224,-172.62,178.74,25.13552509996855
344,0.11485172499996565,-64.86,107.3,24.08803511987229
345,0.11499791299996787,6.06,47.7,26.162304999071317
346,0.1151252049999556,-219.94,200.0,26.743749055455464
347,0.1163283629999654,-211.96,198.76,25.55248473222356
348,0.11666904699995939,-204.84,200.0,25.39529463481984
349,0.11703867799995749,-450.34,105.18,30.008377519130157
350,0.11726118299996813,-18.8,66.36,36.316750888899456
351,0.11742666999995777,-14.6,69.08,37.22684582396156
352,0.1176838539999494,-15.08,62.0,37.30493348059827
353,0.11784942299995294,-40.74,88.1,37.26045717566616
354,0.11805715199996314,0.8,46.58,39.672547980682346
355,0.11816416299996035,11.88,35.14,38.632314861535754
356,0.11836241499996447,23.38,29.62,36.94466804217922
357,0.11884913199996561,-4.0,51.42,36.02909226666115
358,0.1189863649999694,17.48,31.28,36.34002972811136
359,0.119360754999974,-10.06,60.96,29.896568373599063
360,0.11959501199997646,-10.2,63.24,26.919722257050893
361,0.1197267869999763,2.88,46.4,25.406467645875765
362,0.11983322999998336,13.3,36.18,24.235180908732872
363,0.11996506999997791,5.8,39.34,27.391204831036056
364,0.12012104499997633,-59.3,107.5,27.322760268565975
365,0.12030475799997475,-135.38,155.62,26.118620063778263
366,0.12072494499997788,-73.04,113.62,30.021158676275583
367,0.1211408259999871,-51.08,92.94,31.531445340357386
368,0.1219753289999943,-193.08,196.24,31.53067018708369
369,0.1220996999999926,-177.56,186.82,32.860305422736005
370,0.12262483899999665,-124.76,149.24,31.484995287482725
371,0.12283974799998987,-43.84,91.4,33.24232677527033
372,0.12297945699998536,17.38,29.14,36.46074377145682
373,0.12311989099998755,19.28,30.46,33.51260849626801
374,0.12318559099999504,-510.5,133.12,34.45722431051425
375,0.12351060499999278,-140.8,161.7,35.7500940755359
376,0.12370999099999835,-3.42,53.42,33.73834794355323
377,0.12380329999999162,-134.9,147.04,35.05862449020887
378,0.12416524499998616,-4.26,52.3,35.804415801362246
379,0.12432279199998675,-178.16,167.54,37.97070966250164
380,0.12448287899998434,-20.8,70.04,37.07325190119928
381,0.1247145349999812,-4.6,53.0,36.17303054222309
382,0.12487386499998365,-62.56,106.16,33.69509423576703
383,0.12500332199998354,-15.36,69.66,33.79252527753248
384,0.1251427849999942,11.6,35.68,32.471502151565915
385,0.12532764699999177,-273.94,193.2,33.31748634266768
386,0.12598021199998755,-78.7,116.52,35.728472596787164
387,0.12657920199998784,-239.8,200.0,34.840378190977816
388,0.12744573599998432,-238.98,197.34,33.777429252256155
389,0.12778246399997784,-212.38,174.2,31.518571442579308
390,0.12810600399998862,-166.36,173.14,29.973526052687
391,0.12845393699998908,-66.7,108.76,29.7097732814163
392,0.12857043599997553,-42.98,88.3,29.209222886385987
393,0.12873901999996917,-87.02,124.16,31.117584996757795
394,0.129578077999966,-213.68,200.0,30.281928731685685
395,0.12987651099997777,-219.94,189.78,29.069961156530375
396,0.13002743899997427,-1563.6,164.4,27.07460605402165
397,0.13021474999997906,-1919.42,171.64,30.324435863083647
398,0.13048079099998233,-36.96,86.6,32.48652887553373
399,0.13125991899998724,-18.2,61.86,36.47001126351686
400,0.13154321099999322,-212.08,192.44,39.72229967685516
401,0.13186579799999265,-199.72,200.0,41.223890557368456
402,0.13274506399999098,-69.52,108.74,42.352780254812906
403,0.13328944999999237,-187.54,190.84,40.24649423182909
404,0.1342827099999937,-162.4,173.14,41.749135314416165
405,0.13445996099999036,15.04,33.0,42.689313811549866
406,0.13461613199999078,-13.9,67.66,42.100975972933654
407,0.13507032299999366,10.96,42.62,38.79988665219634
408,0.1351871330000023,11.02,38.1,36.3124294185602
409,0.13534990600000185,-53.98,95.88,32.34548541239086
410,0.13552612400000896,-121.06,140.8,30.414136468916887
411,0.13567250400001285,-179.1,184.04,30.2470506829361
412,0.1365803350000192,-60.94,101.6,29.969070258166465
413,0.13673260700001322,-95.82,131.72,30.22426333455356
414,0.13690121700001612,6.54,45.08,27.78728808880364
415,0.13711148300002662,-99.9,131.88,26.14289230727379
416,0.13724309900001685,9.44,37.0,25.68438565029935
417,0.13735519200001534,19.62,30.66,25.720579066538868
418,0.13743177500001025,-36.38,81.78,26.22487741255177
419,0.13758088500000554,-158.28,157.74,26.001676555722213
420,0.1376801430000114,-39.8,85.52,31.854341271127726
421,0.13780762800000446,-65.74,65.64,29.77460638221001
422,0.13790674300000205,-25.68,66.28,29.18559184956407
423,0.1380156799999952,-19.7,64.38,29.151034840572066
424,0.13808216199998924,23.06,29.04,30.010144440251445
425,0.1388138549999951,-88.54,98.62,29.60162461039605
426,0.1389378009999973,-79.38,89.24,28.90142893618036
427,0.13915963300000556,-113.9,143.92,29.229029307727217
428,0.13947738000000243,-68.1,98.64,30.66047342638715
429,0.13978078300000618,-105.94,134.1,33.67256619081869
430,0.1400375160000067,-112.68,143.88,29.45146739827038
431,0.14019716800000026,-123.92,142.6,31.961300457104244
432,0.14036572199999853,15.32,39.58,35.24434126451839
433,0.14051308599999857,4.36,44.3,37.19778990408095
434,0.1406101700000022,-31.38,63.1,36.933890218593106
435,0.14105362799999455,-1.74,38.86,37.91698588189931
436,0.1412656090000013,-111.74,123.36,37.412552142426904
437,0.14143273300000203,-197.48,169.6,35.36567498501873
438,0.14156609799999842,-23.2,55.5,33.75501323721566
439,0.1418995169999988,-209.38,185.82,32.6905655475914
440,0.14215587399999663,-220.82,200.0,31.205028397197367
441,0.14303496300000518,-197.16,194.8,29.403412696488697
442,0.14323458700000913,-70.4,97.06,27.34222028960848
443,0.14410124799999835,-124.28,144.34,24.61001895801273
444,0.1444091929999871,-201.02,200.0,26.39718946091598
445,0.14528419899998823,-185.14,179.7,30.25848680011695
446,0.14583696099998633,-55.06,94.68,31.17262729911398
447,0.1460347829999904,-79.52,110.3,33.29315011368921
448,0.14627377399999375,-9.7,58.74,34.287089565683075
449,0.14638712199999304,-25.66,72.26,32.8894984951862
450,0.14670346200000495,-5.32,57.42,32.11267605776243
451,0.14687031600000466,16.86,36.28,32.46715598326788
452,0.14696050199999888,22.8,32.44,31.97285127077496
453,0.14704386299999328,-66.58,102.58,31.173240184100838
454,0.1471672859999842,16.16,31.88,28.64970797162668
455,0.1476493049999874,-76.3,110.54,26.246919567317512
456,0.14782922699998835,-29.54,76.5,29.277577433969906
457,0.14907366499998886,5.62,39.98,27.480128187549667
458,0.1491864699999894,-45.18,91.6,27.946647783001744
459,0.14931991199999572,-21.82,67.64,26.94399782962992
460,0.1494182090000038,-21.16,42.22,27.69325220688973
461,0.14954697299999964,3.62,48.36,27.38644166701033
462,0.14969579800001043,-19.9,70.96,25.519351085870973
463,0.14980109300000777,-103.22,129.8,25.697022273011918
464,0.15020576099999516,-228.28,191.06,27.452308114215402
465,0.15048817199999576,-85.54,125.7,28.679665725825608
466,0.15065859999999986,-169.58,181.08,25.639392861267304
467,0.15084818699999403,-4.08,50.6,25.941059527715492
468,0.15095727299998885,-175.58,81.98,25.184012806950697
469,0.15113912499998605,-178.08,184.76,26.207044431060268
470,0.1519888209999749,-166.18,177.08,26.757975458550458
471,0.15220683899998733,4.66,45.76,25.98120145315903
472,0.15236017199998741,-87.56,119.16,27.484583351701037
473,0.1531180799999845,2.78,48.92,28.193854905031753
474,0.15324915399999384,-39.58,80.78,27.145207553232403
475,0.15344484700000294,5.8,34.52,23.212280657787378
476,0.15367932699999187,-241.8,198.82,28.32886106176636
477,0.15401985199999046,-244.98,150.52,29.703489351082574
478,0.15414555699999255,-105.74,119.54,29.96716400096334
479,0.15496801899998047,-139.3,163.78,28.290650227489884
480,0.15515840099998002,-0.36,53.72,27.86926814583502
481,0.15531310099997597,-22.42,66.96,28.38762256165601
482,0.15550039299996854,12.04,37.12,27.092031402901313
483,0.1556018419999674,11.96,38.32,26.261575087823395
484,0.1557677039999703,2.18,43.28,25.546967497625694
485,0.15592113999996116,-18.6,65.96,26.86649419581741
486,0.1562826049999586,-256.5,198.58,23.024116085046813
487,0.15674841499996717,-96.64,129.52,21.53359807541141
488,0.1570996609999753,-120.46,140.88,20.510722322900545
489,0.15726970799997275,-176.88,183.82,21.812055201408228
490,0.15750318999997148,-88.16,121.72,21.393135781850923
491,0.15782798499996886,-11.86,63.78,20.86589000717926
492,0.15866021599997282,-217.1,196.52,22.33766080038459
493,0.1595000099999737,-213.56,194.54,22.164458886191635
494,0.16034018599997069,-242.2,187.84,23.66516678420504
495,0.16066235499997106,-188.82,189.88,25.586574418184515
496,0.16106505499996615,18.4,33.7,26.10784777087248
497,0.16115020499997001,14.96,37.68,29.29386306608229
498,0.16123612299996637,22.6,33.78,31.872736941129425
499,0.16139256399996782,-6.44,52.56,32.99914586729077
500,0.16153913499996975,-35.0,67.1,34.24903577273169
501,0.1616522099999571,2.72,46.22,37.04699198555598
502,0.16193909999995526,-123.32,146.6,38.095588545645136
503,0.1628118389999571,-58.3,98.1,42.372617028912956
504,0.16293445799996675,-138.1,153.86,44.826004694143506
505,0.16345752599997354,-160.08,176.3,43.1105901349725
506,0.16379162099997302,-37.42,79.48,43.10840834469987
507,0.1639635109999773,-2.72,53.94,39.13759607089243
508,0.1641245959999793,-16.28,52.86,37.4317541542666
509,0.1643332309999863,-21.2,69.72,35.19807837347018
510,0.1644401219999878,13.66,37.42,33.787040329652896
511,0.16455777199998067,5.3,37.82,32.2629312116806
512,0.16472871699998848,2.4,43.12,31.608572639623198
513,0.16482611499999678,-23.74,65.02,31.985040460415455
514,0.16496203399998421,-49.16,97.42,31.067837416860435
515,0.1651100849999807,-37.46,79.26,30.201365008850395
516,0.1652285099999773,-45.28,94.14,31.633881964251138
517,0.16533165099997404,-31.12,77.0,34.64337122417801
518,0.16559159699997394,0.26,50.26,35.649641817723
519,0.1658600769999623,-183.04,188.02,36.87308438928344
520,0.16672230399996124,-161.96,175.52,38.920819094201946
521,0.1669843479999571,-84.72,112.86,38.988188668092036
522,0.16728139399995712,-9.8,57.52,37.6699707222768
523,0.16736268699995094,-70.96,113.14,34.68710217986506
524,0.16760433599995395,1.86,47.66,31.944219584576967
525,0.16778235899995764,-3.28,50.56,31.732936485680455
526,0.16797119399996063,9.1,40.28,28.694625116067414
527,0.16811328199996467,20.08,30.64,26.245209674003696
528,0.1682350189999653,-210.0,83.32,24.15970382511941
529,0.16835524199996144,-26.1,77.84,23.67385800599616
530,0.1687606859999562,-39.7,91.14,21.303281235054953
531,0.16893146199996067,-31.96,79.36,20.59181887840353
532,0.1690969879999642,-114.18,143.92,24.08432661085135
533,0.16951234299996543,-86.46,124.16,22.837001728642576
534,0.17003828899996165,-15.4,72.24,24.22483121491668
535,0.17082076399995572,-132.8,157.62,24.080354320660707
536,0.17146997699995836,-126.9,145.78,23.72404369450988
537,0.1716288899999654,-50.54,97.96,23.26855425254994
538,0.17173888799996462,-26.8,76.58,24.260465345016453
539,0.17184950799995136,5.6,46.02,23.459580609142936
540,0.1719552959999504,-149.6,166.92,24.499506897910145
541,0.17245464699993818,-195.84,185.96,25.389487443068454
542,0.17329348299993796,-149.32,148.36,22.361269051769415
543,0.17338762999993662,-206.94,186.8,23.618299671594635
544,0.17346920799994336,-207.32,199.32,22.607788043236187
545,0.17417910299994332,-35.98,82.46,22.224104054981552
546,0.17429965599994546,18.16,37.02,22.542321263398826
547,0.17446209999994267,-46.42,82.32,22.80140857160899
548,0.17459058599993682,16.8,33.74,22.962690983231077
549,0.17472382899993022,25.28,29.82,24.828717382636558
550,0.1747995199999366,14.56,33.86,28.165560916955133
551,0.17502938799994183,-23.36,71.94,26.687628277425667
552,0.17526176599993448,21.42,28.58,25.9554715135224
553,0.17535272499992516,2.0,49.34,26.113046542226176
554,0.17592640599993103,-92.06,126.26,26.311506536443506
555,0.17666157099992574,-209.28,104.74,26.75283501571884
556,0.176854942999924,-20.5,75.32,26.720163177524267
557,0.1770819859999193,-51.3,97.94,29.870306385231594
558,0.17807992199992384,-204.6,181.42,30.081009420061548
559,0.17837072399991882,-50.96,97.96,29.525682600243492
560,0.17848228999991989,-200.66,182.94,25.53171798417871
561,0.1787021659999226,-215.46,197.06,28.69039950439061
562,0.17915728499993122,-4.72,54.28,30.072859817486194
563,0.179603895999918,-11.8,64.76,29.117444928483643
564,0.17977489499992316,-145.24,157.24,31.861193078242355
565,0.17990347399991435,-93.64,128.92,32.519474866348574
566,0.1800160399999129,-135.44,158.24,35.16144548414897
567,0.18064741899991077,-85.76,115.58,32.73289500874802
568,0.18100273799990418,-29.96,78.58,32.72863031613614
569,0.18118475199989348,-7.6,50.02,32.1139856720528
570,0.18139480499989702,-17.02,59.02,33.83190985545734
571,0.1815089269998964,10.12,34.88,33.818108730065624
572,0.18164294599989717,5.54,49.24,33.689967157912164
573,0.18177219899989439,-85.36,124.1,34.30820776991855
574,0.18200763099989103,-2.38,53.0,32.59808827708465
575,0.18214408499989077,-104.08,124.94,32.411165796682795
576,0.18235443099989368,-3.28,50.92,29.247182907366227
577,0.183031824999901,-188.08,191.5,29.672007981719865
578,0.18403546599991216,-177.46,183.68,28.8584106028561
579,0.18479655999990996,-111.9,128.98,28.380959098914673
580,0.1849767139999159,-21.46,65.54,27.464254167404864
581,0.18523541699991597,-45.74,97.34,25.239481767389613
582,0.18550287199991544,-89.02,126.26,23.937213684707544
583,0.18567587599991953,12.24,35.76,22.927459262008586
584,0.1858194039999148,12.84,43.02,22.591044811774573
585,0.18593727699990836,-292.9,180.02,25.400959406954335
586,0.18607553199991855,-504.6,128.86,26.29094519179777
587,0.18727797699990845,-175.74,184.34,32.08470497638175
588,0.18816660299989962,-182.92,186.6,31.91291730850117
589,0.18881443499989814,-130.32,147.2,35.712698191477344
590,0.18907431099989935,-122.6,139.94,36.37199663404833
591,0.18920898399989028,-2.74,50.94,37.55783474793163
592,0.1893004679998853,-58.16,101.7,39.644444753011214
593,0.18945169799988548,-55.76,95.3,43.65285386362707
594,0.18973958999988838,-8.16,60.98,45.23190984350079
595,0.18987786399988238,17.34,27.32,43.242222074576254
596,0.19002375899988522,-24.22,69.94,45.16282388604966
597,0.19022602099987296,22.78,26.3,38.84447589162372
598,0.1903165499998778,28.78,27.26,38.3865756051252
599,0.19042863899987594,28.48,26.0,33.96780647531432
600,0.19077856199987764,-47.8,88.04,34.088381756483194
601,0.19100248499988481,-29.32,79.56,32.88521521744885
602,0.19116548099988506,-161.92,160.8,32.08736929094364
603,0.1912908689998858,5.68,45.36,28.176759480529665
604,0.19138066499988327,-52.58,94.26,27.440846636352354
605,0.19163931199989293,-34.22,86.1,27.47074342302472
606,0.19173198899989075,-175.82,181.02,25.624634045229794
607,0.19195140499989805,-378.74,66.12,26.526872220489178
608,0.19206051499989485,-199.36,200.0,26.95552284383727
609,0.19230931799990003,-2.64,52.98,28.732224833407223
610,0.1924987919998955,-70.48,111.0,30.133742716300702
611,0.1926222359998917,16.18,36.64,30.041892869078993
612,0.1927453709998872,7.68,35.54,28.346142736869343
613,0.19286107899989702,13.66,36.4,29.477885189520673
614,0.1929452409999044,-7.12,60.2,27.71236685366275
615,0.1931885539999172,14.54,37.2,25.956425413589113
616,0.193273505999926,-14.98,65.08,26.485640262389335
617,0.19337049999992928,26.18,28.2,25.180048563243794
618,0.19344288899992534,18.14,30.88,25.086151098651932
619,0.19357403499992643,-123.68,136.3,26.480582762539665
620,0.19382560599993326,-43.08,95.32,23.848716139138094
621,0.19399822999993432,-58.28,101.98,23.959332491691775
622,0.1941716319999358,-227.86,192.18,25.897285101390384
623,0.19500113299994837,-191.22,188.1,24.902262769776357
624,0.1950956799999375,-163.0,163.12,25.331429713242002
625,0.19568698099993753,-3.88,52.98,26.7360878587484
626,0.19595658499993363,18.8,29.02,26.48197322092393
627,0.1961476929999293,-200.12,200.0,27.81397175145697
628,0.19668704899993372,-46.28,87.12,28.887732734567447
629,0.19685679399994171,-199.38,179.2,25.86745304744099
630,0.19715684299993086,17.64,29.2,24.479497984950292
631,0.19725433999992958,17.92,32.22,24.369641874915118
632,0.1974388299999248,-6.78,60.86,23.965998950728746
633,0.19758856999992247,4.88,47.94,24.940108602121015
634,0.19773393699992425,-130.92,153.64,25.35882145548479
635,0.198236848999926,-32.5,82.2,28.500163625080113
636,0.19845465399993145,-77.98,117.44,27.946217674754063
637,0.19870123199991951,-103.56,59.26,27.642906149933175
638,0.19880298599991875,-92.92,121.34,27.403597560191532
639,0.1989122319999126,-0.24,54.04,28.72837749690975
640,0.19900947599991525,-183.8,181.46,30.403188212113655
641,0.19917290999991621,-58.88,99.28,29.7297447524608
642,0.19927592199992716,-10.16,56.2,29.95280136256698
643,0.19947777999993832,-28.32,76.4,29.895204833405366
644,0.19960560999993504,-1.12,52.82,28.843528941435977
645,0.20002420599993798,-13.6,65.88,25.29277437004854
646,0.2002395009999418,-180.66,184.7,26.26474859886053
647,0.20042728699993972,-74.06,92.1,25.714059390939724
648,0.20054877099993007,-260.08,75.7,28.76528559423084
649,0.20066348899993613,-37.26,83.94,28.04322381993485
650,0.20111986299993134,-170.72,181.38,30.610358498886484
651,0.20130248399993889,-62.68,108.58,31.99402083869224
652,0.20156933499994523,-121.34,134.26,32.11921040784733
653,0.20194441199994628,-113.12,101.04,32.521878878910776
654,0.20213658199993745,-25.58,65.92,34.068091293269774
655,0.20225449899993464,-170.98,173.72,37.093739008490374
656,0.2030995949999408,-194.68,195.46,37.364711018763636
657,0.20356689899993796,-196.54,192.92,38.49970933167967
658,0.20411410399994168,-199.6,196.24,36.770391801309906
659,0.20478145899993194,-86.42,129.62,38.75201855149314
660,0.20564639099993087,-138.44,160.68,37.63852974942383
661,0.2057939079999329,-102.1,124.78,38.67810875586481
662,0.20615043899994134,-269.54,179.64,39.92256567253157
663,0.20742182799993714,-13.32,40.2,41.993105853688135
664,0.20762496099993655,-7.6,58.62,40.979453957429584
665,0.20776180999993699,21.98,33.08,36.92249266129385
666,0.2079110729999485,9.96,37.5,34.27535421710651
667,0.20799304299995924,6.74,40.62,35.37903675667669
668,0.20816344599995773,-200.46,177.22,34.61535212178491
669,0.20829682399995875,-204.04,186.06,32.35825815393626
670,0.20875513699996873,-316.5,190.74,31.75970393411215
671,0.20907371099995942,-115.64,141.82,30.10214556350298
672,0.2093724479999679,-196.06,196.9,28.833848944538865
673,0.21013323999996203,10.4,41.66,25.264735970946518
674,0.21026311099996065,19.34,30.98,24.27028970781913
675,0.21039841999996156,3.08,46.14,24.748801883538164
676,0.21050352899995062,-49.12,86.64,26.53999516522565
677,0.21067254299995852,3.98,47.32,24.60453149812363
678,0.2107560869999503,-3.32,54.76,24.236093706653207
679,0.2108944949999625,-21.38,70.8,25.744573579894684
680,0.2109807819999645,6.36,41.02,24.031514264261727
681,0.21108336499996483,13.4,32.9,24.14244979719194
682,0.2112888679999685,-199.52,180.3,23.964582861650115
683,0.21143145299997457,-95.82,133.24,25.13231882281756
684,0.21165591099997982,-35.18,86.12,26.722338709756134
685,0.21179996099998277,-56.72,65.1,28.38096663828411
686,0.21194949799999563,-3.68,51.54,28.988513518939772
687,0.21209312599998498,-27.1,69.76,28.720510260057154
688,0.2121864209999842,-44.92,61.72,26.53404004610004
689,0.21226616999999237,-55.3,75.22,26.219308398338192
690,0.2123751029999994,-98.74,135.46,25.550390632637832
691,0.21322109199999772,-201.58,199.3,27.440785190170978
692,0.21368741799999214,-205.68,195.46,26.421230994807207
693,0.21398676699999442,-180.72,184.3,26.094714902538726
694,0.21432434999998407,-158.4,157.08,32.47310798238111
695,0.21459771799997895,-9.3,58.58,32.86780634921947
696,0.21469546099997672,-45.44,88.52,32.08364493198045
697,0.21481507499997576,-54.74,72.7,33.36116656807725
698,0.21496276399997782,-21.2,67.9,38.33859667072649
699,0.21618147799996734,-222.74,197.12,40.18330701163164
700,0.21710011099996507,-214.44,198.32,44.937463395892884
701,0.21796823099997198,-199.18,200.0,43.9364284635766
702,0.21840638199998352,-240.76,200.0,46.22703438603034
703,0.2188422999999915,-186.14,174.56,48.36053698213428
704,0.21902266899999745,25.86,29.76,41.99554899071371
705,0.219107496999996,-105.26,79.58,39.43727385549805
706,0.21920772400000033,-50.68,62.64,39.18733660234609
707,0.21929058899999632,0.76,49.86,37.195209127562215
708,0.21938470499999596,4.72,42.92,32.235093565347384
709,0.21947849599999358,-5.94,57.02,30.310631237700356
710,0.21957272800000283,-138.8,149.5,26.067803707917243
711,0.21974621700000796,-20.44,65.12,23.767396004195795
712,0.21984325000001093,15.88,32.56,23.148518377276396
713,0.21992824500001973,-27.16,52.76,22.01011824389199
714,0.2200115530000062,17.54,32.48,19.921805171612817
715,0.2201469600000081,0.9,51.38,22.16820269985407
716,0.22033328999999924,-93.38,125.42,22.73248230823124
717,0.22125707200000022,-124.4,151.34,23.751601150853652
718,0.22141439600000012,-117.72,139.26,25.912167349752316
719,0.22165784099999541,-16.2,66.96,24.326371800277247
720,0.22177045499999792,-5.28,54.88,23.3086732391266
721,0.22190514300000075,-85.84,98.18,26.231315258321967
722,0.2221357309999945,-212.2,114.72,24.966133590744086
723,0.22243985900000496,-279.42,195.32,23.036734019076896
724,0.22268680200001256,-149.32,152.56,23.8994119649906
725,0.22303499300001306,-13.42,67.44,21.900671283893935
726,0.22327146900001082,-67.74,94.34,22.054890908712007
727,0.2233914170000162,-152.14,146.46,22.582720914030322
728,0.22437712600002158,-169.98,179.1,22.83116624837313
729,0.2248705410000298,-29.62,74.48,25.866587277330144
730,0.2252592740000381,-140.6,160.9,29.850037003336144
731,0.22549967100003698,-195.88,185.62,27.273743459306075
732,0.22562271700003578,-127.08,143.92,26.321864475622142
733,0.22580432600003064,-51.48,74.88,29.527000984382404
734,0.22592070000003162,-5.2,57.52,29.894637230254972
735,0.22603135100003158,-300.52,161.86,33.44009729568164
736,0.22628277100002947,-203.24,200.0,33.903150323067514
737,0.22714671400002828,-205.68,197.26,37.895794961071104
738,0.22801020900003266,-166.14,161.54,34.98543447822227
739,0.22820898100002296,-307.0,96.18,34.894090314308116
740,0.22851473900001906,-51.52,99.02,38.43855289520725
741,0.22880602200001476,-42.28,89.84,41.36710378558222
742,0.22905121300001952,-163.46,166.64,45.385802854866455
743,0.22919717000002038,-15.26,67.9,43.860622320678395
744,0.2296001220000221,15.38,31.1,44.575966265069766
745,0.2297195480000198,16.26,30.34,40.616622274302735
746,0.22984761700001854,-7.48,53.9,38.63050239830977
747,0.22995189200001676,22.1,28.08,36.2429168751758
748,0.2300491200000181,25.7,29.4,40.55405712767857
749,0.2301524490000162,7.8,37.26,38.21629043485718
750,0.23028530400002012,-128.26,141.08,31.504933877263955
751,0.23046908200001326,-71.8,107.4,29.521275679968674
752,0.23085457800002018,-117.92,147.24,27.087170263651625
753,0.23129767300002868,-27.52,72.9,25.685713316349243
754,0.23147510200003296,-135.08,155.34,25.793327552436075
755,0.2317532640000337,-39.68,78.02,27.332197541168796
756,0.23187787600002707,-135.84,73.42,27.191284179087972
757,0.2327582900000209,-241.84,199.68,24.273857346565368
758,0.2335052150000223,-247.54,199.92,32.77352799790098
759,0.23411789100002522,-256.54,196.42,41.676970543941195
760,0.23444136200002674,-233.66,198.72,49.45881692345298
761,0.23466528300002665,-93.56,104.22,50.126900864434376
762,0.23532064800002672,-171.92,182.0,49.412372404425824
763,0.2361599370000249,-115.48,140.92,50.94665437377273
764,0.23650351700003114,-9.5,64.94,51.42479370109853
765,0.23661272300003588,3.52,46.84,50.772526438237165
766,0.23677106200003095,-31.5,74.4,52.53087724846631
767,0.23693618000002914,20.36,29.38,53.63332722746166
768,0.23704804700003024,10.6,41.34,43.942960096656954
769,0.2372083560000391,-17.94,60.88,35.562167658816925
770,0.23732276800004115,-36.32,85.68,29.004421245553214
771,0.23745200600004068,-61.26,108.38,29.444389759421576
772,0.23759649500003377,-32.9,85.44,30.302194232760513
773,0.2381567530000268,-80.34,112.76,29.98077339441047
774,0.23857272900002613,9.3,38.44,28.87898730318876
775,0.2387225760000291,10.8,42.34,29.958998895315794
776,0.2389987010000283,-0.48,50.16,30.153360093966057
777,0.23913478600002236,0.3,48.54,30.355489124889278
778,0.23928700000001868,-34.54,82.76,30.008823869226966
779,0.23944018800001743,-82.84,112.74,30.654465161604595
780,0.2395512370000148,-35.52,76.92,29.914641073441828
781,0.23972091900000692,9.38,39.82,27.452466626976893
782,0.23982178900000406,20.9,28.22,27.857725652804834
783,0.23990295800000183,28.0,25.76,27.036862781826596
784,0.2400103229999928,5.06,47.76,27.788552846175065
785,0.24011654799998894,16.02,36.12,27.540948813024993
786,0.24018891399998665,20.08,26.66,26.384727237140133
787,0.24035720299998786,5.98,50.06,26.86447401709408
788,0.24048482599998522,27.78,25.22,26.692792660913472
789,0.24059882299998492,24.2,27.02,26.50663752139139
790,0.24068404599998416,18.62,30.06,25.893517430505312
791,0.24084517999997956,17.8,28.28,25.540083189465868
792,0.24097107699998332,-37.38,81.34,24.989582937717792
793,0.24107435699998803,-6.56,55.7,24.175096788321163
794,0.24116910999998709,12.4,30.3,23.617912141492475
795,0.2413367259999859,-164.76,72.78,23.871275684212883
796,0.24142512499999214,-46.62,92.94,24.768405087001874
797,0.24176205699998832,-46.82,57.24,24.397246008158653
798,0.24200736699998515,-9.32,56.92,24.27073452597603
799,0.2421257779999877,-32.32,64.0,24.56986128185536
800,0.24231435499999066,-89.32,115.78,26.650496383243773
801,0.24258522199998822,-187.5,161.12,28.487024182626364
802,0.24282644999999548,-165.54,164.38,30.94753822605714
803,0.24393867499999544,-229.68,194.44,31.61293307773237
804,0.24424043399999107,-256.42,200.0,32.58293546048303
805,0.24469939699999088,-239.32,200.0,31.250551330697693
806,0.24517908899998986,-183.7,188.9,30.5417980023443
807,0.24590169099998604,-178.82,152.48,30.272007108330456
808,0.24608863199998154,-46.06,87.88,29.251934486213543
809,0.24619780099997968,-105.28,133.56,29.0605984076453
810,0.24680989099998385,-95.32,127.34,27.154326079080732
811,0.24703282099999058,-21.08,62.9,26.859519753558864
812,0.24712908699999048,-130.24,142.04,24.42034172070648
813,0.24748996199998885,-54.32,87.88,23.67242523507464
814,0.24774834099999055,23.18,31.52,22.652328140735364
815,0.24782135499999924,23.38,27.48,23.20898036153374
816,0.24792845800000407,-33.16,83.92,23.9533516552947
817,0.2481571690000095,-33.86,75.92,24.723041050117395
818,0.2482779660000034,-122.84,135.68,26.827127175333988
819,0.24848855100000833,-91.54,101.54,26.232066989683155
820,0.24903923600001576,5.98,42.82,26.488329811905373
821,0.24920941900002447,-45.98,68.28,25.69893491463094
822,0.24936998400002608,-45.6,87.44,25.124431563785564
823,0.2494644540000337,24.98,30.02,26.69208113715939
824,0.24969818100004204,-10.0,60.18,26.66757411825521
825,0.24988947100003145,-21.3,72.08,27.6344139208186
826,0.250011206000039,22.46,29.42,26.461400845209322
827,0.25011485800003186,22.68,29.42,25.702695467938632
828,0.2502563670000342,-9.4,60.58,24.558676532909267
829,0.25076937600003646,-10.12,40.44,25.18343878987654
830,0.2508956190000333,-74.88,105.18,27.492757282763222
831,0.25184007400002884,-39.24,62.74,28.29482846350578
832,0.2520569550000289,-48.74,95.78,27.57032304664083
833,0.25219616100002895,10.02,34.62,27.563849270628793
834,0.2523263450000286,1.1,45.38,32.58924722966149
835,0.25244511500002886,-22.98,71.42,31.83977564720624
836,0.2526638920000295,-16.9,60.38,32.06923253010866
837,0.2527555780000341,22.96,26.56,30.321297019403637
838,0.25292163700004267,-28.46,75.52,30.3069174239293
839,0.2530626200000512,-35.0,82.14,31.750014338144457
840,0.2532479240000498,12.1,37.5,31.33731836138919
841,0.2533561250000531,-132.68,154.6,30.938764522681804
842,0.25421954800005153,7.16,46.14,31.63345989050122
843,0.2543252410000463,-189.02,182.96,31.479477024868782
844,0.2546355170000538,-24.82,72.28,27.138555295562345
845,0.25477695900005415,-13.28,69.28,26.806784216593805
846,0.25510434700005646,23.38,26.9,26.355014035130147
847,0.2552424660000554,-52.7,98.16,28.794246630469548
848,0.25549012600005483,-105.12,124.94,27.544768356391433
849,0.25559136900005797,-33.38,85.2,25.505422554686426
850,0.2565009220000576,-49.5,95.54,26.909152753536933
851,0.2573603690000681,-135.34,157.34,27.472257657486495
852,0.2576146810000637,-84.18,114.64,30.936168642070463
853,0.25773147100005644,-135.56,150.02,30.87814053265611
854,0.25840166100005035,-161.72,167.92,32.18690294571681
855,0.258775929000052,-75.28,107.7,31.315173351864104
856,0.2596969520000556,-46.52,88.48,32.367432817243596
857,0.2599318830000499,-77.74,98.84,31.08436015914649
858,0.26018235000005063,-6.68,57.66,33.113145394413486
859,0.2603900140000519,-60.98,72.7,33.73442306036797
860,0.2605555750000548,-9.78,57.28,31.176506136493735
861,0.26066877300006297,-39.6,84.94,32.802017372217946
862,0.26148544000007234,-193.5,141.86,29.759838981143815
863,0.2618003230000596,-51.94,102.62,29.517743421597224
864,0.2619214980000635,-138.82,147.76,28.438014331291743
865,0.2621070250000628,-39.62,73.12,29.93409140761265
866,0.26223406400006866,-260.46,176.2,28.95416300179961
867,0.2625515260000668,0.56,49.72,29.118542044010724
868,0.26274256000006346,-28.96,65.04,27.777267372577587
869,0.2628411070000709,-7.12,58.06,26.466001903376497
870,0.26294231300006743,-466.66,124.66,26.341265264441226
871,0.26319199200007404,-63.06,104.92,25.14209472698194
872,0.26351421100007144,-17.24,67.8,24.261398481248232
873,0.2636624080000729,4.86,48.68,25.42133178591622
874,0.2637836340000774,-81.76,125.08,24.02541584658125
875,0.2644861020000775,-35.04,84.06,23.329252185283863
876,0.2646803050000841,18.66,34.38,24.964203358000507
877,0.26481797500008497,0.98,36.4,25.561904850959856
878,0.26499268000009124,-1.44,49.48,26.690126904753434
879,0.2651851250000874,4.7,44.14,28.337255939779624
880,0.26526446600009024,-70.46,62.94,29.23300040950021
881,0.26539721300008523,-143.28,155.58,30.42687643140731
882,0.26576273800009176,-17.96,63.94,38.55203268692536
883,0.2659705420000904,-206.06,197.16,37.99198168051832
884,0.26688283500008936,-210.02,200.0,42.5671438848485
885,0.26755296000008855,-155.62,153.9,48.122630230887225
886,0.2676509390000916,-150.56,156.5,48.347517110161206
887,0.2677932610000937,-59.36,97.44,49.19217814274925
888,0.26860020200008705,-15.96,61.26,48.83198963707867
889,0.2687334250000788,10.32,41.16,47.933282064086946
890,0.26883937500008415,12.22,40.78,47.38235770927302
891,0.2689804040000894,-11.56,57.2,45.757120865284946
892,0.2698384040000832,-113.1,138.24,40.21231577969779
893,0.27024463100008234,-48.6,92.78,38.73996717289285
894,0.2703777380000929,-24.08,76.36,34.36470316911876
895,0.2704816110000934,-9.16,55.68,29.15833683227919
896,0.2705974320000877,-29.42,70.52,27.791784358043184
897,0.27073877800008006,-37.94,83.72,27.10496399412715
898,0.27122296600008156,-40.74,86.08,27.789819554249732
899,0.271759213000081,-341.8,181.44,28.16871469379559
900,0.27270690700007094,-107.06,135.9,29.842311869427522
901,0.27359312200007935,-146.3,153.6,27.922134819946734
902,0.2739223200000822,-69.66,104.38,34.40931984675573
903,0.2742331360000776,-79.42,116.56,34.76738733063948
904,0.27466737100007776,-33.26,82.82,36.53828886626849
905,0.27478540100007365,-45.3,88.76,36.93519825477629
906,0.2749827670000684,-165.34,179.06,37.02916910245241
907,0.2754202370000769,20.08,30.28,35.59133173889727
908,0.27554641300007177,16.4,32.54,33.53939700401472
909,0.2756330580000679,-5.62,60.54,31.95681150231771
910,0.27575189900005626,16.84,30.98,28.964108278052475
911,0.2758600280000678,-0.5,48.0,28.627993244516176
912,0.27600081200007764,20.7,30.42,19.053539114232386
913,0.2761016850000857,-30.96,70.5,20.49844996816403
914,0.2762255490000882,-104.04,129.28,18.946189988852538
915,0.27654353000008314,-30.04,80.94,17.99930303291605
916,0.2767609680000902,-1.94,51.58,16.919955173629983
917,0.27693611000009355,-17.8,66.12,16.858620856663222
918,0.27709133200009717,14.04,32.98,16.442510542763827
919,0.2772249470000929,-1.88,49.96,18.03701872929656
920,0.27745193500010146,16.06,31.32,19.196888920215642
921,0.27758918700010327,-239.28,123.08,21.538768365294708
922,0.2777481250001017,17.04,31.5,21.128687165699546
923,0.27797781600010296,31.68,25.52,20.404200421199103
924,0.27812904100009916,-27.94,77.22,21.328951004759553
925,0.2782559780001037,-230.62,177.54,22.18535892087085
926,0.2784693830001146,-34.86,86.06,22.607434837340502
927,0.27867084100010686,7.12,41.74,23.52034074888886
928,0.27877140900011455,-17.08,67.52,25.3237117993638
929,0.2788895720001108,23.88,26.58,24.361081185553797
930,0.2789637400001084,-13.38,52.42,22.70648244137895
931,0.2790479460001052,-242.12,140.62,22.904082535698073
932,0.2794056790001065,-8.3,40.56,24.782329068071956
933,0.2794853290000958,-9.92,61.84,24.529266631876084
934,0.27961968100009926,18.12,35.96,23.92579150237055
935,0.27977701000010313,10.46,40.4,23.810633114935392
936,0.27984954100010384,23.6,29.26,23.19186703826543
937,0.2799097690000991,-68.3,109.06,23.588100581150854
938,0.2800588750000941,-107.62,140.82,23.20622778342834
939,0.2802652610000962,19.02,31.02,23.56557633722677
940,0.2803745080001079,-48.0,93.5,23.85228168238301
941,0.28060180100010257,-35.2,82.96,22.877485687054477
942,0.28080943400010483,-4.14,53.34,21.350043521505004
943,0.2809419620001137,-6.28,55.22,20.042756828611086
944,0.28108727000011413,-139.76,158.78,18.930560097779427
945,0.28122265800011803,-1.36,51.06,18.10660801518649
946,0.28169133100011834,-104.06,137.86,19.372599675754834
947,0.2818753940001244,-214.0,166.86,18.06948474691808
948,0.2819916870001151,-165.56,179.04,18.304654184581064
949,0.2828561280001196,-168.04,176.74,18.916636703426953
950,0.2830831360001156,-5.96,53.56,19.98020876916521
951,0.2832403130001211,-2.94,52.64,20.345135121158393
952,0.2835170810001273,-38.12,58.32,22.102785936848015
953,0.2836422550001316,-212.86,116.86,23.766848199818835
954,0.2841455660001344,-26.86,80.2,24.110190262112724
955,0.2842494060001286,26.24,27.08,23.669842772366458
956,0.2846325030001253,-80.86,119.56,23.888940656981323
957,0.28517925500013064,-23.86,75.56,25.20518086864121
958,0.28530894800013584,-5.56,55.48,26.700175432154147
959,0.2855988520001347,-38.48,58.42,26.982816225479393
960,0.28580081400014024,-190.02,190.18,26.98649614901127
961,0.28597333300012906,-49.3,74.46,26.445038295510834
962,0.28611692200011873,-18.08,66.3,26.184273755220413
963,0.2865263960001272,14.94,35.78,25.885655208216342
964,0.28670037900012346,-13.24,50.18,27.03968715176843
965,0.28680141200013054,-13.9,49.4,28.431193492159302
966,0.28694492500012814,-145.1,166.14,28.678039660696935
967,0.28736530100013624,-55.8,87.92,28.528701454967308
968,0.28751159300014706,-16.32,57.18,25.832286795858113
969,0.28761636900014764,-162.22,176.92,26.135178635078695
970,0.2880155540001397,-202.44,186.44,25.0006189338959
971,0.28900838400014095,-242.68,192.78,25.225987040942066
972,0.28923218000014117,-109.32,141.54,26.17138078990812
973,0.2902415460001322,-189.08,193.34,26.356314256116093
974,0.2904091460001297,-150.08,148.04,26.64052098159841
975,0.2907125140001199,-95.88,123.1,26.63901562902138
976,0.29082620700012285,-1.18,52.74,26.049039565956342
977,0.29103361800011385,18.04,29.16,25.13139292894742
978,0.2912542730001064,-11.92,66.04,25.945623790964408
979,0.2914923590001024,-19.3,68.72,24.358367683937523
980,0.2916909800001122,-246.46,191.82,25.463408965271537
981,0.29193599700012385,-99.74,129.92,26.099817113917133
982,0.2925071860001225,-218.18,198.58,25.78307572159706
983,0.2933503140001221,-220.28,197.44,25.587209765781324
984,0.29423902700011695,-234.28,197.78,24.77898163554265
985,0.2946179880001125,-208.04,179.24,23.476645737710946
986,0.2948159660001153,13.94,38.04,22.99386961138911
987,0.29493480600011424,-54.1,82.48,25.963228115015465
988,0.29506913300011206,-142.76,162.88,26.145463348451607
989,0.2957154080001061,8.6,44.4,27.02622530577272
990,0.2959402830001068,-90.5,125.1,27.020585987117936
991,0.2962267900001052,-38.48,85.96,26.845615713067936
992,0.29640012000010074,20.98,28.94,25.550000535891527
993,0.2965138740001123,-247.24,196.5,27.36978812390356
994,0.2973552860001121,-324.7,170.18,27.645458098876684
995,0.2985597170001171,-168.3,183.9,30.60535630551692
996,0.2989366910001223,-45.66,82.68,32.2648674633488
997,0.29919220000012103,-135.64,152.28,32.718519841384065
998,0.29951754700012145,-13.6,63.96,31.982139324893996
999,0.2996188940001332,13.16,40.68,33.331111559686285
1000,0.29980564400013066,-13.5,63.86,34.262404504304826
