iter,time,reward,steps,convergence
1,0.001159606999998175,-260.18,197.82,91.71000000000001
2,0.0020613760000003367,-217.62,200.0,82.59688115059564
3,0.0032783090000023662,-212.26,200.0,75.2865489341748
4,0.004128225000002317,-199.18,200.0,65.6477814851748
5,0.004995061000002465,-210.54,199.46,56.54044280255886
6,0.0062065630000063265,-201.6,200.0,46.65084438222125
7,0.007043623000008381,-200.7,200.0,36.75103086571053
8,0.007882034000012084,-203.52,200.0,26.93029699212566
9,0.008721145000009756,-200.98,200.0,17.03052516645247
10,0.009558837000007259,-200.8,200.0,7.130525231648777
11,0.010407871000005287,-212.72,200.0,5.332966844095094
12,0.01124953300000442,-206.68,198.54,4.553376957305177
13,0.012084276000003058,-199.9,200.0,2.037262087592893
14,0.012956135000003144,-219.58,198.44,2.4385320733454945
15,0.013809102000003293,-202.44,200.0,2.0693774617680916
16,0.014673149000003605,-208.3,200.0,4.404241858374621
17,0.015514420000009466,-207.28,200.0,5.862810524885279
18,0.016353571000010447,-200.62,200.0,8.113248532349065
19,0.017293715000008092,-210.72,200.0,8.120947747958848
20,0.018127492000004963,-219.86,200.0,8.123077245267172
21,0.018991290000002436,-224.54,200.0,7.317189197170495
22,0.019876967000001855,-258.38,200.0,15.256036498885873
23,0.020717895000004205,-207.08,200.0,15.2480498512549
24,0.02159281300000515,-201.64,200.0,17.195568221274563
25,0.02245716600000236,-217.22,199.78,19.607728335816958
26,0.0233265540000005,-209.82,200.0,18.14463335954803
27,0.024164859000002537,-211.06,200.0,17.415592117862992
28,0.025032491000004597,-212.62,200.0,15.896001521268726
29,0.026295823000005214,-209.26,200.0,17.963224907333036
30,0.027131466000007265,-204.36,200.0,17.96121716981308
31,0.02800450900000584,-200.98,200.0,20.53024498717675
32,0.02921116300000648,-204.14,200.0,13.313108523881755
33,0.030062355000005425,-206.46,200.0,15.7996423779015
34,0.030909764000007556,-208.96,200.0,14.830483964720756
35,0.0317609560000065,-231.92,200.0,14.386530771712373
36,0.032605527000008294,-199.9,200.0,13.731751859471533
37,0.033447565000010115,-202.1,200.0,13.023320854700895
38,0.034677877000014234,-206.9,200.0,12.213644614219767
39,0.03553912500001388,-203.34,200.0,12.748726451033637
40,0.03638884200001513,-201.16,200.0,13.558604626164731
41,0.037254295000010984,-204.84,200.0,11.857317630300965
42,0.03815337300000721,-202.84,200.0,11.77794701292247
43,0.03905603000001179,-200.08,200.0,9.87538586540221
44,0.03992731400001048,-199.36,200.0,8.234523884035763
45,0.040878476000010266,-212.24,199.86,8.452833509139312
46,0.04173797400001433,-206.32,200.0,8.48201609061325
47,0.04259890600001626,-201.92,200.0,8.463076233962983
48,0.04345149600001719,-205.96,200.0,8.672148518649868
49,0.04437386700001866,-203.06,200.0,6.082866870152182
50,0.04569851300001915,-202.6,200.0,5.272924749831107
51,0.04661920400001662,-207.9,200.0,5.222205019362067
52,0.047469102000015084,-216.84,200.0,5.234796251535809
53,0.04836774300001423,-221.4,200.0,7.195048534708017
54,0.04921095800001041,-199.18,200.0,7.2612702912118054
55,0.05005613700001277,-215.08,200.0,5.379602682636746
56,0.050897548000008896,-199.54,200.0,5.124346163865174
57,0.05176551400001017,-200.8,200.0,5.122025645347639
58,0.052601259000013556,-213.22,200.0,5.795408624353371
59,0.05343897600001668,-204.9,200.0,5.781585475670075
60,0.05428792200002164,-211.84,200.0,5.781751798719736
61,0.05549145200001959,-205.0,200.0,6.476246458900228
62,0.056332270000019946,-201.46,200.0,5.814731862507204
63,0.057165489000020386,-207.22,200.0,4.7866592617833605
64,0.058371859000018844,-210.1,200.0,5.526769697609647
65,0.059322645000023044,-206.6,200.0,4.869213233515467
66,0.06019281000002508,-202.58,200.0,7.68886590464283
67,0.061032121000025086,-200.48,200.0,12.011481276266368
68,0.06188901400003033,-200.3,200.0,13.477609600351423
69,0.06273507600003114,-205.38,200.0,13.703269746848193
70,0.06373111800003528,-205.96,200.0,14.579464812472796
71,0.06460111700003779,-203.06,200.0,13.061397645686885
72,0.06543517000003618,-201.52,200.0,15.15738567204778
73,0.06629569900003673,-199.58,200.0,14.428014405753931
74,0.06725261600004018,-201.42,200.0,16.16053974967643
75,0.0683099850000417,-202.24,200.0,17.55078515298622
76,0.06918089100003755,-216.7,200.0,15.669293128045755
77,0.07005121400003844,-201.38,200.0,12.15672277164815
78,0.07130719100003802,-199.9,200.0,10.464100744968144
79,0.0721452280000392,-200.88,200.0,10.485211924058962
80,0.07301482400004033,-200.48,200.0,10.92373259821927
81,0.07388053900003655,-200.12,200.0,10.923840208367084
82,0.07475360600003,-208.0,200.0,9.712991776979736
83,0.07565992900002527,-209.0,200.0,11.249552364042561
84,0.0765312080000271,-211.28,200.0,9.59265718137378
85,0.0773706990000278,-221.7,200.0,8.131621288464778
86,0.0782163140000307,-199.0,200.0,7.192819364471346
87,0.07947540000003528,-212.4,200.0,7.796935482021174
88,0.08033224400003292,-202.04,200.0,8.067723136304185
89,0.08117924100003648,-205.88,200.0,10.470079816886932
90,0.08205749000003948,-206.66,200.0,11.97209047578378
91,0.08292032000004212,-204.5,200.0,12.231934340198196
92,0.08378743900004082,-203.06,200.0,12.021895391245197
93,0.08468390000003723,-201.9,200.0,10.509892474008359
94,0.085547401000035,-199.9,200.0,10.330063982795958
95,0.08641481800003703,-199.0,200.0,10.351173956737007
96,0.08728439000003618,-200.12,200.0,10.350623224853758
97,0.08812301400003975,-199.72,200.0,8.93645806693663
98,0.08903928100004066,-199.58,200.0,8.03243833795847
99,0.08994882500004309,-200.92,200.0,5.376203666903005
100,0.09089599500003942,-203.06,200.0,4.956957349082453
101,0.09209012700004138,-200.26,200.0,7.064044085167303
102,0.09296936500004449,-212.52,200.0,8.982484012059823
103,0.09382795800004828,-232.06,200.0,10.482456998165697
104,0.09468103900005076,-215.48,200.0,12.31580523056843
105,0.09559162900005447,-201.64,200.0,14.620188317715805
106,0.09678936400005256,-204.22,200.0,15.350322470568475
107,0.09764009500005244,-210.28,200.0,16.231957486616146
108,0.09851018700005199,-204.76,200.0,16.59625523762807
109,0.09938248800005312,-204.6,200.0,17.38970637982074
110,0.10022019100005508,-202.46,200.0,15.114207103383766
111,0.10147861400005809,-199.9,200.0,13.396814318838768
112,0.10245958500006225,-217.74,200.0,11.063561187501337
113,0.10333071900006274,-199.58,200.0,8.687474045027214
114,0.10416561200005958,-199.94,200.0,6.962698852240145
115,0.10505716000006515,-206.78,200.0,7.220626993465845
116,0.10591660800006508,-203.92,200.0,8.144628650348135
117,0.10676168900006644,-216.4,200.0,8.073045278898466
118,0.10778476200006537,-203.32,200.0,8.49558099157251
119,0.10865014700006981,-201.88,200.0,7.722383273275673
120,0.10948889600006595,-201.32,200.0,9.949177056260877
121,0.11035044600006216,-203.78,200.0,10.028593027993242
122,0.11125373700006236,-200.16,200.0,9.976894438505388
123,0.11214753200005845,-199.18,200.0,9.976124935752427
124,0.11304836200005752,-205.08,200.0,11.775417521540298
125,0.11389042100005753,-207.88,200.0,11.825242729059948
126,0.11476109100005516,-200.26,200.0,12.263939643424683
127,0.1155990320000555,-202.26,200.0,14.068112106341255
128,0.11643707800005387,-203.04,200.0,13.987118939129624
129,0.11729866000005273,-202.32,200.0,16.059805878097734
130,0.11819886900005372,-202.08,200.0,13.920103348874116
131,0.11908766100005153,-202.42,200.0,13.25595403423128
132,0.11992996900004727,-201.02,200.0,13.840612106507365
133,0.12077360600004994,-202.76,200.0,13.840610092338817
134,0.12163796300005458,-204.3,200.0,12.040679307631315
135,0.12247622500005662,-199.36,200.0,9.480389164424675
136,0.1233161780000529,-199.54,200.0,7.3895233156291695
137,0.12458040400005643,-201.38,200.0,4.7754897576424735
138,0.1254340780000618,-200.26,200.0,4.857120284314486
139,0.12635994900006864,-205.08,200.0,2.785088351992603
140,0.12731757200006655,-203.8,200.0,4.947413665844175
141,0.12826556000006661,-199.58,200.0,4.883206824940284
142,0.12912956800006725,-199.36,200.0,4.112475978464609
143,0.13038524600006696,-200.12,200.0,4.985955650869582
144,0.13122496400006867,-203.02,200.0,8.895533814487932
145,0.1320671370000639,-203.62,200.0,10.207536335760441
146,0.13292122700006814,-221.92,200.0,12.765345725518886
147,0.13378779300006727,-252.86,200.0,17.871724300316025
148,0.134655452000068,-206.28,200.0,22.03897635988606
149,0.1355566680000706,-241.44,200.0,25.2416319009451
150,0.13653678600007169,-214.22,200.0,22.87684693112813
151,0.13739881200007176,-203.84,200.0,23.68613953331026
152,0.1386205130000775,-228.0,200.0,26.478277188138065
153,0.13980432000008136,-238.72,200.0,28.222064386370654
154,0.14080555000008133,-205.56,200.0,25.758673549398548
155,0.14167537000007968,-203.38,200.0,26.929298167701848
156,0.14267161700008302,-226.74,200.0,25.790861623012244
157,0.14354638400008213,-206.08,200.0,20.686157539327297
158,0.14444760700008175,-199.9,200.0,16.43792970803995
159,0.1453437730000786,-209.76,200.0,13.47003130408462
160,0.14659203300007562,-207.28,200.0,14.257148521937562
161,0.14743711600007003,-204.8,200.0,13.453662370999018
162,0.14863926800007476,-207.32,200.0,11.521494701743583
163,0.14950477300007492,-203.84,200.0,8.924987061217843
164,0.15038899700007136,-202.98,200.0,9.059114301811727
165,0.15125290900007116,-207.64,200.0,7.239689332524914
166,0.15210039100007577,-201.06,200.0,6.718256207623412
167,0.1529903530000709,-221.36,200.0,9.54519910260059
168,0.15383138200007096,-228.02,200.0,13.225930192103117
169,0.15495408000007416,-213.24,200.0,15.533598737620974
170,0.15579777300007436,-284.78,200.0,15.700422579117191
171,0.15664414000006843,-203.16,200.0,16.5795221928646
172,0.15709996000006754,-223.18,198.68,23.201707008775724
173,0.15794291000006666,-202.4,200.0,23.99103608602657
174,0.1589433830000644,-211.86,200.0,22.466500527659218
175,0.1598939220000659,-216.52,200.0,24.05789284043494
176,0.16079633600006815,-234.96,200.0,25.467370631597284
177,0.16175843300006676,-205.4,200.0,24.717099374131458
178,0.16275372600006932,-199.76,200.0,24.786788435592342
179,0.1636192380000665,-201.1,200.0,24.776796457753825
180,0.16450201500006756,-200.16,200.0,25.06175105672358
181,0.16537200200006907,-202.8,200.0,28.229373584246172
182,0.16624499000006665,-216.4,200.0,25.399526907662732
183,0.16711989500007007,-201.32,200.0,24.58964488797082
184,0.16795759600006477,-210.12,200.0,23.800150441235683
185,0.16917349100006618,-207.5,200.0,23.875517583024372
186,0.17002002900006374,-200.12,200.0,21.96818992931079
187,0.17122308400006148,-212.32,200.0,21.349194667157384
188,0.1721456250000628,-200.34,200.0,17.66405841165852
189,0.17298954200006023,-199.94,200.0,15.19379065727012
190,0.17387881800006255,-201.9,200.0,13.94841890637753
191,0.1747727250000608,-199.0,200.0,9.895843085599461
192,0.17597764000006322,-199.0,200.0,5.224391826782392
193,0.1768245820000658,-202.24,200.0,21.57701951866549
194,0.17772321800006807,-201.7,200.0,22.31790002199154
195,0.17855988200006578,-199.72,200.0,19.915686381388433
196,0.17940512800007014,-199.54,200.0,19.514147568919366
197,0.18061670300006938,-200.84,200.0,22.463054398991602
198,0.18149005000006468,-202.24,200.0,22.40552967247973
199,0.1823424740000661,-201.6,200.0,23.059664727886126
200,0.18336215300006842,-236.7,200.0,23.37223531303593
201,0.18423107600006716,-201.92,200.0,24.028436747869215
202,0.18517005800006103,-199.36,200.0,24.316885759844762
203,0.18637937100005786,-204.46,200.0,7.970613054287627
204,0.18724041300005467,-199.58,200.0,7.956165924219095
205,0.1880871610000554,-201.46,200.0,10.050624729166804
206,0.18931790000005577,-204.04,200.0,10.050084551934818
207,0.19017237300005974,-201.32,200.0,5.662548203405992
208,0.19101332400006044,-203.2,200.0,4.931826504573816
209,0.19185608100006135,-202.28,200.0,4.24968808481339
210,0.19269527300006217,-213.96,200.0,4.811156923428953
211,0.19354361900006722,-206.08,200.0,6.764619657199349
212,0.19475154400007,-202.04,200.0,8.000722401851132
213,0.19561531100006846,-201.64,200.0,8.781196626493642
214,0.19645805600006838,-214.64,200.0,8.001206283769884
215,0.19749458400006858,-225.64,200.0,8.28079010577382
216,0.1983499310000667,-200.92,200.0,10.857596070680417
217,0.1991904080000637,-199.36,200.0,11.041014622264084
218,0.20002888100006544,-200.08,200.0,12.352505233223493
219,0.20102727000006126,-206.74,200.0,12.298178558098815
220,0.20433424800005895,-201.86,200.0,11.423831222047244
221,0.20553867500005651,-205.3,200.0,9.625797232881581
222,0.2063777830000575,-199.36,200.0,10.242358513842762
223,0.20721653000006057,-200.8,200.0,9.474409333871336
224,0.20805475100006277,-200.26,200.0,10.194927357340887
225,0.20892589400006756,-202.6,200.0,9.274460568654035
226,0.21013698600006592,-201.06,200.0,7.457956508863842
227,0.2109835340000643,-215.34,200.0,8.553727237036178
228,0.2118253660000633,-201.34,200.0,7.432009905623498
229,0.21267900400006567,-205.28,200.0,7.438848977928643
230,0.21352285800006143,-205.92,200.0,7.503932690756484
231,0.2145226190000642,-210.72,200.0,9.301642020263113
232,0.2153656970000668,-200.7,200.0,9.766446877431562
233,0.2162196200000679,-205.52,200.0,9.75584983274866
234,0.21709780100006526,-219.48,200.0,11.624606861125788
235,0.21801586600006573,-199.58,200.0,10.17048541161201
236,0.21894252500006672,-199.18,200.0,9.412159345169211
237,0.21981703200006564,-199.54,200.0,15.610982176849097
238,0.22081128000006345,-212.9,200.0,18.02453031423178
239,0.22168517500006146,-201.7,200.0,20.36589642103942
240,0.22296639000006024,-217.78,200.0,21.119499647889988
241,0.2238679450000589,-212.92,200.0,18.530757582421145
242,0.22472029100006097,-215.96,200.0,16.71480332349637
243,0.22556909800005798,-213.88,200.0,16.70838870406293
244,0.22694910400006307,-209.04,200.0,16.94123080162269
245,0.22794173500005854,-203.12,200.0,19.501486032735553
246,0.2287950790000579,-200.26,200.0,19.49963424139217
247,0.2296342700000551,-199.36,200.0,12.811205635800935
248,0.23047046600005672,-200.26,200.0,10.201192002432311
249,0.23131063400005303,-201.16,200.0,7.852221402654244
250,0.23222092800005356,-204.94,200.0,9.613199488514631
251,0.23305989300005336,-226.24,200.0,17.480432053807803
252,0.23396161300004792,-200.84,200.0,17.48093228650477
253,0.23516623500004386,-199.0,200.0,18.910074087236
254,0.23616619200004152,-201.38,200.0,16.859485427823575
255,0.23704478900003778,-201.28,200.0,15.686306978853258
256,0.23793725500004115,-203.02,200.0,15.708892408923003
257,0.2388576820000381,-200.08,200.0,14.905531332349614
258,0.23973968500003906,-204.68,200.0,14.926857613572839
259,0.240682751000044,-199.9,200.0,14.92687249959808
260,0.2415311230000441,-211.06,200.0,13.662535108517739
261,0.24237601500004757,-201.28,200.0,5.905582964823847
262,0.24325582500004828,-201.96,200.0,5.1122156923795545
263,0.24409159400004654,-205.16,200.0,6.239310931567857
264,0.24493448800004813,-200.74,200.0,8.016549591890698
265,0.24593358700004586,-201.32,200.0,9.264558883334729
266,0.24680530200004114,-199.0,200.0,9.241770463495866
267,0.24769089000004385,-200.92,200.0,9.234620447440411
268,0.24889502800004237,-200.44,200.0,9.225649049519681
269,0.24975792300003974,-205.08,200.0,9.225751495378978
270,0.2506218060000407,-199.0,200.0,7.910384750719146
271,0.251460588000036,-204.98,200.0,7.778847013398203
272,0.2527380140000375,-203.96,200.0,7.777670682847267
273,0.25357950300003296,-199.0,200.0,5.231701687219169
274,0.25444819800002705,-204.82,200.0,2.6601390774526705
275,0.25565205100002686,-199.9,200.0,0.7659880087088851
276,0.25654598000002693,-216.18,200.0,0.7940782578706773
277,0.257385991000028,-205.74,200.0,3.6591370166722172
278,0.258226712000031,-200.12,200.0,5.076851125120501
279,0.25947755600002864,-199.94,200.0,5.726402301792997
280,0.2605174910000301,-211.9,200.0,8.266074080056937
281,0.2613972900000334,-204.36,200.0,8.2666621357004
282,0.2622635390000312,-202.24,200.0,12.521047759371452
283,0.2631063760000316,-200.74,200.0,12.508906211987645
284,0.2639535330000271,-200.34,200.0,12.516830943647856
285,0.26478667300002456,-201.38,200.0,11.776316914833789
286,0.26562605400002326,-200.26,200.0,11.813168653880336
287,0.2666248780000231,-208.86,200.0,8.99291745104233
288,0.267493674000022,-199.36,200.0,8.37419451780816
289,0.2684296700000246,-199.9,200.0,8.606836846469081
290,0.26938263000002394,-208.6,200.0,6.951326076333194
291,0.270333041000022,-250.8,200.0,6.958687372407455
292,0.2711686930000212,-215.0,200.0,3.554076449007647
293,0.27216336100001826,-200.88,200.0,3.5540198279499635
294,0.2730270760000195,-202.1,200.0,4.997054273544501
295,0.2738832200000161,-200.12,200.0,5.076791266825031
296,0.2747220450000185,-200.08,200.0,5.01594440572256
297,0.27562103500001456,-208.72,200.0,5.037761703050251
298,0.27650806100001546,-206.28,200.0,11.58010643182676
299,0.2773666310000209,-215.62,200.0,12.287801903860439
300,0.27866620700002187,-223.66,200.0,11.525998457362029
301,0.27953100000001996,-202.84,200.0,18.136428023325447
302,0.2807501520000244,-200.52,200.0,17.78989628368605
303,0.2815984600000192,-206.72,200.0,17.834582149956685
304,0.2824398700000188,-204.88,200.0,19.29708513449208
305,0.2833130310000129,-199.54,200.0,19.263468811283218
306,0.2841485700000135,-200.88,200.0,19.26021808228797
307,0.28534937700001706,-202.58,200.0,19.270065075336625
308,0.2862535470000154,-206.88,200.0,13.347377510318887
309,0.28709918500001663,-199.36,200.0,11.900402055617628
310,0.2879484280000213,-201.96,200.0,12.641709883995533
311,0.2892240950000229,-201.42,200.0,6.024554703487761
312,0.2901581640000259,-201.52,200.0,6.975734721071959
313,0.29115322300002333,-220.04,200.0,10.155032214700164
314,0.2919998370000272,-207.28,200.0,7.6560977192764
315,0.2928411180000339,-225.52,200.0,10.79250015180105
316,0.29370911800003086,-200.48,200.0,13.68302815365389
317,0.29456961500002876,-230.38,200.0,15.73614257431252
318,0.29545017100002724,-212.44,200.0,15.197274543697816
319,0.29631370700002435,-210.7,200.0,15.901784987109547
320,0.2971884110000218,-205.3,200.0,15.887840650221921
321,0.29805822400002313,-214.46,200.0,17.332059365657614
322,0.2989074120000268,-199.18,200.0,16.761953115386063
323,0.2998889410000274,-201.38,200.0,14.833697686739052
324,0.30078347900002456,-200.92,200.0,14.444613183705275
325,0.3016526170000233,-210.74,200.0,11.267483882592277
326,0.3026161580000206,-202.62,200.0,8.379571469124226
327,0.3034522400000199,-205.06,200.0,7.720388696525768
328,0.3042914070000151,-200.62,200.0,7.980374739533895
329,0.30516044300001965,-206.14,200.0,9.978836751039587
330,0.3060302230000147,-204.22,200.0,9.152993611247036
331,0.3070225710000116,-208.86,200.0,7.777985775507363
332,0.30785847000000643,-202.04,200.0,11.600534826775304
333,0.3087515170000117,-219.26,200.0,12.860474715116657
334,0.3096521620000132,-217.56,200.0,13.02327981413644
335,0.3105473040000106,-199.58,200.0,15.64741383199313
336,0.31138402900000983,-200.52,200.0,15.882796937174362
337,0.3122264270000059,-201.2,200.0,14.413226245868298
338,0.3134892590000078,-208.36,200.0,20.898621981277692
339,0.314356434000004,-214.74,200.0,18.875161192324803
340,0.3152275640000042,-204.96,200.0,21.482195719526665
341,0.31610219800000294,-202.54,200.0,25.75151206471088
342,0.3172775439999995,-219.94,200.0,21.083496721420243
343,0.3181552819999993,-232.38,200.0,20.895496172099985
344,0.3190159779999959,-201.02,200.0,21.40838742132691
345,0.3198851249999919,-202.64,200.0,19.558109518735524
346,0.3207482169999949,-202.28,200.0,19.34034212543625
347,0.3216473829999913,-203.62,200.0,24.24482308462858
348,0.322920167999996,-208.36,200.0,16.61183487907912
349,0.32375643499999285,-207.64,200.0,16.606636691203782
350,0.3246494569999925,-201.32,200.0,14.800063926668841
351,0.325513923999992,-219.0,200.0,17.55784367675673
352,0.3267209919999914,-216.68,200.0,20.786462201819056
353,0.3276083949999915,-231.22,200.0,22.351210524404564
354,0.3285042409999903,-204.8,200.0,21.653856929663686
355,0.32936628999998874,-199.54,200.0,21.764328766239778
356,0.3302064599999923,-200.56,200.0,21.813504649446962
357,0.33104567999999546,-200.74,200.0,17.162374813705203
358,0.33191655099999906,-200.66,200.0,17.379149256190175
359,0.33275558600000466,-200.88,200.0,18.974048352742727
360,0.3339664660000068,-201.5,200.0,18.15383653357043
361,0.33480866700000433,-199.58,200.0,12.644070195784378
362,0.3356474110000036,-203.54,200.0,10.74419904771323
363,0.3365168980000064,-202.1,200.0,8.24060348718607
364,0.33735955800000994,-199.36,200.0,10.845126171565997
365,0.3382024450000074,-203.86,200.0,9.95693957745215
366,0.33912371600001023,-212.12,200.0,10.638377594124599
367,0.33998465100000885,-204.84,200.0,11.195085840808588
368,0.34085854800000703,-201.6,200.0,11.042075005669025
369,0.34169427500000893,-202.08,200.0,8.630172688098906
370,0.3425309800000065,-201.9,200.0,8.63286116888632
371,0.3433814360000085,-200.34,200.0,19.777359981978403
372,0.34421437800001087,-210.02,200.0,21.05082676091514
373,0.3450542190000121,-204.1,200.0,19.836774194702446
374,0.3458924530000118,-206.9,200.0,20.04847903225106
375,0.34676588100001027,-207.24,200.0,20.927069348153225
376,0.34761219000000665,-203.86,200.0,21.749917050776567
377,0.3484903340000045,-207.28,200.0,21.370867320707557
378,0.34935498200000126,-216.58,200.0,21.325180924173335
379,0.3502162949999956,-203.62,200.0,21.32592519860063
380,0.3510770809999926,-202.0,200.0,22.7051538170062
381,0.35194285899999045,-212.2,200.0,10.815169057154508
382,0.35280605799998455,-200.74,200.0,10.80737924031325
383,0.353651379999981,-227.92,200.0,15.47666984902981
384,0.35489381899998307,-229.48,200.0,20.942983992295066
385,0.3557383879999847,-227.96,200.0,20.792481457317457
386,0.35657728399998234,-202.82,200.0,19.218569232007315
387,0.3574439639999838,-221.54,200.0,23.24471756986103
388,0.3583078939999851,-202.6,200.0,23.29953114925986
389,0.3591733239999897,-199.18,200.0,24.04176747232652
390,0.3600233949999918,-208.58,200.0,25.127752435046173
391,0.360874404999997,-204.56,200.0,27.1325524954461
392,0.3617808599999961,-203.32,200.0,25.31884951337142
393,0.36270080599999943,-204.36,200.0,23.022467718265773
394,0.36390708300000085,-207.0,200.0,15.6965349349159
395,0.36478156500000125,-203.98,200.0,19.385845579758566
396,0.36564802300000565,-236.2,198.98,22.42477538563667
397,0.3665141220000052,-214.26,200.0,22.63276918040785
398,0.367723440000006,-200.74,200.0,22.576184995058018
399,0.3685667570000035,-201.28,200.0,23.36206401320924
400,0.36948019100000096,-199.72,200.0,20.976421066985615
401,0.370318546,-204.34,200.0,18.137041577063634
402,0.37123134000000135,-203.74,200.0,19.723216869807857
403,0.3721230370000015,-237.82,200.0,19.75362151636889
404,0.3734618320000038,-206.28,200.0,20.940087648951845
405,0.3743521260000051,-205.28,200.0,16.58771791343467
406,0.37522483700000464,-201.74,200.0,14.537690322531507
407,0.3760868160000044,-206.32,200.0,12.482008736914004
408,0.37709471100000513,-202.66,200.0,13.804227618026104
409,0.3782429370000031,-201.74,200.0,14.658133546100505
410,0.37909236600000185,-204.98,200.0,15.465691202144797
411,0.3800066749999971,-199.76,200.0,16.102945664615834
412,0.38086397299999675,-203.26,200.0,14.42085063756087
413,0.38207525899999695,-199.94,200.0,12.613452295218938
414,0.3829149409999957,-200.62,200.0,10.473827746420145
415,0.3837602569999987,-201.28,200.0,10.870368335240132
416,0.3845972379999978,-199.58,200.0,9.889646747287584
417,0.3854401540000012,-204.4,200.0,10.121893424506837
418,0.3862819560000048,-201.88,200.0,11.333986045022927
419,0.38734991100000116,-201.32,200.0,11.509054912512582
420,0.38823275600000784,-199.0,200.0,10.868906304035358
421,0.3890689260000073,-210.92,200.0,13.065277234381323
422,0.3899118410000071,-199.9,200.0,12.343778250007247
423,0.3907561410000042,-201.52,200.0,16.006061079815048
424,0.3915921469999972,-221.62,200.0,16.809644688087836
425,0.39245798799999676,-200.52,200.0,16.425865779595892
426,0.39329350999999946,-200.08,200.0,16.41786120117281
427,0.3942434650000024,-201.16,200.0,14.439800949390198
428,0.3951075720000006,-201.64,200.0,14.232929398815127
429,0.3959581510000021,-202.04,200.0,14.263290447418669
430,0.3971562270000035,-231.3,200.0,16.381404480150664
431,0.39804745200000013,-199.0,200.0,16.098914095549176
432,0.3989338769999975,-199.18,200.0,16.90785524122881
433,0.39977025199999616,-201.5,200.0,12.454334327483751
434,0.400608217999995,-201.28,200.0,11.856244175990756
435,0.4014752879999932,-200.08,200.0,11.82046225104231
436,0.40233708299999194,-199.0,200.0,11.819707833658898
437,0.40322034499999404,-200.16,200.0,12.41460066154567
438,0.40413091399999246,-200.3,200.0,12.862501575041458
439,0.40498841799999497,-199.76,200.0,11.060902657155797
440,0.405826342999994,-219.84,200.0,11.506098581827413
441,0.40666101899999063,-200.66,200.0,9.016587923016594
442,0.40750805699999404,-208.5,200.0,8.416837819689961
443,0.40858410799999234,-210.82,200.0,11.007229691119182
444,0.40942470399999564,-204.4,200.0,12.250245672363482
445,0.41026441899999355,-202.48,200.0,14.53649536966663
446,0.41110263999999574,-199.94,200.0,15.229660038124518
447,0.41194345599999593,-200.52,200.0,14.557817243378661
448,0.4127799599999946,-212.12,200.0,14.37163303046483
449,0.4138273599999991,-205.92,200.0,13.59163637385719
450,0.41474632199999917,-199.72,200.0,11.5915705581202
451,0.4156544559999986,-203.24,200.0,11.639345513714698
452,0.4165571260000007,-203.94,200.0,12.738172537199858
453,0.4174476100000035,-199.54,200.0,10.259189453397736
454,0.4183536970000077,-200.26,200.0,10.89640153023426
455,0.41923954700000365,-211.18,200.0,8.586949514477578
456,0.4202357140000075,-214.84,200.0,10.242713272883162
457,0.42110171200000934,-207.88,200.0,11.784038213657217
458,0.4219662130000046,-223.0,200.0,14.06510137456919
459,0.4228660800000057,-200.7,200.0,16.427345369431862
460,0.4237297440000063,-202.18,200.0,17.98173390513431
461,0.42456723200000823,-204.92,200.0,18.076112943783443
462,0.4254709930000118,-206.74,200.0,16.787087523089834
463,0.4264324380000062,-216.72,200.0,16.656718009573563
464,0.4273548720000022,-203.92,200.0,15.945667340725489
465,0.4282170460000003,-199.58,200.0,17.39628412032714
466,0.42905539299999873,-212.34,200.0,15.258579802192074
467,0.42992129799999645,-204.68,200.0,15.274953292749325
468,0.431175580999998,-199.18,200.0,10.42791096610379
469,0.4320452589999988,-199.0,200.0,8.970152256321324
470,0.43292178399999415,-204.58,200.0,6.59946438372548
471,0.43376042799999937,-205.48,200.0,8.739114908012361
472,0.43497043800000057,-237.86,200.0,16.96989790092741
473,0.43581744800000166,-201.64,200.0,18.457768017117065
474,0.43665872599999744,-199.0,200.0,19.42485993469777
475,0.4374989109999987,-225.68,200.0,20.563313577558645
476,0.43834858799999665,-214.44,200.0,21.20322236959279
477,0.439193680999999,-209.18,200.0,21.451805967825464
478,0.4401903400000009,-215.8,200.0,24.01322482028526
479,0.4410935820000006,-200.66,200.0,23.311095054554773
480,0.441934732,-201.82,200.0,23.32425464588881
481,0.4436196790000011,-204.18,200.0,22.362276936032618
482,0.4444787870000013,-200.92,200.0,14.112440807888978
483,0.44531707099999807,-204.4,200.0,15.233876881465989
484,0.446472945999993,-199.94,200.0,12.912731883460731
485,0.44731334199998685,-204.0,200.0,11.121657035562983
486,0.44815181099998824,-210.04,200.0,11.15643883493322
487,0.449024972999986,-200.08,200.0,10.677037591951416
488,0.4498582769999899,-202.14,200.0,8.092804981588333
489,0.45069968399999283,-199.76,200.0,7.883510542072138
490,0.45153746199999745,-200.52,200.0,7.869783169058884
491,0.452388507000002,-203.82,200.0,6.480632952532014
492,0.4532384150000013,-260.72,198.06,9.08853903823296
493,0.45661500100000296,-217.34,200.0,6.793091533203875
494,0.45746286400000713,-205.7,200.0,9.383418379626269
495,0.4583034380000086,-204.98,200.0,9.885496938465192
496,0.4592019700000094,-201.56,200.0,9.208039139591358
497,0.4600362500000088,-199.0,200.0,7.133376461507714
498,0.4608747920000056,-204.3,200.0,7.119799359577394
499,0.4617150280000004,-200.12,200.0,7.119863218334645
500,0.4626085040000021,-199.76,200.0,7.134998977707968
501,0.4634455320000015,-199.18,200.0,7.344345345219155
502,0.4643663609999962,-199.18,200.0,5.571095566706896
503,0.46527275199999707,-200.92,200.0,7.176698273381808
504,0.4661176359999928,-199.18,200.0,7.581546216453658
505,0.4670063639999924,-203.62,200.0,8.411562059093963
506,0.46784725199999855,-203.74,200.0,10.138979115531338
507,0.468691843000002,-202.76,200.0,10.099442552176354
508,0.4695313060000075,-202.44,200.0,10.30320212706342
509,0.4703737300000057,-201.6,200.0,11.856545134614544
510,0.47121383500000746,-203.22,200.0,12.722042540004697
511,0.47206544800000216,-199.18,200.0,15.122909402442193
512,0.47292774700000706,-201.88,200.0,15.158910449295783
513,0.47380448700000954,-210.38,200.0,14.556994720299986
514,0.47464952700000396,-200.8,200.0,12.981068658506373
515,0.4755260170000071,-213.1,200.0,13.860546422480985
516,0.47638751400000956,-270.06,200.0,16.39617816241634
517,0.47758911400001125,-215.48,200.0,17.705651880308693
518,0.4784287660000075,-207.7,200.0,19.773706848631313
519,0.47926800800000535,-213.24,200.0,19.100330078628875
520,0.4801049120000087,-202.48,200.0,19.674109085764194
521,0.4809415760000064,-200.98,200.0,19.92463031199845
522,0.481800007000011,-202.58,200.0,21.191826160203238
523,0.48264199900001614,-202.58,200.0,21.028191335670734
524,0.48374155300002286,-214.3,200.0,20.420780349008297
525,0.48460854300002154,-201.56,200.0,17.46345531490557
526,0.4854812190000217,-201.16,200.0,13.397964169906686
527,0.4867286510000284,-200.8,200.0,15.097520162167177
528,0.48771377200002775,-247.64,200.0,15.837981309775572
529,0.4885623900000269,-199.0,200.0,17.25615905478143
530,0.4894514480000254,-201.16,200.0,17.209732224850946
531,0.49028770400003197,-201.52,200.0,15.724411884662794
532,0.4911546220000318,-201.34,200.0,13.660523726589371
533,0.4919917700000269,-200.48,200.0,12.513262562826581
534,0.4928540690000247,-204.22,200.0,13.209420146403428
535,0.49369248400002164,-204.94,200.0,14.018966412857598
536,0.494533345000022,-199.0,200.0,13.61673112249332
537,0.49539547400001993,-200.74,200.0,11.540170708852894
538,0.4962583020000153,-202.4,200.0,8.72717220926266
539,0.4971306480000166,-203.14,200.0,6.441270666437481
540,0.4983904820000191,-241.92,200.0,7.85655979584801
541,0.4995445630000219,-202.44,200.0,11.65815456480147
542,0.5003884000000269,-202.42,200.0,17.824891971483435
543,0.5012288370000277,-200.08,200.0,18.198409558728578
544,0.5024399630000289,-199.72,200.0,16.700661071069465
545,0.5032839680000265,-199.94,200.0,22.944129327654274
546,0.5041245710000268,-307.36,200.0,28.98622005392888
547,0.5049630850000284,-199.18,200.0,28.053573208234116
548,0.5058823710000269,-200.44,200.0,27.853216465148364
549,0.5067167350000261,-201.86,200.0,27.84090890339429
550,0.5076710760000225,-199.54,200.0,25.05931905888758
551,0.5085104530000208,-202.32,200.0,20.811612737903356
552,0.509729001000025,-205.96,200.0,14.570145276899996
553,0.5108605550000291,-204.84,200.0,15.075582910998182
554,0.5117514010000264,-206.22,200.0,15.038019283606136
555,0.5127516810000259,-200.52,200.0,8.800517459245615
556,0.5136506890000234,-201.1,200.0,3.642674776119243
557,0.5149116350000256,-199.36,200.0,3.6434279960198523
558,0.5157757520000246,-209.44,200.0,3.683893962781488
559,0.5166438840000254,-200.7,200.0,6.567825633622076
560,0.5175054840000257,-204.94,200.0,6.528502896902912
561,0.5183485210000285,-202.48,200.0,10.515876165547722
562,0.5191917390000285,-199.0,200.0,10.574165659605457
563,0.5200864060000328,-200.44,200.0,9.697679551125079
564,0.5209731620000326,-199.76,200.0,9.704257761121998
565,0.5222257590000368,-202.58,200.0,9.209842663737724
566,0.5230647120000356,-200.12,200.0,8.321822033163379
567,0.52390738200004,-204.4,200.0,11.11487331417418
568,0.5247718160000403,-201.7,200.0,12.652687085030292
569,0.5256411730000394,-203.06,200.0,10.023994557564459
570,0.5264831620000407,-211.94,200.0,10.050951596266918
571,0.5273510350000379,-204.4,200.0,6.561285333263065
572,0.5282147770000378,-218.34,200.0,7.332614924303039
573,0.5290829910000383,-213.38,200.0,10.653314613591487
574,0.5299575950000346,-199.58,200.0,11.394050901935179
575,0.5308035140000342,-200.98,200.0,13.702010404081122
576,0.5316690310000354,-200.74,200.0,15.630412887479128
577,0.5325457010000321,-201.06,200.0,17.725793741432465
578,0.5334350980000266,-213.94,200.0,16.21507267282164
579,0.5343804610000262,-200.08,200.0,16.890209941510665
580,0.5357821150000248,-203.86,200.0,16.99772146472967
581,0.5366481160000234,-199.94,200.0,16.382107017327197
582,0.5375865440000283,-199.9,200.0,15.551281111919547
583,0.538448401000025,-200.52,200.0,12.220881593885304
584,0.5393449950000289,-202.64,200.0,11.473035054434018
585,0.5403374530000278,-201.78,200.0,8.771070332003582
586,0.5411775120000257,-201.16,200.0,9.513281419309273
587,0.5420177050000206,-203.12,200.0,5.435397967367946
588,0.5432194130000241,-208.52,200.0,7.98312241281878
589,0.5440604150000254,-201.88,200.0,9.383313220404057
590,0.5449515940000254,-200.98,200.0,11.57922647360192
591,0.5457946540000265,-221.1,200.0,10.78638430689545
592,0.5471125530000265,-211.16,200.0,13.39591022481564
593,0.5481016230000293,-205.76,200.0,13.402349753586876
594,0.5489638020000243,-200.7,200.0,15.495339400462267
595,0.5498645920000271,-203.52,200.0,16.382576955965796
596,0.5510988690000289,-204.9,200.0,14.670427433897265
597,0.5519381410000292,-200.92,200.0,14.070995235986453
598,0.552806990000029,-200.08,200.0,13.348381371902855
599,0.5536754610000258,-200.66,200.0,12.59643300944629
600,0.5546730960000232,-224.62,200.0,10.264365337652146
601,0.5555194620000279,-202.78,200.0,11.666569928502962
602,0.5567374810000274,-214.8,200.0,11.646539009472543
603,0.5575822910000241,-214.68,200.0,12.94879101353003
604,0.5584473070000229,-204.64,200.0,13.20435540254366
605,0.5592933810000247,-207.22,200.0,14.887208572219288
606,0.5601612860000245,-204.32,200.0,16.281592869898322
607,0.560996629000023,-209.22,200.0,18.679628213600502
608,0.5618395710000215,-217.18,200.0,21.7502431694179
609,0.5629139890000232,-214.92,200.0,21.014202317881036
610,0.563794549000022,-203.64,200.0,23.127267651346536
611,0.5647763440000233,-207.7,200.0,22.51650976181448
612,0.5656621220000204,-204.26,200.0,22.021914995158824
613,0.5665044630000224,-200.26,200.0,21.531089000379204
614,0.567346860000022,-201.9,200.0,23.89749891843684
615,0.5683395410000216,-199.0,200.0,23.74678749991171
616,0.5691868750000211,-199.18,200.0,21.635830197381047
617,0.5700441230000237,-202.96,200.0,19.837116092047847
618,0.5709225740000292,-205.66,200.0,15.597018660102055
619,0.5721893810000296,-206.64,200.0,15.478228293234187
620,0.5733929260000323,-200.34,200.0,14.158327593794814
621,0.5742323020000342,-201.16,200.0,14.740024915235574
622,0.5750666890000318,-202.64,200.0,12.645880504620282
623,0.5759104030000373,-203.68,200.0,14.386240972725394
624,0.5767659990000382,-204.02,200.0,9.671408720510154
625,0.5779717680000331,-200.98,200.0,9.605955185296834
626,0.5788156060000347,-218.68,200.0,10.826268306377328
627,0.5796633350000349,-199.58,200.0,11.394093545409875
628,0.5805022840000333,-205.38,200.0,10.68562206063254
629,0.5813429600000362,-207.66,200.0,10.612035104502668
630,0.5822013430000368,-199.18,200.0,9.818198286310992
631,0.5830390640000402,-203.24,200.0,8.56967293692892
632,0.584029828000034,-204.72,200.0,16.54383475871322
633,0.5848692910000324,-217.14,200.0,16.593720544883023
634,0.5857115300000331,-203.44,200.0,24.247488004560022
635,0.5865509010000309,-209.24,200.0,23.35558687170003
636,0.5873941650000276,-199.0,200.0,24.47994287610588
637,0.5882516740000341,-200.66,200.0,27.426906319755194
638,0.5890860480000342,-201.34,200.0,29.12471690375994
639,0.5900034510000367,-205.92,200.0,30.56765171605831
640,0.5908508610000425,-200.62,200.0,30.5692753685434
641,0.5916852700000419,-203.14,200.0,32.42826892505068
642,0.5925265440000445,-202.24,200.0,25.157414328776103
643,0.5933770830000427,-199.0,200.0,22.758559265137574
644,0.5942408330000433,-201.56,200.0,15.105971540777329
645,0.5951027250000465,-201.78,200.0,17.832240441666578
646,0.5959771810000447,-206.42,200.0,15.989440844003727
647,0.5971848900000438,-202.6,200.0,12.60748292312422
648,0.5980299700000415,-204.02,200.0,13.498399890267502
649,0.5988717910000361,-200.48,200.0,12.281886891176999
650,0.6002210640000385,-199.54,200.0,12.283602314013804
651,0.6010985680000402,-200.08,200.0,10.72102540152087
652,0.6023224760000403,-199.58,200.0,10.098739483560816
653,0.6032002620000441,-200.12,200.0,12.238648776047897
654,0.6044779380000449,-199.18,200.0,14.330496504268552
655,0.605679095000049,-199.76,200.0,10.142668726538458
656,0.6065246590000513,-200.8,200.0,9.400691798447834
657,0.6076944010000531,-199.36,200.0,8.456773579830172
658,0.6085291390000549,-200.16,200.0,5.9197541552589
659,0.6093645980000559,-201.1,200.0,5.301486151300901
660,0.610230483000052,-212.5,200.0,6.116071668214357
661,0.6111259180000488,-203.86,200.0,5.752257498552552
662,0.6120282490000477,-201.88,200.0,7.083642739168572
663,0.612937595000048,-201.88,200.0,5.5524183366408675
664,0.6139276420000428,-204.54,200.0,3.465602064415319
665,0.6147938730000462,-199.0,200.0,3.6739811765363597
666,0.6156459330000459,-200.44,200.0,3.672168073453925
667,0.6168509940000462,-200.7,200.0,4.990468689966169
668,0.6177314840000463,-199.58,200.0,4.9830922338891055
669,0.6189613760000512,-199.72,200.0,5.542061911999556
670,0.6197977540000537,-203.74,200.0,4.725265855539083
671,0.6206358640000502,-201.32,200.0,4.732122513762002
672,0.6214770350000478,-202.46,200.0,3.384745702299244
673,0.6223691730000525,-200.16,200.0,5.377532680935468
674,0.623210330000056,-281.14,200.0,10.0572085958658
675,0.6240762610000559,-200.8,200.0,14.065679894123054
676,0.6249178960000563,-203.76,200.0,14.487637051945939
677,0.6257641010000583,-215.66,200.0,13.979272763308483
678,0.6266186660000557,-217.84,200.0,13.950902917120212
679,0.6278219790000534,-203.08,200.0,13.227326315011798
680,0.6286878720000502,-201.74,200.0,14.60295923648474
681,0.6295251120000458,-204.58,200.0,15.345342613191793
682,0.6303804730000522,-238.0,200.0,20.700225704276214
683,0.6312263640000566,-206.48,200.0,17.954442069068314
684,0.6320615430000558,-199.0,200.0,13.700543660910819
685,0.632934348000056,-205.74,200.0,10.372020367530213
686,0.6340576930000594,-199.0,200.0,10.906863657588923
687,0.6348979230000609,-206.32,200.0,14.975905681716807
688,0.635741186000061,-204.94,200.0,14.94610691963337
689,0.6367390050000665,-207.68,200.0,17.381443881066716
690,0.6375773870000714,-207.96,200.0,17.59440096833891
691,0.6387785600000697,-207.18,200.0,23.42402031643644
692,0.639771428000067,-208.7,200.0,19.632030821164523
693,0.640981570000065,-208.28,200.0,22.603392592125736
694,0.6418317430000613,-199.9,200.0,22.424175725708828
695,0.642677712000058,-199.9,200.0,22.357992441412772
696,0.6435427890000582,-201.9,200.0,21.40594712383941
697,0.6444574970000616,-200.52,200.0,22.03567092187069
698,0.6453035900000614,-313.84,200.0,22.028812328160416
699,0.6461441340000604,-274.4,200.0,22.609801900571522
700,0.6472454380000627,-258.88,200.0,21.02050084671448
701,0.6481595510000631,-216.56,200.0,16.76068402653551
702,0.6490994520000655,-202.68,200.0,17.916164960588993
703,0.6500979290000686,-205.3,200.0,17.314128388840935
704,0.6509853490000665,-204.5,200.0,18.50821876516654
705,0.652242220000069,-200.92,200.0,19.05945349688061
706,0.6531441020000628,-209.44,200.0,19.060824628146353
707,0.6540098250000668,-208.56,200.0,15.15706482965243
708,0.6549445980000641,-203.24,200.0,20.256303407257473
709,0.655798003000065,-200.08,200.0,21.95797982592104
710,0.657003595000063,-200.08,200.0,21.9596315110444
711,0.6578396750000621,-203.22,200.0,19.569438926506386
712,0.6586919220000595,-200.34,200.0,17.62128045225366
713,0.6598997650000555,-202.04,200.0,15.23198294464773
714,0.660767728000053,-206.88,200.0,15.311063885463687
715,0.6616038550000525,-200.3,200.0,13.93740552922824
716,0.6628653150000545,-253.3,200.0,17.01724983763068
717,0.663818007000053,-219.3,200.0,16.277316776620015
718,0.6647013830000503,-229.2,200.0,13.787538837481979
719,0.6656196110000465,-199.58,200.0,9.044174958145053
720,0.6664816270000529,-214.16,200.0,9.061940623743084
721,0.667375962000051,-206.14,200.0,11.86060604016064
722,0.6682208510000507,-235.14,200.0,13.600983580095214
723,0.6690585250000467,-204.34,200.0,16.165900129411433
724,0.6699358120000483,-210.7,200.0,14.890002738919364
725,0.6711951110000456,-210.0,200.0,16.41265713145163
726,0.6720481550000486,-203.96,200.0,15.979500695261446
727,0.6728945840000478,-214.18,200.0,17.762918187956643
728,0.6741133260000467,-215.38,200.0,17.70972889471694
729,0.6749555830000489,-202.24,200.0,18.95636531736789
730,0.6758002450000475,-202.8,200.0,21.496289208206083
731,0.6766384670000463,-216.94,200.0,20.284393808268362
732,0.6775480080000449,-201.34,200.0,19.048375397854226
733,0.678387933000046,-220.8,200.0,17.342687684422376
734,0.6792303000000501,-208.24,200.0,19.703161777816785
735,0.6805121290000571,-200.8,200.0,19.554648358787937
736,0.6813732350000592,-199.0,200.0,17.65462208192974
737,0.682283287000061,-199.0,200.0,15.006076064208447
738,0.683127573000057,-199.0,200.0,12.451678641157065
739,0.6839677300000631,-225.1,200.0,11.136865110446209
740,0.6849144810000567,-203.14,200.0,8.657960809323969
741,0.685908262000062,-201.9,200.0,7.074672120424428
742,0.6867908580000588,-204.94,200.0,6.551957677146618
743,0.6879162190000585,-199.36,200.0,8.205988663523586
744,0.6888842820000605,-199.36,200.0,5.851160872033861
745,0.6901506660000578,-203.06,200.0,7.10957129401783
746,0.6909906990000536,-201.9,200.0,6.61840748610158
747,0.6918375020000482,-200.7,200.0,7.462576392178366
748,0.692708805000052,-233.22,200.0,10.07036574105779
749,0.6935724200000521,-199.76,200.0,10.332389220016395
750,0.6948095720000538,-201.16,200.0,11.197549899085042
751,0.6957990220000525,-200.8,200.0,12.497906459477036
752,0.6966779180000557,-201.02,200.0,12.975790172475419
753,0.6975453790000543,-201.74,200.0,11.269075694112457
754,0.698390041000053,-201.24,200.0,11.015845564107456
755,0.6993916330000474,-208.06,200.0,8.618617645788685
756,0.7006480990000483,-203.38,200.0,9.166679259710598
757,0.7015587610000509,-200.84,200.0,8.579221409695023
758,0.7027599770000563,-207.44,200.0,6.765286838392162
759,0.7036229750000587,-202.26,200.0,6.526630567544845
760,0.7045195180000619,-204.4,200.0,5.580444734178459
761,0.7057349000000599,-199.36,200.0,4.549462985062801
762,0.7065857540000664,-199.18,200.0,3.2545819043644713
763,0.7078174950000644,-200.8,200.0,4.957114334069286
764,0.708657046000063,-199.0,200.0,4.9552234649913185
765,0.7095317050000673,-199.18,200.0,4.800431929144061
766,0.7103990300000689,-203.02,200.0,3.990718246665499
767,0.7112466890000704,-199.18,200.0,4.614930208602861
768,0.7120912600000722,-204.22,200.0,3.836025349047472
769,0.7129362430000725,-201.64,200.0,3.8198029226453203
770,0.7137788950000683,-199.36,200.0,5.286286346289063
771,0.7149810910000696,-205.66,200.0,5.015365595682958
772,0.7158361130000728,-199.18,200.0,7.600650949756281
773,0.71667685000007,-202.08,200.0,7.6568276477701955
774,0.7175212330000704,-206.72,200.0,7.65905825661225
775,0.7183664410000716,-199.94,200.0,7.5807217010463805
776,0.71924579300007,-199.58,200.0,7.603265281792892
777,0.7200856070000725,-199.18,200.0,6.72989939325397
778,0.7209538420000712,-204.22,200.0,6.7125379219553905
779,0.7220398390000753,-203.42,200.0,8.025036140382621
780,0.7229312380000721,-203.54,200.0,6.791345177266128
781,0.7238764610000743,-201.68,200.0,6.787113333075952
782,0.7247997260000716,-219.3,200.0,4.203286677949471
783,0.7257542640000736,-203.44,200.0,2.2677162562591078
784,0.7266294950000685,-201.34,200.0,2.2857099196313415
785,0.7275367430000657,-203.66,200.0,2.283120956077565
786,0.7284116560000626,-200.62,200.0,2.2628254657862628
787,0.7293101990000679,-200.26,200.0,2.4645337523007655
788,0.7301788210000666,-201.38,200.0,2.4710920780973766
789,0.7310417000000697,-207.04,200.0,1.1514408091730104
790,0.7319161480000673,-201.34,200.0,0.9186507256409058
791,0.7328079690000635,-207.14,200.0,0.9163260637587115
792,0.7336769290000618,-204.22,200.0,1.7874529748733707
793,0.7345750800000559,-204.58,200.0,2.590421167461257
794,0.7355306240000559,-199.72,200.0,4.918515821048096
795,0.7364081610000568,-199.36,200.0,4.918644989722097
796,0.7372402860000591,-199.54,200.0,4.918459193587971
797,0.7380830290000588,-211.48,200.0,4.7282837480435065
798,0.7389280130000628,-201.24,200.0,4.723605811700975
799,0.73976694600006,-200.16,200.0,4.723569039553164
800,0.7406539710000573,-199.0,200.0,4.789076270674134
801,0.7416368490000522,-201.82,200.0,4.800923385614122
802,0.7425130390000518,-202.66,200.0,6.02055102092992
803,0.7433653640000486,-199.18,200.0,4.6891125564786975
804,0.7442169100000484,-202.0,200.0,2.54938261796037
805,0.7450874380000485,-202.72,200.0,5.161268405008585
806,0.7463322220000492,-201.32,200.0,7.505703509117477
807,0.7471981830000516,-199.94,200.0,7.4867944672285365
808,0.7480441620000491,-199.0,200.0,7.486213502241503
809,0.7488826780000437,-201.1,200.0,7.48604835637744
810,0.7498003960000403,-199.76,200.0,10.030726163846396
811,0.7506760060000417,-200.66,200.0,10.018942057697098
812,0.7515826620000468,-200.74,200.0,7.925957923070756
813,0.7527615970000454,-205.42,200.0,7.779914138923284
814,0.7538036630000491,-200.44,200.0,7.638456495382426
815,0.754661897000048,-207.36,200.0,6.432276045670378
816,0.7555401940000479,-200.34,200.0,4.092783909817139
817,0.7564069900000518,-209.04,200.0,5.559859075630307
818,0.7572805150000548,-203.24,200.0,5.6432611364392615
819,0.758146892000056,-199.0,200.0,7.257451266014665
820,0.75942718200006,-265.7,200.0,7.489019464499411
821,0.7602801410000595,-212.88,200.0,10.07075799173705
822,0.7611310390000625,-200.48,200.0,11.912625354391654
823,0.7620068810000618,-200.12,200.0,12.135343686375482
824,0.7628447230000575,-200.16,200.0,12.06876400932577
825,0.7637034840000609,-200.74,200.0,10.66522629368857
826,0.7649071140000601,-201.06,200.0,15.34270993366016
827,0.7657535820000589,-220.2,200.0,13.875423340786702
828,0.7669779570000586,-201.28,200.0,14.493301882120246
829,0.7678773390000586,-231.48,200.0,15.799072287741533
830,0.7687439350000602,-224.08,200.0,15.810382646782392
831,0.76994894700006,-210.9,200.0,15.81972942070974
832,0.7707895850000597,-204.74,200.0,16.309895771667595
833,0.7716677870000623,-228.96,200.0,18.670882192846058
834,0.772538089000065,-229.16,200.0,20.264533713876713
835,0.7734145060000657,-200.26,200.0,22.89014450224507
836,0.7742928390000685,-202.18,200.0,20.70645020249713
837,0.7754973560000664,-201.88,200.0,22.081804883978485
838,0.7763650580000601,-210.24,200.0,23.40250718749884
839,0.7772307940000616,-203.04,200.0,21.468251846484897
840,0.7780939260000608,-204.22,200.0,21.175549230538238
841,0.7793491060000619,-214.74,200.0,21.191972850910474
842,0.7801960520000648,-216.42,200.0,21.208996910744393
843,0.7810390480000677,-231.62,200.0,21.51932693033328
844,0.7818831250000642,-328.42,200.0,20.811765588773074
845,0.7827826790000643,-202.58,200.0,19.003602793955046
846,0.7836849790000642,-221.84,200.0,19.11278734717851
847,0.7845634280000624,-200.62,200.0,18.56144730118634
848,0.7854031420000638,-209.26,200.0,20.268637787552073
849,0.7862763420000647,-199.18,200.0,21.631519988439653
850,0.787189265000066,-199.0,200.0,19.897045962602355
851,0.7880577490000675,-211.94,200.0,17.54944519950183
852,0.7889814110000657,-222.2,200.0,17.81620340777919
853,0.7902585520000613,-214.84,200.0,17.530430044924167
854,0.7912706400000644,-203.98,200.0,19.2528822811445
855,0.7921166780000632,-200.34,200.0,18.434147929878627
856,0.7929607500000628,-200.34,200.0,15.8307004522101
857,0.7937978900000644,-203.06,200.0,19.22274508328524
858,0.7950000980000596,-201.24,200.0,15.911776095140706
859,0.7958614170000544,-201.52,200.0,14.520038616325337
860,0.7966949920000488,-202.54,200.0,13.907843572582578
861,0.7975600320000495,-225.86,200.0,13.857179439167828
862,0.7984056820000518,-206.14,200.0,13.609012491582956
863,0.7992716590000484,-201.56,200.0,11.837512415536867
864,0.800171109000047,-208.6,200.0,9.231868658436067
865,0.8010113420000451,-221.62,200.0,9.50361990533734
866,0.8020113530000472,-207.12,200.0,11.864717005402204
867,0.8032173000000498,-200.74,200.0,7.731492186840532
868,0.8040597810000492,-205.38,200.0,7.3121464807588
869,0.8049621970000516,-201.9,200.0,8.964887775188455
870,0.8062157960000533,-221.84,200.0,8.86684024139655
871,0.8070568840000547,-205.14,200.0,9.533193329229137
872,0.8079070970000544,-200.16,200.0,9.775544170138787
873,0.8087446350000533,-201.1,200.0,8.940578194110973
874,0.8096788950000544,-214.34,200.0,17.0155051961575
875,0.8105239190000546,-202.18,200.0,16.76295125682443
876,0.8114330230000562,-199.0,200.0,14.835240393181675
877,0.8122676200000569,-206.24,200.0,16.894849592487315
878,0.8131077880000603,-208.74,200.0,18.310271052809423
879,0.8140067930000612,-208.72,200.0,15.818163010466293
880,0.8148538100000593,-204.3,200.0,15.72602012893932
881,0.8157171690000595,-199.0,200.0,17.20003659832638
882,0.8165620050000584,-201.02,200.0,15.40140661864071
883,0.817422094000058,-199.72,200.0,15.420385804873586
884,0.8186133470000527,-200.08,200.0,9.456603761649129
885,0.8194823470000472,-204.08,200.0,10.99945304805848
886,0.8203238850000432,-199.76,200.0,14.771605514683344
887,0.8215368530000404,-205.38,200.0,13.94854284058864
888,0.8224319340000434,-218.62,200.0,13.60937826896703
889,0.8233183830000428,-205.92,200.0,14.351229279412928
890,0.8241869970000408,-209.98,200.0,14.414113994168758
891,0.8250245070000446,-200.7,200.0,12.918370499087573
892,0.8258666010000439,-204.54,200.0,12.109342854884975
893,0.8267095510000431,-235.54,200.0,14.698358991187103
894,0.8279240270000443,-202.04,200.0,15.166956670554777
895,0.828798138000046,-211.64,200.0,13.631954149248333
896,0.8296361500000415,-206.86,200.0,11.030154117841825
897,0.8305158110000406,-233.22,200.0,12.55332414968318
898,0.8315137730000401,-209.8,200.0,16.15604339098723
899,0.8323862320000401,-231.08,200.0,17.643214684545956
900,0.8332909780000435,-199.0,200.0,20.15111296917367
901,0.8341569260000483,-204.5,200.0,19.704799980172027
902,0.8350616580000505,-269.82,200.0,21.16450933766753
903,0.8359333290000492,-203.2,200.0,20.684731385994162
904,0.8367773270000498,-202.84,200.0,18.41337504276965
905,0.8376404480000446,-204.4,200.0,23.318492330014188
906,0.8385087620000462,-209.44,200.0,24.086904104584573
907,0.839343335000045,-204.8,200.0,23.854353082602408
908,0.8402049800000455,-209.04,200.0,19.907105963008853
909,0.8411316300000422,-201.68,200.0,20.6077727207046
910,0.8421417920000422,-199.58,200.0,18.03727385580123
911,0.8429887040000423,-199.0,200.0,22.375886586565837
912,0.8442639470000444,-215.82,200.0,23.756200548090682
913,0.8452537980000443,-199.94,200.0,24.021239635403568
914,0.8461069110000423,-204.1,200.0,26.344442489394396
915,0.8469595890000434,-215.86,200.0,22.908234426036962
916,0.8478057350000441,-199.36,200.0,22.810595162943635
917,0.8490193740000507,-202.0,200.0,20.410202139718088
918,0.8499374000000515,-209.4,200.0,21.34951409634444
919,0.8508371080000501,-201.68,200.0,18.302488573324148
920,0.8518359590000486,-206.34,200.0,20.837211545908122
921,0.8526997340000477,-205.38,200.0,16.095652502465473
922,0.8535645520000443,-204.9,200.0,13.253956740387945
923,0.854429836000044,-202.22,200.0,11.518635631698569
924,0.8555619260000498,-200.34,200.0,11.516168092352524
925,0.8564666610000558,-199.18,200.0,10.909939655206546
926,0.8574693510000557,-199.18,200.0,8.631155717474183
927,0.8583351190000528,-201.24,200.0,8.422281244458754
928,0.8591719870000532,-199.18,200.0,6.751168314975928
929,0.8600915840000525,-199.54,200.0,6.7636232707310215
930,0.8609314200000497,-201.42,200.0,4.205093584287312
931,0.8617791920000499,-202.96,200.0,6.858123194001625
932,0.8626221580000504,-200.3,200.0,9.251265289257308
933,0.8634533910000499,-199.72,200.0,8.598545605299204
934,0.8642926850000521,-216.14,200.0,6.940588255579068
935,0.8651331870000547,-206.02,200.0,7.694906306908412
936,0.8659762280000578,-209.4,200.0,7.700254037602821
937,0.8669677430000604,-210.2,200.0,8.658348500065697
938,0.8681852630000648,-199.18,200.0,9.560600177376646
939,0.8690303910000665,-214.8,200.0,12.183366470940644
940,0.8700232530000704,-199.54,200.0,14.816539644374751
941,0.8708836000000701,-201.92,200.0,12.165402025169188
942,0.8720860500000711,-202.06,200.0,9.982899171730693
943,0.8729390550000744,-200.52,200.0,9.975678885102642
944,0.873801529000076,-199.9,200.0,10.671479113290246
945,0.8746505170000773,-201.46,200.0,9.922441574470886
946,0.8755202350000815,-199.76,200.0,11.437632952893605
947,0.8763911470000849,-200.34,200.0,10.485110227612227
948,0.8776448890000808,-204.1,200.0,9.6546101556672
949,0.8785521240000804,-208.64,200.0,7.092860831750976
950,0.879450250000076,-216.0,200.0,4.466309566516282
951,0.8803083130000786,-199.58,200.0,4.459740745571497
952,0.8811891720000773,-199.58,200.0,4.314089394749454
953,0.8820646600000757,-199.72,200.0,4.314089380187288
954,0.8829318520000768,-201.82,200.0,4.147524068105892
955,0.8838067940000727,-204.98,200.0,3.9702068236878008
956,0.8846617840000732,-202.76,200.0,5.061786048067267
957,0.8855027210000728,-222.88,200.0,7.873080620057498
958,0.8863377260000718,-199.54,200.0,7.801370612734473
959,0.8871765170000714,-199.18,200.0,7.7284083281814535
960,0.8880204590000744,-206.98,200.0,7.947690276459997
961,0.8892268900000744,-203.02,200.0,10.227313151856498
962,0.890077287000075,-200.16,200.0,10.162008155639723
963,0.890921112000072,-213.24,200.0,10.184642716379038
964,0.891756375000071,-205.3,200.0,11.309351128661714
965,0.8926263160000758,-236.12,200.0,13.41030049881984
966,0.8934677870000769,-208.84,200.0,13.59310229961658
967,0.8943089160000781,-202.76,200.0,11.17424190083056
968,0.8952146920000814,-209.98,200.0,11.984463799641356
969,0.8960796150000832,-204.76,200.0,12.712868944815705
970,0.896914826000085,-225.82,200.0,12.559898952515905
971,0.8977535460000823,-224.38,200.0,10.300542098730734
972,0.8985920250000845,-205.32,200.0,11.049843815706243
973,0.8994413130000893,-210.42,200.0,11.910756963966268
974,0.9004363730000904,-208.82,200.0,10.165833319457771
975,0.9012779100000898,-204.18,200.0,7.347912566362392
976,0.90216608700009,-206.72,200.0,4.550782557758502
977,0.9030027470000874,-208.02,200.0,12.039770510393515
978,0.9042110210000871,-207.62,200.0,15.930747676709782
979,0.9050788160000849,-202.04,200.0,15.996128358293447
980,0.9062886480000856,-206.36,200.0,24.223071483287388
981,0.907866327000086,-209.22,200.0,26.81280530034943
982,0.9087163760000863,-222.56,200.0,30.271136402330576
983,0.9095560740000863,-207.98,200.0,30.90498151031162
984,0.9103946060000823,-210.02,200.0,30.026379484545714
985,0.9112707680000796,-218.72,200.0,30.819853552341613
986,0.9121387350000774,-208.06,200.0,33.41375412361414
987,0.9130168220000741,-202.14,200.0,26.987839364392848
988,0.9138661380000741,-204.8,200.0,24.635704807398156
989,0.9150755970000688,-209.26,200.0,26.19389956835737
990,0.9159180990000735,-202.14,200.0,17.908683229838495
991,0.9167597690000733,-205.34,200.0,15.31818496698323
992,0.9178224200000784,-199.58,200.0,11.126370622239595
993,0.9186958750000755,-199.58,200.0,9.622136665306435
994,0.9195593990000788,-199.94,200.0,9.748191960024101
995,0.9204004650000783,-199.0,200.0,8.952943202280874
996,0.9212623770000761,-199.0,200.0,6.359048533831024
997,0.9221540260000722,-200.66,200.0,4.897237947247177
998,0.9235282010000745,-205.96,200.0,3.3617230887162153
999,0.9243986500000716,-200.34,200.0,1.0963817156399016
1000,0.9252979240000698,-200.26,200.0,1.8237787091224675
