iter,time,reward,steps,convergence
1,0.026090743,-1992.62,300.0,83.09099448319999
2,0.04654227799999999,-2179.5,300.0,61.50344461142887
3,0.06484409000000002,-2013.53,300.0,22.99770920151031
4,0.0821118660000002,-1585.5,300.0,20.00555928039787
5,0.09889235700000021,-763.81,300.0,13.009694192207064
6,0.11739317800000038,-737.7,300.0,12.440100648701772
7,0.1357052280000004,-624.4,300.0,12.011752236919278
8,0.16352832600000067,-616.13,300.0,11.80273467308865
9,0.18186411700000082,-613.25,300.0,11.59217275621215
10,0.19897836800000102,-626.75,300.0,11.368490872840113
11,0.21561025500000053,-610.8,300.0,11.142542416056386
12,0.23227775000000062,-621.72,300.0,10.919125532698445
13,0.25119606300000097,-620.52,300.0,10.6841560667483
14,0.2924558890000011,-619.3,300.0,10.452727023598982
15,0.3090607150000002,-621.74,300.0,10.219791121860396
16,0.32618930499999976,-623.7,300.0,9.977782401546278
17,0.3427265249999998,-608.22,300.0,9.734110199693049
18,0.3592244149999999,-630.27,300.0,9.286100004469745
19,0.37563929999999957,-623.47,300.0,8.863134742594724
20,0.391916715999999,-626.45,300.0,8.758410485108755
21,0.4084416759999989,-627.68,300.0,8.642127906025848
22,0.42491598899999783,-624.81,300.0,8.516865255252156
23,0.4452771449999986,-620.07,300.0,8.177705377226602
24,0.46164819399999857,-626.61,300.0,7.295038454913623
25,0.47965024300000003,-614.18,300.0,4.586738982548667
26,0.49607303400000013,-641.45,300.0,4.513603223265079
27,0.5140525099999991,-616.75,300.0,4.44127507333269
28,0.5315710019999997,-627.33,300.0,4.369950192361642
29,0.5481575870000004,-617.8,300.0,4.296091321380317
30,0.568620246,-613.94,300.0,4.188118119240016
31,0.5858144959999994,-629.6,300.0,4.020862798875214
32,0.6024440329999994,-629.09,300.0,3.8523071654273053
33,0.6189724849999987,-625.61,300.0,3.691719691538651
34,0.6354003179999985,-627.31,300.0,3.540611900238247
35,0.6517687129999992,-617.33,300.0,3.3988688064334838
36,0.6686878669999992,-630.95,300.0,3.265987674569402
37,0.6854688269999976,-619.17,300.0,2.956897169259463
38,0.7136858299999975,-618.59,300.0,2.496207507149421
39,0.7306828489999972,-622.66,300.0,2.4609254034021575
40,0.7507110539999982,-610.12,300.0,2.4261570559273764
41,0.7671714289999993,-619.77,300.0,2.3918947959467687
42,0.7834928619999992,-621.39,300.0,2.3581310701043776
43,0.8001010629999996,-625.76,300.0,2.324858440073541
44,0.8165393450000007,-620.67,300.0,2.292069581036799
45,0.8330604810000022,-637.0,300.0,2.259757279943017
46,0.8495258740000047,-636.16,300.0,2.213510471340868
47,0.8660150510000051,-629.59,300.0,2.1682178534024388
48,0.8824529820000073,-615.33,300.0,2.122205663554695
49,0.9015730390000094,-622.68,300.0,2.064487665654866
50,0.9181666550000074,-621.23,300.0,2.0081170386658584
51,0.9346069660000076,-619.26,300.0,1.9384796982099317
52,0.9511377670000059,-629.34,300.0,1.864375157539456
53,0.9682781310000053,-619.72,300.0,1.7908381914697884
54,0.984766839000006,-620.32,300.0,1.7197961467022935
55,1.0039396990000071,-599.31,300.0,1.6522121921746304
56,1.0202127120000064,-608.41,300.0,1.593180045928392
57,1.0367627450000043,-617.85,300.0,1.5707317826753808
58,1.0530863650000057,-631.23,300.0,1.5486940706836947
59,1.0694926670000058,-611.57,300.0,1.5270536634419898
60,1.0859421760000068,-637.13,300.0,1.505798032433205
61,1.1024593380000063,-614.14,300.0,1.4849153136805455
62,1.1192421630000062,-629.34,300.0,1.4643942729057926
63,1.135724302000007,-624.27,300.0,1.4442242608848517
64,1.1522268950000054,-618.97,300.0,1.424395176929039
65,1.172409462000008,-622.27,300.0,1.4048974323945345
66,1.188840979000009,-622.56,300.0,1.38572191624948
67,1.2053931260000077,-632.08,300.0,1.3668599635170438
68,1.221885964000009,-616.32,300.0,1.3483033101708486
69,1.2384096270000065,-616.88,300.0,1.3300440668506042
70,1.2550127830000086,-625.68,300.0,1.3120747479219403
71,1.2714408280000065,-615.0,300.0,1.2943882202976909
72,1.2880805820000063,-604.46,300.0,1.276977672535196
73,1.3045303040000071,-624.3,300.0,1.25983659078247
74,1.3209424760000061,-632.17,300.0,1.242952111370215
75,1.3392100530000057,-621.74,300.0,1.2262736129521272
76,1.3554342000000048,-605.97,300.0,1.2098686617412397
77,1.3719561510000062,-614.14,300.0,1.1937266307803043
78,1.3910714370000044,-618.45,300.0,1.1778334782143816
79,1.407964706000005,-633.48,300.0,1.162179832718465
80,1.4245819850000032,-619.0,300.0,1.1467589356957149
81,1.4420765830000022,-627.17,300.0,1.1315652717578644
82,1.4631803930000018,-622.19,300.0,1.116593951314428
83,1.4793735490000017,-603.4,300.0,1.101840441416158
84,1.495616247000001,-637.17,300.0,1.0873002175957538
85,1.512031880000002,-611.57,300.0,1.0729693244785494
86,1.5286948060000007,-599.74,300.0,1.0588439185152936
87,1.5452460870000024,-622.93,300.0,1.0449201982481497
88,1.562666838000002,-620.45,300.0,1.0311944564828934
89,1.5791033760000026,-603.42,300.0,1.017663097324288
90,1.5960546340000015,-628.08,300.0,1.0043226400634069
91,1.6128103250000052,-613.41,300.0,0.9911697146351912
92,1.6291038780000058,-626.39,300.0,0.9782010545451385
93,1.645616812,-612.88,300.0,0.9654134901164184
94,1.6624789580000012,-604.19,300.0,0.9528039426576811
95,1.682690578000006,-620.0,300.0,0.9403694194207333
96,1.6989842350000117,-616.88,300.0,0.9281070091332424
97,1.7153497710000138,-640.0,300.0,0.9160138779485578
98,1.7318470620000141,-614.78,300.0,0.9040872657161572
99,1.7507930120000168,-621.8,300.0,0.8923244825206496
100,1.7678364290000133,-629.77,300.0,0.8807229054516768
