iter,time,reward,steps,convergence
1,0.0014154459999993207,-274.44,197.32,91.68390000000001
2,0.0021102170000020237,-260.36,197.02,82.5939
3,0.0030527940000020237,-245.56,198.02,77.49683100000001
4,0.003920162000000005,-202.66,200.0,67.62032100000002
5,0.004759073999998975,-203.34,200.0,60.330302381385124
6,0.0055979690000000915,-204.16,199.58,52.523259904780176
7,0.0064410830000021235,-204.9,198.5,42.6430859139668
8,0.007328069000003268,-200.94,199.58,35.3530859139668
9,0.008163170000003106,-202.04,200.0,25.454837970127382
10,0.009000142000001432,-199.36,200.0,15.554844465488145
11,0.00998727600000393,-198.22,198.46,13.056921857948428
12,0.010880321000005466,-202.26,200.0,13.056111857932649
13,0.011797199000007197,-206.9,200.0,10.863180857932646
14,0.012736201000009828,-205.66,200.0,15.599792413942799
15,0.01364672200001138,-199.36,200.0,13.777973806105269
16,0.014499322000013137,-206.0,200.0,12.489229081867252
17,0.015489092000013471,-199.58,200.0,12.46957972329756
18,0.016334602000011245,-205.48,200.0,11.952536933698623
19,0.01722141700001245,-200.62,200.0,11.974274928319549
20,0.018058368000012592,-202.04,200.0,12.767691966578763
21,0.018940882000013204,-200.8,200.0,16.65024313353195
22,0.0201427500000122,-200.12,200.0,20.527456998116385
23,0.020990079000011264,-201.68,200.0,18.654303691498992
24,0.0218337700000113,-199.36,200.0,14.543740026874625
25,0.022668616000007802,-200.08,200.0,14.406417880047158
26,0.023506112000013957,-199.94,200.0,14.390363952979857
27,0.024765266000009944,-199.18,200.0,14.45527147704613
28,0.02560288800000876,-199.36,200.0,12.362315255232865
29,0.026442143000011242,-202.44,200.0,12.338878733748228
30,0.027280002000011905,-200.7,200.0,11.552313783460086
31,0.028123935000010647,-201.52,200.0,7.8226457223397885
32,0.02897001900001328,-199.36,200.0,6.204717383193322
33,0.029809082000014087,-200.16,200.0,7.492030514460727
34,0.03064284400001327,-200.34,200.0,6.8425067739486725
35,0.03147380300001856,-228.14,200.0,8.802335413320158
36,0.032307455000022856,-205.96,200.0,10.775802464649896
37,0.033165751000026944,-215.34,200.0,10.712667291687252
38,0.03400206900002445,-208.82,200.0,10.71475929344422
39,0.034844703000025845,-207.48,200.0,13.324712234966437
40,0.03604403200002082,-200.7,200.0,16.19439026390621
41,0.036880354000018656,-202.54,200.0,19.983186822808626
42,0.03778329400001468,-208.12,200.0,17.644449813539275
43,0.03862957800001254,-213.68,200.0,15.850984003380251
44,0.039481883000007656,-217.08,200.0,15.85113516485984
45,0.04032047100000824,-298.88,197.76,14.042601371635461
46,0.041534799000011446,-202.78,200.0,13.879153801497825
47,0.04237055100001186,-199.0,200.0,13.9186689984775
48,0.04330464200000961,-202.26,200.0,13.98957009102536
49,0.044141548000006026,-202.1,200.0,11.383710034634984
50,0.04506327200000726,-209.2,200.0,11.045057827806346
51,0.045980672000005995,-203.5,200.0,7.017416608574247
52,0.047942740999999955,-204.54,200.0,7.103965611117976
53,0.04880934700000239,-208.62,200.0,9.510695001509479
54,0.049673679000001414,-243.9,200.0,12.347133753251237
55,0.05051563399999992,-201.64,200.0,15.888134305591922
56,0.05138056999999918,-203.68,200.0,14.115442771194518
57,0.05255301099999343,-200.88,200.0,16.09256902496772
58,0.053395983999990904,-209.94,200.0,16.24707938890678
59,0.05425918699998533,-201.68,200.0,19.08164077064915
60,0.055115293999982384,-209.96,200.0,21.01572907219266
61,0.05603856199998347,-199.0,200.0,21.015720613865756
62,0.05690564399998266,-199.18,200.0,20.448356756904133
63,0.058135879999987594,-199.36,200.0,18.068204987156314
64,0.059018360999985475,-200.98,200.0,16.12683948856799
65,0.059857539999988774,-201.52,200.0,12.501595257528328
66,0.060693925999991905,-200.66,200.0,11.676756979932449
67,0.0615320949999969,-201.86,200.0,9.658785639993905
68,0.06239221799999939,-199.36,200.0,10.256743672665102
69,0.06325369399999659,-200.08,200.0,7.811308132074501
70,0.06436415900000014,-201.9,200.0,3.359795266337619
71,0.06522967699999782,-199.36,200.0,3.393778044204511
72,0.06643024099999906,-204.1,200.0,3.150977104945453
73,0.06729944899999651,-204.16,200.0,2.8943864613510826
74,0.06819825400000212,-203.86,200.0,3.519145511012492
75,0.06905993300000546,-201.88,200.0,2.804652732947696
76,0.06990435400000194,-203.54,200.0,3.621112841258706
77,0.07089401400000384,-199.36,200.0,4.507899321422757
78,0.07175324500000357,-199.0,200.0,3.696125490965346
79,0.07261331900000556,-201.1,200.0,3.3916709404563905
80,0.07349143400000457,-216.28,199.94,8.013813146062011
81,0.07435641700000417,-199.72,200.0,7.980192925709785
82,0.07524735600000554,-214.8,200.0,7.9780080071977775
83,0.07614343100000553,-212.92,198.76,10.789461173414576
84,0.07697915900000396,-216.76,200.0,9.27362407261568
85,0.07790462200000547,-210.7,200.0,9.551438471921909
86,0.07877931100000524,-201.2,200.0,8.734354884452179
87,0.07978602400000767,-226.74,200.0,9.219831709067753
88,0.08065062700000425,-208.82,200.0,10.796988858836693
89,0.08185185600000722,-208.4,200.0,11.450719492137427
90,0.08268991500000311,-214.4,200.0,12.889840865861936
91,0.08353424600000636,-228.58,200.0,15.874858983327263
92,0.08473826000000884,-209.62,200.0,20.573946753108235
93,0.08571805400001153,-209.22,200.0,20.339765804788765
94,0.08658922800001534,-204.2,200.0,21.767366552961352
95,0.08743382100001895,-202.5,200.0,21.516435305139538
96,0.08830398400001371,-213.22,200.0,25.926410243009695
97,0.08913656900001854,-203.12,200.0,24.553636976174978
98,0.09034241300001611,-202.96,200.0,23.78106362519435
99,0.09118217200001055,-202.5,200.0,23.052832763634306
100,0.09209412400001327,-205.56,200.0,21.731592552552115
101,0.09334011500001793,-224.26,200.0,21.104006537969553
102,0.0945246140000151,-200.26,200.0,18.95872777028814
103,0.09541813700001,-201.16,200.0,17.199648267691845
104,0.09632241700001032,-209.94,200.0,16.64209659605676
105,0.09718872000001255,-201.34,200.0,20.506394322221915
106,0.09805033300001753,-206.56,200.0,16.91902318132344
107,0.09931319800001859,-201.82,200.0,17.7371871050859
108,0.10017693800001837,-202.54,200.0,19.507907128532004
109,0.1010260730000141,-218.66,200.0,19.701141560383036
110,0.1018618400000122,-204.86,200.0,15.888610282221975
111,0.10269777400001345,-204.58,200.0,13.53859748654342
112,0.10356148600001092,-213.02,200.0,11.834007388160735
113,0.10440207700001025,-199.94,200.0,11.228931223149496
114,0.105272613000011,-201.02,200.0,11.165891690521953
115,0.10610993600000995,-199.54,200.0,8.081310377435138
116,0.1069536550000123,-199.72,200.0,7.280042070055847
117,0.10815487800001478,-202.32,200.0,7.343475279830434
118,0.10900288800001334,-211.54,200.0,7.527605512587302
119,0.10984256600001174,-201.5,200.0,7.320058556845093
120,0.11105796200001095,-201.32,200.0,6.581373336068663
121,0.11193951600001384,-557.54,200.0,10.78807775384104
122,0.11278592800001519,-201.6,200.0,11.461874720014993
123,0.11364359500002053,-199.0,200.0,11.248419483918859
124,0.11447877600001988,-200.3,200.0,10.437316952013834
125,0.11536741600001932,-220.1,200.0,9.627332323148918
126,0.11621943200001539,-199.9,200.0,10.336921628305086
127,0.11712825600001509,-206.56,200.0,11.044382319214051
128,0.1179668450000193,-201.52,200.0,11.076680307303024
129,0.11881038700001767,-199.58,200.0,12.00758780790691
130,0.11964699800001455,-201.9,200.0,12.747395249242697
131,0.12048794000001806,-199.58,200.0,8.532958015255598
132,0.12135603800001604,-211.72,200.0,7.21731919012983
133,0.12218857100001657,-237.46,200.0,10.053529607466903
134,0.12303177400001886,-204.4,200.0,12.892016101255724
135,0.12391086500002046,-225.78,200.0,15.755258363635146
136,0.12477366300002046,-206.32,200.0,15.032143361684934
137,0.12561517600001793,-205.5,200.0,15.976558983258036
138,0.12647121100001613,-201.96,200.0,15.74664706940796
139,0.12767776600001923,-204.32,200.0,17.405056842103615
140,0.12856793500002084,-209.24,200.0,18.787747795544494
141,0.12953312700002328,-202.68,200.0,20.886630917952345
142,0.1305872730000246,-200.62,200.0,20.67656991573096
143,0.13148521700002647,-201.28,200.0,18.085718930356574
144,0.13239002600003147,-202.44,200.0,16.142483095359488
145,0.13326768400003175,-202.1,200.0,13.279628823336836
146,0.1341044990000313,-207.8,200.0,13.529246869226416
147,0.1349441560000315,-203.08,198.68,11.237900058265321
148,0.13578381000002793,-224.8,200.0,8.665334810344692
149,0.13677157000002182,-228.86,200.0,6.95031304529037
150,0.13769588300002056,-208.42,200.0,7.2285443283886135
151,0.1385410550000188,-222.16,200.0,5.796298808762711
152,0.13946040900002288,-200.7,200.0,8.402332750036553
153,0.1403793510000213,-203.48,200.0,10.505633205090401
154,0.14124612000001946,-199.58,200.0,11.128359618451318
155,0.14250357500002053,-201.38,200.0,11.266545505498849
156,0.14337374500001943,-199.54,200.0,12.533220157855677
157,0.14422339900001901,-203.4,200.0,15.78422643168374
158,0.14510218800001695,-202.06,200.0,15.845379889014243
159,0.1459390550000137,-211.58,200.0,17.347759250354308
160,0.1467962900000117,-224.88,200.0,17.34797103103107
161,0.14767243600000768,-212.68,200.0,17.21533262260416
162,0.1485416430000015,-232.78,200.0,17.41751592750385
163,0.14974988800000233,-200.12,200.0,15.087162684419843
164,0.1506521250000077,-202.72,200.0,13.647796902616818
165,0.1514990930000053,-200.12,200.0,13.58081517695253
166,0.15234842400001014,-202.54,200.0,12.098545654237178
167,0.15318500300001148,-201.38,200.0,9.51393661771879
168,0.1544495900000129,-203.24,200.0,12.008389074967315
169,0.15534750000001196,-208.28,200.0,9.633823923361279
170,0.15625514300001697,-201.32,200.0,7.264290255411534
171,0.15709924900001937,-201.5,200.0,9.367592255798618
172,0.15835548700001567,-202.04,200.0,7.368207507786854
173,0.15922531100001436,-206.2,200.0,7.356849384047321
174,0.160090669000013,-304.56,200.0,11.77547201658675
175,0.16098161400001487,-204.82,200.0,11.911300572841345
176,0.16185020700001473,-199.0,200.0,11.876453973226859
177,0.1627186750000149,-199.0,200.0,12.22361903142037
178,0.16358069900001482,-200.92,200.0,10.560970431567286
179,0.16444851100001756,-212.08,200.0,13.4012819914744
180,0.16532584600001599,-204.14,200.0,13.88968993273734
181,0.1662478820000146,-199.36,200.0,11.273660717312975
182,0.1671311310000121,-199.94,200.0,10.536482611320382
183,0.16799619300001467,-207.86,200.0,11.974327368930869
184,0.16883796400001216,-201.1,200.0,10.318781195627526
185,0.1696802750000117,-201.32,200.0,10.112075005754729
186,0.17053117000001095,-199.0,200.0,10.332649530538472
187,0.17136998300001238,-205.46,200.0,9.305008229924425
188,0.17222434300001765,-205.22,200.0,10.940219540148558
189,0.1730577890000191,-203.48,200.0,8.120611517454565
190,0.1739037950000153,-202.76,200.0,9.966051110728971
191,0.17477233500001432,-202.84,200.0,9.944774608949697
192,0.17560571300001016,-203.56,200.0,9.894836056808312
193,0.17645162400000913,-201.38,200.0,8.524097917853211
194,0.17729440000000807,-237.06,200.0,6.416562153867888
195,0.17813868700000768,-201.68,200.0,6.481315669678369
196,0.17900989100000686,-199.18,200.0,6.254441639874784
197,0.180206976000008,-199.9,200.0,6.827317374019302
198,0.18104615900000454,-327.9,200.0,7.16242430432
199,0.18224394300001023,-238.18,200.0,10.001769779128805
200,0.18314681200001104,-236.5,200.0,10.161776580818493
201,0.18401985700000978,-207.78,200.0,12.988173770957854
202,0.18492736400001064,-216.36,200.0,13.045307364684868
203,0.1861403410000122,-202.42,200.0,13.786575712889832
204,0.18701203400001276,-200.66,200.0,13.781744975350326
205,0.18787328000001224,-200.88,200.0,14.526999475677929
206,0.18873625000001226,-205.28,200.0,15.261116080561203
207,0.18962370600001321,-199.54,200.0,14.715194970361114
208,0.19082563400001362,-203.78,200.0,16.497579898881867
209,0.1916937530000098,-216.32,200.0,14.427953769789207
210,0.1929054030000117,-201.28,200.0,14.563727841888204
211,0.19374192400000823,-253.48,200.0,14.500496751596483
212,0.19458319700000715,-210.66,200.0,15.302683123408576
213,0.19542024400000457,-207.32,200.0,19.40088958747262
214,0.1962609200000074,-203.08,200.0,19.495221603520918
215,0.19710090900000665,-212.8,200.0,19.498970203856835
216,0.19829537900000815,-202.14,200.0,19.628422869153457
217,0.19941481800000815,-210.52,200.0,20.248982494558028
218,0.2002528480000123,-210.0,200.0,17.10630328202596
219,0.20120303000001627,-207.08,200.0,17.927731066505466
220,0.20213376700001362,-201.68,200.0,15.057428589068241
221,0.20308593100001104,-204.22,200.0,17.28749303571734
222,0.20395012500001286,-199.0,200.0,16.55055496971716
223,0.20481948000001182,-210.02,200.0,11.636744036084156
224,0.20567674700001248,-219.86,200.0,13.888670534918372
225,0.20656667600001555,-202.86,200.0,17.902076258362474
226,0.20768504200001559,-199.54,200.0,17.059977016062295
227,0.20888296800001882,-199.58,200.0,17.67556005246886
228,0.20977082100001354,-199.54,200.0,17.688984809416432
229,0.21060856800001204,-199.0,200.0,16.075065905363676
230,0.21181483800001644,-199.54,200.0,16.082399148960064
231,0.2126622660000166,-200.3,200.0,11.08952258350652
232,0.21352629900001574,-200.26,200.0,11.632715139932362
233,0.21437085900001307,-213.86,200.0,11.632654285421804
234,0.21520811900001036,-222.78,200.0,11.325091621103759
235,0.21605613200001272,-204.72,200.0,11.095707027488816
236,0.21689628900001168,-205.3,200.0,12.058649068564643
237,0.21811363600001243,-203.18,200.0,12.918291236746082
238,0.2189580650000167,-201.06,200.0,12.129197901886076
239,0.21982274000001922,-203.32,200.0,13.522842443867608
240,0.22069618300002247,-202.1,200.0,13.528643466435673
241,0.2216880260000238,-200.44,200.0,13.53474297130324
242,0.2226417930000224,-203.2,200.0,12.912382444936654
243,0.2236023170000223,-200.3,200.0,15.48132889582011
244,0.22459845100001985,-199.18,200.0,15.344783383623541
245,0.2258638860000204,-203.64,200.0,15.432813126623136
246,0.22670338900002207,-375.32,200.0,17.7226038598803
247,0.227958615000027,-208.28,200.0,19.58936744425271
248,0.22885526100002807,-209.22,200.0,19.675874412632925
249,0.22969551300002422,-231.26,200.0,23.03378046682776
250,0.23068548000001954,-202.96,200.0,28.189067173810948
251,0.23159552000002037,-199.9,200.0,28.190362101718073
252,0.23254296700001476,-199.58,200.0,28.853889804270814
253,0.23346309900001927,-205.88,200.0,28.69314099688926
254,0.23434630500001674,-208.18,200.0,30.825239781634558
255,0.23533830300002023,-208.18,200.0,27.63227893212773
256,0.23623338500001978,-205.92,200.0,25.16169488838912
257,0.23711512100001642,-200.34,200.0,20.94986411266111
258,0.23797917200001706,-205.4,200.0,20.368594430921142
259,0.23885938000001516,-200.48,200.0,16.610069500678918
260,0.23972089900001237,-201.24,200.0,12.252525656851477
261,0.2405805980000153,-199.0,200.0,13.054671786071868
262,0.24145566400001428,-199.54,200.0,12.326249737950917
263,0.2422997340000137,-199.36,200.0,9.939034190574196
264,0.24313967400001957,-212.84,200.0,5.825049067387806
265,0.24436289400001954,-238.22,200.0,4.331513773919039
266,0.24527469900002075,-202.44,200.0,6.129002690099059
267,0.24617328700001906,-200.7,200.0,6.355027989080187
268,0.24701041600001616,-202.28,200.0,7.4345741697788785
269,0.24784710000001553,-204.08,200.0,6.443827227292426
270,0.24867848000001658,-202.42,200.0,6.515142388539649
271,0.24952468400001493,-206.56,200.0,8.079481287548996
272,0.2503559760000087,-201.42,200.0,8.20969602509857
273,0.25123990900001303,-203.32,200.0,9.005942431707275
274,0.252076214000013,-212.7,200.0,9.166282299684706
275,0.25291460200001126,-200.84,200.0,9.166443988666478
276,0.25375278100001,-207.5,200.0,9.177430813551789
277,0.2545906880000075,-209.64,200.0,9.827823553613424
278,0.25581021000000703,-211.46,200.0,10.817757038894987
279,0.25664857800001073,-204.44,200.0,11.682807439023989
280,0.25751104000001135,-201.2,200.0,11.035786507423369
281,0.2583493830000094,-200.26,200.0,8.892251332239079
282,0.2592379380000054,-216.9,200.0,11.3707501247257
283,0.2600785900000062,-228.82,200.0,13.163521196622202
284,0.2609171690000096,-204.44,200.0,13.807229053529664
285,0.261770979000012,-206.18,200.0,14.041886229718767
286,0.2628133330000111,-200.62,200.0,12.37495246873854
287,0.2667039550000112,-201.24,200.0,12.369075718818157
288,0.26755068800001425,-215.98,200.0,11.575684678187848
289,0.2683986270000105,-204.42,200.0,13.32083016288242
290,0.2696063360000096,-202.24,200.0,13.10675677734127
291,0.2704450400000127,-204.3,200.0,13.08122232983133
292,0.27128018100001583,-204.82,200.0,10.472580990245598
293,0.2725296310000189,-203.06,200.0,10.935606656698084
294,0.2734642160000149,-199.58,200.0,11.812048153825238
295,0.2743596630000127,-209.0,200.0,11.807873646738155
296,0.27529491800000727,-217.7,200.0,10.908772107892835
297,0.27613023100000333,-201.52,200.0,10.82758535660547
298,0.2769685980000034,-200.16,200.0,10.052418081815508
299,0.27783185100000907,-199.0,200.0,7.440633480767628
300,0.27879358900000994,-225.68,200.0,9.984483586910446
301,0.27966216800000865,-200.16,200.0,9.992342824473486
302,0.2805998030000083,-199.18,200.0,12.57967605151216
303,0.2814486120000055,-201.42,200.0,11.605760478951122
304,0.28244041900000383,-207.12,200.0,11.171357854304167
305,0.2832811770000063,-209.1,200.0,13.566651802088165
306,0.28411895600000747,-200.16,200.0,16.12778393758322
307,0.2853525190000141,-199.18,200.0,15.512615349800635
308,0.2861978490000183,-202.78,200.0,17.32798627062026
309,0.2871100600000176,-203.14,200.0,17.34277312279102
310,0.28797244400001887,-200.98,200.0,15.587830110288769
311,0.28883811200001475,-206.82,200.0,19.8165544144887
312,0.2901152250000152,-202.48,200.0,17.437949866759443
313,0.2909591350000156,-200.52,200.0,15.340254207972706
314,0.2922375450000132,-204.22,200.0,14.173490534075778
315,0.29307641100001547,-201.42,200.0,12.429680965444131
316,0.2939234100000192,-199.76,200.0,12.433824027947498
317,0.2947620170000178,-203.2,200.0,12.903338881958518
318,0.29560573600001305,-199.36,200.0,10.431668028739214
319,0.2964412420000144,-200.74,200.0,10.423353250296643
320,0.29764193700001584,-200.34,200.0,9.804108992802869
321,0.2984868650000223,-199.58,200.0,5.806602395197634
322,0.29979216900002115,-212.92,200.0,8.162480904832922
323,0.3012291470000221,-200.34,200.0,10.51238956340368
324,0.3020950410000225,-199.0,200.0,14.020712548061198
325,0.3029652780000234,-201.02,200.0,13.788087866566297
326,0.30383397300002457,-199.36,200.0,13.271073446873263
327,0.3046963320000202,-201.46,200.0,12.623408217299275
328,0.30557095300002146,-200.88,200.0,14.87314393192111
329,0.3068299130000227,-201.1,200.0,17.40138296558129
330,0.3077664080000204,-201.42,200.0,19.82059615983183
331,0.30863864800002005,-215.6,200.0,20.031622262272062
332,0.30951158100002374,-216.54,200.0,19.76715654162453
333,0.3103871630000228,-201.24,200.0,19.49441454545388
334,0.31130551200002543,-202.04,200.0,17.61077066138167
335,0.3122185120000296,-200.62,200.0,17.168443132860453
336,0.31321511800003066,-205.42,200.0,15.080630793831057
337,0.31408236800002953,-205.84,200.0,15.888766203464723
338,0.3149889840000242,-199.36,200.0,13.559245627103332
339,0.3162589670000244,-200.8,200.0,13.351845522719008
340,0.3170951010000209,-205.52,200.0,13.119379187386574
341,0.31792998100002023,-199.72,200.0,12.675426098620381
342,0.31883171500002305,-202.42,200.0,11.249873745984008
343,0.3196691030000167,-204.4,200.0,9.236259606222045
344,0.3205382750000112,-205.84,200.0,9.12567293001899
345,0.32137478100001005,-200.66,200.0,8.920378433038135
346,0.322213466000008,-202.06,200.0,8.914888317965064
347,0.32305990500000803,-212.36,200.0,9.624143670443512
348,0.3239040560000106,-207.3,200.0,12.207688809722091
349,0.32475459600000534,-211.36,200.0,11.188111287986436
350,0.32565222900000634,-237.86,200.0,11.398063251311674
351,0.3265748660000085,-205.56,200.0,15.865719987063027
352,0.3274967480000086,-202.42,200.0,17.358054025440328
353,0.32837204200000514,-200.34,200.0,18.889015213997933
354,0.3292178579999998,-210.16,200.0,18.245053900641757
355,0.33005617799999953,-202.78,200.0,19.682341708714645
356,0.33125735999999506,-215.66,200.0,19.869746589706903
357,0.33212917899999184,-201.34,200.0,19.783855855950343
358,0.3332048669999921,-203.78,200.0,19.31272935280234
359,0.3340735419999916,-199.72,200.0,18.228581213046425
360,0.33493746399998514,-199.54,200.0,15.64122021077049
361,0.33581334799998785,-199.18,200.0,11.749677878761847
362,0.3366695979999861,-204.94,200.0,11.958216993782525
363,0.3375712059999927,-205.84,200.0,11.850415762932842
364,0.33845231799999453,-200.98,200.0,11.669753914304028
365,0.3395273699999919,-205.74,200.0,11.103205942360958
366,0.34037959299999443,-208.24,200.0,13.031504818101633
367,0.34124173099999666,-200.12,200.0,12.299787276829859
368,0.3421066419999974,-202.44,200.0,14.757019476476703
369,0.34297392799999926,-200.74,200.0,16.824761229963265
370,0.3438672619999963,-201.9,200.0,16.824886613821274
371,0.34472224599999635,-201.86,200.0,16.848051949582377
372,0.34557953899999205,-200.66,200.0,14.271250731353854
373,0.34647647699998885,-212.58,200.0,17.153020163704962
374,0.34737578399999336,-206.54,200.0,19.03560215157807
375,0.34828181099999256,-203.12,200.0,19.453257939638924
376,0.34975063099999204,-202.82,200.0,18.254970914399518
377,0.3505899809999917,-206.82,200.0,17.768592593348057
378,0.3517929019999926,-201.5,200.0,14.012729210186752
379,0.35262565699999016,-199.72,200.0,13.21054287437006
380,0.3534629219999914,-200.44,200.0,15.303646764736204
381,0.3543018799999942,-203.86,200.0,14.501057679657185
382,0.35514571899999225,-203.5,200.0,14.501193786106274
383,0.3559955339999945,-200.26,200.0,16.835909580537397
384,0.35685816799999515,-205.96,200.0,15.004810214020418
385,0.3577216009999944,-206.72,200.0,14.412915260811108
386,0.35856325499999286,-213.2,200.0,17.94653168568386
387,0.359560321999993,-209.4,200.0,18.540291017324694
388,0.36040003299999057,-203.7,200.0,19.16300353830774
389,0.3614023199999892,-200.3,200.0,20.08434246506552
390,0.36226948999998854,-203.82,200.0,18.24225960700425
391,0.3632496599999868,-205.74,200.0,18.89314249273051
392,0.3641874239999865,-201.42,200.0,21.503053018264627
393,0.3650308659999908,-200.48,200.0,15.602812588794837
394,0.3660342859999943,-199.0,200.0,14.13415623864098
395,0.367034622999995,-202.0,200.0,15.8063422077576
396,0.36789901399999536,-210.56,200.0,13.966070907738402
397,0.36914557499999745,-200.98,200.0,13.874922647336206
398,0.37000674499999775,-206.98,200.0,13.382487351771607
399,0.3708759919999949,-223.1,200.0,13.57345774996736
400,0.3717888769999931,-215.58,200.0,14.205060277607865
401,0.37266547899999125,-200.08,200.0,14.364033794682433
402,0.37387319999999136,-200.3,200.0,12.410642192031357
403,0.3747567269999905,-201.28,200.0,11.625115613594625
404,0.37559460699998937,-199.0,200.0,11.630497786998687
405,0.3765851559999902,-202.24,200.0,9.325777781962646
406,0.37743068599998963,-200.44,200.0,7.523375667888705
407,0.3782667949999876,-203.62,200.0,8.25862364416107
408,0.3791070669999854,-199.0,200.0,7.314375250588109
409,0.3799440329999868,-201.96,200.0,7.32218682216119
410,0.3808131229999887,-203.2,200.0,9.283035338972686
411,0.3816526699999869,-210.0,200.0,9.45057067652823
412,0.3825010469999839,-200.98,200.0,9.714980861452862
413,0.3833785439999886,-201.82,200.0,9.761220391895893
414,0.3842425909999889,-200.74,200.0,9.76323112636604
415,0.385233633999988,-202.66,200.0,9.932324043438808
416,0.3860986989999873,-199.0,200.0,9.122240289509726
417,0.38727658199999127,-199.76,200.0,7.6692130703778245
418,0.38847856199998887,-200.74,200.0,7.67116201156102
419,0.389315917999987,-200.92,200.0,5.061246092455015
420,0.3901567229999898,-200.48,200.0,2.2255773301279618
421,0.3911491949999899,-200.74,200.0,1.24012930969062
422,0.3920240869999887,-199.0,200.0,0.31904158567804897
