iter,time,reward,steps,convergence
1,0.0011593579999953363,-380.16,198.62,89.32093675161346
2,0.002059231000004047,-205.08,200.0,83.92093675161345
3,0.0033372299999996358,-204.24,200.0,79.0363000689821
4,0.0043535909999974365,-276.64,200.0,73.08373662248856
5,0.0051993599999917706,-489.44,200.0,65.71850994588718
6,0.006057349999991857,-205.52,199.74,58.626761061780925
7,0.007282305999993355,-207.3,200.0,49.339243369038066
8,0.008138728999995237,-209.66,200.0,40.73515562609715
9,0.008995650999992222,-223.94,200.0,33.52984330101553
10,0.010428994999998054,-204.24,200.0,24.97265357006673
11,0.011273647999999525,-232.62,200.0,28.538487135568595
12,0.012331156999991322,-257.76,200.0,26.815035042344192
13,0.013237175999989859,-251.34,200.0,24.733692430575882
14,0.014394229999979302,-238.0,200.0,26.299207747184575
15,0.015331563999978925,-233.92,200.0,25.1135802572116
16,0.016218489999971553,-263.28,200.0,29.53279772386305
17,0.01710177699997928,-262.1,200.0,33.397820479922544
18,0.017985848999984455,-230.22,200.0,33.13866498696292
19,0.01885814899999616,-236.88,200.0,33.4026732016662
20,0.019731069999991746,-215.38,200.0,35.34933913740681
21,0.02037379399999395,-204.4,200.0,33.76295144582349
22,0.02131670099998928,-214.38,200.0,39.7173035390479
23,0.021629423999982578,-246.44,194.12,38.53032440167415
24,0.0218672329999805,-211.22,198.74,39.676977207505125
25,0.022607098999984032,-216.92,200.0,43.383794989638076
26,0.023761399999983723,-202.04,199.88,44.618266174456814
27,0.024607121999991932,-256.8,198.58,41.172563477550725
28,0.025818431999994118,-200.64,199.4,48.31298652070505
29,0.026435797000004868,-202.3,199.58,46.36442445401119
30,0.027008143000003315,-165.62,165.34,51.197267026281516
31,0.02725816699999939,-83.04,115.22,57.164949042906656
32,0.02742480999999941,-166.8,176.94,56.93914900333728
33,0.028266905999998926,-203.64,198.16,60.831354045439866
34,0.028603773000000388,-107.68,136.82,63.135850642282264
35,0.028882515000006492,14.14,41.72,63.93543101870788
36,0.02908648999999741,-42.08,88.58,63.93643412710016
37,0.029227981000005343,-35.12,82.66,66.39210503978303
38,0.029531198000015024,-34.34,73.94,66.21014694330742
39,0.02971680300001367,7.7,45.38,73.76338277858358
40,0.0298285120000088,-40.9,88.62,74.48012279065128
41,0.03008242400001393,-69.76,110.84,74.51879449314592
42,0.030332173000005014,19.12,33.6,68.72261511403097
43,0.03041495099999736,8.22,43.0,71.19450405420008
44,0.030632848000010426,-22.82,60.98,71.50185593724937
45,0.0307646150000096,-56.26,82.92,67.62943096292149
46,0.03104073400001539,-83.96,117.3,64.67406040765485
47,0.03131781300001535,-158.66,173.24,69.87099983958612
48,0.03165115400001639,-26.26,73.4,69.1924035958601
49,0.03173644700001432,-133.7,153.5,64.98146974206273
50,0.03263376500001414,-204.76,199.7,60.925559754174415
51,0.03356013200000518,-49.04,93.26,59.07277412982849
52,0.0336664420000119,-11.64,63.16,65.05969566718187
53,0.03414610500000492,-68.56,111.16,65.65428275041941
54,0.034592286000005856,-36.28,81.58,59.116595435032174
55,0.034919520000016746,-1.04,44.26,60.69012178819817
56,0.03501466300001255,-9.26,51.6,63.05575575501503
57,0.03515936200000169,1.06,45.86,61.63982330212103
58,0.03544823899999017,-6.36,49.76,59.36268388746949
59,0.03556085199998904,17.16,35.4,56.91996533267148
60,0.03571589599998504,3.08,51.34,53.74274019659701
61,0.03586013399997512,2.32,47.6,54.953670338882354
62,0.03599931999997352,-60.44,101.8,49.75296396416603
63,0.03624690399996666,-174.3,179.7,43.95098961654317
64,0.037351827999955844,-2.04,49.5,48.61430315075099
65,0.037520911999962436,-34.48,80.5,53.78978171685079
66,0.03769400399995959,-61.8,99.46,48.86352925794405
67,0.037904477999958885,-32.76,76.34,43.95826947147822
68,0.03803793999995264,-8.54,61.14,46.72894009818973
69,0.0382203139999433,-73.3,110.68,50.55237274417046
70,0.03848814899994579,-188.66,193.28,54.104721975418315
71,0.03932603199994844,-156.08,148.56,53.763599104997944
72,0.0402198749999485,-202.58,200.0,54.931903251157806
73,0.041108799999946655,14.36,37.3,59.2944829313581
74,0.04130933799994807,-158.96,163.76,54.645188036632945
75,0.04158324399995195,-0.84,51.3,47.776343506347274
76,0.0421455249999525,-41.68,57.9,47.84213197554187
77,0.0423040119999456,-39.54,64.86,48.43803572718671
78,0.04248783699993908,8.36,43.66,43.36337643575229
79,0.04260052399993697,-129.78,127.28,40.84991793384937
80,0.04283179699993411,-2.0,57.44,40.67778483139427
81,0.04308393399993804,-198.86,198.16,39.301992613754365
82,0.04364491799994141,-73.12,100.06,36.4491082344585
83,0.04376636399993572,-12.62,59.06,30.767551726427968
84,0.04423934399993357,-50.06,103.94,36.03792446048739
85,0.04437479499993913,1.58,49.76,36.91503337430247
86,0.04453807699994172,4.82,51.44,35.93361230122724
87,0.04469282099994132,-96.46,126.82,35.6845438952446
88,0.044872932999936666,-195.88,64.36,34.41635943640457
89,0.045763539999938985,-234.38,197.72,36.17950588874457
90,0.04689485799994486,-146.46,165.1,36.362875971857775
91,0.047049018999942405,-147.92,161.18,32.813248408282526
92,0.047939677999949026,-217.06,197.98,34.15260436476022
93,0.0484102319999522,-19.54,64.0,36.24924761746322
94,0.04873633899995866,-79.48,113.62,30.983570001974442
95,0.048860274999952935,-66.74,106.32,30.722514623198503
96,0.049049041999950305,-36.58,79.86,36.551952292781365
97,0.04923587199994017,9.8,40.0,38.476285860890364
98,0.04939744499993992,-36.9,82.96,39.36807047760717
99,0.04961104599995281,16.3,30.04,37.113702270363255
100,0.0500381299999475,-320.08,183.94,36.80404189418
101,0.05022721399994623,-42.24,81.96,38.1253533450578
102,0.05035363199993981,-187.18,173.1,37.79556309179276
103,0.050561930999933224,-173.7,183.06,36.52022743026489
104,0.05140819899993687,-97.94,122.04,37.38397121905262
105,0.05230452799993657,13.86,38.56,40.35943844928785
106,0.05240421699993192,-3.86,52.3,36.74964017363423
107,0.052627765999929466,-191.92,177.22,39.900863578125765
108,0.052891155999930106,-102.56,128.0,40.901169865056296
109,0.053077584999925875,-133.74,146.06,41.370507720996144
110,0.053333938999927,-32.8,81.42,40.47880309278556
111,0.053817740999917874,8.82,44.22,40.26791170029747
112,0.054028139999914515,-19.5,59.68,39.83489009027814
113,0.05501041199991619,-203.68,200.0,41.22541075891697
114,0.0554241139999192,-191.58,194.68,41.72649812244542
115,0.05566548099992019,-77.78,114.06,40.053207341940436
116,0.05586663699990879,-20.74,69.66,38.853910537597926
117,0.055977889999908825,-172.92,166.92,33.16486438822803
118,0.05639416099991479,-54.82,65.74,32.36802194164703
119,0.05649978899991481,-11.68,62.18,31.44603866495533
120,0.05674538999991796,-15.38,43.94,29.354324058168555
121,0.05688491299991938,16.96,29.56,27.495876625042893
122,0.057036963999919976,-9.32,62.82,30.330900540956485
123,0.057869832999926984,-54.56,97.9,29.048098893084347
124,0.058729599999935544,-156.16,173.64,25.616948616996847
125,0.05959534099993391,-189.08,193.32,24.83238565194121
126,0.060530434999932936,-42.8,90.46,24.656460551804997
127,0.06087557899992646,-23.1,67.92,27.400153642824982
128,0.06100801399992406,-79.34,111.14,36.99890174205755
129,0.06113315099992178,4.84,44.28,39.555371880488075
130,0.061252874999922824,-65.94,110.28,46.91602279805077
131,0.06174599299991712,-50.82,98.32,49.075976961314254
132,0.06264062199991827,10.58,38.24,46.72623135254202
133,0.06289366999992296,-65.88,101.88,46.970608835239474
134,0.06308250699991902,-3.74,50.4,49.99446711288351
135,0.06318164499991497,-70.68,113.72,50.49735769538222
136,0.0640475989999203,-173.96,181.9,50.018732030911195
137,0.06479082699991068,-11.24,61.74,47.91097796195467
138,0.06496437899990326,-10.92,63.48,39.29325170386848
139,0.0650590179999142,-27.68,72.16,37.35003326264242
140,0.06522888199991428,14.8,34.0,30.162306976675904
141,0.06535058399991556,-163.66,175.2,29.631146895843482
142,0.06621709999991765,-155.96,158.76,30.678870483661445
143,0.06644406699992089,-34.48,82.82,31.68273893887403
144,0.06662324099991679,-95.74,131.28,31.55885953582801
145,0.06687944199991591,-110.84,121.94,31.210971782191812
146,0.06710624299992674,-80.82,100.48,32.59104109139214
147,0.06723431099992183,-41.78,87.36,33.50270355672433
148,0.06741000499992822,-110.74,136.02,31.708980809828933
149,0.06771027499992499,3.54,47.14,30.31319434787232
150,0.06781859899992071,-20.2,66.3,35.26619063776436
151,0.06794980099992642,14.04,31.74,35.36314990478335
152,0.06802017499992985,-132.34,149.36,34.59544433530694
153,0.0681710219999303,-84.34,120.72,34.7706170668108
154,0.06862211799992224,-30.36,75.78,34.638644800603544
155,0.06880553799992128,-21.58,71.26,33.45830339803995
156,0.06891841499992779,-28.54,77.94,33.49896707308182
157,0.06907069399993304,-1.18,53.08,32.1131154735192
158,0.06915009299993358,21.64,27.16,33.445747247163965
159,0.0692671049999376,-39.98,88.76,34.38474220059446
160,0.06948571199994547,-176.22,111.08,29.27405877416432
161,0.06970477199993752,-31.06,78.56,28.742248628189905
162,0.06997076799993351,-106.9,137.04,27.946400379843148
163,0.07015547799993271,-95.7,113.06,27.15598934793197
164,0.07031604299993433,19.08,35.22,27.707419399917562
165,0.07042921199993657,-103.94,132.32,26.9807774675438
166,0.07064616699994986,-58.86,103.3,26.192528391484366
167,0.0708256269999481,-57.9,101.64,31.22023388968737
168,0.07115364399994917,8.14,45.22,31.00388893673334
169,0.0712513399999466,-169.74,168.12,30.931462298303437
170,0.0714452369999492,-26.98,78.82,30.537845582750286
171,0.07164321499995197,-40.0,82.48,29.408487691704714
172,0.07239409899995053,-55.6,81.14,28.049867874928175
173,0.07267273199995827,-34.46,80.84,26.117480206677726
174,0.0727697639999576,18.6,33.74,24.653255614232815
175,0.07286039699995683,24.26,31.16,24.77842374338034
176,0.07293945999995799,0.64,46.38,23.06472734464769
177,0.07305476599997007,22.58,29.08,17.12878256923417
178,0.07319608099997765,7.12,38.66,16.776541324445766
179,0.07402910199998303,-224.88,190.9,16.993637068064135
180,0.07486667599998498,-161.44,170.04,21.656572817088723
181,0.07570795299999133,-302.94,197.32,23.912413357591923
182,0.07657940999999369,-192.52,187.02,27.09589860039464
183,0.07683684299999527,-159.32,163.16,31.43193487291183
184,0.0770662820000041,-89.82,115.02,33.417734278673635
185,0.07721140300000684,11.94,37.22,34.58228606584177
186,0.07734108400001105,-8.4,55.96,37.77918168751047
187,0.07745503600000347,-32.44,76.76,40.263187768750065
188,0.07776593500000217,11.62,35.42,42.71750963571493
189,0.07795157200000347,18.42,31.36,42.23308915924121
190,0.07820744200000718,-33.34,78.52,40.07909426420685
191,0.0785325810000046,-185.12,170.72,38.641922570630825
192,0.0790301760000034,-9.68,59.2,37.54694762434222
193,0.07914687699999945,-41.96,87.16,33.17053120066542
194,0.07955025900000123,-275.0,193.36,31.457400148628995
195,0.07989961900000253,-99.78,119.12,31.187832964293136
196,0.08002613500001132,-95.88,116.58,29.35879069793473
197,0.08058417200000179,-120.34,52.4,27.892358424634512
198,0.08081947600000206,-23.68,72.32,26.104080289754403
199,0.08096888499999011,-20.52,70.18,26.122163937589136
200,0.08107759399999281,-20.56,68.6,24.39160668035959
201,0.08120163599998875,3.7,46.08,23.560100685118066
202,0.08129816699998571,-6.2,50.54,22.9608843339464
203,0.08169522899999038,-152.52,154.12,25.479863642637618
204,0.08205877999998279,-90.94,121.8,24.955495977747006
205,0.0822453449999756,-147.52,141.32,28.331992372754325
206,0.08245665199997632,-164.78,157.66,28.318268156627404
207,0.08267909799997142,-92.0,125.76,27.811180382647233
208,0.08283469399997045,-50.0,97.14,27.504612873540566
209,0.08336552599996594,-14.16,60.98,27.61068416244588
210,0.08353852899996639,-80.06,120.6,28.975694560554462
211,0.08366437999995924,-145.12,167.0,32.531516234326354
212,0.08391522499995574,-516.12,95.96,32.14279341236746
213,0.08403006599995422,10.18,43.5,31.39350740250621
214,0.08413883199995098,-3.64,55.56,31.921268232474716
215,0.08425148199994226,1.64,44.36,28.819344408482152
216,0.08435655299993527,-16.14,68.82,30.48974135984404
217,0.08445422699993799,-10.88,62.1,32.88295440492246
218,0.08454241899993065,5.86,40.94,34.13079353045818
219,0.08466096799992329,-11.14,64.32,34.15509224094263
220,0.0848254559999333,-92.9,126.22,33.266185671515494
221,0.08501961999992602,2.76,47.34,31.889958142320303
222,0.08515369199992051,-21.5,70.22,32.580847942198126
223,0.08527840499991157,-1.04,49.7,31.232865594012974
224,0.08538020099990717,-4.18,49.18,30.027919398329903
225,0.08585115399991139,-227.78,200.0,31.980959103061046
226,0.08672382799991851,-28.3,77.24,30.339171283696704
227,0.0868318449999208,-87.78,122.84,28.869313691205974
228,0.08706962199993029,-135.2,157.12,27.13147077869774
229,0.08722382199994172,-31.38,76.74,28.447283464749734
230,0.08747322199994301,-98.52,133.94,28.884542811347604
231,0.08757653799993648,-134.82,154.8,28.221948383452304
232,0.08791186299994536,-142.56,160.8,28.48706151156844
233,0.08799978399994757,-49.4,94.02,30.379259893516917
234,0.0887677889999452,-75.12,110.22,34.00606371316509
235,0.08922286899995413,-85.74,119.86,31.497539932390715
236,0.08947207499996068,-52.8,94.6,31.696004099805947
237,0.08966694799995878,-38.98,93.36,30.880998540261096
238,0.08981298699995932,-173.4,177.64,31.635979634029894
239,0.09022991599996999,-172.22,171.8,31.160984942223944
240,0.09079039999997462,-171.48,175.14,30.50845927448504
241,0.0909158689999714,-18.2,67.32,31.747569448661864
242,0.09123668299997689,-139.16,162.96,32.48027039326429
243,0.09210150199997713,-280.26,195.96,32.34465597868906
244,0.0926467069999859,-346.12,161.3,30.35076764838278
245,0.09287617099998613,-173.92,182.36,29.70381051341959
246,0.09334015599998224,-110.0,141.52,29.25608894485552
247,0.09356672699998114,-85.36,125.22,30.01577588782241
248,0.09370735199998137,22.84,29.8,29.192100006101676
249,0.09386411499997394,1.98,50.7,32.173889073580526
250,0.09402696799998012,-411.58,168.54,32.970639423976515
251,0.09422020499997075,-159.54,175.44,32.87311365346444
252,0.09505663799997421,-131.36,153.74,32.507104143232326
253,0.09535808599997608,-97.02,129.82,31.90908786142059
254,0.09552947699998526,3.8,49.14,33.55690823573296
255,0.09569140299998935,-130.02,158.02,35.063336276768396
256,0.09589581499999156,-64.68,90.26,35.713086494915956
257,0.09608399500000075,-67.08,90.06,35.53803830654711
258,0.09625175200000058,-43.28,87.42,38.99539226735392
259,0.0963792910000052,12.78,33.74,35.0405667667538
260,0.09649380800000529,-26.26,58.68,32.8343510273629
261,0.09658472399999596,17.1,34.02,29.898400802450265
262,0.09667208799999116,14.1,34.74,29.03190298802786
263,0.09675120599999332,-140.76,83.82,28.889899883068274
264,0.09689690899999448,15.44,34.16,26.809903620772765
265,0.09707805600000086,-26.4,75.74,26.69190231704914
266,0.09728843999999981,-20.3,75.26,27.13000318962067
267,0.09749770000000524,1.88,49.82,25.732938503217376
268,0.09766427200000294,-202.8,183.82,21.284902244286137
269,0.0978022510000045,-220.38,192.1,26.971167297017537
270,0.09826625200000194,-238.34,198.3,30.581622894081313
271,0.09880908899999952,-92.5,117.76,30.23966205263083
272,0.09893347999999946,-52.24,88.78,28.994095310598787
273,0.09905600799999092,-104.06,131.42,28.01177783962882
274,0.09928706399999498,-102.38,130.24,26.58858932761705
275,0.09941066499999351,-186.28,84.4,25.03360261681807
276,0.09965329799999267,-150.1,169.88,23.586471331796407
277,0.09990096100000301,0.76,49.78,24.50902924345064
278,0.1000392440000013,-36.1,80.16,24.30299273132152
279,0.10025453400000117,-18.14,62.88,19.304778081498934
280,0.10065666600000611,25.98,28.18,16.166560489633895
281,0.10076141200001132,1.72,49.4,16.413129071008044
282,0.10096713500001897,-54.72,77.42,18.048003290945704
283,0.1011265320000092,0.58,50.76,18.371781438571638
284,0.10120872299999917,10.58,34.52,20.03198674883875
285,0.10134157299999913,4.72,47.88,21.3290303100572
286,0.10142966600000136,-10.78,61.72,21.866399763983623
287,0.10153614499999719,20.64,27.8,23.25608711542731
288,0.10159677800000111,11.18,39.14,24.008579966592237
289,0.10170887699999298,-64.38,111.84,23.614999935053138
290,0.1025402650000018,7.14,42.96,23.6140229216118
291,0.10265760200000784,-43.56,73.14,24.9825658878256
292,0.10279756799999973,-14.16,64.48,24.899769899335308
293,0.10295968700000913,-203.8,200.0,30.427479903642386
294,0.10406795800001589,-201.24,200.0,30.147708105160312
295,0.10501770900000906,-237.28,196.0,31.46202588767029
296,0.1059281590000154,-228.66,200.0,33.011269969711066
297,0.10676577900001405,-102.86,123.1,35.548955360101424
298,0.10695842000001221,7.2,44.96,37.31492159209775
299,0.10712316600000804,-57.84,97.86,38.03855240314216
300,0.10733335700000168,-244.78,189.12,39.19374058512235
301,0.10770819799999742,-70.98,105.98,42.288884896632524
302,0.10810405999998807,-86.86,112.1,43.65664060114409
303,0.10900803499998801,-290.66,195.14,39.435662508956966
304,0.10969162599998583,-58.1,106.66,39.21918288258993
305,0.10979107499997554,-236.12,200.0,37.41102997453098
306,0.11004101399997523,-124.54,135.54,35.551529614736694
307,0.11023386199997276,14.0,31.98,34.42798027422414
308,0.1106065609999689,-12.16,62.8,34.96675083468269
309,0.11072278999996854,-61.04,102.18,34.455723510092575
310,0.11092312399996729,-159.36,176.0,34.614387536231845
311,0.11124948399996981,-11.6,61.24,31.66473579593201
312,0.11134755999997026,-106.82,138.64,30.02960403207063
313,0.11188161299998,-25.24,68.48,29.844581511745634
314,0.11209574799997313,-8.3,61.2,30.420314158082267
315,0.11229942199996401,2.88,51.86,33.24653329359748
316,0.11255233699995415,12.54,35.08,35.767861036751064
317,0.11263999399994873,-16.22,64.94,31.965510192706528
318,0.11277706999995019,0.16,52.84,30.364055868201188
319,0.11292155399995352,-207.7,200.0,32.602943026730884
320,0.1137858169999646,-267.52,192.02,31.524141152395913
321,0.1146282979999711,-208.24,193.76,35.90180758950967
322,0.11581393199996626,-201.86,200.0,37.08644736831743
323,0.11650908099996116,-86.24,117.6,36.782973685738654
324,0.11734939499996244,-140.56,156.76,38.28702835887466
325,0.11763735999996072,-203.8,196.42,38.857952925212324
326,0.11789338399997007,-139.06,156.86,40.49178912765665
327,0.11830347499996208,-49.4,92.1,44.37069856274217
328,0.11861348599997257,-121.18,145.08,45.69718632476396
329,0.11890011999996375,-122.44,148.4,42.50526623787491
330,0.11931402099996546,-180.82,177.42,44.59069798471785
331,0.1201570999999575,-49.9,95.46,40.64053304879157
332,0.12031180799996832,13.06,33.28,38.04027218152051
333,0.12044419799997286,20.44,33.58,37.28671697144438
334,0.12056288999997378,4.62,44.54,34.136470166561466
335,0.12073275999998145,-143.32,164.22,30.99803964215267
336,0.12089877999999032,23.04,29.86,26.485058494514846
337,0.121010076999994,1.46,41.3,22.734645014898994
338,0.1211311829999886,-1.04,51.4,22.229173075306505
339,0.12138994899999034,7.64,35.36,23.60216642443707
340,0.12146229899998673,-0.76,46.98,23.785329136719984
341,0.12156381299999452,3.58,53.36,23.142917613976532
342,0.12186402399998997,-103.94,132.88,24.81416294599364
343,0.12199232099999335,21.14,32.08,24.58977539613006
344,0.12211994399999071,21.66,29.2,24.801846275268467
345,0.1222343230000007,-65.04,111.48,25.270420855964304
346,0.12236690699999997,4.56,48.92,27.569513552906148
347,0.12287282299999447,-23.6,70.7,29.95627585688836
348,0.1236251779999975,-118.16,125.52,29.907686173779798
349,0.12376751499999727,15.14,34.2,30.33609567716876
350,0.12394885899999508,17.02,35.0,29.11198104461859
351,0.12423028199999919,18.04,31.28,29.519343565036014
352,0.12433052199999395,-94.94,111.98,30.414049047861816
353,0.12450492299998928,-69.88,110.68,29.78193535401341
354,0.1247923509999822,-31.32,53.8,30.832496365429183
355,0.12492500499999437,-2.14,53.7,29.359303232362045
356,0.12509536099999252,-59.54,92.38,28.57009230509849
357,0.1254504309999902,-58.1,104.84,28.09841237994096
358,0.1256150499999933,-189.72,180.58,27.69394288133368
359,0.12589009199999168,-50.22,97.58,28.059884804041804
360,0.1261617589999986,-113.5,141.46,27.244462443283673
361,0.12660468699999683,-26.34,74.96,25.97094771905669
362,0.12672960000000444,10.86,37.18,23.255217778622672
363,0.1268127640000074,15.88,33.18,23.185816139992173
364,0.1268857290000085,20.14,31.56,22.68401339874438
365,0.1269978750000007,5.42,46.42,23.38336433798047
366,0.12708944599999938,-104.28,128.6,22.659183710928595
367,0.12727932399999986,-37.66,62.82,20.98753635565111
368,0.1273793430000012,10.9,31.42,20.345975278742593
369,0.12757494000000236,-38.88,60.38,17.875310002117878
370,0.12768823899999404,-65.7,102.88,17.83559540954535
371,0.1279448759999866,-60.0,88.34,17.99646155394074
372,0.12807744299999513,-40.42,82.18,19.87726943658319
373,0.1288980359999954,-95.04,120.84,21.1964554773728
374,0.12913316299999167,-64.14,95.64,23.23694286079526
375,0.12931885399999032,-42.06,88.24,26.862758945890914
376,0.12952933099998631,-17.82,68.9,28.805294712726017
377,0.12978038399998582,2.52,44.28,31.556867401368333
378,0.12991532899998504,-192.2,89.26,31.268845466426132
379,0.13005051199998263,-233.6,185.46,31.67577440501657
380,0.13038883999999484,-112.08,111.78,31.251036431511018
381,0.13054136300000607,-138.6,148.98,31.642562116397887
382,0.13175952400000313,-195.3,197.38,32.36662215536571
383,0.13212891000000582,-176.68,185.64,34.48402951400511
384,0.13300499000000343,-101.64,119.46,36.45201319059034
385,0.1333106889999982,-104.78,134.2,33.017406099559956
386,0.13346012899999948,0.94,51.66,30.880771870515822
387,0.13359463899999469,-29.2,81.56,29.376248558228202
388,0.1337663859999907,-44.62,87.5,30.117220028425074
389,0.1338614959999802,-438.7,120.4,31.16501106355317
390,0.13398823999997944,12.84,34.94,32.40601171376951
391,0.13406229599996777,-16.26,61.36,33.34682092409157
392,0.13418470099996682,-208.1,184.08,33.59734353252732
393,0.1343348269999609,-12.08,63.7,32.52411835258167
394,0.1344723939999568,12.46,32.2,27.565813663808377
395,0.1345936679999653,-11.56,58.0,27.512120767962006
396,0.1347180419999603,-54.9,93.88,26.953359194100464
397,0.1348819549999689,-72.4,108.44,27.027691395031972
398,0.13499182599996118,-122.1,143.5,25.889976688270785
399,0.13528015199996446,22.06,28.7,25.825118834400325
400,0.1353634099999681,-378.38,95.78,25.724603340181034
401,0.13579610299996148,-97.18,134.92,24.67433561423899
402,0.1360026179999636,-157.86,165.08,22.84944648472611
403,0.13642817999996737,-128.88,110.04,22.416080259494393
404,0.13671593799996629,-131.9,152.06,24.424752164620017
405,0.13708282999996868,-41.42,79.78,25.5731001032441
406,0.13724996099996645,-194.22,192.22,28.687980172084753
407,0.13785657199997559,-53.62,83.9,30.936840629491297
408,0.13811827999997206,-57.7,104.86,33.313115590367744
409,0.13826858399997377,-45.1,86.5,33.66247527615626
410,0.13841867299996125,-255.8,195.78,34.32347403845037
411,0.1390400959999596,-205.24,186.22,34.590063628580936
412,0.13930971099995304,-304.22,81.6,35.266377633641305
413,0.13947815699995658,-71.18,104.38,34.372790017564924
414,0.13993374599995434,-125.12,141.38,34.380223754089116
415,0.14004421199994965,-50.38,87.88,32.73054298215628
416,0.1402624359999578,-107.46,136.12,32.5096773673764
417,0.14048473599996214,-193.5,191.92,29.666247982572493
418,0.14068609599996762,-16.6,58.46,28.72014058114319
419,0.14079036899997277,19.68,32.38,27.139857919788074
420,0.14123189399997216,-0.6,47.66,26.661586923384522
421,0.14133311999997034,-108.62,81.04,27.580946388910075
422,0.14148936399996614,18.46,31.18,27.59283018151796
423,0.1416089319999685,-120.1,132.18,32.31876294324964
424,0.142748396999977,-204.66,197.06,32.13514875613302
425,0.14334743799997796,-177.1,142.36,35.738049601089166
426,0.14424103699998625,-222.88,197.66,34.4118566401371
427,0.1451397789999902,-167.52,175.46,35.32721626465708
428,0.14565648399999986,-110.78,134.2,35.90375131093398
429,0.1460280499999982,-22.48,70.88,36.19554368329294
430,0.1467976760000056,-69.02,109.48,36.4185206367807
431,0.14701183900000103,10.0,39.48,35.24837302102012
432,0.14716868300000385,-61.48,102.38,33.65317419868192
433,0.14740866600000402,-2.9,55.68,28.710255914082303
434,0.14753837100001022,-2.38,50.96,27.103446163482005
435,0.1476352850000211,6.96,42.78,25.536298001810312
436,0.14772517400002982,22.82,29.78,25.344786519771198
437,0.14783430900003225,22.78,28.04,27.848956439323917
438,0.14793426200003523,13.8,40.54,26.475163602149895
439,0.14802416700003107,-40.56,85.82,27.44517393121897
440,0.14816789600003233,-112.06,140.88,28.317674131505857
441,0.1485240280000255,-130.4,150.82,29.453452890544195
442,0.14877471400002662,-145.02,161.9,31.208882344835153
443,0.14901173400002676,-137.84,160.8,30.793923463874943
444,0.14984798200002558,-151.68,167.08,32.07813757229381
445,0.15071885200002555,-69.72,111.9,31.94967815832062
446,0.1510959700000143,-176.92,187.88,31.821368976401875
447,0.15127003500002445,0.82,49.94,28.970056715386857
448,0.15155102400002818,-7.34,57.78,29.50088022736473
449,0.15165285200002643,14.2,38.76,29.115205204141574
450,0.15176473300002158,-68.44,105.68,32.50475031626091
451,0.15193785300002105,-26.74,74.0,30.415982524382446
452,0.15213147400001503,-197.68,197.52,29.831637444285697
453,0.15239712700001462,-219.08,151.26,32.70919010263066
454,0.15268752300001154,19.86,32.54,32.65370879558772
455,0.15363059199999896,-22.3,53.22,30.57684642894485
456,0.15379234700000666,-18.12,72.02,31.645469105711932
457,0.15399060100000383,-16.4,70.56,30.87786455983843
458,0.15416254100000515,18.8,33.66,29.649185253800464
459,0.1543033040000097,21.56,29.08,28.686433083121027
460,0.15443541100000857,-192.68,186.72,25.326267601454905
461,0.15498625099999686,-209.6,200.0,26.473934299589622
462,0.1558274479999966,20.28,31.08,29.393504188656102
463,0.15596741800000302,-40.44,89.94,28.49880273880879
464,0.1561593460000097,18.96,29.76,28.00084088687323
465,0.15623353700000564,5.52,44.22,32.58159879157904
466,0.15632519899999409,-7.64,61.98,29.422434526605876
467,0.15643909799999278,-74.44,114.52,31.007929415350524
468,0.15659453099998188,-47.64,85.12,46.016348498576015
469,0.15693073899998922,-1.52,44.88,46.1773498985019
470,0.15701980199999355,-59.72,80.76,44.580851912559304
471,0.15753464700000563,-181.48,184.8,48.29538989184874
472,0.15781403799999794,-19.92,69.86,45.7960102816599
473,0.15864834500000313,-155.76,169.38,47.92959786315899
474,0.15948685200000057,-173.76,183.48,50.06054640028124
475,0.16035394600000075,-200.8,200.0,44.731978579337685
476,0.16084649900000159,-56.54,96.2,47.81761907981868
477,0.16132366300000456,-31.64,56.26,48.249803273498294
478,0.16147427900000366,-43.76,83.62,33.368890105971715
479,0.1615878270000053,-7.78,54.56,34.9912822709874
480,0.1616676750000039,-13.52,67.36,37.47279435545084
481,0.1619258830000092,-169.78,168.46,36.19373064459835
482,0.16229671300000348,-42.0,67.54,36.60044517590591
483,0.16314939299999764,-71.84,81.32,32.238708872435936
484,0.1632250469999974,-55.3,90.46,28.96268682734209
485,0.16334523999999817,7.42,43.12,31.845591435779692
486,0.16347261900000376,-90.22,84.14,31.127919506172198
487,0.16393298000001266,-206.46,196.2,31.03074925654001
488,0.16474707600001182,-216.5,200.0,34.00713355529458
489,0.16559388000000297,-209.6,200.0,31.969641196936635
490,0.16643435000000295,-205.36,200.0,27.939233495826464
491,0.16731948700000032,-199.0,200.0,24.114204295572783
492,0.1685257470000039,-209.96,196.16,21.156385862779022
493,0.16947390400000018,-217.96,193.62,22.422918079718784
494,0.17037383499999237,-201.86,200.0,23.917705445976903
495,0.1712150289999812,-214.06,200.0,23.01772129092648
496,0.1721122789999896,-202.26,200.0,29.485408532166808
497,0.17295239399999218,-190.6,192.6,33.94440913678039
498,0.17421241999998927,-212.02,198.96,42.35464970450771
499,0.17505422399999304,-202.32,197.46,41.25776701602592
500,0.17597070899999778,-201.1,200.0,47.559967172042604
501,0.1768207490000009,-273.5,190.66,52.232040449887066
502,0.17742689300000336,-168.42,172.14,58.69178137474985
503,0.1776597019999997,-288.02,184.3,60.56663338236429
504,0.17799734300000125,-211.36,123.56,61.93520942222379
505,0.17826701799999967,-138.7,160.36,65.39079001498557
506,0.17843499500000348,-67.86,110.94,61.62420591384648
507,0.17963277900000207,-77.1,116.74,57.37044135042894
508,0.1797647439999963,24.44,27.64,48.517681856887876
509,0.17988964499998872,11.96,41.14,51.277939061090535
510,0.180002270999978,0.62,45.18,47.69121446153399
511,0.1802410889999777,-3.28,49.18,45.73375232864327
512,0.18056010999998762,-113.06,123.7,46.96737125689592
513,0.1807184739999741,-28.74,76.88,46.186019488458385
514,0.18094195299997295,0.98,48.36,43.29617221929896
515,0.18108039299997358,-30.06,77.66,42.820306502226444
516,0.18127772799996933,-31.62,61.68,38.64391099281129
517,0.18238879399996222,-198.52,199.66,40.71840504778993
518,0.18329216799995152,-220.14,198.36,40.84289759275724
519,0.18370302499994295,-78.64,103.7,43.39819900991599
520,0.18381676499994626,-221.36,188.16,43.06802269813503
521,0.1840876559999458,-153.24,156.08,42.79262910329333
522,0.18427619799994943,19.26,32.0,37.262127232394135
523,0.18436831799994025,16.76,31.2,34.57503695404934
524,0.1846102679999433,-458.82,71.26,39.66843413411103
525,0.1847390339999464,-85.78,118.4,38.391224266287836
526,0.1854687969999418,-88.48,126.58,39.3555506475642
527,0.18656164499994077,-94.28,131.82,36.81026716414705
528,0.18675551599993412,-175.38,183.44,38.60456771312223
529,0.1870555169999335,-154.5,174.06,37.60130438502532
530,0.18719525099993461,-17.9,65.5,37.89447469938035
531,0.18734773099993163,22.42,30.0,37.55788164129065
532,0.1874584309999392,-38.4,79.36,40.39280333622237
533,0.18756764099994427,12.18,38.44,41.06933955959287
534,0.18765279499994847,25.58,28.84,37.78532424471318
535,0.18777533899995547,23.08,30.24,36.6058521008236
536,0.18788609499995346,16.76,29.72,40.35993785905504
537,0.18800214299994877,16.02,30.74,38.65395310146042
538,0.18812089599994408,-217.24,190.86,34.03576585732826
539,0.18856047299995282,-7.68,58.36,32.1952641730965
540,0.18873055499994962,-102.8,106.0,33.394217934117634
541,0.1888616149999507,-61.06,101.5,34.20835781868535
542,0.1890289859999541,-73.1,112.36,31.15585580502985
543,0.1892391419999626,-204.06,81.5,31.497114100702355
544,0.18950883599995905,-31.64,79.76,31.75035876570818
545,0.18967918999994993,-3.5,56.86,31.310419135849013
546,0.18976526099994828,-28.4,82.78,28.417106099995515
547,0.18999829399994894,-34.92,84.26,30.730662713399305
548,0.1901543529999543,7.18,44.62,30.971110326335133
549,0.19037224099994887,-70.66,113.4,30.564114529792448
550,0.19049405499995942,-30.14,86.4,27.480876990075785
551,0.19066919599995913,-2.46,52.02,28.321234622440397
552,0.19085085799996193,-41.58,83.7,29.084327390175098
553,0.19101183299996194,-44.78,81.64,30.019740624412275
554,0.1913147649999587,-99.94,130.64,28.758649830467867
555,0.19166013299995655,-96.36,126.2,27.85081306145388
556,0.19186435799996104,-1.3,48.3,25.831172699974275
557,0.19202714399996523,-147.82,128.38,23.334083396710625
558,0.19220622099996376,-192.86,173.26,22.800678894670632
559,0.19235483199996395,-3.28,51.86,23.47486620900043
560,0.1924777299999647,11.48,32.08,22.28728493236235
561,0.19258682299995655,16.12,35.62,19.18330970767268
562,0.19268489199994576,0.74,51.9,17.68281059548641
563,0.19289929899994718,14.16,33.62,16.206520707698143
564,0.1934270779999423,-51.9,97.4,16.458751371996634
565,0.19352414799993767,6.98,44.46,17.11136546269737
566,0.19369189999993353,-87.8,128.82,18.12040650791593
567,0.19471415799992542,-15.42,67.66,18.880924641805787
568,0.19493257399992103,-21.76,73.82,19.19512645539605
569,0.1953324759999191,-51.2,99.46,19.11890674672189
570,0.19549815699991768,-39.8,85.86,20.97484828949847
571,0.195642425999921,-143.66,149.44,22.16916990337226
572,0.1959388749999107,-198.7,198.02,25.103539463762765
573,0.1962125249999218,-60.26,104.22,25.38332552509045
574,0.1964906789999219,-79.76,117.28,25.688989657566463
575,0.1966936219999269,2.38,44.8,25.665157849265917
576,0.19681026199992857,-71.42,108.68,24.808856901138363
577,0.1974024709999327,-187.56,177.78,23.336739156433694
578,0.19767212099992548,-224.78,195.34,23.148572170638225
579,0.19791820699992968,-195.2,174.08,21.512695490614522
580,0.19804675999992583,-29.02,74.18,21.45244116581716
581,0.19815729099991586,-20.3,52.6,21.41277481986159
582,0.1983699269999164,-286.8,167.18,21.224986020002035
583,0.1992080839999204,-200.98,200.0,24.397784304430804
584,0.2024496959999169,-172.92,182.9,23.764314188539363
585,0.20297931799991886,-138.44,164.0,25.14493345889882
586,0.20313625599992235,-42.26,88.84,26.200392800223
587,0.20340373199992712,-40.52,86.54,28.915084975078866
588,0.20365336799993372,-68.9,107.94,31.51545019675932
589,0.20381298199993125,4.42,46.22,34.80513423568314
590,0.203924641999933,-26.78,76.74,35.97326802325517
591,0.20410532999993336,-192.94,175.16,36.40540780820136
592,0.20442436299993005,-166.18,163.48,35.042667362328444
593,0.2046414179999232,-51.08,101.16,35.76191272809307
594,0.2047805059999348,-16.36,61.24,35.70844857058746
595,0.20491368899992324,-8.5,57.26,35.994316842950404
596,0.20504424899992557,20.58,33.1,34.04453700039844
597,0.20517562399993494,-11.38,63.76,33.102527600270726
598,0.2054185019999295,-148.38,168.4,32.37172404868201
599,0.20588339699992275,-13.58,69.34,30.690893607386432
600,0.20602729499991312,-149.62,165.56,29.45941813380288
601,0.2063210929999002,-4.14,53.42,29.76869682592362
602,0.2064327209998993,20.08,29.44,29.992072482903154
603,0.20658343599988882,8.94,45.48,26.218434551195923
604,0.20683787499989137,-218.26,175.72,25.860054741203264
605,0.20702617799989298,-154.94,157.8,25.167001748388394
606,0.20723648399989258,-70.8,110.38,27.523773754451344
607,0.2074046509998908,-39.02,70.56,27.607874518205268
608,0.20751547299990136,-38.68,82.62,26.17707810592815
609,0.20766012899990471,-398.9,80.42,26.26301186920502
610,0.20779985699989822,9.96,37.28,29.254290847991932
611,0.20794682799990483,23.48,32.02,26.979140666542584
612,0.20805099299990104,-15.52,62.86,27.606375616915948
613,0.20825139999989517,-189.7,177.86,28.769156327126506
614,0.20856384099990066,-246.28,193.68,31.71558661068322
615,0.20886681099989346,19.84,29.82,31.06222999304717
616,0.20898481699990157,-17.94,66.52,30.451323630832928
617,0.20909112899990134,-118.48,146.74,30.579686644275455
618,0.20994487099990522,-200.52,184.82,30.79716086013958
619,0.2102753519999112,-12.74,60.04,30.732690902132646
620,0.21051448399991557,-95.4,128.86,28.24093209851975
621,0.21081007099992632,-138.12,161.34,32.31416844961195
622,0.21104988799993407,-119.6,151.42,31.037849932812527
623,0.21117222999993146,-37.26,90.56,30.665828695969747
624,0.21148741699992968,-102.56,132.42,29.353014581113136
625,0.21187458499993284,-64.3,111.96,28.675046601902032
626,0.2119967639999345,18.62,29.06,28.596614182783476
627,0.2121798429999444,-59.52,102.02,28.127564487517965
628,0.21240558999993198,10.76,43.6,28.8106443633231
629,0.21252831399992544,-58.34,101.2,28.758833138142062
630,0.21276224099992191,25.94,30.0,28.60773050792854
631,0.21290700099991966,20.06,31.2,25.83107145983816
632,0.21302395399990814,26.34,26.98,26.609492994620815
633,0.21311819799990417,-22.32,68.68,26.156058950644784
634,0.21323899999990203,-12.04,60.88,23.923423647235115
635,0.21332652299989263,24.9,26.4,24.48462074174713
636,0.213406944999889,8.9,42.86,22.732875121926046
637,0.21354534699987937,-1.66,57.42,23.05402491156466
638,0.21370623799988664,-146.46,169.06,22.72752063053788
639,0.2143240959998991,-112.82,144.64,22.144893334037427
640,0.21464724899989562,5.16,45.08,24.15832343333251
641,0.2147656889998899,23.22,28.84,23.823359417615368
642,0.21490010599988807,-13.18,64.34,22.726221837434426
643,0.21499980399988772,-38.14,71.56,23.464127997894842
644,0.21525247699989336,4.08,48.34,25.54632722194979
645,0.2153862049998878,-2.38,56.58,25.608986716462585
646,0.2155698899998839,-105.6,138.66,26.163174946604805
647,0.2157297259998927,-19.16,67.56,24.13610360344099
648,0.21592933499988476,-81.6,123.04,24.533965959572285
649,0.21639722099988035,-12.3,59.72,23.691104844837778
650,0.21651402199988468,-219.68,140.38,21.019067363926403
651,0.21701014499988958,-4.34,52.92,19.95645539552551
652,0.21717212999988078,4.5,41.84,19.736687896800802
653,0.21729673399987348,-11.02,64.38,18.711851118058146
654,0.2175136479998656,13.18,39.58,17.368437608639606
655,0.2176321459998718,16.84,32.94,15.892414480025858
656,0.21779810099987174,5.34,45.52,15.730275122600622
657,0.2179683169998725,-11.26,52.84,16.28539552401041
658,0.218160655999867,-2.22,53.22,14.80071109798391
659,0.21845823799986874,-161.64,157.14,15.149647264182772
660,0.2187059969998728,-1116.4,163.54,14.69677489459266
661,0.2189635309998721,-1.0,51.32,16.479158652526653
662,0.21912756999986982,-158.7,168.46,16.401277232979503
663,0.21926290499986578,17.74,32.3,16.749774001907085
664,0.21935671199986473,21.44,31.56,17.96408701768635
665,0.21946689399986496,23.92,31.98,17.571150961872853
666,0.21958566199987217,-93.76,114.8,17.9452957150153
667,0.21970544299986727,-104.64,128.34,19.115852297584023
668,0.2198429039998615,3.62,43.74,19.34639472620426
669,0.2199271029998613,-24.5,69.96,19.201292751320178
670,0.2200904189998596,19.04,32.4,20.59625003501484
671,0.2202581109998647,-123.7,152.44,20.76857652439073
672,0.22058616999987635,4.88,48.02,21.804039253185355
673,0.22077399799987063,-8.94,60.32,22.4799314790421
674,0.22091847599988057,2.46,52.28,21.74536866784406
675,0.22108400099988046,-77.42,119.34,22.24039536913121
676,0.22135011799989002,19.84,32.58,22.065152367045037
677,0.2215765349998975,-49.12,99.42,20.703262452240956
678,0.22195481699989728,-778.04,149.62,20.909042858596063
679,0.22219897199988736,-199.92,168.84,20.654926599476862
680,0.22243652799988922,-178.04,173.42,18.975097987827706
681,0.22288654699988797,-7.36,59.38,18.77662399021035
682,0.22347840599988444,-81.36,118.66,17.42732514132866
683,0.22426255399987838,-22.74,72.3,16.328150016212657
684,0.22440954299987936,24.58,27.96,16.39255809991134
685,0.22448666999987665,6.32,35.82,16.743927331437785
686,0.2245552209998749,-62.36,100.56,16.810757192824724
687,0.22490367599986882,-124.14,151.3,17.346473963129334
688,0.2250449419998688,-54.7,100.36,16.879124594094872
689,0.22516335899987894,-34.2,82.36,18.58101398424065
690,0.22524553599988906,-40.58,90.74,20.250811084496313
691,0.225476171999901,-90.8,127.3,19.577881571507447
692,0.22567616099989607,-69.72,70.16,20.074135751920913
693,0.22599088399989853,-47.24,100.76,19.932065493043662
694,0.22620655399990142,8.66,42.64,20.13754811851827
695,0.22648996099989915,-207.22,200.0,21.542667000175005
696,0.22775056799990523,-231.36,192.42,25.50899700101232
697,0.22868509599990716,-213.84,200.0,26.460730504282502
698,0.2295398319999009,-172.42,174.52,30.37459332195864
699,0.22992924899989475,-68.64,108.98,30.468742895008017
700,0.23005025099989496,-21.14,69.36,32.23869971525779
701,0.23015360499988446,4.42,45.64,34.357327703938644
702,0.2302912339998784,21.24,30.68,35.26210373742829
703,0.23041757899987658,-190.12,183.6,36.581774304934946
704,0.2312541209998784,-199.18,200.0,35.25319249902794
705,0.23287294999987296,-222.1,200.0,33.5349629792652
706,0.23373763199987252,-170.24,173.8,31.29996407218972
707,0.23397005299986517,-22.62,73.66,33.0711384282122
708,0.23409757599985426,-0.76,49.04,32.389819326086
709,0.23421030599986636,-137.3,148.9,31.008635450087574
710,0.23437600899985966,19.02,34.56,32.7856092044443
711,0.23446113499984733,-1.52,41.58,32.52024312246751
712,0.23457193499984896,3.46,44.58,32.443913169574685
713,0.2347392579998484,-62.96,95.2,30.957669492192924
714,0.2349097649998413,-46.2,94.38,32.875641402642614
715,0.23506114199983585,18.52,29.62,33.87416164881911
716,0.23521481799983235,-14.06,56.46,31.983395690590093
717,0.23534568399983868,-104.38,118.64,32.60662357614886
718,0.23546862399985002,-604.16,96.94,31.525412723231057
719,0.2355798259998494,23.08,33.46,32.01107806033462
720,0.2356664559998478,-457.22,82.8,28.661158224572613
721,0.23587000499985322,-8.04,52.34,30.339854690715622
722,0.23600626099984368,-29.5,73.5,31.207863274854834
723,0.23636264399983986,-39.24,78.34,33.47462250668702
724,0.23660849799983907,-53.54,94.18,33.36247332781367
725,0.23678621499983876,23.38,29.14,32.14797514908154
726,0.23703024099984304,-55.98,101.94,33.79739571839955
727,0.2371980139998442,-120.54,146.64,30.50967070621602
728,0.2377710319998414,3.16,41.0,30.04379167601872
729,0.23797567999984892,-15.74,60.88,29.270113253043185
730,0.23810445499984212,-8.62,56.04,28.256018817512256
731,0.2383860789998522,12.16,38.52,25.285113222775834
732,0.2384902279998613,-694.36,165.18,23.50303649477784
733,0.23923057899985167,-106.76,136.88,22.310912942013957
734,0.2394045389998496,-71.66,109.62,21.860286125202627
735,0.23955013899984579,-43.32,89.76,22.88650146240341
736,0.239884702999845,-30.06,79.48,21.56146437605003
737,0.24003152899985025,0.98,51.04,21.75180703061653
738,0.24019826799985822,-29.56,83.84,20.126364155074974
739,0.2403028209998581,-125.8,141.68,20.387513398961925
740,0.24114887699985843,-155.98,159.52,21.095794889939434
741,0.24177099099985355,-195.34,192.62,21.256328710663176
742,0.24261691199986046,-142.4,152.96,22.431472258075594
743,0.2428831759998502,-90.98,124.42,26.86938731684652
744,0.2433247589998615,-20.24,66.32,26.551345787822036
745,0.24357447899986084,-64.02,108.86,28.2475573776089
746,0.24403581099986127,-103.74,130.0,29.454993373954
747,0.24432809899987262,-198.58,181.68,30.388673972353285
748,0.2445979409998671,-180.16,182.92,33.66711257153478
749,0.2447231689998688,-56.62,94.4,34.529459004357314
750,0.24488224499987155,4.06,44.66,33.7309449428113
751,0.2450369599998794,-52.6,98.72,33.53806485024647
752,0.24515560099987965,-217.36,186.46,32.89572769205038
753,0.24526772199988045,-40.3,85.02,28.971576355926583
754,0.2456202999998709,-197.84,183.24,29.650833088366248
755,0.2458262879998756,-47.84,73.64,30.383261642164836
756,0.24613806399986515,-90.48,128.44,28.927770055343377
757,0.24645866599986732,-50.62,96.1,30.526087882780626
758,0.2466048039998725,14.76,31.28,28.425970462067465
759,0.2467066179998767,-48.3,94.48,27.518258002702282
760,0.24701848899988477,16.86,30.42,28.37804900621783
761,0.24712007399988067,13.14,30.18,27.860250803836415
762,0.24726713099988729,-56.54,100.34,28.566355279213678
763,0.24812316199988516,-190.74,192.6,28.355957615837774
764,0.24836379499988936,-12.0,62.3,28.349383711621453
765,0.2485862599998825,2.82,47.78,25.742443504641763
766,0.24873251899988702,-17.5,64.5,27.17978733242196
767,0.2489081579998924,2.04,49.0,24.18192175397966
768,0.24900192599989168,17.4,32.34,23.86489201524505
769,0.24913134199989884,3.34,45.2,25.482860021104607
770,0.24945755899989308,-2.96,54.7,26.54545027815815
771,0.24961395199989056,-2.66,49.9,26.999466149225803
772,0.24973976699988043,-37.48,78.72,25.651002798949843
773,0.2499528289998807,-15.2,65.54,25.467810070383944
774,0.2503877569998707,13.82,39.8,25.99874993737929
775,0.2507447979998716,-7.72,49.7,26.015949241711233
776,0.2509487719998731,3.48,48.76,24.765713898422256
777,0.25109789599987664,14.18,33.32,24.92487276125741
778,0.2513711249998778,21.84,29.42,25.62866905624412
779,0.25146915199987063,13.96,38.42,25.39230549310195
780,0.2517348139998603,-13.1,59.56,23.286479689113627
781,0.2518576329998581,19.08,32.18,22.710918049096534
782,0.2519445129998701,4.36,51.58,23.198169275448244
783,0.2521252269998655,-7.08,56.36,22.99958176561016
784,0.25226220499986596,-226.52,199.86,24.115290240727997
785,0.25283292399987545,-186.64,192.82,24.692717092208486
786,0.2531036749998776,-63.08,100.68,24.699822578731744
787,0.25321227999988594,-99.06,124.28,24.35280324229267
788,0.25338092699989545,11.08,32.46,23.43738527871121
789,0.25355012499990437,20.62,30.22,23.8082868324447
790,0.2538178119999088,14.3,32.44,25.99945339878881
791,0.2539578839999166,-38.38,77.38,25.41769818806839
792,0.2542674429999181,-38.8,87.24,26.338851080769103
793,0.2545226999999244,-197.38,145.06,30.189838960596365
794,0.25476255799992487,-175.68,181.58,29.689624128416074
795,0.25514124699992635,-138.34,161.52,28.742131518390853
796,0.2556590989999279,-16.68,69.14,29.45885784741872
797,0.25580785399994,-83.84,118.28,29.568866870390433
798,0.2560141089999348,-27.6,68.26,29.732287574556217
799,0.25613142799993227,15.36,38.44,29.171627589065064
800,0.256336743999924,2.38,46.68,27.510072898260283
801,0.2565262759999172,-224.9,183.36,29.042495619032707
802,0.25688759499990965,23.48,32.38,26.867749544603537
803,0.2569967159999038,-14.12,65.06,22.80884211167858
804,0.2573338829999017,-45.46,92.76,20.78158382422777
805,0.25748118699989675,-202.8,199.8,20.6843724316685
806,0.25777912599990316,-80.24,125.46,20.024706414788785
807,0.2581063099999028,-129.46,150.1,20.58266517190638
808,0.25831950599990705,-130.5,133.46,21.284894679313318
809,0.25845430099990097,-124.42,86.64,20.207288596915625
810,0.258562585999897,-7.78,62.92,20.796758718442824
811,0.2587516079998977,-19.5,68.92,18.75737018891318
812,0.25893358599989824,17.76,31.8,20.273267928969226
813,0.2590431559998905,-17.46,45.38,21.22220578549379
814,0.25926311899989685,14.16,36.16,20.447133080982447
815,0.2594338109998944,-33.98,77.82,22.16556381109636
816,0.2595427259998928,-2.8,50.8,23.06445463006333
817,0.2596298139998936,-5.1,37.8,23.804026341404004
818,0.25972141199989096,23.76,27.18,21.859170248778106
819,0.25984718199988777,3.58,49.0,22.08477436587483
820,0.25998590499989405,-4.22,55.74,20.65224918339574
821,0.2601657019998953,-109.66,134.22,22.461493217985623
822,0.26044521599989423,-180.82,185.78,21.409279703948098
823,0.2607567379998983,-220.42,200.0,21.313898363934662
824,0.2609166269999008,6.88,44.18,22.619750963961543
825,0.261009670999897,2.54,42.06,23.768935229082622
826,0.26110929199990096,-46.16,86.96,22.96750377495881
827,0.2613779849999105,16.62,33.34,21.47849812241907
828,0.26169300099991233,13.62,34.28,21.395255466455694
829,0.26183477699990476,-33.02,82.14,22.34791604352804
830,0.26218351499990433,-91.74,125.5,22.812758814035426
831,0.26246712299989383,19.28,30.28,21.12567387685151
832,0.26255453599989664,21.16,33.04,20.83217717988258
833,0.2626569459998933,-67.02,108.62,20.56429578870501
834,0.26291169099989986,-185.82,193.98,20.455612948843644
835,0.2632399729999122,-216.8,192.36,18.058362122537694
836,0.263524201999914,-262.36,94.94,18.23951504342404
837,0.26399450399991053,-201.78,200.0,19.792698770043287
838,0.26483581099991227,-210.1,199.04,20.016409275298386
839,0.2658264419999199,-203.78,200.0,21.063549485854274
840,0.2666697189999212,-207.0,200.0,21.93682180817183
841,0.26791782099991224,-194.72,197.66,25.080025046730583
842,0.2685795109999134,-198.56,185.54,27.330711908043394
843,0.2687292789999134,-52.34,94.54,27.231033021549486
844,0.2690157229999244,-8.2,60.44,27.875654881306286
845,0.2691481899999246,14.52,33.22,29.524057660625214
846,0.2693610309999315,-8.68,57.04,29.41553297134454
847,0.26959674799992683,4.3,46.84,29.894299405325192
848,0.2699503429999197,-11.32,60.82,32.56737843509439
849,0.27021600399991996,-396.54,187.06,31.37199415734002
850,0.27050729199991963,-48.5,87.94,32.25338642408102
851,0.2709355969999194,-3.9,54.36,31.34188631393828
852,0.2711521819999234,-17.74,66.14,29.809528250747196
853,0.2713041439999273,14.5,32.16,30.152935964022078
854,0.27138780299992504,19.88,31.72,28.500278482718564
855,0.2716427099999237,19.28,29.56,27.39246339615907
856,0.2717236079999168,-92.96,121.52,28.15353128735169
857,0.27209380699991925,-8.42,61.58,28.750487361480026
858,0.27234119699991766,-5.96,50.56,27.46939019340557
859,0.2724750659999131,-6.72,57.66,27.95813264253487
860,0.27261189399990826,-154.4,120.32,25.978107135247456
861,0.2728367329999202,-33.7,79.36,25.33640973657861
862,0.2729285779999202,16.88,30.5,25.10307743962397
863,0.2730518589999207,-176.08,165.84,23.127854430695237
864,0.27315421499992,22.92,28.28,24.420834164830836
865,0.27327759299991783,-17.04,64.58,24.61702978045152
866,0.27335856799990665,-31.52,80.32,25.543294022079646
867,0.27355230299990296,19.12,30.94,25.282473770709693
868,0.27362803399989843,16.6,37.3,26.30908507940339
869,0.27387989599989737,-76.34,109.84,23.995130261339888
870,0.2739728769998919,-754.24,170.5,24.26551978415334
871,0.274192598999889,-59.32,99.54,24.4554347301016
872,0.27475095599989174,-55.8,96.94,25.586806091406054
873,0.27485120899989113,-30.66,76.86,29.438892930356065
874,0.27509159199989597,-103.66,140.86,29.992877726536836
875,0.27590336299988394,-76.04,114.78,29.306502437634954
876,0.2760832579998862,-205.96,193.34,30.672025683971537
877,0.27646536499987917,-142.82,156.88,29.30800589153706
878,0.2768763399998875,-139.34,147.94,30.763351139587673
879,0.2769799179998813,-4.46,50.42,32.93757515425931
880,0.2771127629998773,20.52,26.72,31.808924931223096
881,0.2771801729998771,7.48,43.86,31.76588219836566
882,0.2774000489998798,-24.22,61.56,31.73189007284676
883,0.2775645239998852,18.3,27.48,29.509119953059116
884,0.2776455199998793,13.22,38.58,29.311940312152576
885,0.27775712799989094,-45.34,88.4,30.821854074233812
886,0.27789484199989545,-198.06,199.78,29.115007096118283
887,0.2786606319998981,-76.68,117.94,29.924971045533205
888,0.2787745189998958,-128.14,152.84,27.60506327814082
889,0.2789884019998965,-1.82,49.14,28.205822976493494
890,0.27925615699989237,-8.28,61.72,30.334662632010247
891,0.27937046799989673,10.8,43.76,31.194885702766936
892,0.2794470829998943,-27.86,71.16,29.84606365679262
893,0.279622278999895,-195.14,194.36,30.117822310979903
894,0.27995533899989766,-15.84,63.42,29.30166037391414
895,0.28097361499989404,-315.58,200.0,30.163513322934087
896,0.2818729789998855,-195.94,197.06,30.995726807507385
897,0.2826551969998832,-222.26,200.0,29.654540049796772
898,0.28346782199987786,-207.2,182.04,29.683717484310638
899,0.2837610009998741,15.92,37.26,28.07091938761016
900,0.28386578799987205,-16.82,67.22,27.870917002372096
901,0.2839970829998606,-9.2,61.12,26.574698728451636
902,0.2842384499998616,-27.06,75.9,27.93233779737215
903,0.2844161949998636,17.74,30.26,29.274978023023447
904,0.28449766999986537,9.68,45.02,28.47790646849333
905,0.2846577059998623,-172.48,166.2,25.392351829874872
906,0.2848415629998726,9.76,42.3,25.991123213475326
907,0.2849803219998819,23.68,29.28,26.92237986316067
908,0.2850672979998734,-44.7,81.86,27.11624155766009
909,0.2852481119998771,-149.6,167.38,28.492539671582364
910,0.2857178159998739,-106.24,138.94,27.846497753703357
911,0.28589326199987397,-154.62,168.0,28.3953885481496
912,0.28622322599987626,-90.74,121.16,28.848538289673304
913,0.2864532679998746,-127.2,147.36,27.613513704476354
914,0.2866253159998706,-74.88,112.76,29.2321458559191
915,0.2868020129998712,-28.52,75.98,29.45617989171534
916,0.286920028999873,-159.78,137.48,26.633850068208073
917,0.287144104999868,-192.88,124.68,26.55369674438689
918,0.28740572999987535,4.88,48.88,26.50280401306307
919,0.2875221149998737,20.58,32.5,24.17148490237882
920,0.2876425689998712,22.48,31.9,24.524497437753944
921,0.2877087289998741,-241.84,177.72,23.62068762204435
922,0.28788669899986985,-5.38,54.58,22.043392926393796
923,0.2880005969998649,26.6,26.72,21.680354372806445
924,0.28813275099986413,-294.18,190.24,21.809132234377344
925,0.2885251029998557,-64.56,89.58,22.771938101052683
926,0.2887140609998511,-13.48,43.46,21.994936098328402
927,0.28895251999985305,-7.38,58.38,24.574155701277682
928,0.2891016539998503,8.1,43.56,24.576654864391067
929,0.28932320099984565,24.04,30.08,24.7484291362096
930,0.28940541199983727,-3.96,57.62,25.505781534090946
931,0.28953135299983046,14.32,35.64,24.785779676456816
932,0.2897227759998344,-224.24,192.06,27.032599024560945
933,0.28994873299983226,-14.0,61.0,25.92828118654458
934,0.2902030709998371,-153.6,166.16,26.251598816999042
935,0.29037412999983303,-20.84,49.12,25.946360753335064
936,0.2905833179998325,-4.02,52.24,25.73467639071062
937,0.2907782089998392,7.86,46.84,23.607522734679158
938,0.2908823429998364,-15.76,65.72,23.609142633594654
939,0.291131789999838,-134.34,156.76,23.60190169998308
940,0.29145946599983574,-131.26,102.54,23.117186793366407
941,0.2916326369998359,9.98,33.96,23.95890984830915
942,0.29174901999984115,21.4,32.14,21.759976202293586
943,0.2918725839998473,-31.94,81.42,21.573563240290035
944,0.2927126419998558,-217.2,198.24,20.579834847403408
945,0.2933736109998506,-178.3,182.04,20.54936768924701
946,0.29420836699985387,-184.0,189.66,21.23512504594027
947,0.29520312499985835,-179.26,184.5,22.092548202010896
948,0.29604738799984887,-182.54,183.9,23.803061580734052
949,0.29656435099984435,-32.02,65.4,26.43328594687768
950,0.29678027199985024,-12.66,65.24,28.221989135446183
951,0.29701659699983907,17.44,32.24,28.946347728466513
952,0.29715177099983237,-1.96,52.78,29.56579326675909
953,0.2972576109998357,-87.94,118.42,31.694438831078248
954,0.29738154599984057,-212.88,188.6,32.36132524641416
955,0.29760131299984494,-162.56,158.84,33.051029337856235
956,0.2978800169998408,-72.72,101.14,33.66760666900331
957,0.2980394309998502,-64.94,111.46,32.659275939380386
958,0.2983463849998458,-20.94,71.38,29.70113889692098
959,0.2984793379998507,-93.04,125.8,29.97673901828827
960,0.29871415799985357,-207.56,190.4,27.383562776127526
961,0.29882760099985717,-59.96,97.18,26.325652474529676
962,0.2990597049998627,9.58,40.74,25.66983733689252
963,0.29921860399986144,-0.56,50.36,24.821902230682074
964,0.2993744279998509,15.02,33.68,22.95549548722612
965,0.2996293109998476,14.24,37.02,20.943087693064808
966,0.29972552999984714,14.34,39.56,19.56850903438053
967,0.2998236189998522,-9.4,60.38,18.219183702599796
968,0.29990153699984035,9.12,43.38,18.317027831020635
969,0.30006630099983056,4.04,44.32,16.462152635104605
970,0.3001512819998311,-116.76,145.92,20.007438759825316
971,0.30042124599982856,-110.4,136.22,21.04484645341286
972,0.3005765729998302,2.2,45.44,21.637038685253835
973,0.3007340589998222,-90.54,119.28,22.13632304914657
974,0.30095649999982754,-143.06,143.18,24.6295470396988
975,0.3014748209998146,-3.34,53.62,26.30923755079241
976,0.30165037299981634,23.36,30.14,26.744680534932325
977,0.30186552599981553,-43.54,84.46,27.710822530568294
978,0.3026529739998125,-177.0,183.02,30.097181900485943
979,0.3037466459998086,-120.1,144.94,30.908291236242423
980,0.30435493699981464,-22.78,70.82,27.98650814313774
981,0.304457466999807,11.58,35.5,27.544157749428337
982,0.30457780499980913,14.52,33.34,26.790279849943367
983,0.30472066899982053,-10.6,58.56,24.78282045090042
984,0.30498184599981926,-246.8,192.52,23.142054255200982
985,0.30514190499981453,-85.32,128.34,22.586231732877213
986,0.3053447239998093,-196.28,192.22,25.256476093415017
987,0.3055783749997971,-121.88,148.16,24.714461345242334
988,0.30640486099980535,-49.9,93.18,22.89699361884045
989,0.3066661209998074,-73.54,111.86,23.96202010044915
990,0.30695895999981815,-84.16,117.86,23.214752308261616
991,0.30716466999980696,-66.3,106.94,23.61218225559357
992,0.30738371299979406,-45.92,88.28,23.697509660441387
993,0.3077310849997872,-246.92,197.96,23.769427620789745
994,0.30802860999978066,-23.0,72.12,24.824799202175363
995,0.30829686999977923,-155.44,171.46,24.181129024513755
996,0.30841362099978653,3.2,43.34,21.66913010392524
997,0.3085151739997798,20.7,29.5,20.464008020147766
998,0.30865474999978915,21.86,29.26,20.11119689669805
999,0.3087787619997897,17.6,31.38,16.95247631975699
1000,0.30888384899979826,21.66,29.42,15.890730123691089
