iterations,fitness,time,fevals
0,28.0,0.000615071,549
10,29.0,0.001098492,1016
20,29.0,0.001562452,1473
30,28.0,0.0020119,1932
40,29.0,0.002451127,2377
50,30.0,0.002932475,2842
60,30.0,0.003435796,3304
70,31.0,0.00389861,3760
80,32.0,0.004369641,4210
90,32.0,0.004849543,4681
100,33.0,0.005355775,5143
110,35.0,0.005816876,5604
120,33.0,0.006265652,6061
130,34.0,0.006709693,6507
140,35.0,0.007143792,6950
150,35.0,0.007601635,7400
160,37.0,0.008068982,7862
170,36.0,0.008532156,8328
180,36.0,0.008974349,8780
190,35.0,0.009433122,9248
200,36.0,0.009901181,9706
210,36.0,0.01036448,10153
220,36.0,0.010837652,10620
230,36.0,0.011289517,11075
240,36.0,0.011751953,11533
250,37.0,0.012218245,11996
260,36.0,0.01268307,12456
270,36.0,0.013140667,12898
280,35.0,0.013603627,13346
290,35.0,0.014146702,13799
300,35.0,0.014610137,14259
310,35.0,0.015072902,14711
320,34.0,0.015528982,15179
330,35.0,0.015968524,15626
340,35.0,0.016412173,16092
350,36.0,0.016847557,16548
360,37.0,0.017283081,16992
370,37.0,0.017735172,17445
380,37.0,0.018190895,17903
390,37.0,0.018647449,18366
400,38.0,0.019092901,18827
410,38.0,0.019546795,19284
420,39.0,0.020009411,19735
430,40.0,0.020465839,20193
440,38.0,0.020927761,20654
450,38.0,0.021387678,21105
460,38.0,0.021830576,21545
470,38.0,0.02228785,22004
480,38.0,0.022745858,22465
490,39.0,0.023200409,22921
500,39.0,0.023678519,23379
510,38.0,0.024140151,23837
520,37.0,0.024607394,24299
530,38.0,0.025073305,24770
540,38.0,0.025524847,25234
550,38.0,0.025991401,25687
560,40.0,0.026448123,26137
570,39.0,0.026902434,26584
580,39.0,0.027344987,27037
590,38.0,0.027792453,27498
600,39.0,0.028283568,27958
610,39.0,0.028751161,28433
620,39.0,0.029208454,28875
630,38.0,0.029673071,29331
640,40.0,0.030122215,29798
650,40.0,0.030579868,30241
660,39.0,0.031033347,30692
670,41.0,0.031478446,31142
680,40.0,0.031930472,31592
690,41.0,0.032375957,32056
700,40.0,0.032818346,32495
710,40.0,0.033267383,32943
720,40.0,0.033722633,33404
730,39.0,0.034169981,33858
740,38.0,0.034617558,34319
750,37.0,0.035060924,34772
760,38.0,0.035509061,35231
770,39.0,0.035977716,35685
780,38.0,0.036444794,36145
790,38.0,0.036908942,36604
800,38.0,0.03741513,37052
810,39.0,0.037887203,37496
820,39.0,0.038355045,37952
830,39.0,0.038828966,38393
840,40.0,0.039303775,38839
850,39.0,0.039776173,39292
860,40.0,0.040233218,39746
870,38.0,0.04076862,40207
880,40.0,0.041228954,40661
890,39.0,0.041677473,41107
900,39.0,0.042148939,41582
910,37.0,0.042612642,42039
920,39.0,0.043095149,42501
930,38.0,0.043568297,42953
940,38.0,0.044044156,43413
950,38.0,0.044485404,43861
960,41.0,0.044963622,44324
970,40.0,0.045426081,44789
980,40.0,0.045881671,45241
990,42.0,0.046342352,45698
1000,43.0,0.046785244,46148
1010,43.0,0.047228975,46601
1020,44.0,0.047684109,47064
1030,44.0,0.048126791,47524
1040,44.0,0.048555209,47964
1050,44.0,0.048988864,48414
1060,45.0,0.049515262,48860
1070,45.0,0.049954171,49307
1080,47.0,0.050409691,49756
1090,46.0,0.050904742,50218
1100,46.0,0.051347776,50673
1110,45.0,0.051805565,51139
1120,46.0,0.052229722,51592
1130,46.0,0.052654966,52048
1140,46.0,0.053074282,52507
1150,46.0,0.053508954,52973
1160,46.0,0.053945864,53428
1170,46.0,0.054379013,53876
1180,46.0,0.054816312,54334
1190,46.0,0.055254265,54810
1200,47.0,0.055681692,55265
1210,47.0,0.056713707,55716
1220,46.0,0.057172626,56155
1230,45.0,0.057673006,56618
1240,46.0,0.058126059,57075
1250,45.0,0.058584654,57531
1260,45.0,0.059046941,57998
1270,44.0,0.059506268,58466
1280,45.0,0.059975418,58939
1290,43.0,0.060433534,59395
1300,45.0,0.060904905,59856
1310,43.0,0.061391119,60308
1320,44.0,0.06186524,60753
1330,44.0,0.062308853,61204
1340,45.0,0.062763083,61657
1350,46.0,0.06323303,62113
1360,45.0,0.063663433,62574
1370,46.0,0.064097337,63010
1380,46.0,0.064527298,63470
1390,45.0,0.065063919,63916
1400,46.0,0.065533521,64378
1410,46.0,0.065989605,64839
1420,45.0,0.06645496,65298
1430,47.0,0.066968378,65767
1440,46.0,0.067426056,66238
1450,46.0,0.067881644,66701
1460,46.0,0.068321308,67155
1470,47.0,0.068760586,67611
1480,47.0,0.069206071,68070
1490,46.0,0.069651776,68524
1500,47.0,0.07010896,68986
1510,45.0,0.070576216,69432
1520,46.0,0.07103305,69902
1530,45.0,0.071478333,70348
1540,46.0,0.071933329,70796
1550,44.0,0.072399023,71263
1560,44.0,0.072860388,71724
1570,44.0,0.073328388,72192
1580,43.0,0.07382872,72651
1590,44.0,0.074306129,73103
1600,45.0,0.074768727,73555
1610,44.0,0.07523764,74021
1620,45.0,0.075727143,74476
1630,44.0,0.076180204,74925
1640,44.0,0.076631494,75380
1650,44.0,0.077077569,75838
1660,43.0,0.077534974,76296
1670,43.0,0.077995634,76769
1680,43.0,0.078449508,77217
1690,44.0,0.078904888,77676
1700,43.0,0.079377204,78117
1710,43.0,0.07983839,78573
1720,43.0,0.080288931,79013
1730,45.0,0.080751848,79465
1740,44.0,0.081199569,79917
1750,45.0,0.081639478,80361
1760,44.0,0.082075214,80817
1770,43.0,0.082515033,81255
1780,43.0,0.08296872,81714
1790,44.0,0.083417365,82160
1800,44.0,0.083865526,82601
1810,44.0,0.08431792,83056
1820,44.0,0.084758783,83517
1830,44.0,0.085223859,83982
1840,45.0,0.085672685,84451
1850,44.0,0.086130246,84906
1860,45.0,0.086572522,85353
1870,46.0,0.087009639,85820
1880,46.0,0.087447828,86274
1890,45.0,0.087893859,86738
1900,45.0,0.088339749,87195
1910,45.0,0.088797483,87645
1920,46.0,0.089262338,88113
1930,46.0,0.089722829,88571
1940,47.0,0.090177821,89024
1950,47.0,0.090628364,89478
1960,48.0,0.091083768,89950
1970,55.0,0.091536605,90402
1980,49.0,0.091996311,90861
1990,49.0,0.092470734,91323
2000,50.0,0.092950187,91785
2010,50.0,0.093408761,92252
2020,50.0,0.093882313,92724
2030,51.0,0.094335806,93170
2040,49.0,0.094813682,93631
2050,50.0,0.095279353,94076
2060,46.0,0.095751047,94537
2070,47.0,0.096212982,94984
2080,47.0,0.096679359,95438
2090,47.0,0.097143857,95894
2100,49.0,0.097604538,96344
2110,48.0,0.098063538,96792
2120,50.0,0.098523287,97256
2130,48.0,0.098991395,97715
2140,49.0,0.09945392,98180
2150,48.0,0.099906308,98631
2160,49.0,0.100336719,99081
2170,50.0,0.1007778,99547
2180,50.0,0.101215939,100005
2190,49.0,0.101658734,100462
2200,51.0,0.102112335,100908
2210,51.0,0.102620708,101362
2220,50.0,0.10307334,101826
2230,49.0,0.103533256,102275
2240,50.0,0.10405248,102736
2250,51.0,0.104493254,103205
2260,51.0,0.104958159,103676
2270,50.0,0.105388202,104147
2280,51.0,0.105809823,104609
2290,51.0,0.106238592,105070
2300,51.0,0.106668364,105518
2310,50.0,0.107101226,105971
2320,50.0,0.107538359,106442
2330,51.0,0.107979305,106897
2340,51.0,0.108406753,107331
2350,51.0,0.108853076,107779
2360,51.0,0.10990743,108241
2370,51.0,0.110361683,108692
2380,51.0,0.110831565,109140
2390,52.0,0.111266754,109612
2400,51.0,0.111716561,110082
2410,51.0,0.112172872,110540
2420,51.0,0.112643872,110994
2430,51.0,0.113086967,111441
2440,51.0,0.113518008,111895
2450,52.0,0.11395653,112352
2460,52.0,0.1143902,112807
2470,52.0,0.11483465,113258
2480,52.0,0.115277495,113718
2490,54.0,0.115706125,114181
2500,52.0,0.116134727,114635
2510,51.0,0.116567374,115089
2520,54.0,0.117009374,115557
2530,51.0,0.117445721,116015
2540,51.0,0.117876616,116463
2550,51.0,0.118334219,116914
2560,51.0,0.118773635,117354
2570,51.0,0.119208246,117811
2580,51.0,0.119661521,118280
2590,51.0,0.120117106,118750
2600,52.0,0.12055849,119200
2610,52.0,0.121001561,119648
2620,53.0,0.121450771,120104
2630,54.0,0.121909493,120561
2640,53.0,0.122360352,121022
2650,53.0,0.122814408,121475
2660,54.0,0.123253222,121928
2670,53.0,0.123691569,122382
2680,54.0,0.124137446,122847
2690,51.0,0.124581224,123311
2700,52.0,0.125034528,123767
2710,54.0,0.125497451,124242
2720,51.0,0.125968516,124696
2730,52.0,0.126408816,125153
2740,55.0,0.126851807,125609
2750,56.0,0.127290592,126071
2760,56.0,0.127724139,126518
2770,57.0,0.128193954,126980
2780,56.0,0.128645576,127422
2790,57.0,0.129079884,127878
2800,57.0,0.12953801,128331
2810,57.0,0.129973588,128794
2820,57.0,0.130442394,129236
2830,57.0,0.130894002,129685
2840,58.0,0.131319841,130145
2850,63.0,0.131761218,130603
2860,62.0,0.132186054,131055
2870,63.0,0.132617039,131525
2880,61.0,0.133043168,131982
2890,61.0,0.133465766,132428
2900,62.0,0.13388856,132877
2910,63.0,0.134306144,133331
2920,59.0,0.134718969,133776
2930,58.0,0.135144946,134237
2940,58.0,0.135570422,134676
2950,58.0,0.136001342,135122
2960,58.0,0.13642609,135581
2970,58.0,0.136849394,136033
2980,59.0,0.137301344,136489
2990,58.0,0.137734971,136945
3000,62.0,0.138174787,137401
3010,58.0,0.138603421,137846
3020,58.0,0.139024071,138294
3030,59.0,0.139453374,138758
3040,59.0,0.139881135,139209
3050,61.0,0.140315091,139670
3060,59.0,0.140753537,140139
3070,59.0,0.141182571,140576
3080,59.0,0.141616291,141034
3090,58.0,0.14205477,141479
3100,58.0,0.142490099,141936
3110,58.0,0.142925836,142397
3120,58.0,0.143357042,142844
3130,58.0,0.143806387,143313
3140,58.0,0.144245514,143770
3150,60.0,0.144688533,144222
3160,58.0,0.145120064,144661
3170,60.0,0.145544446,145109
3180,60.0,0.146014823,145563
3190,60.0,0.146450257,146027
3200,60.0,0.14688455,146494
3210,61.0,0.14730162,146963
3220,59.0,0.147720585,147416
3230,61.0,0.148139095,147879
3240,61.0,0.148556611,148332
3250,60.0,0.148982924,148791
3260,63.0,0.149415757,149261
3270,62.0,0.149837155,149715
3280,62.0,0.150256553,150160
3290,67.0,0.150682809,150616
3300,66.0,0.151112675,151066
3310,67.0,0.15154421,151520
3320,66.0,0.151971422,151977
3330,67.0,0.152396278,152427
3340,66.0,0.152822172,152882
3350,66.0,0.153248103,153343
3360,65.0,0.153685505,153806
3370,65.0,0.154119528,154259
3380,66.0,0.154544902,154714
3390,66.0,0.154979607,155166
3400,66.0,0.15549455,155617
3410,66.0,0.155936705,156081
3420,63.0,0.156455925,156544
3430,64.0,0.156938531,157006
3440,65.0,0.157408744,157478
3450,64.0,0.157833414,157920
3460,65.0,0.158261158,158380
3470,65.0,0.158684901,158828
3480,65.0,0.159108583,159291
3490,63.0,0.159524953,159736
3500,66.0,0.159945265,160195
3510,62.0,0.160372747,160646
3520,59.0,0.160804064,161093
3530,62.0,0.161234479,161542
3540,59.0,0.161681061,161984
3550,58.0,0.162288168,162441
3560,56.0,0.16285478,162903
3570,58.0,0.163318855,163352
3580,59.0,0.163762146,163813
3590,60.0,0.164194106,164258
3600,60.0,0.164642605,164714
3610,60.0,0.165073392,165173
3620,61.0,0.165526347,165628
3630,63.0,0.165967419,166093
3640,63.0,0.166413515,166534
3650,62.0,0.166831267,166988
3660,64.0,0.167246966,167450
3670,70.0,0.167657573,167899
3680,70.0,0.168074182,168370
3690,69.0,0.16848227,168821
3700,64.0,0.168900335,169270
3710,69.0,0.169320289,169730
3720,65.0,0.169742362,170190
3730,66.0,0.17016989,170650
3740,65.0,0.170584384,171117
3750,65.0,0.171004791,171562
3760,63.0,0.171420821,172026
3770,63.0,0.171907113,172475
3780,63.0,0.172316874,172925
3790,64.0,0.172725152,173371
3800,64.0,0.173149639,173830
3810,63.0,0.173608249,174296
3820,63.0,0.174042939,174761
3830,65.0,0.17446668,175221
3840,65.0,0.174910581,175685
3850,66.0,0.175347681,176140
3860,69.0,0.17578701,176590
3870,66.0,0.17622787,177045
3880,66.0,0.176653913,177495
3890,68.0,0.177079997,177958
3900,67.0,0.177510773,178407
3910,67.0,0.177936105,178870
3920,67.0,0.17834759,179329
3930,67.0,0.17876947,179788
3940,67.0,0.179190455,180236
3950,67.0,0.179622347,180677
3960,67.0,0.180051761,181127
3970,67.0,0.180486765,181576
3980,67.0,0.180923511,182043
3990,66.0,0.18134832,182503
4000,65.0,0.181766078,182970
4010,67.0,0.182183064,183423
4020,65.0,0.182598235,183871
4030,65.0,0.182999102,184308
4040,68.0,0.18341996,184773
4050,67.0,0.183840217,185225
4060,67.0,0.184260503,185701
4070,69.0,0.184674014,186158
4080,68.0,0.185089722,186613
4090,67.0,0.185507555,187058
4100,66.0,0.185934778,187519
4110,67.0,0.18634956,187975
4120,67.0,0.18676304,188427
4130,67.0,0.187187091,188878
4140,67.0,0.187605926,189319
4150,69.0,0.188028724,189768
4160,68.0,0.18845975,190235
4170,68.0,0.188885679,190699
4180,68.0,0.189307769,191166
4190,69.0,0.189757674,191636
4200,70.0,0.19017538,192081
4210,71.0,0.190613655,192531
4220,72.0,0.191020789,192980
4230,72.0,0.191433565,193433
4240,72.0,0.191864967,193893
4250,72.0,0.192292582,194366
4260,73.0,0.192730705,194826
4270,72.0,0.193153061,195286
4280,72.0,0.193574377,195741
4290,73.0,0.193987756,196187
4300,74.0,0.194412112,196638
4310,70.0,0.194846911,197101
4320,68.0,0.195276623,197561
4330,70.0,0.195702462,198007
4340,71.0,0.196122825,198454
4350,69.0,0.196565864,198917
4360,69.0,0.197003038,199373
4370,68.0,0.197439252,199830
4380,68.0,0.197867706,200286
4390,68.0,0.198296791,200744
4400,68.0,0.198715684,201210
4410,68.0,0.199137065,201667
4420,69.0,0.199547995,202111
4430,69.0,0.199955655,202578
4440,69.0,0.200351299,203028
4450,70.0,0.20076041,203482
4460,70.0,0.201169165,203937
4470,70.0,0.201579267,204389
4480,70.0,0.20199047,204850
4490,70.0,0.202396668,205308
4500,70.0,0.202812856,205775
4510,71.0,0.203221981,206226
4520,72.0,0.203631193,206679
4530,71.0,0.204041363,207128
4540,70.0,0.204458379,207596
4550,70.0,0.204868603,208060
4560,70.0,0.205283713,208521
4570,70.0,0.205694877,208981
4580,70.0,0.206112055,209450
4590,71.0,0.206522829,209895
4600,71.0,0.206932484,210353
4610,72.0,0.207344064,210821
4620,70.0,0.20776959,211277
4630,71.0,0.20818144,211732
4640,71.0,0.208614375,212187
4650,72.0,0.209018976,212641
4660,72.0,0.20946419,213097
4670,71.0,0.209961958,213545
4680,72.0,0.210407778,213999
4690,71.0,0.210873013,214464
4700,72.0,0.211293491,214920
4710,72.0,0.211706444,215360
4720,73.0,0.212123495,215814
4730,72.0,0.212537382,216284
4740,72.0,0.212950468,216737
4750,72.0,0.213368695,217184
4760,73.0,0.213781638,217637
4770,72.0,0.214210597,218082
4780,72.0,0.214631881,218537
4790,73.0,0.21566177,218992
4800,72.0,0.216132265,219444
4810,70.0,0.216582234,219912
4820,70.0,0.216996332,220364
4830,70.0,0.217408957,220812
4840,70.0,0.217826706,221268
4850,70.0,0.218282583,221709
4860,71.0,0.218686811,222159
4870,72.0,0.2190977,222613
4880,71.0,0.21952833,223059
4890,72.0,0.219995881,223518
4900,72.0,0.220413077,223985
4910,71.0,0.220821455,224437
4920,71.0,0.221228863,224888
4930,70.0,0.221635303,225340
4940,71.0,0.222054014,225794
4950,71.0,0.222465484,226252
4960,70.0,0.222885637,226702
4970,70.0,0.223344659,227178
4980,71.0,0.22378186,227636
4990,71.0,0.224253795,228090
5000,71.0,0.224673997,228547
