iterations,fitness,time,fevals
0,23.0,0.000798004,640
10,23.0,0.001512486,1178
20,24.0,0.002233608,1727
30,26.0,0.00281353,2271
40,25.0,0.003420626,2826
50,28.0,0.004013854,3370
60,28.0,0.00457552,3924
70,28.0,0.005080766,4469
80,28.0,0.005562977,5017
90,29.0,0.006035765,5570
100,28.0,0.006540287,6121
110,28.0,0.007026767,6665
120,28.0,0.007512068,7217
130,28.0,0.007998046,7768
140,30.0,0.009049646,8315
150,29.0,0.009602453,8862
160,28.0,0.010098081,9404
170,30.0,0.010624248,9955
180,28.0,0.011129774,10509
190,28.0,0.011619057,11055
200,28.0,0.012091304,11593
210,28.0,0.012569537,12143
220,30.0,0.013056948,12699
230,28.0,0.013537676,13239
240,30.0,0.014025635,13788
250,28.0,0.014501153,14338
260,28.0,0.014975113,14891
270,28.0,0.015450453,15435
280,29.0,0.015935483,15988
290,29.0,0.01642955,16533
300,29.0,0.016917065,17077
310,29.0,0.017415868,17631
320,30.0,0.017904481,18178
330,31.0,0.018393891,18726
340,31.0,0.018869429,19269
350,31.0,0.019341754,19818
360,31.0,0.01981752,20367
370,31.0,0.020285739,20911
380,31.0,0.020778793,21451
390,31.0,0.021265574,22000
400,30.0,0.021757429,22560
410,32.0,0.022255574,23106
420,31.0,0.02274006,23651
430,32.0,0.023273792,24205
440,32.0,0.023745406,24749
450,32.0,0.024219693,25295
460,31.0,0.024706921,25846
470,32.0,0.025207774,26393
480,33.0,0.025689659,26936
490,33.0,0.026176218,27481
500,33.0,0.026654903,28024
510,34.0,0.027115191,28573
520,34.0,0.02757647,29118
530,34.0,0.028045232,29672
540,33.0,0.028507005,30216
550,33.0,0.028963738,30755
560,33.0,0.029433165,31303
570,33.0,0.029918317,31853
580,33.0,0.030389023,32407
590,33.0,0.030856552,32951
600,33.0,0.031316165,33496
610,33.0,0.031784354,34045
620,33.0,0.032260723,34592
630,34.0,0.032744477,35142
640,33.0,0.033220673,35681
650,33.0,0.033687036,36224
660,33.0,0.034190908,36774
670,33.0,0.034671372,37320
680,33.0,0.035147689,37863
690,34.0,0.035624984,38414
700,34.0,0.036108068,38965
710,34.0,0.036588297,39513
720,34.0,0.037042243,40059
730,35.0,0.037496338,40604
740,35.0,0.03795277,41155
750,36.0,0.038406036,41699
760,35.0,0.038921634,42244
770,35.0,0.039388255,42793
780,37.0,0.03985705,43333
790,37.0,0.040338778,43882
800,37.0,0.040816858,44426
810,36.0,0.041291576,44973
820,37.0,0.041761166,45525
830,35.0,0.042229859,46073
840,35.0,0.042680645,46624
850,35.0,0.043153607,47173
860,35.0,0.043604717,47718
870,36.0,0.044059181,48266
880,35.0,0.04450909,48808
890,35.0,0.044956152,49361
900,36.0,0.045408539,49913
910,36.0,0.045862212,50453
920,38.0,0.046311827,50996
930,36.0,0.046764608,51539
940,38.0,0.047220042,52078
950,38.0,0.047730357,52623
960,38.0,0.048202284,53172
970,39.0,0.048674793,53721
980,38.0,0.049146073,54264
990,38.0,0.049622235,54810
1000,38.0,0.050100565,55359
1010,39.0,0.050575842,55910
1020,38.0,0.051042108,56454
1030,38.0,0.051507526,57010
1040,39.0,0.051971117,57558
1050,39.0,0.052432648,58110
1060,38.0,0.05288715,58653
1070,38.0,0.053361391,59208
1080,38.0,0.053820149,59755
1090,38.0,0.054283037,60301
1100,41.0,0.0547472,60849
1110,45.0,0.055288162,61395
1120,45.0,0.05575231,61933
1130,42.0,0.056214455,62482
1140,48.0,0.056688938,63038
1150,51.0,0.057231904,63590
1160,49.0,0.057708528,64135
1170,50.0,0.058190184,64676
1180,49.0,0.05871475,65225
1190,48.0,0.059204472,65777
1200,48.0,0.059694211,66320
1210,48.0,0.060171565,66871
1220,48.0,0.060645954,67424
1230,49.0,0.061113703,67974
1240,50.0,0.061576189,68513
1250,49.0,0.062049204,69063
1260,50.0,0.062513959,69609
1270,50.0,0.062983095,70155
1280,50.0,0.063452073,70705
1290,51.0,0.064585314,71253
1300,51.0,0.065132797,71806
1310,51.0,0.065619249,72369
1320,51.0,0.066097851,72914
1330,51.0,0.066644474,73466
1340,51.0,0.067146821,74015
1350,51.0,0.067623705,74553
1360,51.0,0.06810087,75103
1370,51.0,0.068565684,75648
1380,51.0,0.06902471,76201
1390,51.0,0.069473798,76741
1400,50.0,0.069920976,77285
1410,50.0,0.070368592,77835
1420,50.0,0.070817138,78386
1430,50.0,0.071270345,78932
1440,54.0,0.071726738,79487
1450,54.0,0.07217858,80032
1460,54.0,0.072646756,80581
1470,55.0,0.073118423,81135
1480,56.0,0.073589752,81679
1490,56.0,0.074054897,82229
1500,57.0,0.074516438,82777
1510,57.0,0.074981974,83333
1520,57.0,0.075449264,83882
1530,57.0,0.075974869,84431
1540,57.0,0.076447441,84976
1550,57.0,0.076919758,85521
1560,57.0,0.077377957,86065
1570,57.0,0.077833972,86616
1580,57.0,0.078289405,87159
1590,57.0,0.078740884,87703
1600,57.0,0.079195759,88253
1610,57.0,0.079648133,88806
1620,57.0,0.080096464,89361
1630,57.0,0.080548284,89914
1640,58.0,0.081002782,90455
1650,58.0,0.081452771,91010
1660,58.0,0.081903844,91567
1670,58.0,0.082346831,92119
1680,58.0,0.08278938,92660
1690,60.0,0.083234773,93206
1700,59.0,0.083688984,93765
1710,58.0,0.084156769,94319
1720,58.0,0.084612486,94871
1730,59.0,0.085111561,95424
1740,59.0,0.085571078,95972
1750,58.0,0.086160575,96512
1760,59.0,0.086618854,97063
1770,59.0,0.087074497,97610
1780,59.0,0.087525757,98158
1790,59.0,0.087981043,98708
1800,59.0,0.088448983,99250
1810,60.0,0.088910912,99797
1820,60.0,0.089368559,100348
1830,60.0,0.089824915,100895
1840,60.0,0.090274081,101446
1850,59.0,0.090729247,101995
1860,59.0,0.091198114,102547
1870,60.0,0.091652248,103093
1880,59.0,0.092103608,103635
1890,59.0,0.092549295,104179
1900,59.0,0.093003792,104739
1910,59.0,0.093454534,105293
1920,61.0,0.093931121,105841
1930,61.0,0.094408035,106387
1940,61.0,0.094871633,106932
1950,61.0,0.09534534,107478
1960,61.0,0.095814501,108025
1970,61.0,0.096289124,108575
1980,62.0,0.096760792,109120
1990,62.0,0.097233751,109664
2000,63.0,0.097708762,110209
2010,62.0,0.098218691,110755
2020,62.0,0.098695518,111300
2030,62.0,0.09917561,111854
2040,61.0,0.099645197,112401
2050,64.0,0.10011674,112949
2060,62.0,0.100588536,113500
2070,62.0,0.101057391,114044
2080,62.0,0.101521653,114592
2090,62.0,0.101990571,115151
2100,62.0,0.102459315,115698
2110,63.0,0.102972216,116241
2120,63.0,0.103431747,116796
2130,63.0,0.103883597,117350
2140,62.0,0.104336428,117902
2150,64.0,0.104797234,118450
2160,64.0,0.105255878,118996
2170,64.0,0.105715312,119541
2180,64.0,0.106170822,120086
2190,64.0,0.106630324,120635
2200,65.0,0.107109449,121182
2210,65.0,0.107570395,121729
2220,66.0,0.108043368,122283
2230,65.0,0.108511653,122831
2240,65.0,0.108977733,123376
2250,66.0,0.109464434,123923
2260,66.0,0.109949056,124468
2270,66.0,0.11045997,125012
2280,65.0,0.110933534,125561
2290,66.0,0.111390522,126117
2300,68.0,0.111883896,126668
2310,68.0,0.112613034,127219
2320,68.0,0.113281847,127763
2330,71.0,0.11391708,128319
2340,68.0,0.11454924,128865
2350,68.0,0.115193665,129418
2360,68.0,0.115809779,129972
2370,69.0,0.116432281,130524
2380,66.0,0.117045388,131078
2390,65.0,0.117662477,131630
2400,66.0,0.118274514,132171
2410,66.0,0.118905303,132726
2420,67.0,0.119537849,133276
2430,66.0,0.120173445,133825
2440,66.0,0.12085893,134373
2450,66.0,0.121497221,134923
2460,66.0,0.122128642,135473
2470,66.0,0.122746688,136025
2480,65.0,0.123359086,136574
2490,65.0,0.12396527,137125
2500,65.0,0.124568304,137686
2510,65.0,0.125171273,138239
2520,65.0,0.125740553,138783
2530,67.0,0.12628343,139342
2540,65.0,0.126778111,139882
2550,66.0,0.127286504,140440
2560,67.0,0.127782695,140987
2570,66.0,0.128279766,141537
2580,66.0,0.128792306,142086
2590,66.0,0.129280952,142626
2600,66.0,0.129729614,143167
2610,66.0,0.130231419,143712
2620,68.0,0.130693211,144254
2630,66.0,0.131153894,144803
2640,66.0,0.131615866,145353
2650,70.0,0.1320689,145896
2660,70.0,0.132525501,146441
2670,70.0,0.132985094,146989
2680,72.0,0.133434481,147532
2690,72.0,0.133888715,148076
2700,72.0,0.13434874,148633
2710,72.0,0.134809552,149181
2720,72.0,0.1352728,149722
2730,72.0,0.135728304,150272
2740,72.0,0.136180929,150813
2750,72.0,0.136642141,151362
2760,73.0,0.137098229,151912
2770,73.0,0.137556428,152454
2780,73.0,0.13801425,152999
2790,72.0,0.138471166,153547
2800,72.0,0.138978125,154097
2810,72.0,0.139435849,154641
2820,72.0,0.139883539,155185
2830,72.0,0.140331765,155730
2840,75.0,0.140782971,156276
2850,75.0,0.14122596,156822
2860,75.0,0.141671662,157369
2870,75.0,0.142119711,157915
2880,75.0,0.142565419,158460
2890,75.0,0.143006707,159012
2900,75.0,0.143452729,159561
2910,76.0,0.143903978,160110
2920,76.0,0.144358824,160660
2930,75.0,0.14481321,161204
2940,75.0,0.145273353,161747
2950,75.0,0.145740467,162301
2960,75.0,0.146196478,162853
2970,75.0,0.146651432,163402
2980,75.0,0.147107547,163944
2990,76.0,0.147626202,164496
3000,76.0,0.148094277,165041
3010,76.0,0.14855304,165590
3020,76.0,0.149006026,166134
3030,76.0,0.149462758,166681
3040,76.0,0.149925557,167227
3050,76.0,0.150370138,167769
3060,77.0,0.150816552,168323
3070,76.0,0.151258896,168868
3080,76.0,0.151708801,169416
3090,77.0,0.152203969,169960
3100,76.0,0.152650063,170505
3110,78.0,0.153152201,171049
3120,78.0,0.153630954,171598
3130,78.0,0.154105348,172147
3140,76.0,0.154539887,172689
3150,76.0,0.15497811,173239
3160,76.0,0.155416099,173788
3170,77.0,0.155854252,174340
3180,76.0,0.15637851,174889
3190,76.0,0.156833256,175438
3200,77.0,0.157273447,175981
3210,77.0,0.157720606,176530
3220,77.0,0.158168894,177079
3230,78.0,0.15927462,177627
3240,78.0,0.159773609,178179
3250,79.0,0.160245358,178736
3260,79.0,0.160706561,179283
3270,79.0,0.1611685,179827
3280,80.0,0.161629916,180380
3290,80.0,0.162101063,180924
3300,80.0,0.162572342,181469
3310,79.0,0.163053648,182021
3320,80.0,0.163506222,182570
3330,80.0,0.16396202,183123
3340,80.0,0.164409192,183677
3350,80.0,0.1648599,184220
3360,80.0,0.165338556,184772
3370,80.0,0.165841726,185325
3380,80.0,0.166295673,185874
3390,80.0,0.166741496,186422
3400,80.0,0.167185104,186968
3410,80.0,0.16762857,187513
3420,80.0,0.168083983,188062
3430,80.0,0.168531615,188610
3440,80.0,0.168997973,189166
3450,80.0,0.169445781,189716
3460,80.0,0.169891354,190261
3470,80.0,0.170336668,190804
3480,80.0,0.170781316,191350
3490,80.0,0.17122644,191900
3500,82.0,0.171665626,192446
3510,80.0,0.172105326,192998
3520,80.0,0.172542997,193542
3530,82.0,0.172982385,194092
3540,82.0,0.17342361,194640
3550,82.0,0.173871863,195184
3560,82.0,0.174339815,195723
3570,82.0,0.174796674,196278
3580,82.0,0.175245391,196824
3590,82.0,0.175693596,197366
3600,82.0,0.176151377,197911
3610,82.0,0.176605482,198458
3620,91.0,0.177076716,198992
3630,88.0,0.177544075,199533
3640,91.0,0.178005213,200080
3650,88.0,0.178456061,200622
3660,91.0,0.178907385,201178
3670,91.0,0.17935431,201724
3680,91.0,0.179795816,202268
3690,91.0,0.180248077,202820
3700,91.0,0.180687913,203358
3710,91.0,0.181134924,203916
3720,93.0,0.181580372,204463
3730,93.0,0.182023359,205016
3740,91.0,0.182464191,205566
3750,91.0,0.182964368,206113
3760,91.0,0.183415967,206657
3770,91.0,0.183881937,207212
3780,91.0,0.184324479,207766
3790,93.0,0.184781977,208320
3800,91.0,0.185230076,208862
3810,91.0,0.185688805,209410
3820,93.0,0.186150217,209955
3830,91.0,0.186639087,210501
3840,91.0,0.187081286,211042
3850,93.0,0.187527992,211594
3860,91.0,0.187971651,212145
3870,91.0,0.188413616,212685
3880,91.0,0.188855063,213233
3890,93.0,0.189296311,213776
3900,91.0,0.189738217,214328
3910,91.0,0.190176677,214872
3920,91.0,0.190613234,215427
3930,91.0,0.19105779,215983
3940,91.0,0.191542387,216538
3950,91.0,0.192002357,217080
3960,93.0,0.19246169,217629
3970,93.0,0.192912013,218178
3980,93.0,0.193361753,218729
3990,98.0,0.193811788,219275
4000,98.0,0.194265623,219828
4010,98.0,0.194708488,220377
4020,93.0,0.195161499,220920
4030,96.0,0.1956046,221468
4040,96.0,0.196044471,222011
4050,93.0,0.19648771,222553
4060,97.0,0.196932029,223098
4070,93.0,0.197368295,223644
4080,93.0,0.197812511,224192
4090,93.0,0.19825849,224734
4100,93.0,0.198694569,225277
4110,93.0,0.199136056,225825
4120,93.0,0.199575504,226364
4130,93.0,0.200052724,226911
4140,93.0,0.200503913,227463
4150,93.0,0.200949889,227996
4160,93.0,0.201402358,228539
4170,93.0,0.201842953,229087
4180,93.0,0.202285874,229637
4190,93.0,0.202738024,230184
4200,93.0,0.203183288,230736
4210,96.0,0.20362061,231286
4220,93.0,0.204076554,231831
4230,93.0,0.204517911,232389
4240,93.0,0.204961763,232936
4250,93.0,0.20540367,233489
4260,93.0,0.205884509,234041
4270,93.0,0.206327258,234592
4280,96.0,0.206770271,235143
4290,96.0,0.207212218,235683
4300,96.0,0.207646237,236231
4310,96.0,0.208082067,236780
4320,96.0,0.20864177,237333
4330,96.0,0.209091442,237876
4340,96.0,0.209569081,238425
4350,96.0,0.21004766,238970
4360,96.0,0.210512707,239523
4370,96.0,0.210955612,240067
4380,96.0,0.211399613,240616
4390,96.0,0.211836087,241164
4400,96.0,0.212279577,241717
4410,96.0,0.212727022,242262
4420,96.0,0.213163732,242819
4430,96.0,0.213607109,243358
4440,96.0,0.214050857,243895
4450,97.0,0.214493983,244445
4460,97.0,0.215556065,244995
4470,96.0,0.216012127,245542
4480,96.0,0.216474815,246093
4490,96.0,0.216978688,246641
4500,96.0,0.21743407,247190
4510,96.0,0.217869156,247741
4520,96.0,0.218320767,248291
4530,96.0,0.218791661,248839
4540,97.0,0.219271362,249392
4550,96.0,0.219818471,249942
4560,96.0,0.220481055,250485
4570,96.0,0.220930679,251027
4580,98.0,0.221366274,251569
4590,96.0,0.221800905,252110
4600,96.0,0.222243709,252658
4610,98.0,0.222691652,253211
4620,96.0,0.223127039,253757
4630,96.0,0.22357998,254312
4640,96.0,0.224020735,254861
4650,98.0,0.224459646,255406
4660,96.0,0.224893753,255951
4670,96.0,0.225339763,256508
4680,96.0,0.225786598,257043
4690,96.0,0.226225557,257593
4700,98.0,0.226668156,258135
4710,96.0,0.227106645,258675
4720,96.0,0.22754498,259224
4730,98.0,0.227989771,259763
4740,96.0,0.228472261,260311
4750,98.0,0.22895333,260862
4760,98.0,0.229394394,261409
4770,96.0,0.229830823,261956
4780,96.0,0.230267691,262508
4790,96.0,0.230721277,263057
4800,98.0,0.231179409,263600
4810,98.0,0.231624102,264150
4820,98.0,0.232070834,264700
4830,98.0,0.232517586,265249
4840,98.0,0.232953662,265802
4850,98.0,0.233389294,266349
4860,98.0,0.233826077,266904
4870,98.0,0.234277111,267447
4880,98.0,0.234732026,268004
4890,98.0,0.235179414,268554
4900,98.0,0.235628447,269104
4910,98.0,0.236067367,269662
4920,98.0,0.236501059,270203
4930,98.0,0.236942962,270744
4940,98.0,0.237378086,271300
4950,98.0,0.237810892,271850
4960,98.0,0.238250126,272393
4970,98.0,0.238690594,272947
4980,98.0,0.239128746,273492
4990,98.0,0.23956821,274029
5000,98.0,0.240016205,274585
