iterations,fitness,time,fevals
0,23.0,0.000967995,794
10,26.0,0.001853095,1505
20,27.0,0.002650729,2196
30,29.0,0.003406272,2877
40,27.0,0.004155228,3583
50,29.0,0.004893493,4276
60,32.0,0.005621004,4969
70,31.0,0.006343129,5674
80,33.0,0.00704398,6378
90,36.0,0.007721098,7076
100,32.0,0.008390063,7786
110,35.0,0.009064277,8495
120,35.0,0.009738981,9203
130,36.0,0.010496685,9903
140,36.0,0.011127639,10614
150,36.0,0.011745764,11290
160,36.0,0.022131153,11992
170,36.0,0.022856048,12686
180,37.0,0.023523149,13386
190,36.0,0.024166425,14085
200,35.0,0.024816247,14770
210,35.0,0.025613212,15459
220,35.0,0.026460143,16167
230,36.0,0.027288887,16868
240,37.0,0.028114155,17562
250,38.0,0.028942311,18261
260,39.0,0.029772909,18956
270,36.0,0.030498817,19639
280,37.0,0.031169301,20329
290,38.0,0.031917991,21042
300,39.0,0.032600453,21739
310,36.0,0.033288543,22431
320,37.0,0.034031353,23129
330,38.0,0.034731013,23823
340,38.0,0.035400849,24509
350,38.0,0.036074851,25211
360,39.0,0.036791589,25913
370,38.0,0.037467729,26598
380,40.0,0.03812906,27297
390,38.0,0.038776657,27988
400,39.0,0.039417324,28699
410,38.0,0.040075931,29382
420,39.0,0.040737133,30103
430,39.0,0.041432823,30814
440,39.0,0.04269095,31502
450,39.0,0.043364697,32198
460,40.0,0.043978777,32890
470,40.0,0.044618471,33584
480,40.0,0.045248856,34290
490,39.0,0.045862692,34972
500,39.0,0.046500934,35660
510,39.0,0.047132129,36358
520,39.0,0.047764598,37058
530,39.0,0.04840182,37750
540,38.0,0.049024563,38447
550,39.0,0.049648694,39166
560,40.0,0.050257667,39876
570,40.0,0.050896997,40569
580,40.0,0.051520693,41259
590,40.0,0.052133147,41947
600,40.0,0.052747608,42649
610,40.0,0.053333557,43329
620,41.0,0.053932826,44035
630,41.0,0.054538356,44741
640,42.0,0.055131506,45440
650,42.0,0.055739649,46136
660,44.0,0.056345141,46844
670,44.0,0.056954584,47535
680,46.0,0.057568643,48224
690,44.0,0.058204914,48923
700,44.0,0.058844274,49619
710,64.0,0.059468485,50321
720,66.0,0.060064984,51020
730,67.0,0.06068999,51740
740,68.0,0.061280401,52434
750,69.0,0.061850794,53118
760,69.0,0.062436285,53817
770,69.0,0.063021661,54515
780,69.0,0.063605033,55208
790,69.0,0.064170021,55889
800,69.0,0.064783746,56603
810,69.0,0.065336902,57285
820,69.0,0.065894151,57975
830,70.0,0.066452515,58669
840,69.0,0.067019671,59371
850,69.0,0.067609104,60084
860,69.0,0.068197916,60808
870,68.0,0.068770941,61501
880,69.0,0.069342478,62181
890,68.0,0.069916619,62874
900,69.0,0.070489305,63563
910,69.0,0.071059307,64262
920,69.0,0.071627152,64959
930,69.0,0.072209637,65659
940,68.0,0.072809148,66360
950,68.0,0.0733958,67060
960,69.0,0.073967692,67763
970,69.0,0.074516553,68457
980,69.0,0.075081068,69154
990,69.0,0.075659425,69847
1000,68.0,0.076223837,70542
1010,68.0,0.076788173,71245
1020,69.0,0.077354672,71944
1030,69.0,0.077919243,72626
1040,69.0,0.078499263,73319
1050,69.0,0.07907269,74019
1060,70.0,0.079671696,74714
1070,70.0,0.080257704,75418
1080,70.0,0.080861607,76126
1090,71.0,0.081462549,76818
1100,69.0,0.08205566,77517
1110,71.0,0.082633533,78208
1120,71.0,0.083205222,78906
1130,72.0,0.083763445,79599
1140,72.0,0.084334863,80293
1150,72.0,0.084907444,80985
1160,71.0,0.085460583,81683
1170,71.0,0.086016832,82383
1180,71.0,0.08657265,83080
1190,71.0,0.087155673,83775
1200,71.0,0.087727732,84469
1210,72.0,0.088305339,85170
1220,70.0,0.08887432,85885
1230,70.0,0.089460839,86577
1240,69.0,0.090009938,87260
1250,69.0,0.090589302,87955
1260,69.0,0.09116251,88653
1270,71.0,0.091728564,89352
1280,70.0,0.092313639,90051
1290,70.0,0.092878095,90756
1300,69.0,0.093460557,91455
1310,69.0,0.094024753,92145
1320,70.0,0.094653009,92833
1330,69.0,0.095262327,93540
1340,70.0,0.095850672,94235
1350,68.0,0.096451165,94947
1360,69.0,0.097045689,95649
1370,68.0,0.097633408,96335
1380,68.0,0.098214812,97035
1390,68.0,0.098838744,97740
1400,68.0,0.099439886,98430
1410,72.0,0.100673471,99123
1420,71.0,0.10128982,99815
1430,72.0,0.101870899,100510
1440,71.0,0.102445368,101186
1450,71.0,0.103042651,101883
1460,71.0,0.103635757,102562
1470,75.0,0.104219678,103264
1480,75.0,0.104788091,103969
1490,75.0,0.105370135,104682
1500,75.0,0.10593612,105383
1510,75.0,0.10650562,106100
1520,75.0,0.107073184,106794
1530,73.0,0.107674867,107490
1540,75.0,0.108307007,108186
1550,73.0,0.108905194,108889
1560,72.0,0.109481956,109594
1570,73.0,0.110056599,110306
1580,73.0,0.110618856,111006
1590,75.0,0.111173353,111681
1600,74.0,0.11175012,112398
1610,77.0,0.112320572,113098
1620,73.0,0.112895248,113799
1630,73.0,0.113482342,114497
1640,75.0,0.114072597,115189
1650,74.0,0.114677745,115892
1660,73.0,0.115248498,116595
1670,74.0,0.115832758,117295
1680,75.0,0.116397441,117981
1690,73.0,0.116968246,118686
1700,75.0,0.117555481,119378
1710,73.0,0.118185711,120084
1720,73.0,0.118750233,120765
1730,76.0,0.119319974,121458
1740,74.0,0.119898301,122148
1750,75.0,0.12049205,122836
1760,73.0,0.121134125,123541
1770,73.0,0.12171834,124237
1780,75.0,0.122276707,124930
1790,74.0,0.122882127,125628
1800,74.0,0.123436375,126330
1810,75.0,0.123993746,127038
1820,74.0,0.124551221,127749
1830,74.0,0.125131506,128441
1840,74.0,0.125720533,129146
1850,75.0,0.126306508,129851
1860,76.0,0.126905391,130554
1870,75.0,0.127534448,131253
1880,75.0,0.128084445,131955
1890,76.0,0.128629701,132657
1900,76.0,0.129185323,133353
1910,75.0,0.129744992,134050
1920,74.0,0.130309814,134745
1930,74.0,0.130866433,135443
1940,75.0,0.131427061,136134
1950,74.0,0.131979266,136838
1960,74.0,0.132536975,137531
1970,73.0,0.133103645,138230
1980,74.0,0.133666596,138928
1990,75.0,0.134233695,139612
2000,74.0,0.134802137,140307
2010,74.0,0.135364766,141014
2020,75.0,0.1359511,141707
2030,75.0,0.136524432,142399
2040,75.0,0.137143288,143103
2050,75.0,0.137706127,143793
2060,75.0,0.138274496,144498
2070,75.0,0.13885307,145201
2080,75.0,0.139426237,145891
2090,75.0,0.139988428,146595
2100,76.0,0.140631349,147291
2110,75.0,0.141203843,147992
2120,75.0,0.141772123,148685
2130,76.0,0.142347105,149383
2140,75.0,0.142909055,150092
2150,76.0,0.143478587,150780
2160,78.0,0.144059879,151478
2170,77.0,0.144656503,152174
2180,77.0,0.145241264,152875
2190,74.0,0.145824221,153576
2200,76.0,0.146435967,154277
2210,76.0,0.14702995,154977
2220,76.0,0.147604472,155664
2230,76.0,0.148179182,156373
2240,76.0,0.148756071,157080
2250,75.0,0.149330123,157781
2260,74.0,0.149908642,158475
2270,75.0,0.150557494,159186
2280,75.0,0.151145204,159880
2290,77.0,0.151716816,160580
2300,75.0,0.152280887,161269
2310,75.0,0.15284811,161964
2320,75.0,0.153425769,162661
2330,75.0,0.153977018,163351
2340,75.0,0.154542221,164051
2350,75.0,0.155084694,164745
2360,76.0,0.156245138,165445
2370,76.0,0.156877905,166135
2380,76.0,0.157453446,166843
2390,76.0,0.157999692,167537
2400,75.0,0.158554676,168233
2410,75.0,0.159105678,168932
2420,75.0,0.159649125,169629
2430,76.0,0.160246196,170324
2440,76.0,0.16090802,171024
2450,76.0,0.161542366,171728
2460,76.0,0.162125304,172433
2470,77.0,0.162706549,173133
2480,75.0,0.163294161,173835
2490,75.0,0.163868803,174549
2500,75.0,0.16444851,175256
2510,75.0,0.165091411,175955
2520,76.0,0.165652133,176647
2530,76.0,0.166208979,177349
2540,76.0,0.166845851,178038
2550,75.0,0.167402992,178733
2560,76.0,0.167947364,179428
2570,75.0,0.168504811,180118
2580,75.0,0.169047995,180809
2590,75.0,0.169618195,181511
2600,76.0,0.170187089,182198
2610,74.0,0.170757945,182884
2620,76.0,0.171332212,183583
2630,73.0,0.17189974,184265
2640,74.0,0.172477341,184962
2650,74.0,0.173063516,185664
2660,74.0,0.173650708,186351
2670,75.0,0.174308732,187040
2680,76.0,0.174859163,187725
2690,75.0,0.175415679,188431
2700,75.0,0.175979653,189128
2710,76.0,0.176540535,189827
2720,74.0,0.177106667,190521
2730,75.0,0.17767775,191214
2740,75.0,0.178371479,191896
2750,77.0,0.179143491,192597
2760,79.0,0.179707579,193283
2770,75.0,0.18028068,193960
2780,75.0,0.180849153,194657
2790,75.0,0.181424668,195368
2800,74.0,0.181994315,196073
2810,74.0,0.182555107,196768
2820,76.0,0.183182605,197473
2830,77.0,0.183766228,198173
2840,77.0,0.184348348,198872
2850,79.0,0.184952319,199592
2860,78.0,0.18551278,200286
2870,78.0,0.186081313,201001
2880,79.0,0.186662293,201694
2890,80.0,0.187293311,202385
2900,79.0,0.187865511,203084
2910,80.0,0.188426058,203790
2920,79.0,0.188986775,204492
2930,79.0,0.18954865,205194
2940,79.0,0.190108963,205898
2950,79.0,0.190672097,206592
2960,78.0,0.191250921,207294
2970,76.0,0.191833715,207999
2980,76.0,0.192433373,208696
2990,77.0,0.192996842,209402
3000,77.0,0.193556924,210101
3010,77.0,0.194121364,210820
3020,78.0,0.194691125,211512
3030,78.0,0.195259857,212216
3040,76.0,0.195835255,212917
3050,76.0,0.196402244,213612
3060,78.0,0.196975186,214309
3070,78.0,0.197536058,215003
3080,75.0,0.198107019,215702
3090,76.0,0.198677633,216396
3100,74.0,0.199245565,217099
3110,75.0,0.199796787,217785
3120,77.0,0.200373009,218467
3130,75.0,0.200982404,219154
3140,78.0,0.201628539,219852
3150,78.0,0.202192077,220548
3160,76.0,0.202778281,221246
3170,77.0,0.203342206,221943
3180,77.0,0.203898008,222643
3190,79.0,0.204449181,223344
3200,75.0,0.205003558,224065
3210,76.0,0.205556849,224764
3220,78.0,0.206110051,225450
3230,77.0,0.20673078,226148
3240,76.0,0.207317106,226827
3250,75.0,0.207905418,227529
3260,75.0,0.208465394,228217
3270,75.0,0.209035628,228918
3280,75.0,0.209598102,229609
3290,75.0,0.210159877,230313
3300,77.0,0.210793375,230998
3310,76.0,0.21136583,231702
3320,76.0,0.211922235,232406
3330,77.0,0.212510365,233084
3340,77.0,0.21308135,233792
3350,76.0,0.213676478,234496
3360,75.0,0.214264825,235193
3370,76.0,0.214835,235886
3380,77.0,0.215395573,236595
3390,76.0,0.215956309,237296
3400,76.0,0.216566863,238009
3410,76.0,0.217153344,238715
3420,74.0,0.217719202,239409
3430,73.0,0.218286306,240089
3440,76.0,0.218844817,240786
3450,77.0,0.219459982,241486
3460,76.0,0.220044551,242178
3470,79.0,0.220612366,242870
3480,80.0,0.221175574,243571
3490,79.0,0.221727128,244263
3500,79.0,0.222283705,244961
3510,79.0,0.222852871,245664
3520,82.0,0.223420364,246351
3530,82.0,0.223979511,247042
3540,80.0,0.224540337,247744
3550,81.0,0.22510047,248448
3560,80.0,0.225655203,249151
3570,80.0,0.226202476,249845
3580,80.0,0.226728214,250531
3590,80.0,0.227256016,251214
3600,81.0,0.227855818,251910
3610,77.0,0.228480378,252612
3620,78.0,0.229037698,253308
3630,82.0,0.229602945,254009
3640,82.0,0.230162837,254700
3650,82.0,0.230722633,255394
3660,81.0,0.231279057,256107
3670,82.0,0.231841294,256811
3680,82.0,0.232410422,257506
3690,84.0,0.232975106,258198
3700,84.0,0.233514829,258888
3710,84.0,0.234066928,259588
3720,85.0,0.234613099,260295
3730,84.0,0.235164109,260985
3740,85.0,0.235707017,261679
3750,84.0,0.236249055,262378
3760,84.0,0.236795859,263084
3770,84.0,0.237337664,263796
3780,84.0,0.237873117,264484
3790,85.0,0.238454791,265170
3800,85.0,0.239002431,265862
3810,83.0,0.239556723,266570
3820,83.0,0.240105345,267252
3830,83.0,0.240655344,267940
3840,81.0,0.241208335,268644
3850,82.0,0.241766289,269352
3860,82.0,0.242318019,270048
3870,81.0,0.24286933,270749
3880,81.0,0.243443998,271462
3890,84.0,0.243999927,272145
3900,79.0,0.244563691,272834
3910,80.0,0.245123455,273529
3920,79.0,0.245685657,274222
3930,77.0,0.246556302,274897
3940,77.0,0.247385645,275586
3950,77.0,0.248188136,276287
3960,78.0,0.248990314,276976
3970,79.0,0.24977718,277676
3980,79.0,0.250565538,278388
3990,79.0,0.251332403,279087
4000,79.0,0.252131611,279786
4010,77.0,0.252927023,280500
4020,79.0,0.253696262,281208
4030,81.0,0.254522368,281907
4040,84.0,0.255287818,282619
4050,81.0,0.255932547,283313
4060,82.0,0.256548605,284006
4070,82.0,0.257163667,284702
4080,82.0,0.257773329,285400
4090,83.0,0.259021989,286101
4100,86.0,0.259654891,286796
4110,84.0,0.260278152,287512
4120,84.0,0.260926168,288214
4130,82.0,0.261548736,288921
4140,84.0,0.262143674,289617
4150,83.0,0.262723806,290314
4160,83.0,0.263262435,290998
4170,82.0,0.263876862,291684
4180,82.0,0.264444064,292387
4190,84.0,0.265002364,293080
4200,84.0,0.265561869,293766
4210,82.0,0.266124274,294461
4220,82.0,0.266680892,295144
4230,82.0,0.26723695,295842
4240,82.0,0.26781318,296549
4250,82.0,0.268364349,297255
4260,83.0,0.268923899,297943
4270,83.0,0.269473448,298645
4280,82.0,0.270024193,299340
4290,81.0,0.270587026,300029
4300,83.0,0.271149344,300715
4310,82.0,0.271722919,301408
4320,83.0,0.272290119,302101
4330,85.0,0.27291815,302813
4340,83.0,0.273466227,303505
4350,84.0,0.274013859,304195
4360,85.0,0.274559204,304882
4370,83.0,0.275116145,305568
4380,83.0,0.275680869,306269
4390,85.0,0.276220908,306955
4400,84.0,0.276764984,307660
4410,84.0,0.277323227,308357
4420,83.0,0.277866186,309062
4430,83.0,0.27841909,309749
4440,83.0,0.278967851,310451
4450,84.0,0.279520287,311163
4460,84.0,0.280073338,311853
4470,85.0,0.280631583,312557
4480,86.0,0.281178438,313260
4490,85.0,0.281718508,313957
4500,85.0,0.282306221,314647
4510,85.0,0.282858767,315346
4520,85.0,0.283405619,316042
4530,85.0,0.283954904,316738
4540,85.0,0.284486306,317423
4550,85.0,0.285022777,318120
4560,85.0,0.285559015,318807
4570,85.0,0.286104897,319506
4580,85.0,0.286641473,320206
4590,85.0,0.287201529,320907
4600,85.0,0.287782746,321603
4610,85.0,0.288355445,322307
4620,85.0,0.288949061,323009
4630,84.0,0.289522316,323712
4640,85.0,0.290105706,324424
4650,85.0,0.290659399,325131
4660,84.0,0.291208917,325824
4670,81.0,0.291756417,326522
4680,80.0,0.29236894,327218
4690,83.0,0.292915988,327907
4700,78.0,0.293478908,328608
4710,79.0,0.294038588,329315
4720,78.0,0.294600895,330017
4730,78.0,0.295160488,330716
4740,79.0,0.295717162,331405
4750,80.0,0.296259478,332097
4760,80.0,0.296812103,332800
4770,80.0,0.297357779,333497
4780,80.0,0.297919282,334195
4790,81.0,0.298466231,334894
4800,81.0,0.299025256,335596
4810,84.0,0.299578551,336301
4820,85.0,0.300142737,336988
4830,91.0,0.3007531,337675
4840,91.0,0.30131129,338370
4850,80.0,0.301872857,339065
4860,80.0,0.302419776,339761
4870,80.0,0.30297244,340466
4880,80.0,0.303516548,341159
4890,79.0,0.30407776,341857
4900,80.0,0.30463843,342568
4910,80.0,0.305189727,343277
4920,80.0,0.305728185,343977
4930,80.0,0.306263731,344681
4940,80.0,0.306869585,345390
4950,80.0,0.30744613,346089
4960,80.0,0.307990423,346795
4970,79.0,0.308524648,347484
4980,80.0,0.309080001,348182
4990,80.0,0.309668494,348875
5000,80.0,0.310215984,349580
