iterations,fitness,time,fevals
0,21.0,0.000607542999999,465
10,21.0,0.001110638,834
20,21.0,0.001565501,1200
30,22.0,0.001990275,1558
40,22.0,0.002401866,1925
50,22.0,0.002814782,2293
60,22.0,0.003217457,2651
70,23.0,0.003618319,3016
80,23.0,0.004014041,3384
90,23.0,0.004417524,3754
100,23.0,0.004824604,4113
110,24.0,0.00522976,4481
120,23.0,0.005631214,4849
130,24.0,0.006023056,5222
140,23.0,0.006403601,5580
150,24.0,0.006784503,5950
160,24.0,0.007169029,6323
170,29.0,0.007572072,6691
180,29.0,0.00796903,7056
190,31.0,0.008354019,7423
200,38.0,0.008735888,7795
210,39.0,0.009124473,8158
220,40.0,0.009511574,8524
230,40.0,0.009895576,8898
240,40.0,0.010281531,9264
250,40.0,0.010668574,9621
260,40.0,0.01104613,9986
270,41.0,0.011427477,10352
280,40.0,0.011806182,10729
290,41.0,0.012184828,11097
300,42.0,0.012562793,11463
310,42.0,0.012941538,11831
320,41.0,0.013322368,12200
330,41.0,0.013699425,12570
340,42.0,0.014075718,12938
350,41.0,0.014449958,13302
360,41.0,0.014835652,13664
370,42.0,0.01521796,14034
380,42.0,0.01560266,14401
390,49.0,0.015987476,14771
400,42.0,0.016375835,15129
410,41.0,0.016788495,15495
420,42.0,0.017174096,15861
430,43.0,0.017562378,16230
440,48.0,0.017955939,16596
450,46.0,0.018348799,16958
460,43.0,0.018750433,17335
470,43.0,0.019145006,17707
480,43.0,0.019538143,18079
490,43.0,0.019929048,18449
500,43.0,0.020316562,18811
510,43.0,0.020705638,19186
520,43.0,0.02109095,19557
530,42.0,0.021476477,19927
540,42.0,0.021853229,20288
550,42.0,0.022236572,20656
560,42.0,0.022614939,21017
570,42.0,0.022997353,21381
580,42.0,0.023378659,21748
590,42.0,0.023783267,22111
600,42.0,0.024181024,22486
610,42.0,0.024577467,22856
620,42.0,0.024981644,23220
630,43.0,0.025371579,23588
640,42.0,0.025765582,23959
650,42.0,0.0261572,24331
660,42.0,0.02654645,24691
670,43.0,0.026938708,25060
680,43.0,0.027333771,25434
690,43.0,0.027725305,25796
700,43.0,0.028117884,26167
710,42.0,0.028508754,26529
720,42.0,0.028897768,26892
730,42.0,0.029286933,27263
740,42.0,0.029680524,27628
750,42.0,0.030068489,27998
760,42.0,0.030458473,28369
770,43.0,0.030847497,28739
780,42.0,0.031234457,29103
790,42.0,0.031625058,29469
800,42.0,0.032016948,29836
810,43.0,0.032400748,30209
820,42.0,0.032814594,30573
830,42.0,0.033257122,30946
840,43.0,0.033642853,31315
850,42.0,0.034024679,31681
860,42.0,0.03446795,32048
870,42.0,0.034890984,32413
880,42.0,0.035315654,32782
890,42.0,0.035712952,33144
900,42.0,0.036103153,33513
910,43.0,0.036489893,33877
920,42.0,0.036873385,34236
930,43.0,0.037262158,34606
940,42.0,0.037650201,34974
950,42.0,0.038037424,35350
960,42.0,0.03842183,35725
970,42.0,0.038811732,36097
980,42.0,0.039203601,36473
990,42.0,0.040191456,36827
1000,42.0,0.040608365,37195
1010,42.0,0.041035442,37566
1020,42.0,0.041451735,37934
1030,42.0,0.041933206,38304
1040,42.0,0.042327662,38671
1050,42.0,0.042709316,39038
1060,42.0,0.043097768,39404
1070,43.0,0.043472582,39773
1080,43.0,0.04384732,40140
1090,43.0,0.044239562,40508
1100,43.0,0.044614293,40881
1110,43.0,0.044997268,41249
1120,43.0,0.045377928,41613
1130,43.0,0.045756898,41976
1140,43.0,0.046145558,42338
1150,43.0,0.046534953,42700
1160,43.0,0.046922695,43066
1170,42.0,0.047304518,43436
1180,43.0,0.047689122,43810
1190,42.0,0.048067858,44179
1200,42.0,0.04844812,44540
1210,42.0,0.048830278,44907
1220,42.0,0.049208068,45277
1230,42.0,0.04958961,45646
1240,42.0,0.050032791,46009
1250,43.0,0.050419874,46372
1260,43.0,0.050811873,46737
1270,42.0,0.051197509,47107
1280,43.0,0.051582694,47471
1290,43.0,0.051975034,47835
1300,43.0,0.052361763,48203
1310,43.0,0.052746042,48576
1320,43.0,0.053127473,48953
1330,42.0,0.053512137,49325
1340,42.0,0.053900615,49697
1350,42.0,0.054291694,50067
1360,42.0,0.054682347,50438
1370,42.0,0.05507299,50799
1380,42.0,0.055465141,51166
1390,42.0,0.055854638,51531
1400,42.0,0.056247465,51895
1410,42.0,0.056637109,52266
1420,42.0,0.057024276,52637
1430,43.0,0.057411895,53005
1440,52.0,0.057800786,53368
1450,54.0,0.058194358,53726
1460,55.0,0.058584746,54092
1470,55.0,0.058998034,54466
1480,54.0,0.059385517,54827
1490,54.0,0.059768428,55186
1500,54.0,0.060150839,55555
1510,55.0,0.060530996,55924
1520,55.0,0.060914145,56292
1530,54.0,0.061292454,56660
1540,54.0,0.061667188,57020
1550,55.0,0.0620382,57382
1560,55.0,0.062417367,57751
1570,55.0,0.06280701,58124
1580,55.0,0.063182215,58489
1590,55.0,0.063561009,58861
1600,55.0,0.063944303,59231
1610,55.0,0.064331361,59597
1620,55.0,0.064712258,59966
1630,55.0,0.065097138,60329
1640,55.0,0.065482995,60687
1650,55.0,0.065865248,61054
1660,55.0,0.066249375,61420
1670,55.0,0.066635861,61786
1680,55.0,0.067023488,62148
1690,55.0,0.067403166,62513
1700,55.0,0.067788789,62881
1710,55.0,0.068169534,63248
1720,55.0,0.068552792,63621
1730,55.0,0.068936182,63987
1740,55.0,0.069317671,64358
1750,55.0,0.06969682,64727
1760,54.0,0.070077311,65093
1770,54.0,0.070456639,65459
1780,55.0,0.070838191,65821
1790,54.0,0.071214325,66190
1800,54.0,0.071590096,66557
1810,54.0,0.071974099,66927
1820,54.0,0.072354415,67300
1830,54.0,0.072744872,67674
1840,54.0,0.073136055,68034
1850,55.0,0.073570505,68401
1860,55.0,0.073965478,68766
1870,54.0,0.074375884,69128
1880,55.0,0.074758437,69497
1890,55.0,0.075137834,69872
1900,54.0,0.075514485,70234
1910,54.0,0.07588655,70595
1920,54.0,0.076271346,70963
1930,54.0,0.076676382,71326
1940,55.0,0.077061603,71692
1950,55.0,0.07745734,72062
1960,54.0,0.077838926,72432
1970,55.0,0.078227709,72795
1980,55.0,0.078620987,73161
1990,55.0,0.079010454,73527
2000,54.0,0.079396978,73890
2010,55.0,0.079783329,74258
2020,54.0,0.080173332,74617
2030,54.0,0.080560377,74973
2040,55.0,0.080948145,75340
2050,56.0,0.081341561,75704
2060,55.0,0.081726952,76066
2070,55.0,0.082112552,76435
2080,56.0,0.082498268,76793
2090,56.0,0.082886024,77162
2100,55.0,0.083264355,77529
2110,55.0,0.083644196,77893
2120,55.0,0.084017636,78261
2130,55.0,0.084400869,78627
2140,55.0,0.08478217,78999
2150,55.0,0.085158044,79361
2160,55.0,0.085550028,79731
2170,55.0,0.085932807,80096
2180,55.0,0.086360677,80459
2190,55.0,0.086777992,80828
2200,55.0,0.087164682,81193
2210,55.0,0.087561948,81558
2220,55.0,0.087934677,81926
2230,55.0,0.088307243,82296
2240,55.0,0.088682079,82666
2250,55.0,0.089062416,83033
2260,55.0,0.089446554,83400
2270,55.0,0.089833364,83773
2280,55.0,0.090222306,84141
2290,55.0,0.090604479,84511
2300,55.0,0.090985444,84874
2310,56.0,0.091366297,85241
2320,56.0,0.092397953,85610
2330,56.0,0.092818659,85972
2340,56.0,0.093205474,86336
2350,56.0,0.093602011,86699
2360,56.0,0.093994629,87063
2370,56.0,0.094379158,87431
2380,56.0,0.094794975,87804
2390,56.0,0.095195012,88181
2400,56.0,0.095621613,88553
2410,56.0,0.096004968,88925
2420,56.0,0.09637998,89290
2430,55.0,0.09675515,89653
2440,55.0,0.097131936,90019
2450,55.0,0.097509154,90381
2460,56.0,0.097885498,90743
2470,56.0,0.098268472,91110
2480,55.0,0.098643573,91474
2490,55.0,0.099019083,91834
2500,55.0,0.099391801,92194
2510,55.0,0.099766738,92556
2520,56.0,0.100139704,92924
2530,55.0,0.100515442,93290
2540,55.0,0.100885384,93660
2550,55.0,0.101261516,94023
2560,55.0,0.10163813,94395
2570,55.0,0.102022059,94758
2580,55.0,0.102404974,95124
2590,55.0,0.102808456,95485
2600,55.0,0.103196342,95856
2610,55.0,0.103583258,96225
2620,55.0,0.103964092,96599
2630,55.0,0.104340345,96962
2640,55.0,0.104716645,97331
2650,55.0,0.105100196,97700
2660,55.0,0.10547959,98070
2670,55.0,0.105858308,98445
2680,55.0,0.106240929,98811
2690,55.0,0.106615605,99176
2700,55.0,0.106982879,99540
2710,55.0,0.107358829,99903
2720,55.0,0.107736316,100269
2730,55.0,0.108108367,100640
2740,55.0,0.108480032,101004
2750,55.0,0.108848923,101366
2760,55.0,0.109224157,101735
2770,55.0,0.109599857,102098
2780,55.0,0.109979618,102464
2790,55.0,0.110392388,102834
2800,55.0,0.110769987,103202
2810,55.0,0.111147689,103572
2820,55.0,0.111542331,103937
2830,55.0,0.11192655,104306
2840,55.0,0.112305771,104669
2850,55.0,0.112689614,105033
2860,55.0,0.113076661,105404
2870,55.0,0.11345655,105777
2880,55.0,0.113834735,106148
2890,55.0,0.114211305,106508
2900,55.0,0.1145886,106878
2910,55.0,0.114964917,107240
2920,55.0,0.115350359,107605
2930,55.0,0.115734022,107975
2940,56.0,0.116111447,108338
2950,55.0,0.116497971,108702
2960,55.0,0.116886995,109065
2970,55.0,0.11727462,109424
2980,55.0,0.11765955,109795
2990,56.0,0.118046514,110171
3000,55.0,0.118423946,110538
3010,55.0,0.1189839,110902
3020,55.0,0.119493468,111270
3030,55.0,0.119998985,111636
3040,55.0,0.120390365,112006
3050,56.0,0.120767012,112369
3060,56.0,0.121147753,112738
3070,55.0,0.121539125,113101
3080,55.0,0.1219185,113466
3090,56.0,0.122307324,113831
3100,56.0,0.122688988,114197
3110,56.0,0.123067251,114563
3120,56.0,0.123451268,114936
3130,56.0,0.123836203,115302
3140,55.0,0.124209981,115671
3150,56.0,0.124587191,116031
3160,55.0,0.124974114,116398
3170,56.0,0.125356203,116770
3180,55.0,0.12573575,117136
3190,56.0,0.126113379,117499
3200,55.0,0.126497067,117870
3210,56.0,0.126878683,118239
3220,56.0,0.127293665,118612
3230,56.0,0.127667767,118976
3240,56.0,0.128049195,119331
3250,56.0,0.128426937,119697
3260,56.0,0.128810466,120066
3270,56.0,0.129187554,120432
3280,55.0,0.12956896,120797
3290,56.0,0.129952069,121158
3300,55.0,0.130334901,121522
3310,55.0,0.130715522,121884
3320,55.0,0.131094268,122252
3330,55.0,0.131469233,122611
3340,55.0,0.131846637,122981
3350,55.0,0.132224973,123341
3360,55.0,0.132604417,123715
3370,55.0,0.132982812,124090
3380,55.0,0.133365725,124465
3390,55.0,0.133743701,124840
3400,56.0,0.134116542,125209
3410,56.0,0.134494549,125580
3420,56.0,0.134876207,125954
3430,56.0,0.135260288,126321
3440,56.0,0.135639216,126688
3450,57.0,0.136015686,127053
3460,57.0,0.136398304,127413
3470,56.0,0.136777863,127776
3480,56.0,0.13715693,128138
3490,56.0,0.137538742,128501
3500,56.0,0.137919253,128874
3510,56.0,0.138312396,129243
3520,55.0,0.138696197,129605
3530,55.0,0.139119386,129965
3540,55.0,0.139536384,130334
3550,56.0,0.139928958,130704
3560,55.0,0.140334725,131077
3570,55.0,0.140719279,131448
3580,56.0,0.141100594,131814
3590,55.0,0.141480707,132181
3600,55.0,0.141857206,132543
3610,56.0,0.142229569,132905
3620,56.0,0.14260508,133272
3630,56.0,0.142978058,133632
3640,56.0,0.143355845,134000
3650,55.0,0.143732133,134366
3660,55.0,0.14410813,134729
3670,55.0,0.145121189,135096
3680,55.0,0.145530485,135464
3690,55.0,0.145971955,135835
3700,56.0,0.146359852,136206
3710,57.0,0.146748372,136578
3720,57.0,0.147136618,136949
3730,57.0,0.147521298,137318
3740,57.0,0.147924107,137681
3750,57.0,0.148352905,138055
3760,58.0,0.148758432,138418
3770,57.0,0.149152352,138787
3780,57.0,0.149540658,139146
3790,57.0,0.149934131,139510
3800,57.0,0.150323815,139882
3810,56.0,0.150707991,140248
3820,56.0,0.151093994,140619
3830,57.0,0.151476148,140987
3840,57.0,0.151859153,141356
3850,57.0,0.152238251,141723
3860,57.0,0.152624117,142092
3870,57.0,0.153009876,142456
3880,58.0,0.153507674,142827
3890,58.0,0.153892546,143187
3900,59.0,0.154277189,143551
3910,59.0,0.154666754,143917
3920,57.0,0.155054836,144292
3930,56.0,0.155435752,144664
3940,56.0,0.155824781,145024
3950,56.0,0.156222215,145392
3960,56.0,0.156605943,145752
3970,55.0,0.156993894,146121
3980,56.0,0.157394731,146484
3990,56.0,0.157793649,146847
4000,56.0,0.158199612,147214
4010,56.0,0.15860888,147577
4020,56.0,0.159006007,147946
4030,56.0,0.159385457,148312
4040,56.0,0.159758119,148677
4050,56.0,0.160148528,149043
4060,56.0,0.160538808,149408
4070,58.0,0.160935214,149773
4080,57.0,0.161317454,150137
4090,56.0,0.161740405,150502
4100,58.0,0.16212442,150876
4110,58.0,0.162519912,151244
4120,60.0,0.162914545,151605
4130,60.0,0.163315599,151978
4140,60.0,0.163720316,152350
4150,60.0,0.164109891,152713
4160,61.0,0.164504745,153078
4170,60.0,0.164885888,153438
4180,60.0,0.16525981,153795
4190,60.0,0.165634049,154163
4200,61.0,0.166003298,154528
4210,61.0,0.16637677,154891
4220,60.0,0.166745662,155252
4230,62.0,0.167112556,155618
4240,60.0,0.167482795,155988
4250,62.0,0.167858144,156362
4260,60.0,0.168231586,156730
4270,60.0,0.168608484,157106
4280,61.0,0.168978604,157471
4290,61.0,0.169349535,157833
4300,61.0,0.169721717,158196
4310,61.0,0.170108312,158556
4320,61.0,0.170483069,158926
4330,62.0,0.170856817,159292
4340,61.0,0.171237159,159651
4350,61.0,0.171624765,160010
4360,61.0,0.172007508,160371
4370,61.0,0.17239011,160736
4380,61.0,0.172775533,161101
4390,61.0,0.17317643,161463
4400,61.0,0.173566362,161827
4410,61.0,0.173948121,162190
4420,61.0,0.174332878,162551
4430,61.0,0.174720617,162924
4440,61.0,0.175104609,163286
4450,61.0,0.17548834,163656
4460,61.0,0.175873137,164020
4470,61.0,0.176257291,164390
4480,61.0,0.176641658,164760
4490,61.0,0.177026313,165118
4500,61.0,0.177413491,165487
4510,62.0,0.177796855,165853
4520,61.0,0.178228927,166221
4530,61.0,0.178610999,166594
4540,61.0,0.178997822,166963
4550,61.0,0.17937105,167322
4560,61.0,0.179746335,167685
4570,61.0,0.180122704,168052
4580,62.0,0.180490513,168413
4590,61.0,0.180864372,168779
4600,61.0,0.181242279,169154
4610,62.0,0.181615085,169521
4620,62.0,0.182004463,169892
4630,61.0,0.182388817,170253
4640,62.0,0.182781123,170620
4650,61.0,0.18316522,170994
4660,61.0,0.183538847,171359
4670,61.0,0.183913253,171732
4680,61.0,0.184284289,172100
4690,61.0,0.184656289,172471
4700,61.0,0.185030798,172846
4710,61.0,0.185400294,173212
4720,62.0,0.185770891,173582
4730,61.0,0.186147219,173956
4740,61.0,0.186527565,174319
4750,61.0,0.18689655,174686
4760,61.0,0.187275588,175052
4770,61.0,0.187651792,175417
4780,62.0,0.188023105,175789
4790,62.0,0.188394347,176156
4800,62.0,0.188768078,176525
4810,61.0,0.189142416,176890
4820,61.0,0.189511933,177253
4830,61.0,0.189897196,177622
4840,61.0,0.190280821,177993
4850,62.0,0.190693446,178369
4860,62.0,0.191161706,178737
4870,62.0,0.191591363,179110
4880,63.0,0.192009371,179479
4890,63.0,0.192401177,179841
4900,62.0,0.192792772,180219
4910,62.0,0.193185342,180583
4920,62.0,0.193569986,180947
4930,63.0,0.193957062,181322
4940,63.0,0.194344922,181689
4950,63.0,0.194791126,182056
4960,64.0,0.195192884,182417
4970,62.0,0.195569621,182779
4980,62.0,0.195948318,183151
4990,62.0,0.196891459,183518
5000,62.0,0.197313156,183888
