iterations,fitness,time,fevals
0,18.0,0.000415412999999,285
10,19.0,0.000779526999999,470
20,21.0,0.001121264,658
30,21.0,0.001449519,845
40,21.0,0.001773505,1031
50,21.0,0.002104103,1212
60,21.0,0.002422794,1392
70,22.0,0.002732762,1584
80,22.0,0.003030463,1766
90,22.0,0.003328326,1957
100,22.0,0.003626681,2143
110,22.0,0.003918986,2332
120,22.0,0.00420662,2518
130,22.0,0.004515106,2697
140,22.0,0.004810519,2881
150,22.0,0.005099075,3062
160,24.0,0.005385582,3247
170,22.0,0.005738744,3430
180,22.0,0.006030075,3618
190,22.0,0.006322295,3802
200,22.0,0.006618338,3991
210,22.0,0.006914002,4183
220,22.0,0.007206506,4367
230,22.0,0.007498461,4553
240,22.0,0.00779809,4740
250,22.0,0.008093092,4929
260,22.0,0.008383198,5122
270,22.0,0.00866896,5312
280,23.0,0.008965041,5501
290,22.0,0.009255849,5687
300,22.0,0.009544621,5878
310,23.0,0.009829873,6059
320,23.0,0.010120299,6242
330,23.0,0.010407406,6432
340,23.0,0.01069264,6618
350,23.0,0.010983412,6808
360,23.0,0.011275255,6996
370,23.0,0.011558401,7176
380,23.0,0.011846862,7362
390,23.0,0.012132793,7548
400,23.0,0.012423936,7736
410,23.0,0.012738722,7927
420,23.0,0.013089068,8115
430,23.0,0.013400499,8300
440,23.0,0.013704161,8488
450,23.0,0.014009104,8677
460,25.0,0.01431436,8862
470,27.0,0.01462082,9050
480,32.0,0.014925555,9237
490,33.0,0.01522733,9426
500,33.0,0.015524367,9614
510,33.0,0.015836398,9800
520,33.0,0.016136903,9987
530,33.0,0.016438403,10179
540,33.0,0.016742461,10368
550,33.0,0.017033781,10553
560,33.0,0.017344024,10741
570,33.0,0.017645919,10922
580,32.0,0.017965733,11111
590,32.0,0.018271546,11296
600,32.0,0.01857001,11482
610,32.0,0.018866346,11665
620,32.0,0.019164766,11854
630,32.0,0.019466752,12042
640,33.0,0.019782505,12230
650,33.0,0.020091676,12412
660,32.0,0.020391522,12599
670,32.0,0.020773228,12787
680,32.0,0.021074159,12970
690,32.0,0.021371405,13161
700,32.0,0.021665684,13344
710,32.0,0.021986017,13533
720,32.0,0.022290802,13719
730,32.0,0.022583965,13904
740,32.0,0.022891708,14088
750,32.0,0.023184817,14273
760,33.0,0.023494417,14459
770,35.0,0.023796696,14646
780,35.0,0.024101348,14830
790,33.0,0.024431682,15008
800,35.0,0.024748605,15199
810,35.0,0.025069879,15384
820,35.0,0.025406559,15572
830,35.0,0.025733324,15764
840,37.0,0.026026447,15948
850,36.0,0.026330875,16129
860,36.0,0.026622535,16315
870,36.0,0.026924225,16502
880,36.0,0.027222713,16689
890,36.0,0.027518606,16878
900,36.0,0.027815042,17070
910,36.0,0.028104979,17252
920,37.0,0.028404397,17442
930,37.0,0.028696984,17628
940,37.0,0.028985004,17809
950,37.0,0.029274699,17996
960,37.0,0.029569107,18184
970,37.0,0.029864188,18364
980,37.0,0.030176074,18552
990,37.0,0.030473797,18743
1000,37.0,0.030786918,18931
1010,37.0,0.031077564,19116
1020,37.0,0.031363283,19302
1030,38.0,0.031653975,19489
1040,38.0,0.031936285,19670
1050,38.0,0.032219896,19857
1060,37.0,0.032514645,20045
1070,38.0,0.032801977,20229
1080,37.0,0.033091686,20416
1090,37.0,0.033384052,20604
1100,37.0,0.033672527,20789
1110,46.0,0.033962103,20970
1120,46.0,0.034245649,21152
1130,47.0,0.034534691,21344
1140,46.0,0.034824163,21533
1150,46.0,0.035108348,21717
1160,46.0,0.035394972,21901
1170,46.0,0.035684456,22091
1180,46.0,0.036032345,22278
1190,46.0,0.036326886,22463
1200,46.0,0.036617548,22650
1210,49.0,0.036910134,22839
1220,49.0,0.037276306,23025
1230,49.0,0.037606112,23212
1240,50.0,0.037897302,23398
1250,49.0,0.038234203,23584
1260,49.0,0.038542811,23775
1270,50.0,0.038838522,23960
1280,50.0,0.039137092,24147
1290,50.0,0.039437222,24335
1300,50.0,0.039736138,24527
1310,50.0,0.040042279,24720
1320,50.0,0.040337616,24902
1330,50.0,0.04063701,25089
1340,50.0,0.040934388,25274
1350,50.0,0.041230718,25459
1360,50.0,0.041529834,25645
1370,50.0,0.041826612,25831
1380,50.0,0.04275515,26018
1390,50.0,0.043112801,26197
1400,50.0,0.043432814,26379
1410,51.0,0.043787558,26563
1420,50.0,0.044095682,26748
1430,51.0,0.044397777,26933
1440,51.0,0.044699097,27120
1450,51.0,0.044998955,27306
1460,51.0,0.045294154,27492
1470,51.0,0.045590319,27679
1480,51.0,0.045890846,27865
1490,51.0,0.046188198,28053
1500,51.0,0.046478094,28243
1510,50.0,0.046787902,28428
1520,50.0,0.047102937,28616
1530,50.0,0.047446983,28803
1540,51.0,0.047737403,28992
1550,51.0,0.048033787,29176
1560,51.0,0.048334916,29356
1570,51.0,0.048630477,29539
1580,51.0,0.048923214,29727
1590,51.0,0.049214258,29909
1600,51.0,0.04951053,30096
1610,51.0,0.049816743,30284
1620,51.0,0.050115028,30464
1630,51.0,0.050410705,30648
1640,52.0,0.050711176,30839
1650,51.0,0.05101514,31031
1660,51.0,0.051309616,31225
1670,51.0,0.051649634,31415
1680,51.0,0.05194006,31605
1690,50.0,0.052228742,31793
1700,51.0,0.05253775,31982
1710,50.0,0.05282732,32166
1720,50.0,0.053113651,32354
1730,50.0,0.053401826,32544
1740,50.0,0.0536906,32736
1750,50.0,0.053980228,32920
1760,51.0,0.054269929,33109
1770,50.0,0.054559988,33296
1780,50.0,0.054856136,33484
1790,51.0,0.055173288,33671
1800,50.0,0.055488321,33855
1810,51.0,0.055785334,34039
1820,51.0,0.056082122,34226
1830,51.0,0.056377701,34411
1840,51.0,0.056684218,34600
1850,51.0,0.056969744,34775
1860,51.0,0.057256834,34963
1870,51.0,0.057544957,35149
1880,51.0,0.057841787,35335
1890,51.0,0.058132251,35519
1900,51.0,0.058423225,35704
1910,52.0,0.058712464,35889
1920,52.0,0.059000088,36075
1930,52.0,0.059333892,36268
1940,52.0,0.059630484,36457
1950,52.0,0.059919743,36639
1960,53.0,0.060212968,36827
1970,52.0,0.060507115,37012
1980,52.0,0.060797862,37196
1990,52.0,0.061088191,37382
2000,52.0,0.061378163,37572
2010,53.0,0.061670989,37761
2020,52.0,0.06196363,37942
2030,52.0,0.062256256,38128
2040,52.0,0.062551039,38315
2050,52.0,0.062839911,38499
2060,52.0,0.063141939,38690
2070,52.0,0.063437283,38878
2080,52.0,0.063730235,39066
2090,52.0,0.064025904,39253
2100,52.0,0.064316597,39439
2110,52.0,0.064607762,39623
2120,52.0,0.064898759,39805
2130,52.0,0.065190741,39985
2140,51.0,0.065485551,40170
2150,52.0,0.065785253,40355
2160,51.0,0.066080817,40544
2170,52.0,0.066378335,40733
2180,52.0,0.066674678,40921
2190,52.0,0.066967361,41109
2200,51.0,0.067261191,41292
2210,51.0,0.067551538,41479
2220,52.0,0.067932254,41662
2230,52.0,0.068224139,41845
2240,52.0,0.068517731,42035
2250,52.0,0.068807947,42222
2260,52.0,0.069098041,42405
2270,52.0,0.069388442,42589
2280,52.0,0.069677532,42774
2290,52.0,0.069965832,42958
2300,52.0,0.07025116,43139
2310,51.0,0.070541598,43324
2320,52.0,0.07083346,43517
2330,51.0,0.071126653,43698
2340,51.0,0.071417269,43881
2350,52.0,0.071718398,44063
2360,52.0,0.072017472,44248
2370,52.0,0.072315319,44435
2380,52.0,0.072611816,44621
2390,52.0,0.072904154,44808
2400,51.0,0.073196339,44990
2410,52.0,0.073491408,45170
2420,51.0,0.073784914,45357
2430,52.0,0.074086167,45541
2440,52.0,0.074383922,45726
2450,52.0,0.074683494,45911
2460,52.0,0.074983177,46099
2470,52.0,0.075279869,46283
2480,52.0,0.075618561,46471
2490,53.0,0.075935601,46662
2500,53.0,0.076232538,46845
2510,53.0,0.076526061,47028
2520,53.0,0.076821672,47208
2530,54.0,0.077112526,47394
2540,53.0,0.077403021,47581
2550,53.0,0.077690872,47763
2560,53.0,0.077978427,47951
2570,52.0,0.078265111,48134
2580,52.0,0.078554082,48321
2590,53.0,0.078844595,48512
2600,52.0,0.079136857,48706
2610,52.0,0.079425175,48895
2620,52.0,0.07973883,49079
2630,52.0,0.080038591,49263
2640,52.0,0.080331602,49443
2650,53.0,0.080620918,49624
2660,53.0,0.080912036,49809
2670,53.0,0.081204396,49997
2680,53.0,0.081492094,50181
2690,53.0,0.081787315,50366
2700,53.0,0.082083513,50550
2710,53.0,0.082371926,50735
2720,53.0,0.082662215,50923
2730,54.0,0.082966627,51111
2740,53.0,0.083355235,51297
2750,54.0,0.083653331,51482
2760,53.0,0.083948539,51667
2770,53.0,0.084302669,51856
2780,53.0,0.084636493,52043
2790,54.0,0.084954647,52230
2800,54.0,0.085288973,52417
2810,54.0,0.085584463,52601
2820,54.0,0.085876692,52781
2830,55.0,0.086169548,52962
2840,54.0,0.086463356,53145
2850,54.0,0.086760705,53337
2860,54.0,0.087056027,53524
2870,54.0,0.087349684,53716
2880,59.0,0.087647058,53906
2890,56.0,0.087964131,54091
2900,53.0,0.088267694,54275
2910,56.0,0.088571028,54461
2920,54.0,0.088868309,54645
2930,54.0,0.089816246,54832
2940,54.0,0.090156737,55009
2950,57.0,0.09046893,55196
2960,58.0,0.090767506,55388
2970,58.0,0.091063539,55571
2980,53.0,0.091371992,55755
2990,53.0,0.091671155,55942
3000,56.0,0.091967845,56133
3010,54.0,0.092267317,56319
3020,53.0,0.092565607,56508
3030,56.0,0.09286081,56699
3040,54.0,0.093160322,56884
3050,54.0,0.093472987,57069
3060,56.0,0.093788197,57251
3070,56.0,0.094137073,57441
3080,54.0,0.094431826,57624
3090,54.0,0.094728677,57815
3100,54.0,0.095018734,57998
3110,55.0,0.095306131,58182
3120,55.0,0.095592489,58363
3130,55.0,0.095884752,58547
3140,55.0,0.096182564,58734
3150,55.0,0.09647915,58924
3160,55.0,0.096772243,59107
3170,55.0,0.097064289,59294
3180,55.0,0.097356313,59479
3190,55.0,0.097649542,59669
3200,55.0,0.097941864,59856
3210,55.0,0.098234847,60044
3220,55.0,0.098525641,60227
3230,55.0,0.098886945,60413
3240,55.0,0.099182123,60606
3250,55.0,0.099476061,60788
3260,55.0,0.099766819,60979
3270,55.0,0.1000534,61165
3280,55.0,0.100347225,61355
3290,55.0,0.10063427,61540
3300,55.0,0.100922638,61726
3310,57.0,0.101211014,61918
3320,57.0,0.101497593,62099
3330,56.0,0.101786015,62285
3340,56.0,0.102076073,62473
3350,56.0,0.102362235,62655
3360,55.0,0.102648599,62844
3370,55.0,0.10293409,63029
3380,55.0,0.103224555,63216
3390,55.0,0.103512648,63399
3400,55.0,0.10380686,63585
3410,55.0,0.104097562,63766
3420,56.0,0.104404575,63949
3430,55.0,0.104701844,64136
3440,56.0,0.105048549,64322
3450,56.0,0.105348351,64505
3460,56.0,0.105654995,64698
3470,55.0,0.105948272,64890
3480,55.0,0.10624479,65081
3490,61.0,0.106540483,65263
3500,56.0,0.10688633,65449
3510,62.0,0.107193095,65632
3520,56.0,0.107510707,65820
3530,56.0,0.107804207,66004
3540,56.0,0.108112575,66190
3550,56.0,0.10840973,66382
3560,56.0,0.108702569,66560
3570,56.0,0.108992513,66741
3580,56.0,0.109282316,66929
3590,56.0,0.109569033,67111
3600,56.0,0.109856259,67300
3610,56.0,0.110142338,67487
3620,56.0,0.110426942,67670
3630,56.0,0.11071576,67858
3640,56.0,0.111001224,68043
3650,56.0,0.111289853,68224
3660,56.0,0.111583249,68408
3670,56.0,0.111874187,68593
3680,57.0,0.112165326,68773
3690,56.0,0.112458438,68961
3700,57.0,0.112753136,69148
3710,57.0,0.113043003,69329
3720,57.0,0.113337102,69519
3730,59.0,0.113631054,69701
3740,57.0,0.113922329,69889
3750,57.0,0.114215235,70077
3760,57.0,0.114541194,70266
3770,57.0,0.114852358,70457
3780,59.0,0.115162932,70648
3790,57.0,0.115468861,70833
3800,57.0,0.115780223,71019
3810,58.0,0.116079499,71207
3820,60.0,0.116383929,71394
3830,62.0,0.116683471,71579
3840,62.0,0.116978299,71767
3850,60.0,0.117272428,71958
3860,61.0,0.117561719,72143
3870,61.0,0.117851626,72328
3880,61.0,0.118148998,72514
3890,61.0,0.118445711,72698
3900,61.0,0.118740194,72885
3910,62.0,0.119039989,73074
3920,61.0,0.119334221,73262
3930,62.0,0.119633438,73445
3940,61.0,0.119931093,73634
3950,62.0,0.120234229,73817
3960,62.0,0.120531552,74002
3970,61.0,0.120823458,74193
3980,62.0,0.12112304,74376
3990,61.0,0.12142064,74564
4000,61.0,0.121719404,74745
4010,61.0,0.122015392,74935
4020,61.0,0.122318542,75124
4030,61.0,0.122606482,75309
4040,61.0,0.122893549,75495
4050,61.0,0.123181051,75680
4060,61.0,0.123463024,75864
4070,61.0,0.123754811,76052
4080,62.0,0.124039174,76236
4090,61.0,0.124349734,76424
4100,61.0,0.124645283,76607
4110,62.0,0.124939139,76792
4120,62.0,0.125230179,76976
4130,62.0,0.125524719,77163
4140,62.0,0.125811589,77343
4150,62.0,0.126102987,77528
4160,61.0,0.12639429,77716
4170,62.0,0.126683361,77904
4180,61.0,0.126971544,78095
4190,61.0,0.127259438,78278
4200,61.0,0.127542881,78464
4210,61.0,0.12782922,78650
4220,61.0,0.12812009,78841
4230,62.0,0.128407215,79034
4240,61.0,0.128696464,79223
4250,61.0,0.128984669,79411
4260,62.0,0.129270856,79595
4270,62.0,0.12956088,79782
4280,61.0,0.129862822,79972
4290,61.0,0.130151028,80161
4300,63.0,0.130439822,80346
4310,62.0,0.130727882,80537
4320,62.0,0.131010434,80720
4330,61.0,0.131292109,80907
4340,61.0,0.131581366,81087
4350,61.0,0.131871873,81276
4360,62.0,0.132159898,81464
4370,61.0,0.132445171,81649
4380,61.0,0.132741128,81835
4390,62.0,0.133116043,82029
4400,62.0,0.133452826,82219
4410,61.0,0.133745762,82401
4420,62.0,0.134079229,82590
4430,62.0,0.134367921,82778
4440,62.0,0.134653651,82964
4450,61.0,0.134934287,83147
4460,62.0,0.135219168,83335
4470,63.0,0.135497814,83524
4480,63.0,0.13577917,83712
4490,63.0,0.136060901,83899
4500,64.0,0.136345287,84085
4510,63.0,0.136630083,84272
4520,63.0,0.136911254,84458
4530,64.0,0.137192995,84643
4540,64.0,0.137531276,84829
4550,64.0,0.137820305,85015
4560,64.0,0.138112562,85204
4570,65.0,0.138547989,85395
4580,64.0,0.138874079,85580
4590,65.0,0.139206968,85766
4600,64.0,0.139509412,85952
4610,65.0,0.139810966,86139
4620,65.0,0.140105587,86327
4630,65.0,0.14041481,86510
4640,65.0,0.14071453,86699
4650,65.0,0.141013347,86888
4660,65.0,0.141312409,87076
4670,65.0,0.141630498,87266
4680,65.0,0.141955402,87446
4690,65.0,0.142263168,87635
4700,65.0,0.142552927,87823
4710,65.0,0.142841691,88012
4720,65.0,0.143127988,88200
4730,66.0,0.143414699,88393
4740,66.0,0.143700012,88580
4750,66.0,0.143986601,88763
4760,66.0,0.144276341,88942
4770,65.0,0.144645794,89133
4780,65.0,0.144940085,89315
4790,66.0,0.145227092,89496
4800,64.0,0.145511979,89676
4810,65.0,0.145797469,89858
4820,65.0,0.146084525,90044
4830,65.0,0.14637249,90232
4840,65.0,0.146664205,90420
4850,65.0,0.146951781,90607
4860,65.0,0.147238359,90794
4870,65.0,0.147527983,90979
4880,65.0,0.147817505,91167
4890,65.0,0.148114855,91354
4900,66.0,0.14841604,91541
4910,65.0,0.148745396,91731
4920,65.0,0.149037176,91912
4930,65.0,0.149334676,92095
4940,65.0,0.149636233,92284
4950,65.0,0.149931304,92463
4960,66.0,0.150228226,92646
4970,65.0,0.150522782,92831
4980,65.0,0.15081213,93011
4990,65.0,0.15112999,93200
5000,65.0,0.151424735,93389
