iterations,fitness,time,fevals
0,20.0,0.001179289,673
10,25.0,0.00234146,1263
20,25.0,0.003427397,1847
30,25.0,0.004459622,2415
40,29.0,0.00543769,2993
50,29.0,0.006418938,3566
60,28.0,0.007355492,4147
70,29.0,0.008329801,4732
80,28.0,0.009315973,5311
90,31.0,0.010347838,5891
100,33.0,0.011317619,6458
110,31.0,0.012330985,7033
120,35.0,0.013329667,7618
130,35.0,0.014292812,8188
140,36.0,0.015343662,8766
150,37.0,0.016326456,9336
160,37.0,0.017353434,9917
170,36.0,0.018307203,10499
180,37.0,0.01933884,11080
190,40.0,0.020333254,11661
200,39.0,0.021476373,12257
210,37.0,0.022485409,12830
220,42.0,0.023511695,13408
230,39.0,0.024501968,13994
240,38.0,0.02553138,14559
250,39.0,0.026519403,15135
260,39.0,0.027521783,15701
270,39.0,0.028496114,16276
280,39.0,0.029475988,16855
290,39.0,0.03047822,17430
300,39.0,0.031486837,18010
310,39.0,0.032565497,18588
320,38.0,0.03360975,19159
330,39.0,0.034669761,19727
340,40.0,0.035676136,20304
350,40.0,0.037336573,20883
360,40.0,0.038457718,21461
370,43.0,0.039448523,22041
380,47.0,0.040495113,22617
390,47.0,0.04809755,23199
400,48.0,0.048696243,23753
410,50.0,0.049273833,24335
420,50.0,0.049825256,24914
430,49.0,0.050361832,25497
440,49.0,0.050904723,26072
450,49.0,0.051471212,26654
460,49.0,0.052250797,27237
470,50.0,0.053042,27815
480,50.0,0.053805214,28384
490,50.0,0.054551026,28959
500,50.0,0.055284846,29537
510,52.0,0.056019485,30115
520,53.0,0.056751829,30695
530,55.0,0.057410929,31290
540,56.0,0.057959604,31876
550,57.0,0.058509013,32449
560,56.0,0.05904612,33030
570,56.0,0.059619303,33608
580,61.0,0.060161416,34190
590,61.0,0.060695092,34764
600,60.0,0.061237345,35328
610,62.0,0.061775082,35915
620,63.0,0.062325726,36497
630,63.0,0.062846058,37063
640,63.0,0.063361431,37635
650,63.0,0.063864944,38211
660,63.0,0.064360715,38789
670,63.0,0.064855722,39361
680,67.0,0.065366424,39933
690,69.0,0.065876956,40521
700,69.0,0.066405772,41100
710,67.0,0.06692554,41670
720,68.0,0.067453102,42248
730,72.0,0.068012582,42826
740,72.0,0.06852547,43415
750,70.0,0.069033673,43997
760,70.0,0.069548219,44586
770,70.0,0.070061558,45172
780,69.0,0.070579265,45724
790,70.0,0.071094062,46300
800,70.0,0.071621579,46870
810,71.0,0.072131838,47443
820,70.0,0.072659387,48019
830,70.0,0.073158963,48597
840,70.0,0.073668813,49189
850,70.0,0.074182662,49758
860,70.0,0.074703728,50353
870,70.0,0.075215723,50941
880,70.0,0.075709784,51514
890,69.0,0.076199734,52070
900,70.0,0.076701583,52640
910,68.0,0.077194976,53210
920,67.0,0.077722095,53790
930,68.0,0.078232269,54339
940,66.0,0.078740956,54919
950,68.0,0.079254209,55497
960,66.0,0.079768279,56078
970,66.0,0.080266946,56649
980,66.0,0.080774553,57226
990,67.0,0.081296739,57798
1000,69.0,0.081811676,58384
1010,66.0,0.082330395,58986
1020,68.0,0.082843735,59576
1030,67.0,0.083344922,60156
1040,68.0,0.083852738,60748
1050,69.0,0.084372078,61324
1060,69.0,0.084908548,61901
1070,69.0,0.085423598,62483
1080,69.0,0.085997014,63046
1090,72.0,0.086536716,63622
1100,70.0,0.087083002,64215
1110,71.0,0.087586554,64797
1120,71.0,0.088096505,65389
1130,71.0,0.088598453,65961
1140,71.0,0.089108759,66528
1150,70.0,0.089610017,67112
1160,71.0,0.090116625,67710
1170,71.0,0.090633234,68278
1180,73.0,0.091145991,68853
1190,72.0,0.091756217,69428
1200,72.0,0.092290843,69998
1210,72.0,0.092863606,70564
1220,72.0,0.093360297,71122
1230,72.0,0.093885439,71708
1240,70.0,0.094398945,72292
1250,71.0,0.094893551,72889
1260,69.0,0.095387373,73466
1270,71.0,0.095872062,74042
1280,71.0,0.096369844,74616
1290,72.0,0.096874217,75204
1300,71.0,0.097377974,75782
1310,71.0,0.09789012,76369
1320,71.0,0.098394262,76937
1330,73.0,0.098906468,77532
1340,72.0,0.099408589,78110
1350,72.0,0.099909458,78703
1360,72.0,0.100396311,79274
1370,75.0,0.100873387,79846
1380,73.0,0.101371282,80441
1390,74.0,0.101868482,81018
1400,75.0,0.102384903,81600
1410,75.0,0.102874963,82176
1420,74.0,0.103384952,82766
1430,75.0,0.103878382,83332
1440,74.0,0.10438118,83914
1450,74.0,0.104873809,84493
1460,74.0,0.105378439,85068
1470,74.0,0.105870717,85637
1480,75.0,0.10635572,86219
1490,76.0,0.10684635,86814
1500,75.0,0.107329698,87380
1510,74.0,0.10783615,87967
1520,75.0,0.108329714,88540
1530,74.0,0.108834101,89131
1540,74.0,0.109324736,89716
1550,75.0,0.109824206,90295
1560,74.0,0.110312057,90861
1570,74.0,0.11079807,91440
1580,72.0,0.111328909,92021
1590,74.0,0.111845612,92602
1600,75.0,0.112356139,93180
1610,75.0,0.112872353,93755
1620,76.0,0.113379818,94328
1630,77.0,0.113889282,94912
1640,75.0,0.114406818,95484
1650,76.0,0.11492789,96071
1660,77.0,0.115416527,96643
1670,77.0,0.115896276,97219
1680,77.0,0.116378245,97794
1690,77.0,0.116854093,98368
1700,77.0,0.117332383,98939
1710,78.0,0.117802252,99501
1720,79.0,0.1182805,100066
1730,78.0,0.118765802,100643
1740,79.0,0.119262736,101236
1750,78.0,0.119803251,101798
1760,79.0,0.120304157,102376
1770,79.0,0.120783961,102967
1780,79.0,0.121259407,103549
1790,80.0,0.121747024,104123
1800,81.0,0.122248873,104689
1810,82.0,0.122744761,105262
1820,83.0,0.123233562,105836
1830,82.0,0.123703232,106401
1840,82.0,0.124188063,106976
1850,83.0,0.124664136,107540
1860,79.0,0.125151433,108105
1870,79.0,0.12565101,108681
1880,80.0,0.126146489,109267
1890,77.0,0.126629425,109838
1900,75.0,0.127109867,110412
1910,77.0,0.127588436,110975
1920,79.0,0.128076983,111547
1930,79.0,0.128555112,112127
1940,79.0,0.129277583,112715
1950,78.0,0.129935218,113293
1960,80.0,0.130619269,113862
1970,77.0,0.131291278,114428
1980,77.0,0.131977419,114999
1990,77.0,0.132629493,115589
2000,77.0,0.133280971,116164
2010,78.0,0.133924704,116741
2020,76.0,0.134559492,117312
2030,78.0,0.135208348,117905
2040,79.0,0.135849217,118491
2050,80.0,0.136485557,119078
2060,79.0,0.137186392,119655
2070,81.0,0.137769242,120214
2080,81.0,0.138320171,120781
2090,83.0,0.138864066,121363
2100,83.0,0.139399424,121933
2110,85.0,0.139916041,122492
2120,82.0,0.140401201,123065
2130,81.0,0.140879989,123645
2140,81.0,0.141358344,124221
2150,80.0,0.141848213,124796
2160,79.0,0.142343217,125374
2170,79.0,0.1428268,125970
2180,79.0,0.143316942,126560
2190,80.0,0.143812392,127152
2200,80.0,0.144290244,127735
2210,80.0,0.144776161,128311
2220,80.0,0.145270353,128891
2230,79.0,0.145819491,129482
2240,81.0,0.146294445,130056
2250,82.0,0.146771235,130627
2260,82.0,0.147258711,131206
2270,83.0,0.147791233,131776
2280,84.0,0.148288376,132349
2290,84.0,0.14877681,132928
2300,86.0,0.149258182,133492
2310,84.0,0.14972349,134077
2320,84.0,0.15018061,134654
2330,84.0,0.150646183,135230
2340,84.0,0.15110529,135807
2350,84.0,0.151584944,136403
2360,83.0,0.152054598,136971
2370,81.0,0.15252783,137557
2380,80.0,0.152994901,138141
2390,80.0,0.153466863,138728
2400,79.0,0.15394178,139308
2410,83.0,0.154487787,139876
2420,82.0,0.154980817,140471
2430,84.0,0.155460524,141063
2440,85.0,0.155923351,141645
2450,85.0,0.156405123,142234
2460,85.0,0.156870148,142818
2470,85.0,0.157335822,143397
2480,85.0,0.157801049,143974
2490,85.0,0.158266245,144563
2500,85.0,0.158730352,145143
2510,85.0,0.159190978,145729
2520,85.0,0.159669429,146288
2530,84.0,0.160169451,146871
2540,83.0,0.160633596,147441
2550,84.0,0.161094468,148015
2560,84.0,0.161561952,148590
2570,84.0,0.162015525,149164
2580,84.0,0.162477763,149737
2590,84.0,0.16293396,150308
2600,84.0,0.163404587,150883
2610,85.0,0.163863278,151447
2620,85.0,0.164319945,152021
2630,85.0,0.164784781,152600
2640,85.0,0.165245113,153175
2650,85.0,0.165697611,153748
2660,85.0,0.166182733,154339
2670,84.0,0.16667277,154920
2680,87.0,0.167146284,155489
2690,85.0,0.167619927,156067
2700,86.0,0.168086622,156631
2710,87.0,0.168558765,157192
2720,87.0,0.169038653,157769
2730,86.0,0.16952793,158332
2740,87.0,0.17002319,158903
2750,87.0,0.170506263,159489
2760,87.0,0.170977887,160050
2770,86.0,0.171454364,160627
2780,83.0,0.171932333,161210
2790,82.0,0.172456071,161798
2800,82.0,0.172929842,162355
2810,83.0,0.173405886,162954
2820,83.0,0.173888102,163538
2830,83.0,0.174357722,164120
2840,82.0,0.174833435,164693
2850,82.0,0.17530655,165268
2860,81.0,0.175778268,165843
2870,83.0,0.176247064,166396
2880,82.0,0.17671583,166960
2890,82.0,0.177183268,167538
2900,82.0,0.177661318,168121
2910,82.0,0.178140363,168705
2920,83.0,0.178618036,169272
2930,82.0,0.179107146,169873
2940,84.0,0.179581005,170449
2950,84.0,0.180042732,171007
2960,84.0,0.180511079,171569
2970,84.0,0.180981544,172138
2980,82.0,0.181502117,172703
2990,81.0,0.181982797,173272
3000,82.0,0.182505821,173845
3010,86.0,0.183043723,174411
3020,81.0,0.183582432,175001
3030,81.0,0.184062745,175571
3040,80.0,0.184560101,176154
3050,81.0,0.185055585,176723
3060,81.0,0.185539309,177309
3070,81.0,0.186020567,177884
3080,81.0,0.186499068,178459
3090,82.0,0.186980189,179042
3100,82.0,0.187454101,179621
3110,82.0,0.188462728,180185
3120,81.0,0.189014187,180773
3130,80.0,0.189549381,181353
3140,79.0,0.190112865,181933
3150,79.0,0.1906236,182505
3160,85.0,0.191101139,183071
3170,81.0,0.19157956,183638
3180,78.0,0.192058969,184208
3190,80.0,0.192530121,184786
3200,79.0,0.193003017,185356
3210,80.0,0.193480745,185930
3220,80.0,0.193960178,186510
3230,81.0,0.194435165,187076
3240,81.0,0.194921466,187666
3250,81.0,0.195390467,188231
3260,82.0,0.195858927,188790
3270,82.0,0.19633349,189355
3280,85.0,0.196813978,189925
3290,85.0,0.197284713,190503
3300,86.0,0.197753301,191075
3310,85.0,0.198235634,191661
3320,85.0,0.198702219,192229
3330,84.0,0.199164468,192794
3340,85.0,0.199654051,193382
3350,86.0,0.200109716,193959
3360,86.0,0.200584512,194544
3370,83.0,0.201066971,195136
3380,83.0,0.201550698,195715
3390,83.0,0.202029039,196287
3400,82.0,0.202502528,196873
3410,83.0,0.202986973,197455
3420,83.0,0.203447659,198033
3430,84.0,0.203910477,198615
3440,84.0,0.20438986,199204
3450,84.0,0.20486741,199784
3460,83.0,0.205339679,200355
3470,83.0,0.205824987,200938
3480,83.0,0.206291295,201517
3490,85.0,0.206762033,202104
3500,84.0,0.207230713,202676
3510,83.0,0.207704388,203250
3520,85.0,0.208170051,203816
3530,83.0,0.20881174,204399
3540,83.0,0.209295573,204984
3550,85.0,0.209764646,205547
3560,85.0,0.210246058,206125
3570,89.0,0.210734063,206699
3580,85.0,0.211214654,207271
3590,85.0,0.211689112,207837
3600,86.0,0.212180162,208414
3610,88.0,0.212655448,208990
3620,85.0,0.213124788,209547
3630,85.0,0.213590423,210116
3640,84.0,0.214057084,210694
3650,86.0,0.214514104,211262
3660,85.0,0.214976767,211829
3670,85.0,0.215440747,212408
3680,85.0,0.215925337,212994
3690,85.0,0.216388142,213574
3700,86.0,0.216857469,214158
3710,84.0,0.217324239,214733
3720,84.0,0.217822362,215300
3730,85.0,0.218295,215872
3740,85.0,0.218772491,216457
3750,85.0,0.21925538,217036
3760,85.0,0.219727974,217607
3770,84.0,0.220210161,218194
3780,85.0,0.220681443,218772
3790,85.0,0.221153596,219346
3800,86.0,0.221622947,219903
3810,86.0,0.222099028,220486
3820,87.0,0.222557824,221067
3830,87.0,0.223021476,221642
3840,86.0,0.223486004,222203
3850,85.0,0.223962588,222797
3860,85.0,0.224428137,223376
3870,86.0,0.22490218,223968
3880,86.0,0.225379981,224559
3890,87.0,0.225854782,225136
3900,85.0,0.226324847,225708
3910,85.0,0.22678592,226273
3920,86.0,0.227263928,226843
3930,87.0,0.227736964,227429
3940,86.0,0.228190862,227993
3950,86.0,0.228658636,228576
3960,84.0,0.229149884,229152
3970,85.0,0.229636514,229724
3980,88.0,0.230131499,230291
3990,87.0,0.230612085,230874
4000,94.0,0.231092715,231452
4010,89.0,0.231583919,232034
4020,87.0,0.232068099,232609
4030,89.0,0.232528672,233175
4040,86.0,0.232999416,233755
4050,86.0,0.233464778,234334
4060,86.0,0.233928109,234920
4070,83.0,0.234389239,235500
4080,86.0,0.234857859,236073
4090,89.0,0.235347848,236654
4100,89.0,0.235827336,237236
4110,90.0,0.236359735,237814
4120,86.0,0.236836666,238390
4130,87.0,0.237332118,238960
4140,88.0,0.237824211,239539
4150,88.0,0.238338169,240117
4160,88.0,0.238818779,240692
4170,90.0,0.239287613,241251
4180,90.0,0.239748505,241813
4190,90.0,0.240206445,242393
4200,92.0,0.240669206,242979
4210,92.0,0.241127578,243540
4220,90.0,0.241579507,244110
4230,89.0,0.242036553,244686
4240,91.0,0.242502517,245273
4250,85.0,0.243633339,245842
4260,83.0,0.244128756,246425
4270,83.0,0.244707959,247000
4280,89.0,0.245218928,247564
4290,93.0,0.24569783,248152
4300,93.0,0.246178749,248730
4310,94.0,0.246638567,249304
4320,94.0,0.247090878,249880
4330,94.0,0.247542334,250456
4340,93.0,0.247999132,251041
4350,93.0,0.248478895,251619
4360,93.0,0.248944505,252186
4370,93.0,0.249418426,252766
4380,94.0,0.249894934,253345
4390,95.0,0.25034829,253898
4400,94.0,0.250797818,254469
4410,93.0,0.251250356,255048
4420,94.0,0.251700245,255613
4430,94.0,0.252150509,256195
4440,94.0,0.252601824,256776
4450,94.0,0.253049285,257349
4460,94.0,0.253536142,257917
4470,94.0,0.253991176,258494
4480,94.0,0.254448898,259081
4490,94.0,0.254905136,259668
4500,94.0,0.255366284,260268
4510,94.0,0.255819965,260828
4520,94.0,0.256268979,261402
4530,94.0,0.256718941,261974
4540,94.0,0.257173106,262560
4550,94.0,0.257641149,263122
4560,95.0,0.258102883,263694
4570,94.0,0.258570748,264272
4580,94.0,0.259043776,264849
4590,94.0,0.2594972,265412
4600,92.0,0.259969722,265992
4610,92.0,0.260438008,266549
4620,94.0,0.260903262,267122
4630,93.0,0.261365183,267690
4640,96.0,0.261831886,268269
4650,93.0,0.262346073,268844
4660,92.0,0.262805474,269427
4670,92.0,0.263270216,270010
4680,92.0,0.263739036,270595
4690,94.0,0.264208341,271171
4700,96.0,0.264676987,271768
4710,96.0,0.265129653,272341
4720,96.0,0.265578667,272920
4730,97.0,0.266042549,273488
4740,94.0,0.266509145,274059
4750,92.0,0.266977048,274633
4760,91.0,0.267430163,275205
4770,94.0,0.267888991,275784
4780,93.0,0.268339133,276359
4790,93.0,0.268787711,276927
4800,93.0,0.269240549,277503
4810,96.0,0.269694145,278082
4820,93.0,0.270154997,278663
4830,96.0,0.270617971,279244
4840,96.0,0.27108591,279836
4850,93.0,0.271561555,280407
4860,94.0,0.272054976,280986
4870,93.0,0.272518496,281561
4880,93.0,0.272974716,282123
4890,93.0,0.273437871,282692
4900,93.0,0.273898079,283264
4910,94.0,0.274357305,283852
4920,93.0,0.274806008,284415
4930,94.0,0.275266175,284994
4940,93.0,0.275756964,285569
4950,95.0,0.276241544,286151
4960,92.0,0.276728936,286733
4970,96.0,0.277214504,287308
4980,92.0,0.277683896,287872
4990,92.0,0.278161406,288445
5000,93.0,0.278642092,289035
