iterations,fitness,time,fevals
0,20.0,0.000520445999999,425
10,21.0,0.000960044999999,758
20,22.0,0.001372499,1080
30,22.0,0.001780387,1412
40,25.0,0.002173278,1753
50,24.0,0.002563554,2083
60,24.0,0.002940092,2417
70,25.0,0.003325285,2759
80,26.0,0.003708531,3091
90,26.0,0.004086251,3423
100,26.0,0.004461176,3753
110,28.0,0.004834653,4087
120,27.0,0.005200847,4419
130,27.0,0.005564608,4744
140,27.0,0.005946878,5081
150,27.0,0.006315234,5419
160,27.0,0.006732737,5744
170,27.0,0.007145724,6077
180,28.0,0.007540768,6417
190,28.0,0.00793296,6756
200,27.0,0.008330357,7094
210,27.0,0.008735101,7433
220,27.0,0.009134487,7761
230,28.0,0.009531793,8091
240,29.0,0.009927435,8420
250,28.0,0.010315938,8745
260,28.0,0.01071229,9079
270,28.0,0.011098912,9411
280,28.0,0.011482266,9738
290,28.0,0.011868378,10076
300,28.0,0.012269552,10414
310,29.0,0.012663226,10754
320,28.0,0.013051106,11085
330,27.0,0.013439291,11428
340,28.0,0.013824525,11758
350,29.0,0.014209879,12088
360,29.0,0.014604675,12419
370,29.0,0.014983964,12747
380,30.0,0.015406651,13088
390,30.0,0.015788998,13425
400,30.0,0.016157322,13753
410,30.0,0.016534752,14080
420,34.0,0.01691665,14414
430,36.0,0.017297209,14748
440,36.0,0.017669071,15086
450,37.0,0.018044842,15423
460,36.0,0.0184199,15762
470,43.0,0.018788812,16088
480,43.0,0.019155382,16422
490,44.0,0.019536347,16750
500,44.0,0.019904504,17081
510,44.0,0.020269308,17415
520,44.0,0.020642066,17731
530,44.0,0.021017067,18062
540,45.0,0.021387398,18397
550,44.0,0.021759893,18740
560,44.0,0.022131086,19074
570,44.0,0.022506699,19425
580,44.0,0.022871899,19766
590,45.0,0.023232351,20103
600,45.0,0.023598479,20432
610,45.0,0.024164376,20761
620,45.0,0.02454108,21086
630,46.0,0.024918701,21424
640,46.0,0.025282305,21749
650,47.0,0.025803718,22076
660,47.0,0.02620809,22412
670,44.0,0.026576732,22752
680,45.0,0.026944693,23089
690,46.0,0.027313377,23420
700,46.0,0.027682128,23748
710,45.0,0.028043825,24072
720,45.0,0.028414389,24406
730,47.0,0.02879212,24745
740,48.0,0.029168136,25079
750,48.0,0.029542791,25414
760,48.0,0.029909513,25742
770,47.0,0.030280803,26079
780,46.0,0.030640511,26409
790,47.0,0.031001609,26742
800,46.0,0.03136812,27081
810,47.0,0.031739795,27418
820,47.0,0.032108328,27746
830,48.0,0.032486668,28087
840,47.0,0.032859871,28427
850,47.0,0.033249904,28766
860,47.0,0.033621839,29094
870,47.0,0.033995692,29418
880,46.0,0.034371663,29748
890,47.0,0.034745717,30086
900,47.0,0.035108494,30419
910,47.0,0.035481586,30751
920,48.0,0.035855927,31086
930,48.0,0.036220599,31417
940,47.0,0.036585427,31739
950,47.0,0.037018805,32074
960,47.0,0.037423179,32414
970,47.0,0.037797445,32747
980,48.0,0.038184011,33084
990,47.0,0.0385488,33420
1000,47.0,0.038914196,33760
1010,48.0,0.03927727,34089
1020,48.0,0.039638915,34417
1030,48.0,0.040004359,34761
1040,48.0,0.040365948,35091
1050,48.0,0.040799546,35428
1060,48.0,0.041165326,35759
1070,48.0,0.041530362,36094
1080,48.0,0.04191464,36430
1090,48.0,0.042885228,36767
1100,50.0,0.043281357,37108
1110,50.0,0.04368211,37451
1120,49.0,0.044059066,37792
1130,50.0,0.044438884,38131
1140,50.0,0.044825933,38470
1150,49.0,0.045213004,38807
1160,49.0,0.045579659,39140
1170,49.0,0.045956516,39479
1180,49.0,0.046336089,39811
1190,48.0,0.046756429,40151
1200,48.0,0.047146463,40483
1210,49.0,0.047509296,40820
1220,50.0,0.047872642,41153
1230,50.0,0.048240159,41489
1240,51.0,0.04860652,41817
1250,51.0,0.048990505,42165
1260,51.0,0.049364584,42502
1270,51.0,0.049725834,42835
1280,50.0,0.050090927,43174
1290,50.0,0.050458901,43499
1300,51.0,0.050816953,43837
1310,52.0,0.051172554,44174
1320,50.0,0.0515323,44517
1330,51.0,0.051895875,44842
1340,51.0,0.052253385,45167
1350,50.0,0.052623778,45507
1360,50.0,0.052990638,45847
1370,51.0,0.053353063,46189
1380,51.0,0.053711349,46517
1390,52.0,0.05406869,46854
1400,52.0,0.054430072,47183
1410,51.0,0.054793533,47526
1420,52.0,0.055150023,47862
1430,52.0,0.05550884,48194
1440,52.0,0.05585916,48516
1450,54.0,0.056219566,48858
1460,52.0,0.056577495,49195
1470,53.0,0.056940937,49536
1480,53.0,0.057356595,49875
1490,53.0,0.057713796,50206
1500,54.0,0.058068463,50539
1510,54.0,0.058439569,50866
1520,54.0,0.058800277,51193
1530,54.0,0.059200345,51516
1540,53.0,0.059571882,51841
1550,53.0,0.059943441,52188
1560,53.0,0.060317657,52530
1570,54.0,0.060686471,52864
1580,53.0,0.06105598,53194
1590,53.0,0.061427043,53515
1600,53.0,0.061793265,53842
1610,52.0,0.062171561,54177
1620,54.0,0.062535495,54504
1630,53.0,0.062905575,54849
1640,53.0,0.063268055,55173
1650,55.0,0.063644402,55513
1660,54.0,0.064009934,55833
1670,55.0,0.064374676,56175
1680,53.0,0.064743795,56516
1690,53.0,0.065109147,56854
1700,55.0,0.065478295,57191
1710,54.0,0.065846572,57525
1720,54.0,0.066225946,57857
1730,52.0,0.066596067,58200
1740,53.0,0.066965052,58537
1750,54.0,0.067326369,58865
1760,55.0,0.067701334,59196
1770,55.0,0.068064755,59540
1780,54.0,0.068430568,59877
1790,54.0,0.068803641,60208
1800,56.0,0.069204962,60553
1810,54.0,0.069579412,60892
1820,53.0,0.069957824,61229
1830,53.0,0.070326582,61562
1840,53.0,0.070707568,61902
1850,54.0,0.071085362,62242
1860,54.0,0.071453203,62579
1870,54.0,0.071821732,62918
1880,54.0,0.072186041,63254
1890,55.0,0.072563691,63594
1900,54.0,0.072924791,63929
1910,54.0,0.073288649,64267
1920,54.0,0.073651712,64597
1930,54.0,0.074086683,64928
1940,55.0,0.074448725,65258
1950,54.0,0.074818439,65597
1960,54.0,0.075184871,65935
1970,54.0,0.075545031,66279
1980,54.0,0.075904965,66602
1990,54.0,0.076263695,66931
2000,55.0,0.0766235,67276
2010,55.0,0.0769891,67611
2020,55.0,0.077348801,67935
2030,55.0,0.077704604,68262
2040,54.0,0.078077215,68594
2050,53.0,0.078441048,68923
2060,53.0,0.078803602,69264
2070,53.0,0.079160092,69592
2080,54.0,0.079521767,69928
2090,54.0,0.079886877,70256
2100,54.0,0.080262873,70587
2110,54.0,0.080646506,70924
2120,54.0,0.08101094,71251
2130,54.0,0.081382652,71592
2140,53.0,0.081748818,71917
2150,55.0,0.082118021,72256
2160,55.0,0.082476558,72577
2170,55.0,0.082882606,72914
2180,56.0,0.083255176,73242
2190,56.0,0.083628292,73585
2200,54.0,0.083985192,73926
2210,54.0,0.084343449,74257
2220,55.0,0.084702101,74594
2230,56.0,0.08506595,74926
2240,55.0,0.085437487,75268
2250,55.0,0.085815005,75611
2260,52.0,0.08617145,75937
2270,53.0,0.086536866,76270
2280,53.0,0.086889351,76598
2290,54.0,0.087247404,76936
2300,53.0,0.087609102,77291
2310,54.0,0.08797074,77618
2320,54.0,0.088339757,77962
2330,53.0,0.088699782,78291
2340,55.0,0.089066717,78632
2350,53.0,0.089426574,78959
2360,55.0,0.089782743,79285
2370,57.0,0.090147076,79629
2380,56.0,0.090505518,79959
2390,57.0,0.090864726,80291
2400,57.0,0.091226416,80631
2410,59.0,0.091646924,80961
2420,58.0,0.0920237,81296
2430,58.0,0.092394182,81640
2440,59.0,0.092827647,81971
2450,58.0,0.093240429,82317
2460,59.0,0.09361954,82652
2470,60.0,0.093996763,82979
2480,59.0,0.094363431,83306
2490,60.0,0.094729669,83654
2500,59.0,0.095117944,83993
2510,60.0,0.095478803,84330
2520,60.0,0.095845399,84665
2530,60.0,0.096211299,84990
2540,61.0,0.096581982,85323
2550,59.0,0.096951938,85662
2560,59.0,0.09732146,85992
2570,59.0,0.097689736,86328
2580,60.0,0.09869188,86659
2590,61.0,0.099060526,86981
2600,61.0,0.099423198,87313
2610,62.0,0.099795245,87653
2620,68.0,0.100160853,87987
2630,60.0,0.100531912,88321
2640,60.0,0.100894061,88649
2650,58.0,0.10125986,88983
2660,64.0,0.101622593,89319
2670,60.0,0.101977026,89643
2680,61.0,0.102337371,89988
2690,60.0,0.102698631,90331
2700,60.0,0.103058074,90663
2710,60.0,0.103416562,91001
2720,60.0,0.10378933,91347
2730,60.0,0.104152284,91674
2740,60.0,0.112770931,92009
2750,60.0,0.113151065,92345
2760,61.0,0.113510182,92686
2770,61.0,0.11388757,93023
2780,60.0,0.114249151,93367
2790,61.0,0.114605123,93696
2800,63.0,0.114960102,94024
2810,66.0,0.115318136,94357
2820,67.0,0.115678214,94679
2830,66.0,0.116035604,95011
2840,66.0,0.116386743,95337
2850,66.0,0.116738962,95667
2860,67.0,0.117097271,96012
2870,69.0,0.117455601,96340
2880,68.0,0.117818575,96684
2890,68.0,0.118184732,97030
2900,65.0,0.11855726,97374
2910,65.0,0.118925422,97715
2920,63.0,0.119290068,98048
2930,62.0,0.11965635,98385
2940,64.0,0.120022134,98728
2950,65.0,0.120392213,99059
2960,68.0,0.120753867,99395
2970,64.0,0.121118246,99724
2980,64.0,0.121511897,100056
2990,65.0,0.122025541,100390
3000,67.0,0.122504981,100725
3010,67.0,0.122984303,101068
3020,63.0,0.123472933,101407
3030,63.0,0.123839348,101737
3040,63.0,0.124315731,102073
3050,67.0,0.124787714,102400
3060,68.0,0.12526538,102738
3070,68.0,0.125735644,103069
3080,68.0,0.126194762,103398
3090,65.0,0.12664974,103730
3100,64.0,0.127106538,104061
3110,65.0,0.127570796,104404
3120,65.0,0.128042754,104752
3130,67.0,0.128493948,105081
3140,67.0,0.128945323,105409
3150,68.0,0.129410722,105751
3160,68.0,0.129865955,106099
3170,69.0,0.130254862,106433
3180,70.0,0.130644335,106758
3190,67.0,0.131031007,107088
3200,69.0,0.131412419,107428
3210,69.0,0.131778771,107759
3220,69.0,0.132138339,108081
3230,70.0,0.132518943,108408
3240,69.0,0.132879758,108745
3250,69.0,0.133237492,109074
3260,69.0,0.13359522,109413
3270,69.0,0.133949361,109750
3280,69.0,0.134305165,110079
3290,70.0,0.134668526,110415
3300,69.0,0.135034621,110753
3310,69.0,0.135391366,111078
3320,70.0,0.135748933,111404
3330,69.0,0.136109787,111741
3340,69.0,0.136470897,112067
3350,69.0,0.136835799,112407
3360,68.0,0.137192461,112739
3370,67.0,0.137552536,113077
3380,67.0,0.137967911,113409
3390,67.0,0.138328042,113741
3400,68.0,0.138684348,114067
3410,70.0,0.139038396,114409
3420,71.0,0.139391133,114742
3430,71.0,0.139760983,115064
3440,71.0,0.140122062,115399
3450,70.0,0.140474983,115729
3460,70.0,0.140823045,116067
3470,70.0,0.141170222,116398
3480,70.0,0.141520191,116731
3490,69.0,0.141903974,117068
3500,69.0,0.142302938,117404
3510,71.0,0.142675422,117733
3520,69.0,0.143060184,118064
3530,69.0,0.143412657,118409
3540,69.0,0.14376056,118743
3550,69.0,0.144108756,119083
3560,69.0,0.144461614,119407
3570,69.0,0.144817138,119745
3580,70.0,0.145177722,120084
3590,69.0,0.145530208,120410
3600,69.0,0.145930241,120737
3610,69.0,0.14628856,121067
3620,69.0,0.146642766,121399
3630,69.0,0.146999976,121729
3640,69.0,0.147955342,122063
3650,69.0,0.148352773,122392
3660,69.0,0.148737902,122727
3670,70.0,0.149099424,123055
3680,70.0,0.149466457,123392
3690,69.0,0.149815041,123728
3700,69.0,0.150162336,124067
3710,69.0,0.150516006,124401
3720,69.0,0.15088199,124741
3730,69.0,0.151274068,125076
3740,69.0,0.151705063,125404
3750,70.0,0.152090567,125731
3760,70.0,0.152489151,126061
3770,71.0,0.152861648,126388
3780,69.0,0.153222923,126715
3790,69.0,0.153586059,127045
3800,70.0,0.153953131,127379
3810,70.0,0.154334804,127718
3820,70.0,0.154706258,128055
3830,70.0,0.15507595,128378
3840,70.0,0.155435961,128723
3850,69.0,0.155799335,129065
3860,68.0,0.156172539,129396
3870,68.0,0.156547452,129729
3880,74.0,0.15690328,130057
3890,71.0,0.157288362,130389
3900,70.0,0.157670675,130726
3910,70.0,0.158018241,131045
3920,69.0,0.15837604,131385
3930,69.0,0.158729642,131710
3940,71.0,0.159091189,132047
3950,69.0,0.159447535,132384
3960,71.0,0.15979993,132712
3970,68.0,0.160153762,133045
3980,69.0,0.160507945,133383
3990,68.0,0.160866291,133725
4000,71.0,0.161225083,134059
4010,68.0,0.161591167,134389
4020,68.0,0.161955169,134726
4030,68.0,0.162365037,135060
4040,68.0,0.162739359,135386
4050,68.0,0.163108168,135713
4060,68.0,0.163480623,136043
4070,68.0,0.163848779,136375
4080,68.0,0.164215164,136714
4090,68.0,0.164578202,137048
4100,68.0,0.164939061,137376
4110,68.0,0.16529073,137707
4120,69.0,0.165674333,138038
4130,69.0,0.166037297,138376
4140,69.0,0.166398839,138708
4150,70.0,0.166750953,139047
4160,70.0,0.167101462,139387
4170,70.0,0.167457932,139727
4180,70.0,0.167813037,140070
4190,69.0,0.16816103,140405
4200,69.0,0.168512546,140748
4210,69.0,0.168857758,141082
4220,69.0,0.169204442,141414
4230,68.0,0.169556455,141762
4240,68.0,0.169903762,142089
4250,69.0,0.170301047,142417
4260,69.0,0.17065717,142759
4270,69.0,0.171009577,143100
4280,69.0,0.171351309,143424
4290,68.0,0.171704509,143748
4300,70.0,0.172059521,144083
4310,71.0,0.172409312,144422
4320,71.0,0.172759784,144770
4330,71.0,0.173112745,145104
4340,70.0,0.173462962,145439
4350,70.0,0.173820572,145776
4360,71.0,0.174179272,146105
4370,71.0,0.174530072,146444
4380,71.0,0.174879189,146780
4390,71.0,0.175223395,147101
4400,74.0,0.17557425,147442
4410,74.0,0.175923072,147777
4420,71.0,0.176269636,148113
4430,71.0,0.176618341,148437
4440,71.0,0.17696551,148769
4450,71.0,0.177305076,149093
4460,71.0,0.177653049,149433
4470,71.0,0.177999279,149767
4480,71.0,0.178345378,150095
4490,71.0,0.178696621,150437
4500,71.0,0.179067509,150778
4510,72.0,0.17941986,151121
4520,72.0,0.179764973,151455
4530,72.0,0.1801125,151788
4540,72.0,0.180458152,152120
4550,72.0,0.180808255,152454
4560,73.0,0.18116142,152802
4570,73.0,0.181504023,153141
4580,73.0,0.181855584,153486
4590,73.0,0.182199784,153821
4600,73.0,0.182545169,154152
4610,73.0,0.182922316,154488
4620,73.0,0.183280486,154830
4630,73.0,0.183630073,155160
4640,73.0,0.18398518,155489
4650,72.0,0.184330236,155823
4660,73.0,0.184675841,156159
4670,73.0,0.185019145,156495
4680,73.0,0.185367596,156831
4690,78.0,0.18571922,157176
4700,77.0,0.186069944,157516
4710,74.0,0.186417575,157838
4720,77.0,0.186770055,158178
4730,74.0,0.187127756,158509
4740,74.0,0.187478774,158845
4750,76.0,0.187836599,159183
4760,74.0,0.188198519,159519
4770,76.0,0.188552185,159844
4780,74.0,0.188900744,160165
4790,73.0,0.189249699,160491
4800,73.0,0.189590596,160815
4810,75.0,0.189939676,161145
4820,75.0,0.190285709,161467
4830,74.0,0.190649849,161801
4840,75.0,0.191001225,162129
4850,75.0,0.191380534,162478
4860,75.0,0.191740103,162821
4870,76.0,0.192091556,163156
4880,74.0,0.192446923,163493
4890,74.0,0.19281403,163835
4900,74.0,0.193171686,164165
4910,75.0,0.193518646,164493
4920,75.0,0.193885998,164834
4930,75.0,0.194239494,165162
4940,76.0,0.194602241,165495
4950,75.0,0.194968702,165839
4960,77.0,0.195437543,166164
4970,75.0,0.1958145,166488
4980,76.0,0.196183674,166826
4990,77.0,0.196618423,167157
5000,76.0,0.19702452,167497
