iterations,fitness,time,fevals
0,521.0,0.001987295,291
10,521.0,0.00374128,478
20,521.0,0.005408815,670
30,519.0,0.006945743,850
40,521.0,0.008517394,1037
50,523.0,0.010084765,1226
60,524.0,0.011613524,1411
70,528.0,0.01310937,1599
80,534.0,0.014579582,1783
90,526.0,0.015996323,1964
100,538.0,0.017405793,2151
110,538.0,0.018810276,2340
120,532.0,0.020212091,2525
130,532.0,0.021630408,2711
140,526.0,0.023029066,2892
150,530.0,0.024421497,3081
160,528.0,0.025813213,3267
170,526.0,0.027291395,3455
180,532.0,0.028712023,3642
190,532.0,0.030109318,3831
200,530.0,0.031516873,4019
210,530.0,0.032927148,4210
220,532.0,0.034329532,4398
230,534.0,0.035715138,4583
240,536.0,0.037135892,4770
250,534.0,0.038539192,4955
260,536.0,0.039929885,5144
270,534.0,0.041337323,5331
280,536.0,0.042954644,5513
290,536.0,0.044495259,5697
300,536.0,0.045958781,5879
