iterations,fitness,time,fevals
0,540.0,0.007676485,661
10,537.0,0.015588953,1246
20,538.0,0.022945187,1838
30,535.0,0.030607022,2429
40,537.0,0.036922769,3006
50,549.0,0.044298043,3578
60,545.0,0.051092384,4148
70,551.0,0.058557363,4718
80,555.0,0.064475876,5285
90,555.0,0.072253628,5856
100,549.0,0.07510444,6452
110,547.0,0.077196698,7020
120,541.0,0.079359038,7612
130,545.0,0.081460725,8186
140,545.0,0.083955971,8761
150,549.0,0.086441002,9361
160,535.0,0.088615014,9924
170,537.0,0.090894091,10478
180,541.0,0.093430618,11046
190,535.0,0.095806052,11622
200,539.0,0.097895423,12202
210,543.0,0.10086748,12796
220,545.0,0.102951952,13387
230,539.0,0.105027656,13964
240,541.0,0.107334621,14533
250,545.0,0.109623476,15122
260,547.0,0.112118479,15691
270,549.0,0.114247172,16267
280,555.0,0.117115593,16859
290,550.0,0.119230936,17436
300,552.0,0.121365685,18022
