iterations,fitness,time,fevals
0,539.0,0.002644134,437
10,539.0,0.004861848,771
20,539.0,0.006754349,1105
30,539.0,0.008453017,1438
40,543.0,0.010139629,1772
50,549.0,0.011844326,2116
60,551.0,0.013491092,2444
70,543.0,0.015257576,2782
80,545.0,0.017016036,3110
90,549.0,0.018734278,3446
100,547.0,0.020433136,3781
110,547.0,0.025424448,4114
120,547.0,0.02716518,4445
130,547.0,0.028841929,4778
140,543.0,0.030511287,5108
150,547.0,0.032186941,5434
160,543.0,0.033856716,5774
170,545.0,0.035718831,6102
180,545.0,0.037499033,6429
190,545.0,0.039166011,6754
200,545.0,0.040859691,7087
210,545.0,0.042787335,7426
220,545.0,0.044559999,7755
230,545.0,0.046350585,8082
240,545.0,0.048017148,8412
250,549.0,0.049715194,8740
260,547.0,0.051405641,9077
270,547.0,0.053249795,9396
280,549.0,0.054944694,9726
290,551.0,0.056613428,10056
300,555.0,0.058261011,10377
