iterations,fitness,time,fevals
0,511.0,0.001553107,11
10,511.0,0.003050034,21
20,511.0,0.004500921,31
30,515.0,0.005950479,41
40,515.0,0.007436711,51
50,515.0,0.00886296,61
60,517.0,0.00957755,71
70,517.0,0.010199721,81
80,521.0,0.010673204,91
90,527.0,0.011027777,101
100,527.0,0.011356404,111
110,527.0,0.011748458,121
120,529.0,0.012139204,131
130,531.0,0.012502971,141
140,533.0,0.012964802,151
150,535.0,0.014188828,161
160,537.0,0.014520357,171
170,539.0,0.014703466,181
180,539.0,0.014862371,191
190,539.0,0.015015347,201
200,541.0,0.015202178,211
210,543.0,0.015373548,221
220,545.0,0.015426472,231
230,549.0,0.015475546,241
240,555.0,0.015523294,251
250,559.0,0.015577964,261
260,561.0,0.0156305,271
270,561.0,0.015695163,281
280,563.0,0.015751818,291
290,563.0,0.015799611,301
300,563.0,0.01585073,311
