iterations,fitness,time,fevals
0,530.0,0.00461027,801
10,534.0,0.008496204,1502
20,527.0,0.013589676,2195
30,523.0,0.017444418,2904
40,527.0,0.020874982,3592
50,527.0,0.024112756,4294
60,532.0,0.027260605,4976
70,540.0,0.030490277,5670
80,540.0,0.033948242,6369
90,534.0,0.037204573,7062
100,536.0,0.04127457,7757
110,540.0,0.044439047,8454
120,550.0,0.047841262,9148
130,544.0,0.051625417,9855
140,550.0,0.054972772,10548
150,544.0,0.05795224,11243
160,552.0,0.060997167,11940
170,544.0,0.064364485,12620
180,538.0,0.067346876,13330
190,530.0,0.07128145,14024
200,540.0,0.074390098,14722
210,536.0,0.077669555,15397
220,542.0,0.080495373,16078
230,542.0,0.084136262,16785
240,540.0,0.086983574,17474
250,546.0,0.090934328,18183
260,540.0,0.095564418,18885
270,540.0,0.098962499,19581
280,542.0,0.101835676,20286
290,544.0,0.104599179,20989
300,542.0,0.107347792,21677
