iterations,fitness,time,fevals
0,524.0,0.002527685,436
10,527.0,0.004657707,757
20,526.0,0.006596152,1090
30,526.0,0.008455404,1421
40,525.0,0.010145679,1751
50,527.0,0.011813104,2083
60,529.0,0.013507059,2418
70,526.0,0.01515851,2767
80,529.0,0.016839892,3104
90,527.0,0.018496541,3433
100,525.0,0.020156118,3767
110,528.0,0.021841673,4110
120,526.0,0.023474907,4444
130,523.0,0.025133114,4776
140,525.0,0.026767453,5108
150,525.0,0.02845882,5446
160,527.0,0.03011255,5779
170,525.0,0.031766354,6114
180,527.0,0.033427466,6448
190,520.0,0.035072295,6792
200,523.0,0.040300048,7123
210,527.0,0.042053475,7451
220,526.0,0.043832336,7791
230,520.0,0.045732681,8122
240,522.0,0.047603289,8459
250,523.0,0.049237024,8777
260,521.0,0.050977216,9111
270,519.0,0.052785016,9448
280,520.0,0.054473131,9784
290,519.0,0.05610812,10118
300,521.0,0.057834838,10447
