iterations,fitness,time,fevals
0,545.0,0.004582096,777
10,547.0,0.008733005,1483
20,553.0,0.012947831,2192
30,563.0,0.016231706,2890
40,556.0,0.019513063,3587
50,561.0,0.022592019,4284
60,553.0,0.025828388,4981
70,555.0,0.028919011,5679
80,557.0,0.031850225,6380
90,555.0,0.034766684,7076
100,569.0,0.037634754,7767
110,563.0,0.040610082,8472
120,565.0,0.04486966,9155
130,561.0,0.048937768,9864
140,561.0,0.052445225,10560
150,563.0,0.055498408,11265
160,563.0,0.058425989,11964
170,563.0,0.061260115,12666
180,565.0,0.064140288,13366
190,565.0,0.067164239,14057
200,569.0,0.070234942,14763
210,563.0,0.073992475,15460
220,565.0,0.077033204,16172
230,561.0,0.079971413,16876
240,569.0,0.082937564,17567
250,564.0,0.086129044,18255
260,566.0,0.094135304,18942
270,566.0,0.097286169,19641
280,570.0,0.100138412,20326
290,568.0,0.10388108,21018
300,572.0,0.106966125,21717
