iterations,fitness,time,fevals
0,531.0,0.007733882,547
10,522.0,0.014422655,995
20,519.0,0.021388783,1456
30,521.0,0.027994962,1913
40,524.0,0.034010474,2366
50,523.0,0.040767843,2820
60,524.0,0.047045895,3283
70,525.0,0.05397802,3735
80,520.0,0.059896826,4194
90,519.0,0.06679338,4640
100,521.0,0.068732177,5089
110,527.0,0.071397217,5548
120,523.0,0.073373902,6012
130,527.0,0.075493281,6463
140,531.0,0.077498367,6919
150,533.0,0.079350752,7368
160,531.0,0.082018636,7821
170,535.0,0.083941947,8283
180,539.0,0.085876999,8739
190,537.0,0.087773346,9198
200,535.0,0.08987706,9646
210,537.0,0.092056946,10100
220,541.0,0.0940476,10558
230,527.0,0.096820957,11020
240,527.0,0.098741945,11480
250,527.0,0.100697645,11941
260,529.0,0.102715307,12404
270,535.0,0.104674583,12868
280,537.0,0.106539774,13309
290,537.0,0.108449228,13775
300,523.0,0.110297568,14231
