iterations,fitness,time,fevals
0,561.0,10.122506335,1000
10,583.0,19.859489992,2100
20,624.0,28.865619359,3200
30,670.0,37.097804845,4300
40,700.0,44.95492857,5400
50,720.0,52.42459927,6500
60,732.0,59.608847381,7600
70,740.0,66.604111807,8700
80,744.0,73.523462446,9800
90,742.0,80.525915768,10900
100,740.0,87.290783581,12000
110,742.0,93.971418627,13100
120,742.0,100.722952958,14200
130,740.0,107.546847391,15300
140,742.0,114.347528186,16400
150,740.0,121.042423114,17500
160,742.0,127.722150456,18600
170,744.0,134.555272209,19700
180,742.0,141.308100397,20800
190,740.0,148.018481195,21900
200,742.0,154.816731384,23000
210,742.0,161.521253922,24100
220,740.0,168.306709233,25200
230,742.0,175.041177936,26300
240,740.0,181.77726541,27400
250,742.0,188.412570407,28500
260,742.0,195.165118729,29600
270,742.0,201.875781582,30700
280,742.0,208.63058976,31800
290,744.0,215.266532516,32900
300,742.0,221.959990603,34000
