iterations,fitness,time,fevals
0,522.0,0.001970921,288
10,514.0,0.003796077,475
20,520.0,0.005387102,661
30,532.0,0.006921321,847
40,532.0,0.00840979,1032
50,532.0,0.009875235,1210
60,535.0,0.011357102,1398
70,537.0,0.012914026,1581
80,543.0,0.014391614,1765
90,543.0,0.015820228,1948
100,545.0,0.017236978,2140
110,543.0,0.018701314,2327
120,547.0,0.020138945,2509
130,545.0,0.021643435,2696
140,541.0,0.023051666,2878
150,541.0,0.024497232,3065
160,543.0,0.025988779,3250
170,543.0,0.02775299,3439
180,543.0,0.029268412,3622
190,545.0,0.030770248,3806
200,545.0,0.032211556,3989
210,543.0,0.033787404,4177
220,543.0,0.035197534,4368
230,543.0,0.036634533,4548
240,543.0,0.038123578,4738
250,543.0,0.039604884,4917
260,543.0,0.041047885,5102
270,541.0,0.042486897,5294
280,539.0,0.043915003,5483
290,541.0,0.045374379,5677
300,543.0,0.046728569,5854
