,2,5,10,15,20,25,30,35,40
GMM,0.776886035313,0.744783306581,0.762439807384,0.784911717496,0.783306581059,0.813804173355,0.820224719101,0.826645264848,0.829855537721
Kmeans,0.776886035313,0.727126805778,0.760834670947,0.796147672552,0.810593900482,0.804173354735,0.812199036918,0.812199036918,0.812199036918
