iter,time,reward,steps,convergence
1,0.0016736440000002517,-228.42,200.0,89.20099
2,0.003135881999998702,-230.4,200.0,79.40097473684077
3,0.004357382999998549,-231.3,200.0,70.50097473684076
4,0.0056722479999979925,-222.54,200.0,60.70087473684076
5,0.006907762999997402,-203.48,200.0,51.11603174599685
6,0.008457274999996045,-227.1,200.0,41.25741518451177
7,0.009695401999994857,-222.58,200.0,31.85840518451177
8,0.01090340399999512,-225.1,200.0,22.253145810447087
9,0.012146262999994661,-216.28,200.0,12.850901946683612
10,0.013351391999993467,-227.42,200.0,2.9824732249471766
11,0.014514916999994298,-267.44,200.0,2.981178082715976
12,0.015736892999994367,-228.68,200.0,3.180644304787978
13,0.01692710099999495,-229.04,200.0,2.283386522099703
14,0.018402330999995442,-488.7,200.0,2.6854963414876094
15,0.019450503999994595,-229.3,200.0,2.387760878783376
16,0.020431206999994345,-575.42,200.0,2.4458381871781683
17,0.021514106999992677,-254.0,200.0,2.4461736071781686
18,0.022444631999992026,-250.36,200.0,2.250855188758249
19,0.023336281999991826,-204.22,200.0,2.245844449426502
20,0.024285496999992162,-299.88,200.0,3.114273171162939
21,0.025495781999993028,-363.92,200.0,3.2613481066186396
22,0.026474604999993545,-369.14,200.0,2.9857519451206422
23,0.027371660999992997,-220.16,200.0,3.1821152871829823
24,0.0286585969999944,-206.3,200.0,2.787648451392065
25,0.029650349999995385,-200.74,200.0,3.283504230283665
26,0.030604485999994324,-215.62,200.0,3.28299633731071
27,0.031511820999995166,-218.04,200.0,3.214120308895096
28,0.032448121999994584,-211.78,200.0,3.35302638679635
29,0.033350926999993646,-281.46,200.0,3.3769122320216973
30,0.03424812699999258,-207.12,200.0,2.979838702746561
31,0.03517343599999201,-354.8,200.0,2.8318225060765263
32,0.036074684999992,-228.86,200.0,3.1069717273698396
33,0.037376841999991584,-214.84,200.0,3.016917772129888
34,0.03828676899999195,-310.96,200.0,3.4350570251113686
35,0.03921407099999108,-274.4,200.0,3.1826222203363996
36,0.040110427999991316,-241.64,200.0,3.893669366399643
37,0.041009723999991365,-248.4,200.0,3.7995243701798613
38,0.04235810499999282,-219.62,200.0,3.57550644423761
39,0.04342589399999319,-235.6,189.76,3.452022017437585
40,0.0443526389999942,-217.22,197.86,3.0615452627341737
41,0.045280241999993365,-221.92,196.94,3.173699048539995
42,0.0462263759999928,-218.06,198.86,2.995836909055069
43,0.04715595499999381,-229.1,200.0,2.898230387996079
44,0.04805227099999421,-494.8,200.0,2.470810484337038
45,0.048990014999994,-205.92,200.0,2.228592082492118
46,0.049929479999994086,-220.36,200.0,1.6489671459683926
47,0.050880409999994214,-226.68,200.0,1.3212544875487215
48,0.05182255599999408,-230.54,200.0,1.4342327715309149
49,0.052717489999993816,-201.28,200.0,1.5408375963706091
50,0.05402173099999352,-212.46,200.0,2.0844878803491573
51,0.05564175199999433,-229.26,200.0,2.372594205410768
52,0.0567208859999937,-200.92,200.0,2.696027128449718
53,0.05767018499999388,-201.56,200.0,2.682818727829674
54,0.05866676099999424,-207.32,200.0,2.9876485005980635
55,0.05962099199999393,-206.2,200.0,3.001406634606649
56,0.060552737999993056,-212.88,200.0,2.823234483550602
57,0.061913563999993926,-206.56,200.0,3.4031327466056687
58,0.0628538709999944,-206.4,200.0,3.389162199919427
59,0.06378468799999482,-206.2,200.0,2.9873893642407823
60,0.0647440919999962,-218.2,200.0,2.491935547743431
61,0.06511850299999544,-201.38,200.0,2.097658315326043
62,0.06606148599999528,-225.1,200.0,1.7748696906835177
63,0.0670032019999951,-221.2,200.0,1.8075984341493085
64,0.06794705199999562,-203.8,200.0,1.5096570696567864
65,0.06873158399999646,-203.56,200.0,1.579835688379254
66,0.06983300499999778,-215.74,200.0,1.9346093151882464
67,0.0707330889999973,-211.14,200.0,1.849225455362366
68,0.07135845899999715,-222.04,200.0,2.2417014807259728
69,0.07232802499999735,-219.74,200.0,2.2474459368983135
70,0.07323126099999833,-205.44,200.0,2.1946903317542747
71,0.07412631599999742,-224.2,200.0,2.589160904125741
72,0.07504519499999773,-210.44,200.0,3.0289476118532987
73,0.0755964779999978,-211.28,200.0,3.0072730445473703
74,0.07650082999999697,-204.76,200.0,2.9877173455149917
75,0.07743510799999598,-206.02,200.0,2.982493072479841
76,0.07835948699999662,-209.66,200.0,2.588161094313985
77,0.07933815999999716,-200.52,195.94,2.615365443889085
78,0.08035001799999719,-268.98,200.0,2.4777936979420505
79,0.08130163499999732,-202.9,200.0,2.473909990851832
80,0.08218905099999674,-199.9,200.0,2.4657571403228733
81,0.08336930799999642,-245.4,200.0,1.9766702792068689
82,0.08430976199999662,-229.44,199.08,1.5324940758917507
83,0.08500936399999759,-236.04,200.0,1.5327783398367898
84,0.08596359499999906,-240.58,200.0,1.5442585228389927
85,0.08715930599999844,-211.84,200.0,1.779640741224668
86,0.08815312299999967,-225.38,200.0,1.7755479519876196
87,0.08909675900000025,-214.26,200.0,1.958586691120529
88,0.09008475800000149,-205.7,200.0,1.6436709682354447
89,0.09105537300000144,-831.24,200.0,1.648843931641269
90,0.09198197100000094,-229.64,200.0,1.6460245361713501
91,0.09287092700000166,-208.88,200.0,1.7622525305829526
92,0.09352424400000103,-226.14,200.0,2.0796396639843366
93,0.09480323400000046,-208.86,200.0,2.578873756016586
94,0.0957250080000005,-205.9,200.0,2.5586850528263025
95,0.09668123800000039,-201.02,200.0,2.6373654257442247
96,0.09727208300000001,-208.3,200.0,3.139947417324493
97,0.09816574000000067,-215.52,200.0,2.7588169438670973
98,0.09906429100000125,-224.1,200.0,3.204024984279724
99,0.10025046800000226,-200.04,199.8,3.1100917893813773
100,0.1013183580000021,-216.9,199.02,3.5482600188531124
101,0.10157577100000204,-209.76,200.0,3.5382494192196376
102,0.10254447500000374,-259.48,200.0,3.428716661745331
103,0.10287066800000488,-201.94,199.66,3.3404932320187406
104,0.10384613200000459,-225.46,200.0,3.8019635972070853
105,0.10418328000000443,-204.76,200.0,3.9419284226022513
106,0.10514155000000436,-204.42,200.0,4.290738456961922
107,0.10570585700000379,-202.08,200.0,4.2546973889223505
108,0.1061837500000049,-193.48,176.6,3.852812882893153
109,0.10708742600000498,-195.94,195.38,4.315562857719174
110,0.10800226500000498,-193.62,196.7,3.7903980828719335
111,0.10917353900000393,-212.88,200.0,3.9242871134985053
112,0.11007093500000487,-220.32,200.0,3.915444529206952
113,0.1104469990000041,-217.84,200.0,3.5128725656830824
114,0.11132138500000366,-207.2,200.0,3.225738601334689
115,0.11219478100000302,-222.88,199.68,2.7717034492016883
116,0.11308983900000236,-204.58,200.0,2.02005555143247
117,0.11429610600000295,-199.86,188.14,2.624076764047308
118,0.11457355300000316,-200.98,200.0,2.619109218335614
119,0.1154826590000031,-231.4,200.0,2.9089022313184425
120,0.11635797900000178,-216.76,200.0,3.396996623354977
121,0.11763398700000138,-205.62,200.0,3.6443125620612897
122,0.11808720800000039,-241.74,200.0,3.4434512356238174
123,0.11893695800000081,-199.02,192.72,3.622456641986436
124,0.11986324300000106,-207.14,200.0,3.445247152223037
125,0.12086865100000033,-200.44,195.1,3.977401527325111
126,0.12178540600000076,-210.0,200.0,4.450776082732046
127,0.12269003099999942,-204.22,200.0,3.6311242376695683
128,0.12360309099999967,-246.18,197.16,4.110441675577055
129,0.12451117300000014,-188.48,189.34,3.644379340609832
130,0.12491764299999986,-204.82,200.0,3.4970312609568817
131,0.1270084029999996,-200.98,200.0,3.518645409816382
132,0.12880433499999988,-189.2,193.02,3.598771864284329
133,0.13104582599999937,-203.02,199.18,4.039777071135039
134,0.1315883499999977,-195.26,196.4,4.317098857186301
135,0.13429490699999747,-205.72,199.62,3.802579522249394
136,0.13465098399999853,-162.94,173.82,3.778139994674247
137,0.13673636799999755,-178.12,187.12,4.155462580498321
138,0.13818598799999826,-192.28,195.82,3.7046158710609296
139,0.14029000899999744,-200.12,200.0,3.9334465434538233
140,0.14254943699999778,-198.56,191.34,3.960584060500588
141,0.14475172999999764,-111.48,138.94,3.7835563530111207
142,0.14515006799999775,-200.34,193.28,3.6135961658739673
143,0.145502926999999,-191.2,193.44,2.979540384655374
144,0.14787239299999833,-206.56,191.38,3.401990533289195
145,0.1487952409999984,-208.72,200.0,3.7855194013259394
146,0.14953776499999805,-142.74,158.04,3.3239111525225993
147,0.1498440119999973,-106.52,130.84,3.411123019147891
148,0.15186919499999796,-195.5,196.2,3.4080568826292703
149,0.1547907259999981,-208.2,195.46,2.9773047776444894
150,0.1555006809999977,-91.88,123.56,3.2271122008775635
151,0.15601353399999773,-195.3,197.7,3.441663873046062
152,0.1564245989999975,-161.7,173.62,3.913711544124781
153,0.15692598999999774,-170.58,180.16,3.9256249922635975
154,0.1571907099999983,-196.56,198.46,3.8688502631576656
155,0.1581133589999979,-195.0,188.0,3.4834526151563048
156,0.15824334299999876,-200.7,198.06,3.5291384336713065
157,0.15921555899999973,-66.64,104.58,3.1036059469228534
158,0.15969632200000028,-30.38,78.74,3.0885105542844835
159,0.1607137269999992,-186.86,190.04,3.230600868298707
160,0.16103569299999876,-189.7,193.9,3.1309976819479606
161,0.16138753599999944,-168.82,179.9,2.703115209943881
162,0.16194352099999954,-159.22,175.8,2.3523141867861614
163,0.1620807329999998,-193.46,196.8,2.3603057571759196
164,0.16227907999999935,-230.7,197.98,1.780394411696322
165,0.16289371499999916,-140.86,159.52,1.7635262616175946
166,0.16311420299999924,-199.26,196.8,1.7531300269249517
167,0.16360972699999898,-84.72,116.38,2.365299713884487
168,0.1646193759999992,-212.1,194.06,2.5691264323138516
169,0.16518979700000003,-124.64,140.82,2.7969130822454282
170,0.165398025,-93.86,127.56,2.762560033784622
171,0.16576690399999983,-44.58,86.54,3.0382486601905017
172,0.1659025819999993,-177.7,186.04,3.2060531938210572
173,0.16614345099999994,-199.72,200.0,3.49025347423218
174,0.16712413000000126,-132.36,150.48,4.033675848364551
175,0.16726227700000074,-189.48,178.84,4.043683839928278
176,0.16766143600000127,-188.02,190.02,4.589260751568658
177,0.16791783800000104,-143.82,164.4,3.961620911346852
178,0.16811323300000147,-170.86,184.08,4.114866050398132
179,0.1682825880000003,-197.22,196.06,4.1798953010449456
180,0.16862444200000049,-171.6,179.46,3.906396839605607
181,0.16962327700000124,-207.3,198.94,3.8836777816159733
182,0.16990075500000046,-136.36,154.1,3.636245199767754
183,0.17012603400000081,-183.3,187.62,3.6450322737630314
184,0.17040628300000193,-177.1,165.76,3.09483276712604
185,0.1713260570000017,-175.74,183.56,3.1058012632397594
186,0.1721258210000034,-83.12,105.32,2.996382524939676
187,0.17238366000000482,-186.8,188.32,3.1445794767289215
188,0.17258223700000563,-154.94,172.08,3.2345664491642188
189,0.1727587920000051,-70.74,103.26,3.4160053676467284
190,0.17288171000000574,-2.02,56.22,4.010429834842151
191,0.173044203000007,-111.04,131.66,4.2321463343786245
192,0.17329096900000707,12.44,34.2,4.8022448203343275
193,0.17344894800000787,3.96,48.28,4.648856649757343
194,0.17360602300000672,-156.18,167.08,4.87502385413173
195,0.17379954900000705,-38.0,79.0,4.909813988724842
196,0.17392809000000575,-18.46,57.12,4.437786012446264
197,0.17405522500000714,-11.8,49.82,4.5966401635166125
198,0.17416900300000826,-61.42,90.64,4.789335849128615
199,0.17432563500000775,18.86,28.3,4.8304031906747635
200,0.1748273090000083,22.34,29.14,4.54456087436567
201,0.17498510300000802,0.06,47.1,4.264987785488048
202,0.17509800100000916,25.34,29.44,3.9126272618364006
203,0.17523692500000898,22.84,28.06,3.8887029067715027
204,0.17535050300000954,18.18,29.78,3.9687743295703433
205,0.17550410200000854,20.04,29.78,4.073151247588372
206,0.17564092900000894,9.62,35.8,4.664945484221948
207,0.17576046500000864,20.4,30.94,5.08944225513537
208,0.17586642200000924,23.94,30.62,4.907657706155028
209,0.17601053800001054,11.16,34.5,4.7819365189927945
210,0.17618891400001147,8.32,37.48,4.595500573069258
211,0.1763252680000118,17.08,32.64,4.506571751626161
212,0.176448794000013,17.48,34.72,4.9294824440384755
213,0.1765687130000142,19.62,29.8,5.259976995545067
214,0.17746869700001433,16.12,32.58,5.307997105215298
215,0.17759351500001408,13.44,35.76,5.429275425510979
216,0.17772475000001364,16.42,29.08,5.2952972693480245
217,0.17784129000001236,20.2,31.42,4.997329032412227
218,0.17794379300001317,18.18,31.56,5.093206413988252
219,0.1780569900000124,19.12,31.38,5.011855876108813
220,0.17817568600001188,12.42,33.28,5.43847437313454
221,0.17829239600001046,13.44,34.2,5.819921078779936
222,0.17843220000001025,22.08,29.62,5.412783950690062
223,0.17854500300001064,17.52,28.16,5.472396002270536
224,0.17866018300001052,13.9,35.16,5.593117439933768
225,0.17876875100001044,23.3,28.28,5.331464873441793
226,0.17888415800000956,14.8,33.72,4.933162818389593
227,0.1789800950000089,20.68,31.08,4.830916024581066
228,0.17907657400000865,14.62,33.5,4.620151503987254
229,0.17919692800000853,23.36,29.1,4.604577075152606
230,0.1793096690000091,15.44,36.96,4.174305940455834
231,0.1794146180000098,21.24,33.22,3.7016527659058687
232,0.1795117880000099,17.68,29.74,3.972612418114321
233,0.17961548200000976,22.08,32.8,3.513938033146016
234,0.1797361280000107,18.48,28.36,3.429341750743903
235,0.1798677070000103,22.56,27.68,3.789048565791288
236,0.17995214900001066,11.76,31.86,4.207361688318338
237,0.18004142200001105,22.36,29.44,4.329986249026135
238,0.18013637500001067,15.68,33.74,4.442162408499062
239,0.18022844800001003,16.34,32.14,4.260381702459278
240,0.18034758600001055,11.52,36.6,4.576851246802304
241,0.18047476900001058,27.52,27.18,5.059549023942917
242,0.18059535800001214,23.3,28.36,5.053984492711513
243,0.18073575200001102,14.84,30.36,5.384668900516305
244,0.1809007830000109,25.5,30.1,5.795296235670621
245,0.18097978300001039,18.74,29.58,5.730947688070357
246,0.18106451500000986,17.18,31.08,5.662591314939289
247,0.18116045300000927,19.88,28.92,5.611854264149619
248,0.1812675650000095,21.78,28.54,5.489903418116528
249,0.18140307700000946,22.68,28.08,5.7264054394372685
250,0.18150286600000953,14.54,29.66,5.60913217242488
251,0.1816125270000093,26.66,28.7,5.509234198517139
252,0.1817325020000098,21.62,29.54,5.244943006431561
253,0.18184395800001063,23.6,29.56,5.183236029919199
254,0.18193044400001135,21.78,28.98,4.745405078977976
255,0.18203967400001098,19.34,29.2,4.832994979696844
256,0.18214656900001103,13.9,28.92,4.744508810947423
257,0.18233538100001034,25.96,28.2,4.730581582250786
258,0.18243898000000947,24.2,28.8,4.841416522282653
259,0.1825360720000102,20.68,29.42,4.819177812167737
260,0.18261216000001035,25.64,28.42,4.503704250422795
261,0.18270538000001046,20.88,30.02,4.665479421681927
262,0.18283352700001032,17.58,29.52,4.8497647444214165
263,0.18296672700000904,20.28,30.4,4.9865920198522655
264,0.18312244900000962,22.76,28.58,4.880906413032317
265,0.18322868100000989,22.4,28.9,5.05752777897604
266,0.18345210400000944,18.78,28.6,5.0020135678965465
267,0.183573957000009,14.78,30.04,5.256813013506864
268,0.18374025200000865,20.84,27.7,5.1665468068258535
269,0.18388125300000802,20.76,29.56,5.060262868517077
270,0.1840198080000075,17.92,30.24,5.332952775984032
271,0.18421350700000794,20.94,27.42,4.954545329107709
272,0.18431338000000785,21.72,28.88,4.814703470456896
273,0.18447789700000783,20.26,29.44,4.716797035545112
274,0.18459326700000744,17.38,29.82,4.9083421733716746
275,0.18473852500000731,16.74,29.3,4.567719753302812
276,0.18486498400000784,18.16,29.52,4.510262234812361
277,0.18518166400000702,23.58,29.96,4.153549769012775
278,0.1852949190000075,21.76,28.3,3.857964442001863
279,0.18545613200000766,28.22,27.72,3.8518252755195634
280,0.1856666270000087,22.8,28.2,3.804921822690511
281,0.18592272500000817,20.18,28.48,4.028800952830157
282,0.18607951600000838,22.66,29.0,4.354627669681884
283,0.18620020700000772,20.5,30.22,4.484891785764762
284,0.18631327300000677,23.54,28.34,4.208440653063937
285,0.18642316300000772,17.84,31.0,3.9680945362124893
286,0.18653868800000772,12.44,29.98,4.185816619591
287,0.18665736300000724,21.18,28.16,4.050642569618833
288,0.18677188600000605,25.48,28.9,4.465750213633674
289,0.18687720600000546,20.2,29.54,4.527855060291348
290,0.18703835000000524,25.2,28.14,4.629996173932162
291,0.1871309730000057,23.66,29.22,4.399675367437123
292,0.18726589800000681,21.16,28.36,4.210159629394094
293,0.18738037000000674,21.94,28.78,3.910170614808736
294,0.18758101900000668,19.68,29.3,4.043634967144798
295,0.1877530830000076,24.62,28.92,4.327899390246332
296,0.187858670000006,18.22,29.2,3.974336084290497
297,0.18794305400000688,23.96,29.38,4.0297491971897745
298,0.18808280800000787,27.64,28.26,3.8636980623519994
299,0.18818023100000758,23.04,28.7,4.092066263110728
300,0.18830988300000762,26.36,29.5,4.067028911373734
301,0.18843184300000715,18.1,29.26,4.112059980581137
302,0.18853372700000648,26.52,28.38,4.259323060682481
303,0.18865400200000515,24.58,28.78,4.438993704844441
304,0.18878006100000455,22.94,29.26,4.384610851314141
305,0.1889596060000045,27.62,27.88,4.325782872188083
306,0.18914590500000372,23.54,29.06,4.521920234274186
307,0.18927900900000338,21.56,28.54,4.56546334338809
308,0.1893750760000028,18.24,28.6,4.849593801173164
309,0.18953426500000248,23.6,28.72,4.5314050435235425
310,0.18977617100000366,19.76,29.0,4.382363849890536
311,0.1898881290000034,22.0,29.12,4.339448136780073
312,0.18997946100000362,21.32,28.32,4.106358405493933
313,0.19009430800000438,24.32,28.36,3.938700908603326
314,0.19018696700000426,19.0,29.36,3.9018882451035246
315,0.1902848390000038,21.42,30.5,3.916973760353686
316,0.19044658300000528,22.9,30.14,3.8572568643808416
317,0.19057130500000596,18.54,29.96,3.977925561841699
318,0.19067501700000555,15.4,28.84,3.657487870847342
319,0.19080490500000558,21.94,29.14,3.8688540544505985
320,0.19096812700000498,20.48,30.28,3.8644358367016496
321,0.19106836900000523,23.7,28.5,4.146981752264814
322,0.19117780500000592,18.7,29.12,3.8586754995628154
323,0.19133762700000645,13.3,29.34,3.84122867304713
324,0.19143708600000586,28.7,28.72,3.902345547627843
325,0.19154372500000605,15.16,29.98,3.821742442385026
326,0.19164311400000678,19.62,29.94,3.880102906930633
327,0.1917445900000061,23.32,28.96,3.7276350353759646
328,0.19184925100000605,23.92,28.4,3.7590457523847443
329,0.19196422900000698,22.8,28.2,3.6033339501887136
330,0.19206610200000718,23.48,28.98,3.738340061817516
331,0.19215994500000733,18.88,30.98,3.589105359507358
332,0.19224975300000757,19.72,28.42,3.911411377315013
333,0.1923815720000075,24.46,28.58,3.928781301482099
334,0.19249008100000609,23.68,28.6,3.844032151334298
335,0.19260345900000608,24.54,29.26,3.9221987559078038
336,0.19272124600000673,20.02,28.66,3.9077141214295246
337,0.1928828500000055,20.96,28.66,3.9426722678088866
338,0.19301680600000637,24.46,30.6,3.8422580468177983
339,0.19314003100000576,22.1,27.64,3.682022085072621
340,0.193250158000005,24.98,27.4,3.9100300930763767
341,0.19335438500000457,26.76,28.7,3.938288083228246
342,0.1934620670000058,18.14,29.6,4.017844377806644
343,0.19356719700000546,22.34,28.92,4.020641628511013
344,0.1937102470000056,17.14,30.04,3.970990359013163
345,0.1938492960000069,26.34,28.08,3.9848309852753276
346,0.19397359400000624,16.7,29.64,4.072070641209999
347,0.19408345700000673,17.92,29.14,4.292924525818537
348,0.19417347200000634,17.88,30.34,4.373946585804132
349,0.19424264800000657,28.9,28.48,4.269560970244394
350,0.1943646200000071,23.1,29.54,4.061758938697818
351,0.1945384120000071,24.78,29.66,3.8286122498059627
352,0.19464929800000697,17.06,30.04,3.8105014457791055
353,0.19478363300000723,21.08,29.54,3.895457036085722
354,0.19486955200000722,21.08,28.76,3.8108618397622265
355,0.19495294300000765,23.06,28.38,4.0169968859774565
356,0.1950473730000084,21.48,29.68,3.955828053910449
357,0.19514552300000787,21.58,28.96,3.696836367908864
358,0.19525381400000796,26.96,28.4,3.6147068258157753
359,0.19538427400000913,24.76,28.14,3.8738532823426666
360,0.19549839300000826,22.14,29.08,3.6927693001156827
361,0.195600745000009,22.8,28.68,3.8569906124244584
362,0.19568666500000909,25.1,28.74,3.7142802161084854
363,0.1966808440000083,20.96,29.14,3.986208729196897
364,0.19680370000000735,24.7,28.98,4.030319401804085
365,0.1969385070000076,22.0,26.94,3.7783196005035777
366,0.19703514100000774,26.26,27.86,3.708871676178427
367,0.19715232500000823,23.44,28.94,3.782226155779155
368,0.19728454600000767,16.86,29.4,3.529707043094663
369,0.1974126330000079,21.58,29.22,3.3391814533635893
370,0.1975176930000071,18.24,28.68,3.3587084778815552
371,0.1976085810000061,26.84,27.98,3.2864687091695877
372,0.19769651900000618,21.9,28.2,3.043814869105757
373,0.19778666600000605,19.38,29.88,2.56620374874856
374,0.19786848200000762,17.86,29.06,3.0089409066485193
375,0.1979735680000072,25.66,29.48,2.999419880897995
376,0.1981157790000072,13.44,29.74,2.7596589143564656
377,0.19824899400000717,21.18,28.5,2.7516312487091987
378,0.19844334100000793,17.52,29.44,2.965755099511498
379,0.19855898900000923,20.38,28.88,3.176157124263635
380,0.1986656040000092,21.06,29.26,3.114840499322116
381,0.19875616200000756,22.98,28.54,3.133782114397691
382,0.1988408650000082,23.02,29.04,3.743185773925444
383,0.19892557500000763,21.06,28.94,4.162673007521823
384,0.1990313920000073,21.34,29.6,3.8293159350433528
385,0.19911306500000592,25.08,28.86,3.8430282588426947
386,0.19922031600000523,26.0,28.26,3.992806905108128
387,0.19932535600000456,23.18,29.36,3.9553426171193005
388,0.19942774500000304,22.76,29.02,3.9752373587740415
389,0.19952993000000419,19.98,28.42,4.06184595340296
390,0.19964330200000546,25.64,29.1,3.862802402607374
391,0.19975184000000468,21.52,28.36,3.8220680518586
392,0.19984139900000386,20.24,28.66,3.462256720941666
393,0.19995104600000424,18.04,29.38,2.9652483123497033
394,0.200113168000005,20.38,30.12,2.8883701282828627
395,0.20024343300000602,20.12,28.46,2.9994877381001883
396,0.20035841500000728,19.68,29.3,3.152831797563734
397,0.2004717860000067,24.48,27.5,3.2874379959662354
398,0.20053923500000792,21.1,28.96,3.1191760093169685
399,0.2006247390000091,25.56,28.56,2.951058724606594
400,0.20077171400000893,22.52,28.86,3.170188024608129
401,0.20089836500000935,22.66,29.62,3.3637675154122078
402,0.20098924500000948,20.08,30.32,3.1523155872307838
403,0.2010677090000108,19.58,27.88,3.677902366077762
404,0.2012057420000115,15.6,28.68,3.895079050748104
405,0.20130207500001163,23.08,28.8,3.640471564344651
406,0.2014070020000105,20.08,28.46,3.731263009571557
407,0.20148906800001143,16.3,29.42,3.813312161337268
408,0.20159175000001284,21.82,28.2,3.8120856379653825
409,0.20173550800001294,15.52,29.58,3.654870396946561
410,0.20188111600001335,24.64,28.62,3.5902622717986334
411,0.20198499900001465,13.58,29.82,3.3393057751313946
412,0.20213125000001497,25.06,28.48,3.6747564868545814
413,0.2022603750000158,12.38,29.94,3.3265547908568736
414,0.2024008290000161,22.34,29.54,3.185246371145966
415,0.20256405600001592,16.24,29.16,3.361560485340635
416,0.20271129500001628,21.86,29.08,3.525289923896449
417,0.20282648200001674,23.28,29.76,3.43908408530097
418,0.20297673500001778,20.42,29.0,3.488436487497597
419,0.20306537400001723,24.18,28.68,3.3274360328692154
420,0.2031632390000162,23.66,28.66,3.371833650707665
421,0.20326444700001645,22.58,30.46,3.529055766052079
422,0.203356749000017,19.76,28.86,3.2089421100547932
423,0.20346950000001662,17.24,30.8,3.187801980819599
424,0.20355642400001628,21.38,28.94,2.979016731104345
425,0.20364790200001615,22.88,29.1,2.777733845227574
426,0.20374497000001668,14.32,29.7,2.3485660508477197
427,0.20384482100001655,26.5,28.06,2.4148113854590383
428,0.2039634790000182,16.16,28.68,2.7425741936485593
429,0.2040704710000174,17.2,28.88,3.0947973626314584
430,0.20419150700001687,20.08,28.32,2.903323351032145
431,0.20428534200001636,21.9,28.56,2.542203787130063
432,0.20436239200001616,19.98,29.18,3.051679864668206
433,0.20446083200001652,26.18,28.6,3.073803760346087
434,0.20456868700001607,21.44,28.98,3.170562811043263
435,0.2046588550000159,23.56,28.42,3.2802594200896564
436,0.20474875100001633,16.48,29.2,3.4489040386930596
437,0.20484406900001595,23.8,28.92,3.192895189388314
438,0.20493211600001615,26.02,29.26,3.1863424507137
439,0.2050638400000171,28.56,28.72,2.8434942846939144
440,0.20513756500001712,22.14,28.14,2.8452319046938195
441,0.20527604300001734,19.5,30.38,2.9357765155557893
442,0.20537219000001627,17.9,29.92,2.463671078556936
443,0.20546699900001641,20.54,28.98,2.3379026621348045
444,0.20555183200001537,26.08,28.22,2.4168847242175806
445,0.2056495920000163,22.18,30.1,2.584788068840072
446,0.20577002900001595,25.7,26.04,2.7112374199349545
447,0.20585211900001532,24.94,26.36,3.066975262309726
448,0.20594603300001602,24.06,26.74,2.7551150869599246
449,0.20607200900001565,25.88,26.64,3.209391444786489
450,0.20619129800001623,25.56,27.3,3.4230860771132527
451,0.2062823480000162,24.8,27.8,3.630154946760927
452,0.20636754600001517,30.28,26.52,3.5591881534158616
453,0.20648987400001495,27.34,26.36,3.592419074221656
454,0.20658851100001385,30.04,26.14,3.50339097846195
455,0.20669647200001506,26.54,26.72,3.341277785646895
456,0.20677437700001633,22.76,26.22,3.3529179016547515
457,0.20690272000001464,25.0,26.4,3.24218779010193
458,0.20705363100001506,23.5,26.46,3.9646435307609833
459,0.20717769100001604,27.12,26.2,3.573725540850989
460,0.2073316770000151,24.36,27.7,3.3936647162818887
461,0.20745227400001554,21.76,27.16,3.505341315232344
462,0.2075759400000159,22.24,27.46,4.27123784587938
463,0.20767099200001482,21.74,27.86,4.144563271617763
464,0.2077569300000146,22.54,26.84,4.113603675262185
465,0.2078426830000133,25.66,26.62,4.032639074628578
466,0.20801616600001438,26.64,26.98,3.783153043433528
467,0.20811767700001305,26.16,27.74,3.3733021487234325
468,0.2082336620000138,23.24,26.72,2.63860748145271
469,0.20837459300001449,19.92,28.3,2.6624156120087665
470,0.20850458300001584,25.18,26.88,2.5974346199940737
471,0.20860873200001606,30.86,25.88,2.2283984880792596
472,0.20872036400001548,21.5,26.9,1.7449400023771662
473,0.2088228380000139,26.38,26.84,1.6993850453648114
474,0.20899110000001286,16.22,27.28,1.8115019000960728
475,0.2091005280000129,26.08,27.38,1.7799140637623125
476,0.20919055000001308,17.78,27.62,1.8399404776571089
477,0.20928851900001355,20.56,27.48,2.1588624490998414
478,0.20937952400001336,29.9,27.58,2.0879032310846077
479,0.20945237300001374,22.64,26.6,2.32638540103784
480,0.20956074900001376,19.82,26.48,2.5469115369407493
481,0.20966675000001445,19.4,27.62,2.6357054647747997
482,0.2097549750000134,22.92,26.96,2.6869077640851975
483,0.209863303000013,20.1,26.96,2.7667522972004623
484,0.20994852500001215,26.22,26.9,2.8264936019887212
485,0.2100554770000116,22.04,26.98,3.0431511732962684
486,0.21015586600001157,24.36,26.54,3.025676382634792
487,0.21024929200001097,16.26,25.86,3.046100162562916
488,0.21035611600001047,25.24,26.56,3.2602192655885576
489,0.21045667900001064,22.2,26.48,3.136030374069128
490,0.21053501300001187,20.62,26.98,3.1074713529832847
491,0.21067602900001248,18.78,27.3,3.238892794690122
492,0.21079345000001126,23.24,26.76,3.1093737737496
493,0.21091170900001188,20.68,26.96,3.45123513450946
494,0.21102550700001288,26.22,28.02,3.2385994954349826
495,0.2111388890000132,25.72,27.24,3.18666274672473
496,0.21122796800001353,24.98,27.26,2.986306999390941
497,0.2113444990000133,19.72,28.46,2.765957293424921
498,0.21150493300001294,17.94,27.74,2.622457996493876
499,0.21160630500001432,14.52,27.58,2.4439339962566664
500,0.21176967600001362,23.78,26.9,2.5117516901727273
501,0.2118823300000141,20.34,26.98,2.545605129171413
502,0.21197692400001422,24.16,26.48,2.6461843982584017
503,0.21209358100001552,27.32,25.42,2.29405495708873
504,0.21218691400001433,22.4,26.68,2.3399475788354858
505,0.2122786770000129,22.06,27.44,2.142309439350912
506,0.21239992200001367,19.78,27.86,2.3545571697798553
507,0.2124869160000138,24.22,26.6,2.264466836599504
508,0.21258743500001387,19.8,26.86,2.3463469590678665
509,0.21267968700001383,19.3,27.4,2.3140241204947487
510,0.21278449200001504,25.16,25.92,2.017726504638015
511,0.2129645500000148,26.06,27.02,2.0892476459131233
512,0.21306043000001473,26.04,26.02,1.8538485482599527
513,0.21321337600001478,21.76,27.1,2.1896532382208767
514,0.21333212100001475,24.86,26.44,2.342093939183342
515,0.21341743200001595,26.42,27.34,2.3445162898213487
516,0.21355458200001465,22.64,26.56,2.1723241017584707
517,0.21366463400001479,23.54,27.54,2.680165166662075
518,0.2137987380000137,27.18,25.82,2.592721629704532
519,0.2139749070000132,17.8,28.32,2.5997369803469317
520,0.2141171450000119,24.9,26.1,3.0324094141694227
521,0.214227218000012,21.66,26.92,2.7895496091314858
522,0.21437049000001096,28.14,27.62,3.1095330392344565
523,0.21446504900001173,23.42,24.9,2.7795807096390197
524,0.21455742600001138,24.04,26.14,2.8205069312170097
525,0.2146605220000115,20.54,27.78,2.9539300527541363
526,0.21476848900001322,15.86,27.62,3.247486319209476
527,0.21486162900001382,16.44,27.06,2.7534216226873176
528,0.214984339000015,23.52,27.38,2.77915603694841
529,0.21506746600001492,20.16,27.92,2.819530628789809
530,0.21517478100001597,26.7,26.02,2.486071402914258
531,0.21526955700001515,26.2,27.38,2.4977466206999552
532,0.21550466100001486,22.14,26.44,2.6190766039711066
533,0.2155933130000136,22.2,26.48,2.579743435470033
534,0.21573390400001458,26.84,26.16,2.4994000069809834
535,0.21585059200001488,25.92,26.28,2.5616851583642055
536,0.21597142800001556,25.22,26.72,2.235247896988655
537,0.2161886630000147,19.4,28.14,2.3712528298384
538,0.2162983710000148,19.04,27.62,2.494608909505202
539,0.2164228770000154,22.18,27.02,2.466478521546085
540,0.21653256800001408,23.7,26.76,2.7398295029171575
541,0.21661930000001384,25.72,26.98,2.6906121786226374
542,0.2167179750000141,21.66,27.14,2.3816573080658494
543,0.21681756900001403,23.88,26.94,2.3780225857271104
544,0.21692160300001362,24.22,25.66,2.212933221258626
545,0.21708146200001366,18.9,27.98,2.081757898127003
546,0.21716371100001375,16.58,27.98,2.1084031703472617
547,0.2172953370000137,23.56,26.46,1.9126201904922258
548,0.21741550500001416,19.94,27.12,1.7899661602823727
549,0.21752467000001374,18.14,27.32,1.8620869602368137
550,0.2176454510000152,30.26,25.28,1.4965564263304008
551,0.21778414400001544,24.56,27.64,1.966462349346277
552,0.21788489100001485,23.8,27.82,1.6755811702128078
553,0.21800058900001495,25.46,26.06,1.6576005034696066
554,0.21807998300001508,23.32,25.88,1.592033191954924
555,0.2182123590000149,29.12,27.28,1.7863482697459196
556,0.21834189900001455,23.54,26.7,1.9652943988674423
557,0.218466790000015,25.48,27.24,2.053795858890082
558,0.2185775140000139,19.42,26.92,1.927787858014134
559,0.21870491200001396,24.48,27.04,1.8894983339134364
560,0.21888409500001238,23.24,26.4,1.9052122772073106
561,0.21906871800001326,23.78,26.62,1.58126405773475
562,0.2191708550000122,26.14,26.28,1.6624234453418076
563,0.21926433500001252,17.4,27.96,1.7537148706841006
564,0.21941868100001294,21.3,27.5,1.7556504707892646
565,0.21954702400001302,26.76,25.04,1.9214430521597017
566,0.21966607400001337,28.38,26.76,1.725013996073907
567,0.21975463600001355,27.0,27.16,1.8825047231147778
568,0.21988365400001442,21.34,26.16,2.1171224482311706
569,0.21998567900001476,25.08,27.96,2.1528917868195907
570,0.22013194900001487,21.64,27.48,2.170123153387796
571,0.22023426300001603,16.92,28.04,2.070284175589324
572,0.22035073500001623,26.12,27.06,2.2564014182056935
573,0.22049876100001597,26.64,26.72,2.265743966376413
574,0.22065691800001552,23.38,26.58,2.417523112993325
575,0.22075988000001523,23.52,26.22,2.0053200244545155
576,0.22088497700001497,27.46,26.12,2.2946378243410006
577,0.2210125620000145,28.42,25.92,2.1298174736123165
578,0.22110051500001404,26.42,26.54,1.9478007721889796
579,0.22124029300001347,27.34,26.68,2.158869327902709
580,0.2213465640000134,17.56,29.84,2.1541018112177275
581,0.22145515800001192,21.5,27.34,2.0937002549603996
582,0.22156219200001104,25.56,26.86,2.132594762639644
583,0.22167361400001084,25.5,27.4,2.857966085001158
584,0.2217464590000109,26.8,26.96,2.934538850506417
585,0.22188636600001033,22.42,26.68,3.117729838430936
586,0.2219869910000103,25.02,27.14,2.8507310287225316
587,0.22207042600000904,22.22,27.3,2.9651432796415818
588,0.22221609000000875,17.78,25.58,3.3769716507111682
589,0.2223594050000095,22.22,27.12,3.2884876429211274
590,0.2226182250000086,24.32,27.7,3.6524931390630115
591,0.22275516500000947,20.74,27.48,3.8529981803766082
592,0.22283799800000814,23.0,26.02,4.059996693670705
593,0.22293833200000712,20.66,27.12,3.321942102435463
594,0.22308433400000816,23.62,27.64,3.300927478962193
595,0.22318964900000715,25.98,27.42,3.1935711016600217
596,0.22340201000000626,32.44,25.24,3.1715747133928502
597,0.22349107400000712,26.34,26.08,2.935425090205638
598,0.22361367000000776,20.6,29.04,2.583976476210349
599,0.22373064400000864,24.94,25.6,2.901832619955365
600,0.22381911100000806,19.62,27.4,2.886331271185573
601,0.22392979800000745,26.64,26.0,2.6444749452205145
602,0.22404378600000818,20.76,27.78,2.5079526708680957
603,0.22420636400000937,23.16,27.16,2.48746281568542
604,0.22436239300001048,18.28,27.7,2.2507459189590557
605,0.2244869890000114,21.28,27.3,2.0946170751740487
606,0.22457627200001085,18.86,27.14,2.5419399471110418
607,0.22468700000001007,23.84,26.38,2.913449141574299
608,0.22480615000001158,19.68,27.08,2.794295925845376
609,0.22490131300001082,23.04,29.06,2.4484294363778205
610,0.22500605000001173,22.12,29.08,2.080239759974949
611,0.2251296470000117,24.14,27.92,2.1160717172552017
612,0.225245915000011,25.4,28.68,2.1299977736477738
613,0.225422691000011,18.88,28.98,2.0839792454490342
614,0.22553370100001047,24.18,28.6,2.681379097900412
615,0.22568355900000903,18.42,29.94,2.7452922240723416
616,0.22581585000000892,23.46,28.34,2.3134776980237297
617,0.22593852800000924,21.46,28.9,2.2595393667920702
618,0.22604669000000932,26.0,27.18,2.430014364306577
619,0.22616612000000913,23.16,27.42,2.363411571676216
620,0.22626454600000834,22.54,27.1,2.893911617311626
621,0.22642934600000686,25.86,27.1,3.1298476590350943
622,0.22657607900000798,25.22,27.7,2.878508860990748
623,0.22667070300000702,20.3,27.6,2.9592260576659237
624,0.22677974700000725,20.44,26.84,2.45907147447089
625,0.2268542360000083,20.76,25.72,2.7046493904297066
626,0.22697099700000756,27.82,25.9,2.884995524603679
627,0.22704818500000812,20.5,26.66,2.6100423919514824
628,0.227194667000008,24.16,27.62,2.822716617232421
629,0.22731932100000662,23.1,26.9,2.917095608554517
630,0.22753574000000576,27.88,26.1,2.6286676313163304
631,0.22768832800000638,22.88,27.08,2.58813386651842
632,0.22778897600000647,22.84,27.08,2.5810401283907125
633,0.22791926400000762,23.48,27.42,2.5994777682592045
634,0.22803541300000774,23.38,26.58,2.935445660739564
635,0.228153002000008,19.52,27.3,2.7153901154636726
636,0.2282611550000091,23.76,26.74,2.5090309383341705
637,0.22838863100001028,22.38,26.96,2.509755089504195
638,0.22851782100001117,23.5,27.04,2.1714283991457
639,0.2286149070000114,22.52,27.66,1.94826308748031
640,0.22870197300001216,20.96,26.82,1.7399768194344958
641,0.22882439200001237,21.66,26.08,1.7402571561626587
642,0.22895530000001152,26.68,26.9,1.7263276229947409
643,0.22908806400001147,26.12,28.1,1.6441041835945647
644,0.2291812830000115,20.88,26.72,1.899782664241502
645,0.22926386300001234,23.26,26.12,1.9175053754400948
646,0.22937534100001145,29.18,26.18,2.1231207518886253
647,0.22952224300001056,24.66,26.38,2.315545719498649
648,0.22963466900000995,21.06,27.3,2.5250768891427553
649,0.22972262800000998,23.42,25.88,2.922513603290306
650,0.229817531000009,29.72,25.52,2.9362981347535135
651,0.22993177400000775,22.28,28.04,2.9754767300113545
652,0.23003966900000705,28.26,26.08,3.1241277881524607
653,0.23014976900000583,22.68,26.0,3.33822845833338
654,0.23028900300000466,27.14,26.22,2.9072045379342026
655,0.2304189270000041,20.98,27.78,2.8772869339165292
656,0.2305468300000033,25.78,25.62,2.6733823329579063
657,0.23077054600000402,26.02,26.62,2.5118834368675147
658,0.23092521700000468,22.86,26.96,2.2796385952067606
659,0.23104765200000443,19.18,26.1,2.074726536389651
660,0.23117814600000486,21.94,26.64,2.0172889036691615
661,0.23190929100000446,26.5,25.78,1.8450284202189138
662,0.23206837500000432,18.22,27.1,1.9077416219931245
663,0.23217504800000555,23.24,26.46,1.7810416974185763
664,0.23230129300000613,28.44,25.76,1.556103936030496
665,0.23241004000000487,22.74,27.4,1.759075594806235
666,0.23253198600000502,28.7,26.8,1.7754413228262735
667,0.2326325720000053,22.16,27.04,1.7585349560623158
668,0.23273811100000508,22.42,27.64,1.7896739632157286
669,0.23284381300000412,27.54,28.54,1.655559142225161
670,0.23295320700000488,20.7,26.78,1.9075443168128345
671,0.23307259400000468,25.36,26.12,1.8784307945071794
672,0.23322536500000624,23.64,27.48,1.7989331005548919
673,0.23333166200000655,19.54,27.66,2.211622309491401
674,0.2334427970000057,24.6,26.84,2.762709324935376
675,0.23355055000000569,21.62,27.76,3.011274188290985
676,0.23365103700000667,19.56,27.82,3.2920161505332546
677,0.23374033100000702,24.84,26.92,3.2813273461574566
678,0.23384445900000728,25.3,26.14,3.277401892732146
679,0.23396778500000792,27.08,27.12,3.246742830820845
680,0.234091178000007,27.36,26.9,3.016510223226045
681,0.23419249600000747,23.36,26.74,2.9382139860252403
682,0.23428372500000805,25.42,26.2,2.7171784413572944
683,0.23439805600000696,22.9,25.86,2.1689131232465706
684,0.2345126740000083,23.48,27.68,1.6879928157126642
685,0.23462676800000715,27.96,26.68,1.2556738911646526
686,0.23482900300000686,23.2,28.06,0.9125795968946315
687,0.2349480050000068,25.6,26.28,0.8541540775728743
688,0.23504791300000782,18.48,27.24,0.7936273205565116
689,0.235141885000008,24.66,26.56,0.7204525477677033
690,0.23525863800000835,25.78,27.4,1.0740989455838368
691,0.23538374700000908,26.2,27.12,1.1437663695253137
692,0.23547749700000864,21.36,26.94,1.1879866623306612
693,0.2355864960000087,17.52,26.42,1.6485511870489276
694,0.23570395900000918,23.28,26.76,2.017842500438437
695,0.23582403100000882,20.58,27.46,2.515922745812306
696,0.2359499100000093,17.9,27.38,2.633524127021743
697,0.23608145000000924,23.5,26.38,2.9693811609617082
698,0.23617609900000858,31.58,26.34,3.2342658290395883
699,0.23625613800000878,26.36,25.26,3.6795236851714677
700,0.23647058100000784,20.42,27.76,3.356688536073263
701,0.23655953700000865,26.4,26.64,3.3455781747697473
702,0.23665707900000932,26.88,26.34,3.3697336448414843
703,0.2367728650000096,23.4,26.3,3.1690549504342926
704,0.2368736800000093,25.8,26.52,2.821731647554534
705,0.237001546000009,22.56,25.0,2.684467593617173
706,0.23713691600000786,22.4,26.62,2.6247777948463233
707,0.2372689380000068,26.6,25.78,2.364099401009045
708,0.2373901090000068,14.48,38.56,2.2139553744861673
709,0.23749573500000665,7.1,40.5,1.8623186778882825
710,0.2376325360000049,18.22,26.3,2.4194435903871065
711,0.23774072500000543,25.94,26.98,2.406047470536881
712,0.23789740500000534,11.44,41.84,2.427302764641712
713,0.2380235780000053,20.98,25.42,2.2071986448152514
714,0.2381112480000045,24.5,27.38,2.107035143283934
715,0.23818703700000476,23.86,27.12,1.6704397066872467
716,0.2382678480000049,19.44,27.32,1.9239706201934275
717,0.23840083900000408,28.9,25.74,1.992186519373142
718,0.23852825700000402,24.1,27.96,2.212388748041318
719,0.23860976100000286,22.6,27.58,2.1531276603403304
720,0.23871144800000366,27.4,26.76,1.8713905189361377
721,0.2388247430000039,22.52,26.92,1.896583296480464
722,0.23897443200000446,22.32,26.7,1.8489139955582607
723,0.23906160100000484,14.56,27.82,1.940302168682583
724,0.2391402740000057,18.6,28.02,2.191227095879854
725,0.23923403700000634,21.38,26.84,2.2419594687461553
726,0.23933500700000643,22.42,27.14,1.96658839583121
727,0.23941101000000664,20.18,26.16,2.1100995529515947
728,0.23953454500000682,25.98,27.78,1.8494938902091966
729,0.23961613300000728,25.86,26.3,2.3749041345173127
730,0.2397128800000079,28.58,26.08,2.3809476162350025
731,0.23982165600000904,27.68,26.78,2.5726194060124206
732,0.23994353700000914,22.88,26.78,2.572644682575581
733,0.24002478800001015,17.18,28.72,2.4678318293009944
734,0.24013543200000953,23.12,27.78,2.5152373360526648
735,0.24022402900000905,27.76,26.32,2.4714092659100997
736,0.24031789300000916,26.74,27.16,2.4690690052314643
737,0.24044503000000894,29.32,26.54,2.434273891102932
738,0.24058923900000906,25.28,27.1,2.4467726493893207
739,0.24068754100000866,24.9,26.14,2.1763245242885696
740,0.24078777400000817,25.44,27.12,2.199746772260822
741,0.2408906970000082,22.16,26.96,2.0240694363395355
742,0.24097809200000775,24.6,26.7,2.039490292890867
743,0.24111625700000872,20.68,27.18,2.2734619600341697
744,0.24120958400000703,28.68,27.14,2.0594781594045615
745,0.2413007780000065,21.3,27.9,2.1324032205877996
746,0.24142556300000706,24.66,27.3,2.1674890498396
747,0.24157315500000642,27.44,25.84,1.9870390034534182
748,0.241648454000007,21.38,27.12,2.1297731422502273
749,0.24176672900000717,22.58,26.76,1.884171184600563
750,0.24185982800000794,20.98,26.84,1.5401590942045502
751,0.2419690300000088,26.6,25.9,1.4554231886649982
752,0.2420778270000099,20.54,27.46,1.3921476642694453
753,0.24222873000000966,18.44,27.68,1.4579266145850378
754,0.24235262800000967,22.98,26.62,1.4565081869860785
755,0.24245710300001022,23.8,27.58,1.4204737556674347
756,0.24254764700001097,22.36,26.36,1.695505445553583
757,0.24271431800000975,24.46,26.8,1.890138624935797
758,0.2428140460000101,22.8,26.8,1.7246683170210617
759,0.24299550300001016,24.04,26.94,1.7410343141404723
760,0.2430969540000092,21.44,25.98,2.0668729548342015
761,0.24323961400000904,21.42,27.6,2.1498610388029213
762,0.243360687000008,22.22,27.44,2.160881719483117
763,0.24348245200000918,21.1,26.56,1.8500684715814963
764,0.24359052000000858,19.9,28.72,2.0002982502163063
765,0.2437072630000081,26.88,26.34,2.028581769173104
766,0.24381757900000878,21.92,26.76,1.9353781037296804
767,0.24391974600000843,25.74,25.92,1.7819657757586989
768,0.24402739600000878,25.34,27.16,1.7613569686744484
769,0.24412204900000845,22.16,27.58,1.733833351542757
770,0.24422062200000916,24.46,26.0,1.3988172142979736
771,0.24442655100000898,26.48,26.16,1.4116985422476573
772,0.24452291000000947,8.22,35.54,1.5022233444757092
773,0.24466374300000915,23.32,27.84,1.8496245152975803
774,0.24476471700000957,23.92,28.32,1.6704782489916759
775,0.24488668000000935,27.2,25.98,1.813364352357538
776,0.24500193900000866,24.64,27.78,1.648452983535948
777,0.24509584600000878,29.96,26.26,1.7830469512944347
778,0.24521216500000875,27.48,26.5,1.8765260058093063
779,0.24531051200000853,8.36,44.78,2.2588557885868794
780,0.24544300600000746,3.12,33.36,2.2942597995195477
781,0.24553291000000854,28.74,26.06,2.6110783879313795
782,0.24567571500000795,-5.6,35.08,2.8255647225380462
783,0.24577012200000858,0.3,33.86,2.544353864106694
784,0.24586434500000998,-10.8,37.0,2.5237721650343565
785,0.24597009500000944,-11.02,36.7,2.758253340328396
786,0.24611021900000907,-4.98,35.98,2.941021199457507
787,0.24621842600000754,-26.46,51.3,2.771329025096274
788,0.24637805100000776,-29.9,54.66,2.8987914294768933
789,0.24648281700000751,-16.78,64.96,2.9115750225044845
790,0.24662518900000663,14.04,34.86,3.123819820670982
791,0.24681163600000744,8.82,38.74,2.755074661230009
792,0.24692953000000806,22.5,27.86,2.6823586708403893
793,0.24705200400000926,18.06,27.36,2.6722562800497656
794,0.2471811240000097,20.44,27.78,2.993104720192032
795,0.24729562300001007,25.46,26.12,2.572452230802864
796,0.24738630600001166,19.74,26.7,2.5759908625714774
797,0.2474838510000108,22.78,26.74,2.732355988719752
798,0.24759643700000922,22.44,27.26,2.733784428319536
799,0.24766788500000914,22.48,27.58,2.3878359063687613
800,0.24776550000000874,10.2,38.82,2.458763580866731
801,0.24788793200000825,21.6,25.46,2.482567994233359
802,0.24802243400000812,27.52,27.76,2.285533954820511
803,0.2481540270000071,24.66,27.0,2.5313834214535786
804,0.24825225600000778,21.76,26.42,2.3381649828920823
805,0.24834531500000878,26.68,26.36,2.324013035696498
806,0.2484726610000081,24.64,26.58,2.1006103075050926
807,0.2486259000000075,23.3,26.7,1.8654087301439446
808,0.24871346900000724,23.24,26.54,1.917704968068606
809,0.2488139330000081,21.04,26.64,1.8669589520107999
810,0.2489094360000088,21.52,27.06,1.7972890559629853
811,0.2490787300000079,28.02,25.74,1.7273999674241964
812,0.24919992200000785,21.64,26.48,1.925385090689256
813,0.24928642900000852,27.06,27.32,1.624475317367203
814,0.24955069800000906,16.38,31.02,1.4643853601974675
815,0.24964176600000876,21.48,26.86,1.6929284803549287
816,0.2497570910000082,22.32,25.86,1.6876419038872945
817,0.2498611550000085,26.2,25.46,1.7104923146983508
818,0.2499601060000085,20.46,27.36,1.4052684735957186
819,0.25007110400000876,26.14,25.12,1.4157170096458471
820,0.2501762720000098,21.4,27.54,1.1613527693377974
821,0.25028512800001046,24.46,26.88,1.403115924856411
822,0.25039680600001013,23.68,27.48,1.2386159599266158
823,0.2506238620000101,24.12,26.12,1.2611762828744006
824,0.2507202630000087,28.68,25.98,1.5663497232025692
825,0.250819754000009,21.2,25.86,1.5657191485856856
826,0.25098554900000813,21.74,26.92,1.628178174328444
827,0.25114093500000756,27.16,25.8,2.1375688499667547
828,0.2512575230000085,23.1,27.38,2.55705765174714
829,0.2513437190000083,21.32,26.58,2.7835864404005415
830,0.25144880800000813,23.86,26.06,3.155348996554033
831,0.25154824100000894,8.04,41.82,3.1540406766929303
832,0.2516544110000076,4.66,46.72,3.2993422484779047
833,0.2517680270000078,15.6,28.38,3.345010525909411
834,0.2518696760000072,25.8,26.44,3.075925329699811
835,0.2519646820000059,28.44,26.3,2.862339716050911
836,0.25210039500000647,24.58,26.86,2.914308508372692
837,0.2522481320000072,21.64,26.76,2.6695807929891995
838,0.25233056700000844,22.0,26.62,2.3074272967628184
839,0.2524272390000082,23.06,27.92,2.061983789845658
840,0.2525411780000084,22.22,27.26,1.7793993964205974
841,0.25267090900000966,19.98,28.42,1.7806513004144429
842,0.25278401400001016,24.88,27.72,1.5454810147437612
843,0.25289632700001086,25.24,25.52,1.7599845493002526
844,0.25306924600001146,22.38,27.58,2.0996970807790367
845,0.2532184590000117,26.5,27.3,2.489179779428222
846,0.2533067130000113,25.9,26.04,2.6854399588328497
847,0.25340368100001065,23.86,26.64,2.709323551661619
848,0.2534851410000112,20.7,26.9,2.9076546899005984
849,0.25357368000001124,27.22,27.12,3.237664285945878
850,0.25366410800001127,20.0,27.06,3.286364067324482
851,0.2537538230000109,16.54,27.42,3.4794887473514082
852,0.2538808860000117,24.44,26.06,3.524437020314392
853,0.2539658620000118,23.36,26.56,3.5212694782523783
854,0.2540675430000121,24.7,26.64,3.8707997130791876
855,0.2541768120000114,24.58,26.9,3.49945868995504
856,0.25426082800001204,20.72,27.18,3.274931109531262
857,0.25437947600001287,29.14,25.46,3.212581427260271
858,0.25447689500001225,29.38,26.88,3.24191050688392
859,0.25460603400001247,24.88,26.82,3.2616770962053323
860,0.2547046680000111,28.66,26.56,3.181701171001294
861,0.2548126700000122,23.44,27.68,2.739389940159339
862,0.2549151230000124,23.5,27.04,2.727443122789727
863,0.25500974000001264,23.74,27.52,2.673519047672226
864,0.2551016660000123,23.5,26.64,2.1797984007463493
865,0.25520240700001295,25.42,26.28,2.2301945434563324
866,0.25533781200001293,20.06,27.8,2.5303484245900183
867,0.25543725900001313,24.56,26.06,2.3405748718236863
868,0.2555464850000142,20.98,27.16,2.410877230895956
869,0.25563715500001294,27.38,26.38,2.307160887132434
870,0.2557359930000125,21.08,27.72,2.3197767577577677
871,0.25588793600001125,18.46,26.54,2.5684735647776216
872,0.2560483950000112,27.6,26.34,2.5926835739073177
873,0.256161406000011,25.32,26.84,2.8014428424560776
874,0.2562859860000106,23.24,26.18,2.80164666929941
875,0.25638843400001043,24.04,27.56,2.8237942159891483
876,0.2565650820000105,19.22,27.18,2.4538252009063255
877,0.2566434550000114,28.54,25.14,2.483002169193844
878,0.25673133800001224,22.86,26.96,2.1625972211939164
879,0.2568283250000132,25.98,27.06,1.919378041672406
880,0.25692004900001386,24.62,26.46,1.9449322305049166
881,0.25701385300001434,24.74,26.12,1.6901254464079032
882,0.257157952000016,26.1,27.48,2.0265587232613456
883,0.2572588040000152,21.58,27.44,1.615690420978244
884,0.2573822950000153,24.48,25.72,1.6162407912650345
885,0.25747107100001543,23.52,27.66,1.4933526747628876
886,0.257600116000015,22.08,26.9,1.640036617710976
887,0.2577024260000158,26.56,26.34,1.80082976392923
888,0.2578303800000157,27.0,27.78,2.0274228614605563
889,0.25790813700001536,27.44,26.36,2.2709128399702814
890,0.25803989600001564,25.52,26.28,2.2621338349542377
891,0.2581446880000158,25.0,26.7,2.387608181921029
892,0.25823148600001566,22.74,26.46,2.07767360096405
893,0.25831632700001705,22.44,27.84,2.337669824104399
894,0.2584161670000178,24.0,26.94,2.117859101979991
895,0.2585132260000176,28.82,27.04,2.1961142077816853
896,0.25868032400001795,20.74,26.58,2.3351115914972063
897,0.25876425600001873,24.66,27.4,2.0698454136303965
898,0.2588393030000198,19.76,27.12,1.8223169946253777
899,0.2589518190000195,20.6,26.86,1.5756954129879335
900,0.2590858940000196,19.06,26.66,1.8480458101153807
901,0.25917988400001946,28.58,25.8,1.7393628958817093
902,0.2592683360000194,23.0,27.06,2.0128332904942132
903,0.25936955100001846,16.86,27.16,1.755009164277985
904,0.2594989330000175,24.5,26.48,2.010868518925471
905,0.25961516500001736,25.8,27.56,2.1789615577866863
906,0.259710140000017,25.62,26.52,1.9339626579263918
907,0.2598563890000172,26.3,26.62,1.9821537013275208
908,0.2599941120000171,22.92,26.96,2.246586055720084
909,0.26009740000001713,17.92,27.4,2.287594883491887
910,0.2601972220000164,22.12,26.86,1.9953822647821944
911,0.260290479000016,26.54,26.64,1.9880386744513365
912,0.2603870220000175,19.66,27.66,1.6299092465776532
913,0.2605001600000172,20.82,28.4,1.9003229796789092
914,0.2606194720000179,21.5,27.4,1.6455528641703367
915,0.2607276090000177,24.86,26.26,1.3872001182198943
916,0.2608276310000175,24.14,26.4,1.3416993982779104
917,0.26091292100001695,23.66,28.0,1.3988222264530799
918,0.26102569100001816,23.56,26.14,1.3739857593256004
919,0.26116922700001766,28.06,26.6,1.3616684690906233
920,0.26126962200001813,25.72,27.1,1.3199665795841995
921,0.26136143100001874,18.82,27.08,1.4778009165574963
922,0.2614538930000183,21.92,27.28,1.8373274734094303
923,0.26154275600001853,24.36,28.02,1.9279228835997633
924,0.26164167600001775,28.56,26.14,1.9750196586617839
925,0.2617410200000183,24.76,25.24,2.3284634170126757
926,0.2618470150000185,25.34,26.24,2.294758163626965
927,0.2619564760000177,24.7,26.88,2.65460045899067
928,0.26210970100001774,28.68,25.62,2.5284464197478727
929,0.2622188560000165,23.32,27.18,2.807854433321495
930,0.2623236350000173,5.78,46.68,2.902437663390362
931,0.2624493470000182,-5.54,54.96,3.007744022920331
932,0.26260462000001716,-20.76,71.34,2.9918966054614025
933,0.2627977700000166,10.16,40.08,2.840004016539192
934,0.26293763200001763,20.4,35.02,2.820694517633141
935,0.26321817200001796,-191.58,194.76,2.876504741080325
936,0.263588127000018,-51.08,98.02,2.9520423857212124
937,0.2637348670000179,-64.64,105.14,2.753179073810924
938,0.2639945800000163,-9.24,58.6,2.6964020336062573
939,0.2641618440000162,-13.26,62.56,2.634536955575649
940,0.2642739890000154,13.14,36.96,2.8919098122336577
941,0.26438577000001473,24.06,26.66,2.643073991710653
942,0.26456716000001457,25.6,26.32,2.4980584690006693
943,0.2646570180000136,27.34,26.42,2.2659801244493183
944,0.2647351560000146,26.9,26.62,2.5921396525323104
945,0.26484327100001437,23.02,26.64,2.234227237265485
946,0.26492744400001556,28.02,26.26,2.19211872106819
947,0.26502364300001524,25.7,27.48,1.9522385190017288
948,0.26510520400001525,21.1,27.12,1.999947839666227
949,0.2651932130000141,22.98,27.12,2.052329414555686
950,0.2653001360000147,21.38,27.3,1.7528259798381867
951,0.2653833960000149,21.08,27.54,1.9844076010105147
952,0.2655024510000157,26.8,26.6,1.8627488423646228
953,0.26562247900001523,28.24,26.04,1.9228252961630303
954,0.2657411930000162,23.26,26.48,1.5797801073890767
955,0.2658558900000152,20.52,27.88,1.5634340004891931
956,0.2659724180000147,22.62,27.12,1.5635983156022468
957,0.26608898700001404,18.02,28.6,1.7561428713860525
958,0.2661952560000138,19.46,26.48,1.9239061217044255
959,0.2663154990000134,24.66,27.08,1.653237094848139
960,0.2664489570000139,25.44,26.0,1.6193868521377741
961,0.2665723680000127,18.74,27.02,1.4424399963884365
962,0.26666001000001316,29.38,26.04,1.62078595461418
963,0.2667691760000128,28.32,26.42,1.5557263569070965
964,0.26692949200001337,22.54,26.64,1.5074472223369941
965,0.2670938210000138,22.88,27.84,1.5343508580357135
966,0.26720218700001297,28.5,27.04,1.4957766415828087
967,0.26727741800001326,21.88,26.5,1.360340241348183
968,0.26738938600001383,28.62,27.1,1.1523791286437564
969,0.2674867390000131,22.04,27.16,1.175025948517589
970,0.26757746900001145,26.9,27.26,1.4156674130142144
971,0.2676889700000107,20.98,26.44,1.6580367442857962
972,0.26782230200000967,21.52,26.48,1.5007633651773076
973,0.26790475700000904,21.8,26.24,1.8174026603184998
974,0.26798761000000937,25.42,26.74,1.8287323219439322
975,0.26809012800000964,24.64,26.3,1.784558144725004
976,0.26823605200000955,21.0,26.94,1.8227905461942329
977,0.26832606300000883,20.42,27.06,2.2701323083531775
978,0.26845398200000936,16.86,30.4,2.1882530885464706
979,0.2685544890000102,22.8,25.78,2.384727366399322
980,0.26864352400001046,22.62,26.62,2.353676479168313
981,0.2687451720000098,20.5,25.98,2.3932158158660606
982,0.2688427680000096,24.5,27.14,2.4126351550628713
983,0.2689368940000083,20.54,26.42,2.426442783590314
984,0.26903457600000813,23.8,27.06,2.6848875456501
985,0.26914664700000834,18.26,26.2,2.9998039889076265
986,0.26925860100000953,17.28,28.0,3.315233569170611
987,0.26933018100000794,19.62,27.26,2.7965905627004926
988,0.2694270560000067,21.52,27.42,2.934106698477944
989,0.269531227000007,22.18,27.28,2.710033486298574
990,0.26963287100000777,28.6,27.48,2.7095722381072562
991,0.26971713700000777,28.82,25.34,2.4348552361217513
992,0.2698145460000081,21.5,27.16,2.391994130782552
993,0.2699216990000082,26.02,26.58,2.106130934442968
994,0.27002365300000797,24.6,26.74,2.0914083822562057
995,0.27012183900000863,28.3,25.24,1.878036623172001
996,0.2701943810000085,19.7,26.6,1.5890970026847433
997,0.27026710600000925,30.4,25.24,1.6477864460899467
998,0.2703654470000103,26.66,26.7,1.525900166293944
999,0.2704738500000108,23.02,27.66,1.598569048446158
1000,0.2705777440000112,27.5,25.96,1.6154604393335141
