iter,time,reward,steps,convergence
1,0.0071464709999995435,-287.28,199.04,89.39
2,0.00972074599999928,-265.62,200.0,79.70141
3,0.011406080999998736,-213.64,200.0,70.08230949271339
4,0.013022605999999826,-212.52,200.0,60.27230949271338
5,0.01463618000000011,-206.5,200.0,50.39049362627474
6,0.016422676999999553,-199.58,200.0,40.58098971137552
7,0.01792474300000002,-213.56,200.0,30.694444278801097
8,0.019484580000000307,-199.0,200.0,20.799450407682606
9,0.021006341999999734,-199.18,200.0,10.900325115920277
10,0.02262815100000104,-199.18,200.0,1.0017171721479712
11,0.024093049000001088,-202.48,200.0,0.7380145019463911
12,0.02578877500000054,-199.0,200.0,0.5503828943665624
13,0.027223775000001282,-199.76,200.0,0.5594546916531726
14,0.028800634000001324,-199.94,200.0,0.4709760581841905
