iter,time,reward,steps,convergence
1,0.09889436899999993,-652.59,300.0,83.09099448319999
2,0.21643234300000103,-616.68,300.0,97.63215058350623
3,0.33396187200000327,-619.67,300.0,52.978071026486845
4,0.4527164880000001,-634.32,300.0,77.36668299306768
5,0.5598452870000017,-628.87,300.0,81.53676984728395
6,0.6664821710000055,-633.62,300.0,6.635281088722195
7,0.7718137050000067,-634.64,300.0,3.146187257182234
8,0.8807782630000105,-625.73,300.0,1.8790176050885776
9,0.99791843900001,-619.76,300.0,2.4582425265245718
10,1.1034671480000071,-630.41,300.0,2.0353851231188287
11,1.2146474460000078,-626.88,300.0,0.850319820804259
12,1.3188503500000053,-620.92,300.0,1.7144515290675315
13,1.4259423810000058,-614.82,300.0,1.6786255109877857
14,1.5339955990000007,-616.6,300.0,1.2562179139041518
15,1.6345770630000018,-629.14,300.0,1.1485921744107372
16,1.7430998640000013,-624.8,300.0,0.4487979383857521
17,1.8460835030000027,-612.68,300.0,0.699218192980112
18,1.9444955880000023,-624.27,300.0,0.3468346663810564
19,2.057810290000006,-621.67,300.0,0.30503077727158256
20,2.166266328000006,-630.71,300.0,0.2978296292801872
21,2.2717304940000034,-618.32,300.0,0.23595366844361365
22,2.3786195300000017,-617.12,300.0,0.20760784204867377
23,2.478564527000003,-619.2,300.0,0.1838461694239868
24,2.5836664090000028,-627.91,300.0,0.16284181739314363
25,2.6898404590000027,-616.66,300.0,0.14426963673639648
26,2.7875052780000047,-628.53,300.0,0.1278434569735225
27,2.8928313550000055,-621.98,300.0,0.1133113579772953
28,2.998047081000003,-613.76,300.0,0.1004515213147954
29,3.0990399060000087,-626.43,300.0,0.11161531548862058
30,3.203725219000013,-622.66,300.0,0.07899038560915983
31,3.307274083000017,-621.8,300.0,0.07006523540360377
32,3.412377964000008,-616.45,300.0,0.06215935868374345
33,3.5147919800000054,-618.05,300.0,0.055154772220646464
34,3.6116644880000024,-606.62,300.0,0.04894737699780194
35,3.7144598090000116,-624.8,300.0,0.04344529237914685
36,3.8166992050000133,-618.22,300.0,0.03856739443634183
37,3.9186996120000117,-621.42,300.0,0.03424203288852823
38,4.022246777000014,-608.97,300.0,0.030405904358786984
39,4.131005141000017,-614.56,300.0,0.02700306247777462
40,4.236394139000026,-622.61,300.0,0.02398404783815522
41,4.342835237000017,-608.09,300.0,0.021305122958807488
42,4.445272643000024,-607.2,300.0,0.018927599295551545
43,4.548402269000036,-626.17,300.0,0.01681724497385062
44,4.649811772000035,-625.39,300.0,0.014972191196648055
45,4.747430906000034,-622.83,300.0,0.01333451952243081
46,4.852471107000028,-622.86,300.0,0.011876019055563347
47,4.954655849000034,-632.35,300.0,0.010577083082125682
48,5.05169864500003,-616.25,300.0,0.00942025086382614
49,5.156273960000036,-618.36,300.0,0.008389972728537032
50,5.264276225000032,-611.5,300.0,0.00747240087434875
51,5.366884382000038,-626.36,300.0,0.006655203074615201
52,5.468928074000033,-605.81,300.0,0.0059273967763999735
53,5.572434573000038,-616.54,300.0,0.005279201361503283
54,5.6740513220000395,-606.59,300.0,0.004701906580436344
55,5.775325815000031,-622.19,300.0,0.004187755390375969
56,5.876841581000036,-620.49,300.0,0.003729839619239783
57,5.982036990000026,-632.51,300.0,0.003322007052219078
58,6.086759033000021,-630.41,300.0,0.0029587786897025126
59,6.183464965000013,-623.54,300.0,0.0026352750634828226
60,6.285293930000009,-628.02,300.0,0.0023471506193004643
61,6.386639734000013,-620.61,300.0,0.002090535282206929
62,6.48371426300001,-609.92,300.0,0.00186198241914326
63,6.58551172300001,-624.19,300.0,0.0016584224974849349
64,6.688795667000008,-636.23,300.0,0.0014771218163218691
65,6.794459109000016,-610.1,300.0,0.0013156457552838674
66,6.903961023000022,-608.47,300.0,0.001171826045748503
67,6.9560941770000255,-620.04,300.0,0.0010437316247191575
68,6.969761048000024,-610.23,300.0,0.0009850363537680096
69,6.9834272460000335,-607.92,300.0,0.0009736995908724566
70,6.99735709600003,-614.26,300.0,0.0009624933360896648
71,7.01092715800003,-609.89,300.0,0.0009514160865364829
72,7.024605695000034,-629.39,300.0,0.0009404645886661456
73,7.0380515160000385,-626.26,300.0,0.0009295564921956156
74,7.0510467110000405,-612.23,300.0,0.0009186989105955945
75,7.0645569250000335,-620.11,300.0,0.0009079232842452711
76,7.081155987000031,-627.93,300.0,0.0008972524062187404
77,7.09462931100002,-628.27,300.0,0.0008866978256776292
78,7.108055394000019,-612.01,300.0,0.0008762641253952097
79,7.12191097100002,-617.19,300.0,0.0008659524262100149
80,7.13550479200002,-604.49,300.0,0.0008557623054912256
81,7.148766981000023,-616.41,300.0,0.0008456926992153058
82,7.16241421700002,-618.65,300.0,0.0008357422947540272
83,7.17592176600003,-619.72,300.0,0.0008259096935603338
84,7.189240516000041,-608.21,300.0,0.0008161934765951173
85,7.20398841100004,-612.98,300.0,0.0008065922297646466
86,7.219592228000039,-622.36,300.0,0.0007971045536692145
87,7.232961508000045,-622.12,300.0,0.0007877290667579473
88,7.2460475290000375,-619.92,300.0,0.0007784644064088297
89,7.259790959000043,-620.18,300.0,0.0007693092289571268
90,7.273603203000036,-636.12,300.0,0.0007602622093827449
91,7.287060005000029,-615.3,300.0,0.0007513220411112798
92,7.30128600300003,-624.07,300.0,0.0007424874352182087
93,7.314776737000031,-632.69,300.0,0.0007338973110790903
94,7.329254744000025,-629.99,300.0,0.0007255139071276062
95,7.342559121000022,-611.18,300.0,0.0007172262637311633
96,7.356171851000028,-622.77,300.0,0.0007090332872508043
97,7.373495951000024,-615.75,300.0,0.0007009338962689071
98,7.38722918000002,-618.4,300.0,0.0006929270218165584
99,7.401316397000016,-625.92,300.0,0.0006850116071746015
100,7.414920236000015,-629.52,300.0,0.0006771866078167932
