iter,time,reward,steps,convergence
1,0.0010450459999979955,-201.52,200.0,89.41195802
2,0.0019776059999969675,-231.76,200.0,80.02195802
3,0.003150461999997134,-253.7,200.0,70.40252429932069
4,0.004414105999995144,-213.42,200.0,60.7661873270599
5,0.005312551999995918,-243.62,200.0,51.118444765757644
6,0.006225183999998052,-204.78,200.0,41.52813476575764
7,0.007110463999996597,-383.66,200.0,31.884922662365
8,0.007994503999999125,-202.94,200.0,22.494922662364996
9,0.0088806539999986,-219.68,200.0,13.104556490481576
10,0.010222329000001196,-260.54,200.0,3.318328163023769
11,0.011102355000002007,-214.76,200.0,3.115575766030801
12,0.011961908000003518,-203.42,200.0,2.8308440153684584
13,0.01288484100000531,-261.54,200.0,2.6612649179989303
14,0.013735353000004835,-203.5,200.0,2.900567216810707
15,0.014609106000005312,-208.6,200.0,2.8320422580411986
16,0.015484624000006164,-263.62,200.0,3.032330278041198
17,0.016712301000005425,-224.62,199.54,2.843658697788764
18,0.017615070000005062,-211.88,200.0,2.5400814128670346
19,0.01847262800000493,-227.9,200.0,2.3551311023466384
20,0.019326580000004867,-231.48,200.0,2.8205856120278954
21,0.019587187000006168,-234.38,200.0,2.7761770292582795
22,0.020871661000008146,-220.42,200.0,3.060791079736819
23,0.02185850600000805,-246.8,200.0,3.0838041476330886
24,0.02303347400000888,-204.06,200.0,2.72805499433606
25,0.02387758500000814,-214.68,200.0,2.653447851193171
26,0.025102340000007217,-212.54,200.0,2.169836581238708
27,0.026102667000007074,-228.12,200.0,2.2105572884232245
28,0.026957880000004764,-230.16,200.0,2.163062474128803
29,0.027822775000004185,-335.8,200.0,2.1472201202312875
30,0.02867320500000403,-259.26,200.0,1.7418750607482238
31,0.029525323000004988,-218.34,200.0,1.8256900211435252
32,0.030378421000005318,-210.48,200.0,1.458456902287479
33,0.030708231000005526,-225.92,200.0,1.4328369347821266
34,0.03159742800000842,-219.2,200.0,1.7379276539221196
35,0.0323325720000085,-209.64,200.0,2.0882613485244903
36,0.03355936100000889,-210.1,200.0,2.5486177558205823
37,0.034412517000006915,-258.2,200.0,2.54579706480076
38,0.03527204700000652,-234.84,200.0,2.5212159457829912
39,0.036128392000005505,-249.2,200.0,2.735219242000248
40,0.036987933000006024,-212.2,200.0,2.869810242784473
41,0.037835373000007166,-295.3,200.0,2.8284552769790112
42,0.03869380600000483,-231.18,200.0,3.043823573860787
43,0.03958268200000603,-226.36,200.0,3.0213382410840226
44,0.04045849700000659,-300.28,200.0,2.9169329306948555
45,0.041231300000006854,-250.9,198.66,2.924403687345941
46,0.042093034000007634,-342.16,197.88,2.83522602719639
47,0.04299749900000904,-211.94,200.0,3.054984334282993
48,0.04385199800000805,-274.22,197.62,3.046048342293477
49,0.04473911300000921,-201.1,200.0,2.9950153865879074
50,0.0456412960000101,-260.5,200.0,2.8845776365122346
51,0.046596897000007687,-211.16,200.0,3.2284495417667287
52,0.04724050700000859,-204.9,200.0,3.4480204443437117
53,0.04817625500000844,-311.04,200.0,3.7091718883779534
54,0.049059525000011206,-209.18,200.0,3.934163987046014
55,0.04991056600001187,-238.0,200.0,3.544095317594466
56,0.05076228600001187,-272.94,198.6,3.4541853537192027
57,0.0516392050000114,-216.28,200.0,3.675523464439601
58,0.05285289600001164,-271.74,200.0,3.857329266166829
59,0.053877666000012425,-274.32,200.0,3.9718532631792938
60,0.055171898000011765,-225.92,199.2,4.282777463668374
61,0.05602499500001201,-265.7,200.0,3.9449629120104888
62,0.05690357400001034,-403.18,200.0,3.4740655596462573
63,0.058133372000007455,-215.72,200.0,3.4337345005976787
64,0.05903376500000945,-449.74,200.0,3.0015729506712203
65,0.05932377900001029,-228.52,200.0,3.5064798226141547
66,0.060377800000008364,-280.96,200.0,3.505913043295865
67,0.0612242130000098,-207.04,200.0,3.0650346564853876
68,0.06214150200001001,-240.42,200.0,3.2632553162384723
69,0.0630835970000092,-230.76,200.0,2.7807249188631147
70,0.06396858800000871,-225.82,200.0,2.866258335176842
71,0.06458447800000755,-223.56,200.0,3.0599447414947463
72,0.06558639100000718,-231.14,200.0,3.0821481402413498
73,0.06642347400000759,-204.58,200.0,2.8806812207167907
74,0.06726519600000813,-209.9,200.0,2.8389889275016102
75,0.06804891400000912,-206.68,200.0,2.382539437056141
76,0.06875292500000896,-239.02,200.0,2.1351061093841013
77,0.06963423300000571,-211.94,200.0,2.09460448523827
78,0.07048717500000734,-206.08,200.0,1.726771904336286
79,0.07135762500000808,-222.98,200.0,2.1529114174512656
80,0.07215219600000822,-221.04,200.0,1.692713248350406
81,0.07244033300000652,-217.56,200.0,1.5202846364141203
82,0.07300554500000445,-217.26,198.4,1.7685654868004654
83,0.07338734300000738,-252.46,200.0,1.707891765500579
84,0.07460326400000739,-206.42,200.0,1.713496493093237
85,0.0755111520000078,-199.18,200.0,1.8948116835237143
86,0.0763741490000065,-218.52,200.0,2.3368945959438063
87,0.07722157500000648,-209.78,200.0,2.8667783020163156
88,0.07761153800000642,-192.84,193.86,3.0356695869691643
89,0.07887620100000348,-196.94,189.46,2.9865928726891604
90,0.0791071520000024,-220.84,197.88,2.9679532589139725
91,0.07995849300000302,-205.66,200.0,3.421537602334138
92,0.08045816600000322,-220.24,200.0,3.5996780478171404
93,0.0813610910000051,-223.5,199.22,3.625699885068225
94,0.08223875600000596,-244.44,200.0,3.8167065528534607
95,0.08310866800000483,-204.38,200.0,3.816237894215419
96,0.08370823500000313,-240.72,200.0,3.4368164378917796
97,0.08457779000000443,-211.42,200.0,3.093935187012778
98,0.08550351100000242,-151.04,151.3,2.9063799370451426
99,0.08634474700000183,-150.82,162.62,2.731126352087564
100,0.08724674600000526,-138.0,152.26,3.0767525477480184
101,0.08782481700000844,-255.82,197.3,2.922420634618606
102,0.08866558400000812,-204.22,200.0,2.653193596704701
103,0.09056005200000783,-237.36,193.8,2.748968909176148
104,0.09093534400000891,-214.92,198.08,2.588920199141777
105,0.09215997500000839,-209.3,199.6,2.396366191892439
106,0.09301688200000768,-260.02,189.38,2.779758437888822
107,0.09427233500000654,-200.88,200.0,2.8452769723545215
108,0.09512384800000717,-204.18,196.08,3.0326094936248262
109,0.0964073610000078,-181.64,185.14,2.815395995439496
110,0.09698488300000818,-207.66,196.52,2.443960664099086
111,0.09747910200000831,-164.12,168.86,2.4314744668753954
112,0.09773545000000894,-253.7,200.0,2.2519021170228006
113,0.09790997100000709,-207.86,199.76,2.4450391848467623
114,0.09876652400000552,-269.6,198.56,2.6073605815202177
115,0.09898475100000326,-197.42,178.08,2.56532402503782
116,0.09960266600000267,-284.22,195.56,2.468497966209307
117,0.09982895600000319,-229.4,197.2,2.2093377460332038
118,0.1001065460000028,-284.9,190.0,2.2308550412644133
119,0.10054660500000168,-272.6,189.9,2.2512534805596203
120,0.10092684600000013,-242.66,198.94,2.270171570724945
121,0.10141894199999868,-241.32,200.0,1.9576407405937608
122,0.1016156319999979,-171.0,164.6,1.9057469143015389
123,0.10194174699999792,-204.24,183.62,1.5904415602656699
124,0.10205259999999683,-208.2,192.54,1.3253387070284426
125,0.10219616699999534,-150.0,126.54,1.3887960511623014
126,0.10235320399999281,-63.22,100.5,1.184417167806447
127,0.10253457199999261,-73.68,116.92,1.6016097503735467
128,0.10267434899999373,-127.08,143.02,1.3294600925789126
129,0.1028690729999937,-118.36,132.06,1.3403913483706156
130,0.10307403699999185,-225.34,192.62,1.2653058633772751
131,0.10339179299999302,-31.46,74.88,1.2654867161004553
132,0.10362409199999334,-233.5,192.54,1.4682696658375611
133,0.10388205299999242,-135.58,133.62,1.7303101266233434
134,0.10398543499999491,-105.96,127.6,1.7907874995220339
135,0.1042079569999963,-185.98,149.9,2.011056746912451
136,0.10435131499999528,-211.64,168.76,2.1670657213584086
137,0.10447379799999723,-258.42,192.08,1.7788601547751122
138,0.1045805809999969,-53.34,89.98,1.775819181661948
139,0.10470215699999841,-204.12,172.46,2.011411365648668
140,0.10488026799999517,-150.26,122.64,2.283707464554053
141,0.10512724499999493,-246.32,198.66,2.51775682768315
142,0.10567930599999542,-192.76,193.86,2.305506258539264
143,0.1060153319999948,-172.44,180.16,2.059974992172598
144,0.10722349799999265,-174.48,170.24,2.3081371353363678
145,0.10750788199998951,-202.46,200.0,2.0141183078681615
146,0.10799219099999036,-203.18,180.4,2.143963331177505
147,0.10834558999998833,-190.12,192.36,2.138234492249515
148,0.10934449499998777,-185.12,189.7,2.1623411507361885
149,0.11019006999998737,-199.9,200.0,2.06641015205253
150,0.11108972299998854,-115.4,124.74,2.23984569828729
151,0.11137974099998971,-198.76,195.38,2.4007070381824236
152,0.11180982099998715,-145.54,162.02,2.4199412303189023
153,0.11291812399998591,-185.98,181.46,2.462375631469274
154,0.1134241709999877,-320.0,200.0,2.201942436535094
155,0.11372144899998915,-45.04,92.78,2.268355110875514
156,0.11389662999998862,-193.36,194.96,1.8666189070230736
157,0.11477300399998924,-177.98,184.14,1.84925265220728
158,0.11528663899999003,-122.76,138.46,1.9008981581147217
159,0.11545025799999209,-80.26,109.82,1.695209109383746
160,0.11574796999999037,-173.82,181.62,1.3658433708801119
161,0.11597883599998937,-186.5,182.9,0.956137307722836
162,0.11620418499999019,-186.62,185.66,1.016672615686998
163,0.11650458299999045,-56.1,101.22,1.149862215023464
164,0.11667772599999182,-116.98,135.48,1.5762203809566284
165,0.11695544899999177,-48.74,89.76,1.5086146720109483
166,0.11837216099999281,-2.98,51.7,1.5236151003212643
167,0.1185341709999932,-78.9,115.64,1.7808941776840737
168,0.11893073699999235,-158.52,172.78,1.7740178568040161
169,0.1198359179999926,-207.88,184.06,1.8005161051408454
170,0.11997281799999371,-196.64,160.12,1.7152639702309185
171,0.12124487599999512,-167.56,169.34,1.7298640210491794
172,0.1214304789999936,-198.46,170.72,1.7227156778435506
173,0.12160034999999425,-117.94,131.54,1.8403062379395756
174,0.12190643599999262,-57.44,80.14,1.3942148769466676
175,0.12211954699999339,-70.62,92.66,1.4429150882449755
176,0.12234936599999457,15.06,35.84,1.5319065778220355
177,0.12253532899999442,-220.76,162.84,1.271934471349907
178,0.12280430599999193,-90.28,119.1,1.4549500158685937
179,0.12329873499999167,-200.8,200.0,1.4973989462991064
180,0.1241178399999896,-141.36,146.12,1.7448230553610329
181,0.12443327599999066,-204.68,195.4,2.191383501844792
182,0.12471591599999243,-137.5,142.18,2.621058305463883
183,0.12488905099999315,-197.04,197.78,2.7899421150701436
184,0.12505136399999373,-202.44,197.34,3.2040152088263136
185,0.1258982879999948,-213.4,200.0,3.400049752428566
186,0.1266531769999979,-184.86,184.74,3.316446737662491
187,0.12756800300000037,-149.72,162.54,3.5583172786405277
188,0.12848351999999963,-184.4,184.7,3.557665643222496
189,0.12894494599999717,-212.68,200.0,3.6083501807575735
190,0.12934243899999842,-201.36,198.3,3.7886902316586117
191,0.13018753699999763,-193.94,195.48,3.761732892854282
192,0.13075557399999838,-71.24,105.54,3.3400701658524796
193,0.1309904299999971,-201.32,182.36,3.3231249146870225
194,0.13183526799999612,-135.2,151.42,3.287126910996302
195,0.13207974399999856,-133.18,149.12,3.343785007819342
196,0.13294999200000035,-123.3,148.02,3.343564819999819
197,0.1331620640000004,-82.7,120.76,3.401778886285944
198,0.1333579389999997,-176.68,180.22,3.1800211700462357
199,0.13356895999999807,-50.56,95.72,3.3116461788021008
200,0.1337916969999995,-129.96,151.2,2.927950427102355
201,0.13390732599999922,-85.38,114.08,2.468906729260629
202,0.13402225699999804,-31.0,63.66,2.7156418024711497
203,0.13412651799999864,-49.28,73.84,2.798172344140119
204,0.13425575799999834,-22.86,58.32,2.40643699876214
205,0.1349043899999991,13.7,35.1,2.3500262600605177
206,0.13505647599999904,17.88,32.4,2.3248987205700837
207,0.13517639399999837,15.0,32.18,2.338872698193022
208,0.13532769099999697,19.6,29.14,2.413462150278272
209,0.13549693599999912,14.84,33.38,2.196158394205338
210,0.13558202599999802,18.58,30.48,2.392035393146453
211,0.13570689699999505,21.72,28.34,2.6273255273745173
212,0.1358211879999942,-31.56,77.14,2.40979659341346
213,0.13599318899999346,-31.66,70.64,2.12622732774981
214,0.13607432099999528,2.4,41.0,2.152328234470212
215,0.13619341799999418,-13.86,64.26,2.3806125557877027
216,0.13625830999999522,-182.76,178.0,2.6013557658123565
217,0.13657233399999313,-73.34,111.32,2.7319584609333534
218,0.13689222199999307,-163.84,174.74,2.6900255156716657
219,0.13704729199999477,-78.36,109.98,2.7006834538441313
220,0.13721329399999505,-140.34,134.2,2.478447222605602
221,0.13807844199999408,-10.42,36.64,2.523908180090955
222,0.13831263099999092,-167.66,162.34,2.889498802781991
223,0.13849771999999305,-108.58,126.34,2.690894372918032
224,0.13864051799999189,-1.68,46.86,2.752257874406587
225,0.13881722999999013,-45.82,88.1,2.3280035152264085
226,0.13899815899998913,16.96,34.4,2.3283460754422323
227,0.13939191499999026,9.58,40.74,2.1282246185908607
228,0.13952130999998857,-37.12,67.5,2.4517925132242815
229,0.13973472399998954,-22.06,51.58,2.4228451812960317
230,0.13985340399998947,-86.86,122.08,2.7411765652265436
231,0.14000313999999037,0.68,48.66,2.4937369462926275
232,0.14018026099999048,-198.28,185.38,2.075084945777994
233,0.14036981299998885,-162.0,172.76,2.2729521151125796
234,0.14044205799999077,-348.14,199.92,2.273869249408135
235,0.14134815999998906,-120.1,142.42,2.273863353492692
236,0.14185920299998855,-249.48,192.68,2.072457377223965
237,0.14270724999999018,-218.16,200.0,2.089535479203751
238,0.14355061099998778,-212.26,197.92,1.8049066317622615
239,0.14440312299998936,-213.2,178.08,1.8772900708093236
240,0.14469663299998814,-150.46,166.96,1.596527622935027
241,0.14510516099998583,-136.8,153.58,1.5961207110792226
242,0.1452707249999854,10.24,39.52,1.8905633899084453
243,0.14538194899998302,-44.8,87.38,1.7244713141318702
244,0.14565851799998342,9.98,40.06,1.7074246696181892
245,0.1457930059999839,-40.82,74.36,1.9025668502374553
246,0.1459351679999834,-16.4,61.52,1.9074363058024708
247,0.14605899799998312,-13.72,63.54,1.8853542092126674
248,0.14643758799998352,-216.36,175.16,1.833380472006184
249,0.14736210899998525,-58.0,96.02,1.8529391700472178
250,0.14814118999998627,-230.94,198.56,2.037006411948182
251,0.14862593999998808,-216.82,200.0,2.109255770704791
252,0.14966498199998668,-148.12,163.02,1.8218413833968885
253,0.15076023099998892,-90.58,125.46,1.9538691131665804
254,0.15166400899999033,-100.28,120.42,2.1381441178840292
255,0.152518680999993,-195.96,196.56,2.0392921166841385
256,0.15337765299999262,-108.36,138.58,2.148423835950623
257,0.1536639759999936,-202.72,193.52,2.2080794698057535
258,0.1548604599999912,-155.74,166.48,2.277240113625092
259,0.15576880499999035,-200.62,200.0,2.2733848104480785
260,0.15596380399998822,-43.74,90.2,2.106848013359854
261,0.15620451699998839,-31.86,81.08,2.279259917103186
262,0.15627321499998814,-158.22,156.92,2.2857306775462845
263,0.15640912599998913,-70.26,88.92,2.124647203663561
264,0.15665985999999066,-21.42,57.64,1.9302709341370032
265,0.15678100099998815,-9.7,49.38,1.8185151969511473
266,0.15804718899998704,-123.76,127.58,1.6889899731737743
267,0.15827611799998564,17.7,33.34,1.4363848372926307
268,0.15849468999998706,20.66,29.92,1.570461050158127
269,0.1585910839999869,19.86,31.44,1.7900289065408088
270,0.15868674699998664,11.94,33.58,2.185640336075523
271,0.15875608699998622,16.8,36.76,2.143662037157237
272,0.15882495999998625,19.48,30.08,2.0922255714569657
273,0.1589130079999883,9.54,38.58,2.135750187752021
274,0.15900478299998966,26.36,27.94,2.15899355359335
275,0.1591334639999893,21.64,29.9,2.1250003568586755
276,0.15923422199998782,27.34,26.64,2.0982955592545665
277,0.15931738199999046,15.44,33.06,2.155506005842075
278,0.15940505899999025,1.48,45.54,2.160563557352161
279,0.15953698299999175,19.72,28.32,1.8792934665417138
280,0.1596480189999916,14.14,30.4,1.6510324931607283
281,0.15975517899999048,24.72,28.28,1.4043567739958394
282,0.1599027059999898,12.92,34.16,1.3885628358314268
283,0.16012256799999136,24.74,29.82,1.2924454518744315
284,0.16023525499998925,23.74,28.36,1.2457090440368528
285,0.16037074699998755,24.28,27.96,1.3029876439809036
286,0.16050189199998854,-11.66,61.76,1.3500105847021793
287,0.16071117499998877,-42.66,84.08,1.5260181263225618
288,0.16080901899998779,-50.68,86.18,1.3207034000591638
289,0.16094033199998492,-5.92,55.84,1.33213626305271
290,0.1611729679999847,14.48,30.76,1.1154427916939293
291,0.16125154399998465,-0.54,51.08,1.1657022901579754
292,0.16133561599998458,2.84,44.6,1.2285566187907224
293,0.1614335919999874,8.46,34.06,1.4999132218994586
294,0.16151735299998649,13.86,33.46,1.5376251105162926
295,0.16160114599998465,11.18,35.92,1.531127214825739
296,0.16167037299998555,14.3,30.98,1.5841784947181101
297,0.1617326019999865,-96.46,121.86,1.3147190515259557
298,0.16183529699998545,11.3,33.68,1.2683252907680185
299,0.1619316289999837,18.06,33.06,1.5244379573116433
300,0.1620307489999817,13.14,34.84,1.500757888593723
301,0.16212105699998247,10.5,35.66,1.4656798192033704
302,0.1622044739999815,16.94,32.44,1.394941546927854
303,0.16228309799998186,17.58,29.84,1.1381554113217134
304,0.16240530699998246,9.16,36.5,1.1981898815917402
305,0.1624791719999834,21.54,31.86,1.5959170380308405
306,0.16259570799998357,14.24,40.14,1.7389657010987627
307,0.16267702099998615,18.8,30.98,1.8319951045064484
308,0.16276507699998533,21.62,31.78,1.909315119477283
309,0.16286235699998386,13.6,33.4,1.7197069456757617
310,0.16294063299998385,-51.4,90.96,1.7893539581432631
311,0.16307937199998435,3.14,42.72,1.784371294900898
312,0.16317354599998524,5.46,38.78,1.8954151631071319
313,0.16416883199998367,18.52,30.6,1.8692817254671468
314,0.16428246099998134,25.5,25.22,1.7484365768864905
315,0.1643957379999783,8.16,35.18,1.4037871595651166
316,0.16452166599998108,6.78,34.32,1.2323914771167996
317,0.16461872099997876,18.3,28.68,1.2544408829827864
318,0.16477886499998107,26.74,27.78,1.1606012657196756
319,0.16486803899998037,27.68,27.24,1.0954589823259708
320,0.16494812199998066,29.56,27.34,1.0935963819100762
321,0.16505511299998332,17.96,34.54,1.085912051124326
322,0.16519795199998555,24.26,27.04,1.4217213491424785
323,0.16534001099998719,14.12,30.2,1.4548405235844768
324,0.1654775569999849,19.84,30.44,1.6974354446490054
325,0.1656586699999849,17.12,33.38,1.8422967263444938
326,0.1657415609999866,12.04,30.74,1.7901352210907704
327,0.16588521899998554,5.9,44.56,1.6895759508034331
328,0.1660230859999885,19.16,28.98,1.810350036578555
329,0.16615185699998847,21.56,30.06,1.7568153606084984
330,0.1662740089999879,19.5,28.64,1.8924026346976006
331,0.166414104999987,-3.04,48.58,1.958701047870025
332,0.16650686599998465,7.18,41.04,1.910644503943051
333,0.1666210009999851,23.68,28.34,2.137138486860137
334,0.16672979799998444,-2.22,51.96,1.9808139896026653
335,0.16681027799998205,21.64,30.32,2.111934540259022
336,0.16689640099998115,23.56,28.86,2.3355791699669126
337,0.16695689799998092,22.08,27.12,2.6496594154959787
338,0.16705160299998312,28.2,26.68,2.544864569331101
339,0.16716722099998194,21.08,26.6,2.576405633624609
340,0.1672421869999816,28.42,26.28,2.4144329514035596
341,0.1673145519999828,8.66,40.64,2.3962128659304818
342,0.16745873599998262,20.7,28.36,2.2700363105910966
343,0.1675388679999834,-21.36,68.9,2.2692791514515207
344,0.1676643389999839,-11.1,64.5,2.406307823517723
345,0.16781567199998548,-2.06,49.48,2.462182513501871
346,0.168125721999985,-141.64,163.06,2.300857012587509
347,0.1682396979999865,-14.78,61.54,2.0557255442631144
348,0.1683487369999881,6.9,44.76,2.4434613408613934
349,0.16843733799998972,-6.0,57.14,2.4345782622210024
350,0.1685816399999922,29.96,26.08,2.4052574957413446
351,0.16867128999999537,-20.26,65.1,2.6546430513116617
352,0.16873880899999705,6.42,44.32,2.4354808552713734
353,0.16883017899999686,5.32,45.24,2.2404651774968167
354,0.16896432099999714,3.86,48.24,2.02470420746983
355,0.16908520299999452,7.18,44.8,1.5883799152120432
356,0.16919463699999682,5.36,45.08,1.4991706522604111
357,0.1692985839999963,22.14,26.54,1.4518845867637062
358,0.16939620799999489,27.88,26.86,1.215195486781561
359,0.16951866499999468,15.24,28.44,1.2990447739092474
360,0.16971087399999618,27.16,27.14,1.5861935621839733
361,0.16983869199999546,27.5,27.06,1.3365335289303026
362,0.16990780399999394,19.5,30.32,1.28626486986806
363,0.16999763799999457,17.62,29.84,1.2599921760360906
364,0.1700808009999939,14.32,31.68,1.2986051580148652
365,0.17016585599999345,25.38,29.54,1.5445363688372047
366,0.17029159699999497,23.64,27.36,1.5601523037394853
367,0.17041328499999508,28.2,27.88,1.78099423883964
368,0.17047952999999438,22.3,28.9,1.6895705493575306
369,0.17060910499999338,20.66,28.5,1.9714239187904568
370,0.17070643099999572,25.8,28.18,1.702668514731953
371,0.17077834199999486,23.36,29.94,1.6697321328053483
372,0.170843265999995,23.4,26.96,2.007741578262915
373,0.1709176249999942,27.48,25.84,2.080733027752882
374,0.17102557599999457,29.0,26.64,2.288902901317136
375,0.1711929179999956,19.62,27.0,2.29053813319691
376,0.1713089149999938,25.24,26.74,2.525003037654222
377,0.1713950289999957,16.32,31.18,2.30440414593951
378,0.17146626899999617,28.08,27.42,2.4911449090903934
379,0.17156904699999487,30.74,25.88,2.464162097748522
380,0.17166916899999762,21.82,28.36,2.6733795281409156
381,0.171747780999997,31.26,25.76,2.703159975358685
382,0.17184178199999778,31.0,25.88,2.7278577887340383
383,0.17193893099999968,27.36,26.8,2.622343680316457
384,0.17202066299999785,19.1,26.52,2.353386564172402
385,0.1720871829999986,22.6,28.34,2.1557085313635227
386,0.1721544520000009,16.46,27.4,1.9017137626024527
387,0.17223208200000073,22.14,29.74,2.1518781695626146
388,0.1723278999999991,22.28,26.04,1.9126504220510974
389,0.17242186000000004,21.84,29.86,1.552674781257626
390,0.17254288699999876,13.82,36.72,1.2991696499404726
391,0.17264594999999971,24.0,28.06,1.4987588226436308
392,0.17271234400000068,25.38,28.28,1.1537947384220524
393,0.17284939700000024,28.04,26.38,1.1833505893231062
394,0.1729377139999997,23.44,26.8,1.2060005189957081
395,0.1730185019999979,21.68,27.18,1.4201764735695455
396,0.1731002900000007,17.46,27.64,1.5184030170961087
397,0.1731634910000004,22.92,26.06,1.2482120429103376
398,0.173246197000001,23.28,27.72,1.3340550627421828
399,0.1733401040000011,22.3,30.02,1.485048262795423
400,0.17343218599999943,19.6,29.88,1.4847019610260013
401,0.17357343899999833,23.36,26.06,1.2473957451019602
402,0.17366949199999837,30.2,26.34,1.4910781869430374
403,0.1737954459999962,22.0,25.9,1.7162113320956458
404,0.17396672999999652,18.92,26.52,1.700041385901826
405,0.174070590999996,16.9,28.0,1.5129167722692969
406,0.17419255599999772,18.28,26.86,1.4946107500091983
407,0.17435002299999525,19.02,27.82,1.523227940295574
408,0.17445006399999485,22.04,27.08,1.427225508589715
409,0.17453462699999633,23.72,27.22,1.3285058464683899
410,0.17463371399999517,25.04,26.98,1.3865791019172278
411,0.17474096599999456,24.1,26.94,1.3963803558785592
412,0.17481924999999165,18.1,29.86,1.1560086485357304
413,0.17490251799998902,24.26,29.4,0.9016617853619081
414,0.1749808749999886,24.9,27.34,0.9176768910974431
415,0.1751152149999875,23.72,26.68,1.1546771566534595
416,0.17526046699998687,19.28,27.16,1.0615128077051292
417,0.17536079999998577,22.22,26.66,1.3091899947747012
418,0.1754571569999861,25.94,26.4,1.3414469843134487
419,0.1755234189999868,21.04,26.78,1.3346460165810359
420,0.17559265599998497,26.08,26.52,1.2876556257147105
421,0.17571219099998459,21.56,25.5,1.3699386454751223
422,0.1758284159999839,7.04,31.72,1.5439101587103
423,0.17592767799998654,25.14,25.32,1.5920641287577308
424,0.1760200089999877,21.62,26.6,1.632837463821296
425,0.17614603499998793,27.88,26.36,1.673618427934017
426,0.17621128299999,28.46,25.7,1.940783910829314
427,0.17631106099999272,3.78,44.84,1.713994926958955
428,0.1764212829999927,21.48,27.14,1.9310455793022
429,0.1765385919999929,4.84,39.94,1.9895158726380315
430,0.17667792899999313,23.94,26.64,2.0648529355266776
431,0.17677242499999224,20.0,26.96,2.2883593772830415
432,0.17686395599999116,22.8,27.62,2.132032158056288
433,0.17696513399998892,23.88,27.92,2.1243808176223404
434,0.1770824999999867,25.74,26.92,2.064585355119842
435,0.17716912399998463,23.14,26.74,1.9556469393863112
436,0.17723637099998513,22.02,26.38,1.7212033091854742
437,0.17738406999998446,21.2,26.3,1.6424767373766578
438,0.17745397099998428,23.72,27.64,1.6638658396114394
439,0.17765427299998393,23.26,27.16,1.5971181382151407
440,0.17775944899998564,25.16,26.1,1.5376891759937792
441,0.17784717899998626,19.82,26.62,1.2675914258177976
442,0.1779459249999853,27.98,27.48,1.5537063215194664
443,0.17806215799998526,22.46,26.84,1.5328516789372117
444,0.17823526899998754,23.7,26.22,1.6294199714629976
445,0.17833624099998602,24.66,24.9,1.8543207307783363
446,0.17840851099998645,19.16,27.68,2.089837114575206
447,0.1784882869999862,19.68,26.84,2.120933247648832
448,0.17855398199998618,18.74,26.72,1.904425208927406
449,0.1786349229999864,27.58,25.92,1.8803764056254977
450,0.1787319849999882,30.32,25.4,2.1078435475645967
451,0.17879487399998695,21.32,27.08,2.144618611928532
452,0.17887133199998573,25.98,25.82,1.8853115390896598
453,0.17898689999998751,22.96,27.18,1.8703431305992857
454,0.179095894999989,28.82,26.42,1.8989505492576888
455,0.17919139899998626,23.98,26.64,1.4215115753105585
456,0.17926857599998414,27.16,25.74,1.4677592300856368
457,0.1793905699999847,22.5,27.02,1.4856474189927034
458,0.1795829519999863,28.9,26.1,1.553455039269992
459,0.17969119199998929,26.08,26.12,1.7891248879428907
460,0.17980951299998793,23.72,27.5,1.5613425622284602
461,0.1799729399999883,32.4,25.82,1.4733911320657023
462,0.18006291599998647,26.7,26.66,1.413195334391729
463,0.1801453809999849,21.78,27.42,1.691801555500433
464,0.1802666689999839,26.82,26.36,1.8355205944984712
465,0.1803579089999836,19.68,28.22,2.170305365488897
466,0.18051129799998478,28.26,27.14,1.923673915603483
467,0.18059561099998334,20.44,28.04,1.8884515421457002
468,0.18071609099998298,22.24,26.42,2.0721774393076795
469,0.18083394999998248,20.52,28.74,2.0714177049824007
470,0.18095477599998233,26.1,25.28,2.29848216573071
471,0.1810640239999799,26.88,26.74,2.366766086693864
472,0.1811634159999791,22.58,26.94,2.453362112557654
473,0.18123520399997872,18.82,26.16,2.259249022314766
474,0.1813426189999774,28.68,27.08,2.05417939099146
475,0.18147596399997923,24.76,26.4,1.8017100183280104
476,0.18155291299997955,21.2,27.34,1.7977162324126208
477,0.18172265799998044,23.04,26.44,1.8611304849495671
478,0.18181866299998006,23.12,26.62,1.6094093107704865
479,0.18193013599998054,29.0,26.4,1.3527952655246502
480,0.1820188619999783,17.1,27.82,1.1017566862978327
481,0.1821005089999801,26.82,26.14,1.07247478648112
482,0.18220262999997772,23.0,26.96,1.252733172486797
483,0.18230295199997926,14.54,27.44,1.204103428726335
484,0.18242437599997885,26.96,26.22,1.1637762035586703
485,0.1825796069999761,24.02,27.46,1.1949294969488236
486,0.18272592499997486,20.42,27.76,1.3994937756267376
487,0.18288864799997384,20.58,26.44,1.3289927180701298
488,0.18299236799997232,23.6,26.4,1.2746739291129188
489,0.18314507299997018,20.56,26.32,1.302909893413976
490,0.18325349499997046,20.22,27.24,1.3585363330853724
491,0.18333076899996925,21.8,26.96,1.423113653223178
492,0.18339867299996726,19.36,27.24,1.412422170891911
493,0.18352160099996695,25.88,26.46,1.3951941001651549
494,0.1836060669999675,25.52,26.36,1.6555741009453584
495,0.18367382699996782,20.26,27.6,1.9027959473496288
496,0.18379250499996758,23.12,26.7,1.9022733244893886
497,0.1838655119999686,29.64,25.9,1.990128511241845
498,0.18396203499996844,27.36,26.26,2.327323847070768
499,0.1840524519999711,27.08,26.9,2.3638153552269294
500,0.18420262899997297,30.28,26.2,2.3022538995936537
501,0.18434135899997273,23.9,26.24,2.2243820822751883
502,0.1844768209999721,23.26,26.04,2.0191951390263516
503,0.1846233519999707,25.56,28.28,2.3175742409190994
504,0.1847926149999708,25.74,26.1,2.0273336806424207
505,0.18490032399996892,21.64,26.54,1.6507733720804023
506,0.18500282399996948,24.26,27.12,1.3759969072391716
507,0.1851550529999706,27.06,26.22,1.3585915921426863
508,0.18526274199997061,23.0,26.06,1.2788513250340567
509,0.18535855399997203,-5.48,54.78,1.3056472392189005
510,0.18549035599997055,21.02,26.84,1.5627207856920482
511,0.1856117759999698,23.66,26.84,1.5875175091553686
512,0.18570358299997025,24.76,26.1,1.5819243130550589
513,0.18579042099996812,25.9,26.74,1.5146606903068558
514,0.18587930299996813,24.88,26.86,1.561407859212015
515,0.1859713199999682,18.46,27.52,1.633771875524061
516,0.18606229799996754,24.6,25.18,1.7254025342896475
517,0.186142303999965,22.3,27.3,1.7123572763243409
518,0.18625241899996325,24.24,27.16,1.4599513573108625
519,0.18632173999996482,23.64,26.9,1.7006011383912114
520,0.18639649599996488,27.72,26.8,1.5051225560559014
521,0.18647883899996387,23.9,26.78,1.4437908253003127
522,0.1865690019999633,26.64,26.14,1.7810023959575514
523,0.1866455919999659,25.66,26.58,1.5424425697185573
524,0.186713821999966,22.66,26.18,1.7800640100890637
525,0.18679288999996402,23.6,26.98,1.78028283508383
526,0.18688942699996502,26.0,25.48,1.803586523327775
527,0.1870227379999676,26.9,26.64,1.754985551149043
528,0.18719752099996612,27.14,26.3,1.7600069361410131
529,0.18733528799996435,27.06,26.6,1.7299955384112429
530,0.1874531319999626,22.02,27.48,1.7212334656133201
531,0.1875627919999623,24.42,26.18,2.095740554623795
532,0.18767003399996085,21.04,25.92,1.7732840885072236
533,0.1877768559999602,24.22,26.86,1.7802876993367405
534,0.18788996099995714,27.0,26.54,1.5160587645623067
535,0.1880070679999548,-2.46,34.22,1.833547481145785
536,0.18811887399995797,26.84,26.78,1.7462638618986261
537,0.18821168699995994,23.2,27.78,1.7799082948905287
538,0.1883317219999583,24.8,27.8,1.7673721156345423
539,0.18845328799995897,18.6,26.9,1.5497800269515296
540,0.18852204599996014,26.92,25.82,1.522640231790787
541,0.18860956199996082,17.9,27.02,1.4744973533805301
542,0.18870857299996047,31.52,25.46,1.4198848488304576
543,0.18878773499995916,27.38,25.98,1.399429564111383
544,0.18888060999995915,25.8,26.62,1.4794738731326675
545,0.18896074499996018,19.48,26.1,1.1620308195033935
546,0.18903808899996122,27.24,25.76,1.2135975500590874
547,0.18913245899996056,27.44,26.62,1.1783550944035923
548,0.1892162419999579,24.96,25.82,1.1857749694078918
549,0.18933140099995782,25.12,26.64,1.1623451290592512
550,0.18942947599995819,22.72,26.58,1.1336971668030174
551,0.1895117279999603,28.28,26.46,1.1024416497287852
552,0.18961917899996195,27.56,25.58,1.108448623107607
553,0.1897153719999629,25.16,26.02,1.360956239648369
554,0.189838862999963,19.14,25.92,1.3331034185815163
555,0.18993914199996453,24.12,27.0,1.522605657759685
556,0.19003965799996436,20.98,27.14,1.5345495965091942
557,0.1901742299999647,32.08,26.06,1.76538861734119
558,0.19027994999996523,24.3,27.4,1.7777771313742263
559,0.19036160399996405,24.46,27.06,1.9821594482800484
560,0.19047059199996497,24.82,26.88,2.0482725927388366
561,0.19062405499996515,-8.82,35.14,2.1335650898494714
562,0.19077260099996352,19.3,26.96,2.1371460583697983
563,0.19086197099996483,23.44,26.16,1.9051946522333814
564,0.19098224699996535,24.84,25.16,1.950311163451459
565,0.1910684999999681,19.56,26.06,1.9820353698823467
566,0.1911618949999685,15.78,27.96,1.996101595325031
567,0.19127684699996905,23.94,26.78,2.0419830900146096
568,0.19136864199997206,19.24,27.28,2.047345073888137
569,0.1914557929999745,19.64,26.62,1.7973941397292144
570,0.19154734499997517,26.68,26.64,1.737631678125267
571,0.1916420439999733,20.94,27.46,1.3522000377079801
572,0.19171951299997048,26.28,26.84,1.3334309683102612
573,0.19179692199996978,17.28,27.1,1.303401423281375
574,0.1919282529999684,25.8,26.44,1.1971407436321475
575,0.19211332899996592,25.32,25.1,1.172166301803797
576,0.1922285269999655,-4.0,51.64,1.1458455667177914
577,0.19236566499996854,28.02,25.86,0.8383745232869322
578,0.19249423599996973,17.32,27.6,0.8188603828837492
579,0.19260850199997037,25.46,27.04,0.8713527924855262
580,0.1927897929999709,28.74,26.58,0.8883918252299742
581,0.19288608799996965,26.7,25.86,0.8883030645317046
582,0.19298518999996972,-5.96,36.08,1.1920250479845298
583,0.19307050999996989,11.08,32.6,1.2086122945076305
584,0.193195141999972,21.18,25.8,1.5441464150897553
585,0.19326699999997032,27.18,26.14,1.293093620004168
586,0.19333226699997041,25.84,27.16,1.2556614667892583
587,0.19343742199997038,21.68,28.06,1.604042284175332
588,0.1935099529999711,24.8,26.5,1.644601268606087
589,0.19357822399997104,22.26,27.08,1.9057572214007394
590,0.19369048099997244,23.86,26.54,1.9470699902589494
591,0.1937807219999712,27.04,27.08,1.959004507563948
592,0.19385136699996863,23.86,26.42,1.9147939235689513
593,0.1939487629999661,27.68,26.26,1.9393360710412701
594,0.19404441699996866,26.48,26.88,1.7030272562376716
595,0.19414845699996874,27.46,27.06,1.6932972383118652
596,0.19427627999996844,25.82,26.38,1.9267934659110204
597,0.19436737799996706,28.58,26.56,1.6444254311135929
598,0.1945058869999663,22.04,26.32,1.8260359329786495
599,0.1946008279999667,24.48,25.8,1.753060955702582
600,0.1947286209999639,-18.14,66.52,1.9479689537322238
601,0.19484491499996182,5.12,46.28,2.0879131402870534
602,0.194941625999963,12.86,39.64,1.9467414901214588
603,0.19505683799996376,-22.94,76.82,2.1748917386859725
604,0.19523715799996566,-9.08,59.22,2.1571590757444157
605,0.19534789499996563,13.56,36.94,2.2806243396472317
606,0.19551151899996455,-9.88,62.34,2.1136838691976414
607,0.1956217809999643,11.18,38.42,2.1454830010795973
608,0.19586083599996584,-61.64,107.72,2.038768856717504
609,0.1961207899999664,-38.22,85.78,2.1626016301835085
610,0.1962859069999645,-134.66,162.6,1.9676320702879202
611,0.19646781399996271,-131.68,154.92,1.87208811349834
612,0.19660220199996203,-23.96,77.54,2.0126968353791694
613,0.1967634389999624,-32.22,78.1,1.8110646658398024
614,0.19693362399996062,-22.32,71.82,1.977905099369829
615,0.19707533799996213,-107.34,140.22,1.9219250006493254
616,0.19727316399995942,-18.24,69.68,1.8799388400944963
617,0.19738854399995986,-19.24,70.12,1.821162215255633
618,0.19747138499995742,6.86,40.82,1.7184506325685915
619,0.19756439799995817,18.98,27.1,1.3486695996324216
620,0.19764421599995785,19.8,27.12,1.2962153376732044
621,0.19778237599996018,13.24,42.26,1.5752579757898562
622,0.1978675279999571,27.02,26.96,1.5655928230817946
623,0.19793921399995895,19.88,28.02,1.5259186110385445
624,0.1980075029999604,26.32,26.0,1.2806611374506534
625,0.19808199999996035,18.18,26.38,1.2175612929941597
626,0.19814245899996052,23.86,26.64,1.1953348443322769
627,0.19821889899996137,20.9,26.84,1.2695267079262758
628,0.1983520129999583,19.68,27.38,1.248195182359787
629,0.1985185399999594,23.8,27.0,1.5600494248918901
630,0.19862788799996167,23.36,26.74,1.5544008605770114
631,0.19876380399995952,21.36,27.4,1.4771621809884015
632,0.19888948299995945,15.64,27.0,1.4186032244611395
633,0.19898446199995945,25.84,26.04,1.5260645477413204
634,0.19906590199995833,20.64,26.56,1.6187403976567623
635,0.19915978899996034,21.64,27.08,1.6984263499116878
636,0.19925573299996202,22.26,26.36,2.0703175886604535
637,0.19931925299995967,21.08,26.16,1.99210614284938
638,0.19938786099996264,27.18,25.6,2.052106363105976
639,0.19946982999996266,21.48,27.28,1.7515567034604274
640,0.1995609869999626,25.08,26.84,1.7631411135283828
641,0.19963894099996082,28.58,25.9,1.514540282944872
642,0.19970945399996154,23.98,26.76,1.3875894323520555
643,0.19981157999995958,27.2,26.66,1.513827644704778
644,0.19990441999996023,24.42,26.22,1.474941092368533
645,0.19996960299996047,26.42,26.36,1.4682615418127392
646,0.20006165499995987,28.42,24.76,1.1663873319975244
647,0.20015089599996116,27.56,25.98,1.171989747557852
648,0.200219441999959,15.4,30.38,1.3676765784493363
649,0.20032562699995893,23.76,26.38,1.4554558676932288
650,0.2004836139999604,27.46,26.34,1.4732837190398462
651,0.2005891479999633,22.18,27.7,1.5527927283177867
652,0.20069048099996323,23.32,27.4,1.5525836237914254
653,0.2007895779999629,25.5,26.08,1.3894834018427098
654,0.2008661149999611,25.76,26.66,1.3383525893830672
655,0.2009420629999603,23.12,26.4,1.3119002783318314
656,0.2010223009999592,25.5,25.98,1.218617716929522
657,0.20109015899995697,31.48,26.08,1.485547569860762
658,0.20119940499995437,24.14,26.14,1.251570034052315
659,0.20140870599995608,17.04,26.5,1.2392389901581442
660,0.2015232529999551,19.5,26.22,1.2292123576058696
661,0.20158631599995758,23.18,27.2,1.1519960457497187
662,0.20166604199995675,28.92,25.56,1.0913530242204719
663,0.2017422099999564,22.1,27.46,1.0823751048751578
664,0.20183957999995883,25.02,26.02,1.0847977022404098
665,0.20191809099995695,29.4,25.92,1.1582948315670554
666,0.20205436599995608,19.12,28.88,1.2099628692973947
667,0.20215605999995745,21.24,27.24,0.9424223446598365
668,0.20224404499995785,18.42,26.18,0.9380234320020016
669,0.20237630199995493,22.86,27.28,0.8472582009536971
670,0.20249278999995823,27.84,26.28,0.8487727620370051
671,0.20263210099995632,22.2,26.9,0.8996581283420951
672,0.20276917599995414,25.16,25.56,1.1562319365836522
673,0.20287587699995413,27.0,26.78,1.1277072253810467
674,0.20301343599995292,24.2,26.3,1.1752327090553814
675,0.2031100499999532,25.98,27.14,1.0584086464621738
676,0.20319604499995236,24.74,26.48,1.1250836457371054
677,0.20331773899995298,19.58,26.06,1.0982948917463045
678,0.203430193999953,23.96,26.58,1.33691429747668
679,0.20354490499995137,25.7,26.58,1.3348971780368903
680,0.2036327149999515,23.38,26.72,1.3145120340293612
681,0.20375724799995254,22.8,26.54,1.283833850045004
682,0.20382853099995302,25.7,26.44,1.1292147518667552
683,0.20391895999995313,25.42,26.24,1.1806731954983536
684,0.20403959399995486,24.28,25.64,1.1414560552973103
685,0.2041414739999574,26.06,26.86,1.3941807352484445
686,0.20424524999995697,23.06,28.2,1.3091688804599273
687,0.20440037099995934,1.72,33.8,1.5567715475313144
688,0.2044912209999623,-1.18,42.18,1.3464587906037735
689,0.2045950789999651,22.32,26.66,1.4556691067112517
690,0.20466612299996356,-13.34,65.84,1.5135085268267354
691,0.20480465199996445,-6.2,61.84,1.5571420567276355
692,0.20491013199996289,19.86,26.28,1.5113332069652088
693,0.2049937289999626,9.46,42.24,1.464423660250168
694,0.2051117119999617,26.64,27.7,1.4686238817857387
695,0.20522344399995873,22.74,26.92,1.2578679934439498
696,0.20534703499996,24.2,26.76,1.2536113215928246
697,0.2054733969999596,18.52,28.18,1.2989807197928684
698,0.20558637399996016,22.64,25.94,1.288720285991839
699,0.20568032199996011,23.64,26.9,1.198347656652409
700,0.20579012699996113,31.08,25.72,1.17670984426845
701,0.20587014499996314,22.7,26.5,1.3809116008476294
702,0.20595203899996406,18.62,26.4,1.3714548393184074
703,0.20601779199996528,24.22,27.08,1.3411007022338588
704,0.2061016419999646,23.28,26.36,1.3736060192399884
705,0.20622488899996583,24.46,26.8,1.355902225713588
706,0.2063525079999664,22.08,27.62,1.3394382235496713
707,0.20644741799996424,23.14,27.3,1.3167749642029611
708,0.20653074399996285,23.82,26.64,1.3235851297811358
709,0.2066372069999609,21.06,26.34,1.5575329210418516
710,0.20672774099995905,16.24,28.68,1.8007659394128617
711,0.20682553599995757,27.42,25.94,1.8777799597710527
712,0.20694029299995975,23.32,27.76,1.9500005807632341
713,0.20702643399996035,24.6,27.24,1.9804810933045673
714,0.20710273499996035,24.14,26.54,1.9156012813046785
715,0.20723090999996074,27.5,26.14,1.9673995504717332
716,0.20738873999995988,21.56,26.58,2.2093972233650434
717,0.20748324999996015,24.86,26.04,1.999604473669244
718,0.2075713369999619,16.9,26.68,2.031791922863326
719,0.2076753009999628,23.3,26.38,2.0170928198444726
720,0.207761737999963,26.14,26.1,1.9777574263066704
721,0.2078474639999648,21.7,25.98,2.001144813489467
722,0.20791757899996455,14.5,26.84,1.9049901647309135
723,0.20798873199996493,27.84,27.04,2.100510712933744
724,0.2081110539999642,-3.22,56.08,2.360082460065562
725,0.2082510349999609,-119.48,143.42,2.3726564756536113
726,0.2083525999999587,11.74,41.84,2.145570661886192
727,0.20845252599995945,22.16,26.92,2.1031497334557487
728,0.2085500359999628,26.26,25.72,2.32920542019587
729,0.20864068399996327,27.72,26.44,2.130428722973013
730,0.20871319099996555,8.62,40.62,2.2335161684112625
731,0.20881391399996474,23.9,26.56,1.9161693903852615
732,0.20890002799996665,25.6,26.46,1.9089506810932968
733,0.20898132799996816,22.8,26.72,1.713428142128452
734,0.2090575519999689,27.32,26.66,1.7145695953823463
735,0.2091721109999689,23.6,26.32,1.6408899793608476
736,0.20926543199997028,20.7,27.04,1.678918441496466
737,0.20934051199997228,22.88,27.48,1.9715248514729935
738,0.2094323259999733,21.74,28.18,1.9269634286713881
739,0.2095128039999743,19.14,27.2,1.9045148304737616
740,0.2095758529999756,23.7,25.78,1.814886779810721
741,0.20966855899997583,26.58,26.02,1.7643236855114162
742,0.20974028399997735,20.28,26.3,1.8096545917474836
743,0.20987418799997926,18.8,26.52,1.7928224767653886
744,0.20996691499997766,25.94,26.52,1.54683223882505
745,0.21008991099997587,23.32,27.58,1.5525597524494281
746,0.21017966199997673,21.18,27.8,1.5044022777079058
747,0.21024674999997828,22.52,27.7,1.294620980615172
748,0.2103261059999788,21.72,27.48,1.0427361573085256
749,0.21039157999997826,23.9,26.46,1.021618596360947
750,0.21047584399997987,29.0,26.82,0.8593040086249296
751,0.21059523899997856,21.26,27.18,0.8710444156743457
752,0.21069700799997904,25.18,26.88,0.8214346498843369
753,0.21077148899998122,24.28,27.96,0.7794597846531502
754,0.21085369199998283,21.6,27.38,0.7610305117328394
755,0.2109411329999844,26.32,26.68,0.7503157015981656
756,0.21102884499998353,25.98,26.48,0.76093203340588
757,0.21113607099998433,15.3,27.34,0.908513608556951
758,0.21124638999998524,25.26,27.2,0.9995776724371332
759,0.21135193099998517,24.36,26.32,1.0953133157390347
760,0.21143236699998624,26.34,26.4,1.430591557156746
761,0.21150360399998647,25.6,26.88,1.4588505883556286
762,0.21158837599998748,28.56,25.96,1.7036463406966504
763,0.21170322499998662,28.06,27.26,1.8022667998244941
764,0.21179594199998775,29.78,26.96,1.875369988134787
765,0.2118967969999872,16.74,27.9,2.1177797295654246
766,0.21197835099998485,27.56,27.72,2.4558516511899624
767,0.21208138199998317,23.6,26.76,2.4807268084249863
768,0.21218877199998332,26.36,25.88,2.4669847461134706
769,0.21232144899998318,-10.02,61.86,2.4643525537154405
770,0.2124557349999847,19.48,27.94,2.3142811296696117
771,0.21252692599998468,24.64,25.68,2.345240017718266
772,0.21261240099998346,19.14,28.32,2.1762176574683982
773,0.21268646299998295,2.44,49.08,2.1366662940200714
774,0.2127591099999826,3.3,44.48,2.0982943096031113
775,0.2128457839999811,21.06,27.2,2.1768244862483677
776,0.21294323599997966,25.56,27.3,1.820817793875642
777,0.21303124299997833,24.38,25.9,1.541338346907293
778,0.21312774099997966,16.46,27.66,1.462540031966269
779,0.21321578199998115,27.84,25.88,1.6837263505606166
780,0.21330356399998252,23.22,26.88,1.49330771961624
781,0.2134280069999832,29.38,25.54,1.4394455129057704
782,0.21349228699998335,25.58,26.26,1.3725839040456038
783,0.21361163099998137,23.58,26.2,1.3249535401529848
784,0.213683516999982,26.6,25.74,1.5547108017721882
785,0.2137800749999812,25.2,26.5,1.272628298929557
786,0.21384507799998076,26.06,26.48,1.2969005347329186
787,0.21391944999998103,25.56,26.6,1.5853839063255275
788,0.2140099449999795,23.54,26.24,1.6466274919230188
789,0.21411729899998022,20.34,27.62,1.3781868798200634
790,0.21425760499997892,27.0,26.84,1.3454788711119647
791,0.21440428299997905,27.7,25.92,1.385924671297112
792,0.21451520599997664,30.24,26.02,1.3707259234389326
793,0.2146766599999772,20.98,26.54,1.6960772169168563
794,0.21481319099997975,22.72,26.8,1.4956359785604767
795,0.21491043699998258,24.7,26.08,1.541255210498246
796,0.21498792399998123,21.62,26.82,1.5873125897255917
797,0.21507093899998253,21.82,27.6,1.5776596211644864
798,0.2151564259999823,-7.58,59.16,1.8457355341487933
799,0.21528542399997974,26.64,26.44,2.094091932354501
800,0.21543230099997857,17.44,27.84,2.11478088673564
801,0.215546785999976,-10.68,66.3,2.1617149644445073
802,0.21562580299997336,27.12,26.82,2.243278362318994
803,0.21571693999997166,24.34,26.96,1.967840436966977
804,0.2158278339999704,26.84,27.0,2.0026419575807317
805,0.21590612999997205,26.14,26.64,1.9869161647307103
806,0.21600052399997338,23.28,27.4,1.9911313567632347
807,0.21608586299997512,25.96,27.0,1.773476580891699
808,0.21615530999997645,25.42,26.64,1.5016021278475093
809,0.21628425699997678,24.62,27.58,1.2254967037344329
810,0.21644987699997742,30.64,25.48,1.2089627882590173
811,0.21658827799997837,27.44,26.24,1.1151575089081924
812,0.21674421899997753,28.62,25.64,1.0890518806287957
813,0.21683259299997815,20.94,27.02,1.15243854348384
814,0.21691849199998003,20.1,27.14,1.0576642707571704
815,0.2170217109999797,22.12,27.04,0.9708861600611091
816,0.21711703099997948,21.76,26.2,0.8926394560671153
817,0.2171861289999768,23.6,25.92,0.8753279784598458
818,0.2172798179999802,25.8,27.32,0.8748508878540815
819,0.21738311699998292,8.76,43.34,1.059508873309279
820,0.217496829999984,19.58,26.64,1.0663732998116244
821,0.21759177399998464,6.24,44.3,1.0601485750578974
822,0.21771478199998384,18.42,28.38,1.0566050906676456
823,0.21784117599998254,20.48,27.88,0.9616053698317246
824,0.2179421429999806,23.62,26.56,0.96216568661179
825,0.21805943999998334,20.58,27.68,0.9635497383515192
826,0.21814282199998303,23.48,27.24,1.0157600238700026
827,0.21823118999998314,23.64,26.72,1.0254305556759629
828,0.21831434999998223,26.98,25.44,1.008784154616897
829,0.2184086439999824,21.66,27.24,0.8112175587947783
830,0.21849646499997988,27.6,27.68,1.1027847059466613
831,0.218581636999982,29.5,26.04,1.1833991343793746
832,0.2186781199999821,20.3,27.34,1.1672943807786225
833,0.21877626099998437,23.38,26.74,1.1649211185278585
834,0.21886045099998697,19.88,28.1,1.2626294738513404
835,0.21892355399998564,27.04,26.14,1.5563119525329665
836,0.2190367249999845,25.5,26.42,1.4988647040024996
837,0.21914103799998585,22.88,26.76,1.4714651311164046
838,0.2192201099999842,26.04,26.24,1.516926598548362
839,0.2192944199999829,19.46,27.88,1.8686879867692348
840,0.21942887699998082,21.84,27.14,1.525237233030601
841,0.2195659709999802,26.48,26.42,1.4872530431126845
842,0.21970761799997973,25.02,26.1,1.4860729149577747
843,0.21979852499998032,25.5,27.32,1.4767005938952704
844,0.21989567399998222,19.5,27.38,1.4212518577669004
845,0.21999097899998077,19.18,26.98,1.483051773504614
846,0.22009813499997932,-5.04,49.82,1.5637014842766543
847,0.22024406699997812,8.48,42.24,1.6060154247126062
848,0.22044229999998066,-3.34,55.16,1.5605497149946363
849,0.22056982099998024,12.42,38.22,1.2412760333240942
850,0.22066497699998067,0.0,43.22,1.3262583092336189
851,0.22075637299997908,6.54,44.36,1.547542243447004
852,0.2208399809999797,27.28,27.28,1.6127474994477986
853,0.22090884499998253,23.44,26.92,1.6089056804841917
854,0.22100031299998335,23.16,26.18,1.6622146602901844
855,0.22110199299998357,27.84,25.46,1.5660979246875997
856,0.22118981099998436,26.68,26.64,1.54860291842095
857,0.22125788699998594,26.9,26.42,1.5249017598268857
858,0.22134982599998665,29.22,25.52,1.7376426499929196
859,0.221459493999987,26.02,27.38,1.7745390425009262
860,0.22158130799998688,25.38,26.5,1.9617831777771655
861,0.22166539099998417,27.28,25.6,1.7935036542707472
862,0.22173256899998606,25.94,26.3,1.749051541555339
863,0.22187075499998699,24.46,26.7,1.7746273395134686
864,0.22196707199998755,23.7,25.52,1.7078264686883593
865,0.22207078999998942,18.7,27.26,1.46400546583289
866,0.22222149199998853,26.48,26.52,1.6578768266229376
867,0.22234794099998823,21.92,26.7,1.7038296048034787
868,0.22243344599998593,29.46,25.96,1.7038901282731183
869,0.22256719099998534,23.76,27.18,1.8805577158808737
870,0.22264944799998432,22.54,26.48,1.7369678699429592
871,0.2227188049999853,-0.56,48.7,1.734969154762593
872,0.2227904659999851,26.68,25.84,2.0620218965259065
873,0.22286503699998406,24.96,26.08,2.30908372127044
874,0.22295395699998366,27.86,26.84,2.316765406068967
875,0.22302197699998416,28.1,26.06,2.3647755115710125
876,0.2231158199999861,17.7,26.7,2.1786065031251596
877,0.22321526799998637,23.82,26.46,2.342015559441177
878,0.2232895259999843,31.38,25.68,2.176191033528783
879,0.2233608049999809,-1.76,45.02,1.9941702078489996
880,0.22346246599997954,23.0,27.1,1.9009509041039139
881,0.2235283029999806,19.56,27.5,1.8540734234497287
882,0.2236117189999831,19.7,27.22,1.8205656171218898
883,0.22370273699998222,31.9,25.62,1.628557808564178
884,0.22379568599998478,19.46,26.8,1.6938185616083914
885,0.22389228299998365,22.22,26.54,1.6346439953414644
886,0.22397148599998573,14.88,27.54,1.6633989713367576
887,0.22405637399998568,24.32,27.16,1.4944286008326704
888,0.22414369199998418,15.0,26.98,1.4642865036456185
889,0.22420051999998591,14.78,27.56,1.4039589469776552
890,0.22428585499998377,28.22,26.3,1.361085776720638
891,0.22438530999998463,24.94,26.54,1.6017193790967066
892,0.22445913699998243,28.1,24.36,1.2637365641786604
893,0.22455198299998358,21.08,26.3,1.2486411983749552
894,0.22466516099998302,27.56,26.82,1.1321951339318947
895,0.22475455099998243,25.28,26.06,1.1912800726196642
896,0.2248584499999815,21.18,26.36,1.1107527055425472
897,0.22493738199998248,20.28,28.38,1.0147588943108596
898,0.22503102699998223,25.42,26.1,1.2115726470319084
899,0.2251043339999832,23.68,26.24,1.3009702452410785
900,0.22520850499998346,24.2,26.66,1.5583102049077664
901,0.22529353899998483,23.38,25.56,1.3371111381161047
902,0.22539200599998566,23.3,26.7,1.414394859190455
903,0.22547370999998506,25.7,26.18,1.4003581197693546
904,0.2255448159999851,22.38,27.44,1.5090768044303733
905,0.22567183499998578,20.6,27.62,1.5291160716543775
906,0.22579962699998646,22.24,25.94,1.5626466475465626
907,0.22589956599998473,24.64,26.22,1.657993636675642
908,0.226021856999985,20.94,27.0,1.461369627655771
909,0.22612679699998495,27.02,25.04,1.3691540092724417
910,0.22621295799998364,27.18,26.62,1.3608766059686594
911,0.22632866399998264,25.86,25.44,1.27770224157074
912,0.22640218299997983,20.84,27.08,1.1819804592054508
913,0.2265331299999822,14.56,29.0,1.4210091729696983
914,0.22662372299998168,23.06,26.5,1.6021919101496316
915,0.22669595099997863,26.94,26.06,1.6117704600077112
916,0.22677424099997623,29.82,26.58,1.567983024263057
917,0.2268752279999795,23.52,26.36,1.738385429336453
918,0.22700195599998096,19.4,27.74,1.9333415361266026
919,0.22707081799998008,9.76,44.18,2.078167834299536
920,0.22723018899997882,-15.62,64.38,2.2406583451409796
921,0.22733563799997825,-4.74,55.6,2.306623790442397
922,0.2274501889999776,28.56,26.54,2.3604390943011966
923,0.22753426999997828,-11.88,62.6,2.350532353858889
924,0.22767475499997758,-162.94,177.66,2.302265227443223
925,0.2279860829999798,-75.16,113.78,2.334578442512023
926,0.22826821799997887,12.72,37.2,2.7214329518766633
927,0.22844396199997874,-19.46,62.64,2.7209500393415396
928,0.22852969399997747,12.82,41.38,2.509708612749371
929,0.2287146129999762,-126.34,147.22,2.3881671817522743
930,0.2288304799999743,8.1,44.28,1.9895478833863982
931,0.22891484999997402,25.6,27.14,1.9386242243118779
932,0.2290260629999743,19.2,26.52,1.949814695702424
933,0.22912601899997398,14.24,39.96,1.6975114152218715
934,0.2293126449999754,28.52,26.72,1.730251647399448
935,0.22950454299997602,27.66,25.12,1.6732401078746846
936,0.22960710299997444,21.24,26.5,1.567145752476852
937,0.22982829799997262,28.36,25.72,1.392360365006161
938,0.2299183649999712,24.74,26.26,1.6509042804082832
939,0.22999944599997235,29.04,26.94,1.9148816932253425
940,0.2301706709999749,27.2,26.52,2.2765053518382716
941,0.23026178299997468,19.52,26.34,2.3038983807169564
942,0.2303439329999719,24.54,26.1,2.5890056459501034
943,0.2304477569999719,28.1,25.4,2.570066219131854
944,0.23057645199996912,17.62,29.14,2.3216549855662585
945,0.23069495999996903,27.6,26.46,2.261710203303746
946,0.23079464099996727,24.14,25.92,2.0537227448062536
947,0.230878201999964,28.16,25.74,2.2288869399380102
948,0.23097491199996512,23.28,27.6,1.9344005997492624
949,0.23107819299996635,28.32,26.12,1.6391616293502558
950,0.2311950389999673,28.06,25.52,1.3100614827925987
951,0.2312814019999685,19.3,27.9,1.288365576415852
952,0.23135319199997184,16.92,27.38,1.2276775225444048
953,0.23143016799997085,25.26,27.06,1.225925007224425
954,0.23150231699997192,21.36,26.24,1.263538067340678
955,0.23165379299997468,26.36,25.48,1.2950977243189605
956,0.2318251789999728,22.04,27.76,1.466804579678319
957,0.2319290499999731,23.42,26.28,1.609422311518881
958,0.23204437399997246,26.14,26.0,1.6618937732193075
959,0.23215301499996954,25.06,26.14,1.7584799229603305
960,0.2322759129999703,18.48,27.9,1.7204531820636233
961,0.23239333999996958,20.2,27.08,2.0229459605089977
962,0.2324850329999677,23.46,26.46,1.7863393385571888
963,0.23257493899996717,25.86,26.66,2.0191372172235744
964,0.23266408099996738,25.42,26.56,2.0576832272641417
965,0.23273952199996728,22.14,27.36,2.276758425842729
966,0.23281523199996457,23.42,26.46,2.2756770256771466
967,0.23290741899996448,22.08,26.72,2.012954627627098
968,0.23300740699996325,22.28,26.62,2.0402886143941155
969,0.2330866209999627,25.4,25.62,2.319929977891686
970,0.23315788899996193,25.82,27.8,2.3169007371641337
971,0.23324853599996231,25.88,25.34,1.9997688076402127
972,0.23334300299996258,22.68,27.68,2.206415460998433
973,0.2334431359999627,26.6,26.58,1.9638350220518859
974,0.233538492999962,27.18,25.6,2.1820507504751907
975,0.2336215999999638,27.6,25.62,1.9866749688814032
976,0.2337150739999636,25.42,27.3,1.9879678486595318
977,0.23379712199996305,21.2,26.4,1.8825088193321207
978,0.23388320399996232,25.82,26.06,1.8376263680084954
979,0.23396244199996374,25.42,25.98,1.5629144773170645
980,0.2340447409999662,20.54,26.0,1.8426070701386077
981,0.23416107499996386,26.12,26.56,2.112673666895744
982,0.23424422099996178,25.02,26.62,1.9145801551417923
983,0.23433508099996203,19.6,26.22,2.157345026893881
984,0.2344258899999616,25.38,25.52,1.9297211368928895
985,0.23453622299996013,20.64,27.04,2.1250603143061237
986,0.23460513199995958,25.34,26.46,1.9488733279675157
987,0.23469835399995986,29.42,25.68,1.9795624201291038
988,0.23482462499995904,21.56,26.58,1.9801906379595624
989,0.23490516299996145,22.04,27.34,1.9416085218259158
990,0.23499616499995923,23.18,27.06,1.7512664924848884
991,0.23509226299995944,28.46,25.78,1.7995479397143987
992,0.23519144899995936,24.62,27.58,1.9986164975248506
993,0.2352829159999601,21.28,26.9,1.807158799836855
994,0.23543910699996218,25.44,26.08,1.8142313019715472
995,0.2355485799999606,23.56,27.02,1.6315588596223036
996,0.23565679999996192,23.52,25.64,1.8072854985118063
997,0.23572845999996161,29.68,25.38,1.8075976746589766
998,0.23580759599995815,22.06,26.92,1.8073470791078876
999,0.2359148769999564,19.8,25.84,1.824164057909283
1000,0.23600063499995727,19.0,26.28,2.0464420402338677
