iter,time,reward,steps,convergence
1,0.0009824690000002079,-336.2,200.0,93.51
2,0.001884822000000952,-259.0,200.0,85.13514171
3,0.0037295569999997724,-216.56,200.0,77.58414171000001
4,0.0049450650000011365,-220.84,200.0,70.31739681
5,0.005832030000000543,-210.76,200.0,60.43600089
6,0.006676922000004026,-213.28,200.0,51.90225317870064
7,0.007551814000002821,-231.08,200.0,46.89727752332562
8,0.008421026999997139,-202.42,200.0,37.18803626670946
9,0.009450118999993151,-208.84,200.0,27.300209574600707
10,0.010317836999995222,-213.52,200.0,18.853174596948257
11,0.011576624999996454,-205.48,200.0,15.172245897314577
12,0.012571880999999507,-202.84,200.0,14.474465221623195
13,0.013413223000000585,-199.18,200.0,12.125468387718836
14,0.014270158000002198,-199.58,200.0,14.141130042417718
15,0.015474449000002721,-215.06,200.0,18.209909472499156
16,0.016339977000001227,-200.34,200.0,17.279581648987868
17,0.01718556499999835,-199.58,200.0,12.610653627087911
18,0.018019541999997557,-200.16,200.0,12.426515291518518
19,0.0188901419999965,-199.0,200.0,12.505559550456322
20,0.01973025899999925,-200.74,200.0,11.136176675486038
21,0.02058613100000173,-201.42,200.0,11.225083717907046
22,0.021440853000001425,-201.64,200.0,10.521500057917526
23,0.022285475000003885,-201.16,200.0,10.542423126435322
24,0.023481753000005767,-208.42,200.0,6.704304415391796
25,0.024325561000004825,-203.68,200.0,5.229019450214773
26,0.02517080600000554,-206.6,200.0,7.617554588555865
27,0.026011420000010332,-203.06,200.0,7.807730513608311
28,0.026896828000005257,-199.18,200.0,7.801111545328529
29,0.027735634000009668,-205.58,200.0,7.7308260293764075
30,0.028583712000006756,-199.0,200.0,7.648481973042728
31,0.029425497000012513,-199.18,200.0,6.831732949789725
32,0.03033865900000876,-199.0,200.0,6.772915832343559
33,0.031219368000002135,-199.58,200.0,6.754082814737259
34,0.03207170600000353,-199.0,200.0,5.9432860561082155
35,0.03291593300000528,-199.58,200.0,3.3973915822538885
36,0.03379695600000332,-202.48,200.0,0.579428003720912
37,0.03442318000000455,-199.0,200.0,2.512174643475626
38,0.03585548000000216,-204.24,200.0,3.322174007880389
39,0.036725875000001906,-207.62,200.0,4.752680945594574
40,0.03757749100000041,-212.44,200.0,7.102190575226868
41,0.03841637800000086,-240.46,200.0,9.914841601910126
42,0.03926988899999628,-204.32,200.0,9.932665535494465
43,0.04011604399999413,-206.18,200.0,9.930669733581832
44,0.04131992599999279,-199.0,200.0,12.730066145483487
45,0.04258101299998884,-208.28,200.0,12.900592663573466
46,0.04344924999998767,-203.2,200.0,17.86636916923145
47,0.04431470399998716,-213.88,200.0,16.970662391721145
48,0.045182288999988884,-199.0,200.0,18.696027727779676
49,0.04604576799999194,-199.0,200.0,17.24462008205442
50,0.04699867499999755,-205.96,200.0,17.504885941405526
51,0.04790084300000075,-199.72,200.0,14.756136591358509
52,0.04880608599999903,-199.0,200.0,16.960855917989726
53,0.04965908399999819,-199.9,200.0,16.96075890360608
54,0.050502048999995,-201.92,200.0,15.03731056236256
55,0.05138554299999498,-199.54,200.0,16.916459718629024
56,0.052589150999992285,-205.3,200.0,12.155789004481353
57,0.05343554699999231,-213.08,200.0,10.93044494521615
58,0.05442650399999138,-206.62,200.0,9.928221082165134
59,0.05526571199999353,-199.54,200.0,9.929376954777814
60,0.056158077999995726,-200.12,200.0,7.318750399191861
61,0.05711484099999353,-200.48,200.0,9.60475593224277
62,0.05800421299998959,-200.3,200.0,9.904155717569669
63,0.05884519099998897,-203.36,199.68,9.925347642740268
64,0.05984923399999076,-202.08,200.0,9.051677223813101
65,0.06069219199999054,-199.76,200.0,6.950706429136913
66,0.06155558899998681,-201.2,200.0,6.761977236902405
67,0.06243610999999305,-202.62,200.0,6.535878054714301
68,0.06328101099999373,-206.8,200.0,6.428752541265555
69,0.06412729999998845,-207.42,200.0,6.434030535370896
70,0.06506107399999195,-201.82,200.0,6.4411392360138295
71,0.06631849799999401,-207.48,200.0,4.0975749968226705
72,0.06728947999999235,-206.94,200.0,5.920671694407277
73,0.06816837499999195,-216.44,200.0,7.5511224346671355
74,0.06904640599999112,-207.7,200.0,11.958843497909859
75,0.06991226599998868,-202.4,200.0,13.508440202686225
76,0.07116271299998544,-200.3,200.0,13.496526256069377
77,0.07200613199998429,-201.9,200.0,13.494660460252186
78,0.07284689799998034,-204.8,200.0,16.517936796753993
79,0.07376187099998077,-226.84,200.0,19.12188848895256
80,0.07464377599998073,-210.6,200.0,21.676285837551255
81,0.07551430799998116,-201.1,200.0,23.828570569319034
82,0.07638589999997691,-200.88,200.0,19.431164055545402
83,0.07722858199997518,-204.72,200.0,17.821340926601824
84,0.0780720769999732,-237.18,200.0,14.292063008738769
85,0.07891385999997169,-211.38,200.0,13.550632564742756
86,0.07976598799996992,-203.8,200.0,14.4910676028931
87,0.08097831799997124,-200.16,200.0,15.240875294606457
88,0.08182745299997407,-201.82,200.0,12.23701124299316
89,0.08271454499997333,-214.14,200.0,11.979112669281035
90,0.08371325399997431,-201.9,200.0,10.194358577687101
91,0.08457970099997425,-199.94,200.0,8.26975100963551
92,0.08584269399997879,-204.32,200.0,12.514867097575896
93,0.08668229199997768,-200.74,200.0,15.295125546396074
94,0.08756223699997889,-210.2,200.0,19.15978999580878
95,0.08843385599998044,-199.94,200.0,18.35672185729452
96,0.08934104099997597,-202.14,200.0,18.1137836176471
97,0.09018956899997477,-199.76,200.0,17.421863647841015
98,0.09107057999997892,-199.9,200.0,16.048667411092975
99,0.09193713099998035,-199.0,200.0,13.922450935299116
100,0.09282986599998111,-207.12,200.0,13.14531695516734
101,0.09366965799998184,-207.7,200.0,12.9101408023349
102,0.09497979299997894,-209.18,200.0,11.523767852921385
103,0.09586429499997706,-200.74,200.0,11.334898887488965
104,0.09671068599998023,-206.62,200.0,7.588906704849876
105,0.09792835899997954,-200.3,200.0,10.18081748637004
106,0.09879884999998012,-201.16,200.0,9.47345556662038
107,0.09969531499997686,-200.98,200.0,10.22243898304946
108,0.1005359339999714,-199.0,200.0,10.1502422162859
109,0.10154491799997345,-199.94,200.0,9.928378955539449
110,0.10243979699997396,-203.32,200.0,11.395323505964303
111,0.1032802289999708,-200.62,200.0,12.802230775777133
112,0.1042797369999704,-199.54,200.0,10.1420574714435
113,0.10515165799997561,-199.0,200.0,7.508862006520831
114,0.10604890699997327,-203.72,200.0,8.151561008403434
115,0.10689359399997755,-200.34,200.0,5.630644336903385
116,0.1077763399999796,-203.64,200.0,5.6296249589346505
117,0.10866445099997435,-200.16,200.0,4.824862413656964
118,0.10954041999997344,-205.74,200.0,4.832325185920861
119,0.11038308399997732,-199.58,200.0,5.04548325943028
120,0.11123048299997862,-199.0,200.0,3.578534659888581
121,0.11222300299997556,-200.92,200.0,2.1715540985601223
122,0.11348185699997515,-200.92,200.0,6.4112004231763065
123,0.11432404499997517,-221.8,200.0,9.011053103967175
124,0.11523626499997874,-207.3,200.0,10.185291030799965
125,0.11608090399997906,-202.68,200.0,12.746466800504793
126,0.11695937399997547,-204.86,200.0,13.477087916416494
127,0.11783231999997668,-200.48,200.0,14.357425993736584
128,0.11908333599997434,-208.86,200.0,14.55979260069537
129,0.120013001999979,-203.06,200.0,16.975420463509003
130,0.12087750999997837,-203.12,200.0,17.178236667661984
131,0.12172551699998024,-200.52,200.0,19.548125720212546
132,0.12256710999997722,-206.9,200.0,15.097710971792026
133,0.12343825999997904,-206.86,200.0,13.45835771347718
134,0.12464342599997735,-199.72,200.0,12.140802306517925
135,0.12549226699997718,-206.64,200.0,11.835345847714605
136,0.1263446239999766,-222.92,200.0,13.714882865367263
137,0.127334186999974,-201.9,200.0,12.832433229469578
138,0.1282014039999737,-203.02,200.0,14.971776900409708
139,0.12908043799997415,-200.98,200.0,13.973279243246008
140,0.12995077899996943,-201.74,200.0,13.770462153212364
141,0.13082126799996985,-199.0,200.0,11.424274195230083
142,0.1316904729999706,-204.98,200.0,11.423879308725622
143,0.1325343189999728,-210.54,200.0,10.476750892979513
144,0.13378527299997245,-216.18,200.0,11.587998255184342
145,0.13475160799997354,-216.84,200.0,10.154925825128933
146,0.13565215699997424,-218.68,200.0,8.20289042852229
147,0.13652205499997905,-205.96,200.0,10.812867752852387
148,0.13739920499997993,-202.5,200.0,10.812658705673735
149,0.13827201999998096,-211.54,200.0,10.503341324731393
150,0.13918110099998415,-200.88,200.0,11.18674092232039
151,0.14044603999998628,-236.66,200.0,13.984246522164176
152,0.1413227869999858,-204.02,200.0,16.26769261436214
153,0.14217292599998643,-202.54,200.0,16.92776950668649
154,0.1434017489999846,-201.64,200.0,14.319550816032239
155,0.14430564199998486,-200.98,200.0,13.408375585999185
156,0.14514760199998733,-199.72,200.0,15.358105600160053
157,0.14614208799999062,-201.52,200.0,14.28017687807539
158,0.146995058999984,-201.5,200.0,14.280227322055524
159,0.14825113099998788,-201.68,200.0,15.306228593197137
160,0.14908582699998618,-201.32,200.0,14.855618940305883
161,0.15005046899998575,-203.64,200.0,12.03687155523812
162,0.1509460649999852,-203.94,200.0,9.818487721647958
163,0.15195823699998812,-203.78,200.0,11.297897486486841
164,0.1529600369999926,-203.64,200.0,11.531371122955482
165,0.15381053199999428,-208.34,200.0,12.997049364445667
166,0.15474081699998976,-206.06,200.0,12.999122085479149
167,0.15595612099998846,-209.78,200.0,11.701975704700788
168,0.15679879999999002,-200.3,200.0,9.3662135277567
169,0.15765503499999056,-209.14,200.0,7.015454038129678
170,0.15850447499998666,-214.58,200.0,9.131664045729524
171,0.15935256599998837,-201.9,200.0,11.894117158429406
172,0.160215321999992,-204.4,200.0,11.84998868069263
173,0.1614277619999953,-207.7,200.0,12.307117061076806
174,0.16233249799999783,-215.84,200.0,14.686212902674646
175,0.1633313959999967,-202.22,200.0,15.826634054656754
176,0.16423882099999787,-206.12,200.0,15.30959382206214
177,0.16508193899999668,-211.48,200.0,16.396027933660807
178,0.16591883499999227,-204.32,200.0,18.68996629815815
179,0.1667630089999932,-206.24,200.0,18.89859294994819
180,0.16762605099999206,-204.76,200.0,17.39761109647451
181,0.1684690749999902,-201.78,200.0,17.00054018447359
182,0.16930970399998557,-200.8,200.0,16.980338839491914
183,0.1701565469999835,-200.84,200.0,14.372439985339536
184,0.17100921099998345,-199.36,200.0,11.758562961978438
185,0.17184648699998917,-199.18,200.0,9.14999236968146
186,0.17306303499999132,-201.38,200.0,7.8693255985097395
187,0.1740573069999911,-200.08,200.0,8.644577984197479
188,0.17492723299999113,-205.38,200.0,8.688493924637312
189,0.17613031299998738,-202.96,200.0,9.20950087442221
190,0.17712401499998975,-216.24,200.0,11.409895621974991
191,0.1779716719999911,-202.62,200.0,9.773107993998964
192,0.17881584099998804,-206.68,200.0,10.429744414128688
193,0.18004034699998783,-206.92,200.0,10.500754674856113
194,0.18088865899999007,-202.28,200.0,10.540357128154664
195,0.18172984399998882,-210.42,200.0,11.499459393204315
196,0.18272451399998602,-202.18,200.0,13.320420019203414
197,0.1836050669999878,-200.48,200.0,13.59373235950531
198,0.1849768289999858,-199.18,200.0,11.479605567146304
199,0.18634748399998813,-219.0,200.0,13.100370330308436
200,0.1877917329999832,-200.3,200.0,12.662187956559489
201,0.18869759999998337,-199.54,200.0,11.95465103331754
202,0.18959853799997717,-199.0,200.0,12.77688421773687
203,0.19045252499997645,-202.64,200.0,13.443662615617765
204,0.19131825899997068,-204.22,200.0,14.14412756491214
205,0.1922145669999722,-210.4,200.0,14.563253830357556
206,0.19308904799997606,-203.8,200.0,14.279209577332272
207,0.19392952799997687,-201.92,200.0,12.725369068513752
208,0.1947807259999763,-202.14,200.0,14.012872112324231
209,0.1957657919999818,-199.72,200.0,11.661831511412274
210,0.19661152799998405,-206.84,200.0,9.05976604135305
211,0.1974502189999825,-204.4,200.0,9.688128753572624
212,0.19834164699997814,-201.16,200.0,8.20934372057823
213,0.19955683099998112,-199.94,200.0,7.46946669228975
214,0.2004838259999815,-200.62,200.0,6.794892744468688
215,0.20135150999998075,-200.84,200.0,6.3562225688884695
216,0.20219144899998298,-201.42,200.0,4.007033315074706
217,0.203156734999979,-204.22,200.0,3.425894022907144
218,0.2040244449999804,-202.76,200.0,2.638899568709185
219,0.20492453999997906,-200.08,200.0,3.370628637470426
220,0.20582211099998204,-203.24,200.0,4.014393939383515
221,0.20681619899998793,-204.32,200.0,3.6403605619172965
222,0.20771258299998863,-208.86,200.0,3.8674906304329513
223,0.20857994099998933,-202.64,200.0,6.662992417085119
224,0.20943282799998997,-200.7,200.0,7.326166567978442
225,0.21028021699999044,-221.2,200.0,7.839711863544251
226,0.21112407499999364,-208.4,200.0,8.710578533448503
227,0.2121155119999969,-216.1,200.0,9.316237733786558
228,0.2129988989999987,-213.0,200.0,13.381643992334824
229,0.2140222009999988,-219.26,200.0,13.943978852090805
230,0.21490941900000138,-203.34,200.0,14.133893956387885
231,0.21575278000000253,-231.02,200.0,14.611990903200455
232,0.21659382100000357,-201.32,200.0,21.94456225633889
233,0.21745688800000096,-237.28,200.0,19.74829655523052
234,0.2186736620000005,-225.8,200.0,21.388999030389094
235,0.2195569209999988,-202.8,200.0,22.570969634372908
236,0.2207659090000007,-207.84,200.0,21.726388266142813
237,0.22176559100000048,-201.38,200.0,21.615756987329227
238,0.222606466000002,-200.7,200.0,16.820516150501568
239,0.2234787450000013,-199.0,200.0,15.526458623257124
240,0.2243698899999984,-199.58,200.0,14.684793292597277
241,0.2252767459999987,-202.48,200.0,13.929681495716604
242,0.22618105699999802,-199.58,200.0,6.369176732928166
243,0.22702954999999747,-202.14,200.0,5.770258540905649
244,0.22788060199999904,-201.16,200.0,3.400433765671141
245,0.22879935999999645,-201.1,200.0,1.7222243581887582
246,0.22963873799999135,-202.14,200.0,2.5570991308329694
247,0.23048517199998741,-240.18,200.0,4.4601777105477485
248,0.2313368979999879,-199.94,200.0,5.219799092035201
249,0.23218719099998708,-214.66,200.0,5.2965146931888665
250,0.23310593299999027,-215.42,200.0,8.044749364806894
251,0.23402396699999173,-211.68,200.0,10.437639533605495
252,0.23490371599999094,-210.78,200.0,15.137328519295574
253,0.2357676939999962,-202.1,200.0,15.348324235369176
254,0.2366165249999952,-208.08,200.0,15.437419651257281
255,0.23746377599999136,-201.86,200.0,14.715339278222098
256,0.23830734899999584,-206.56,200.0,13.933755312637876
257,0.2391469799999939,-205.18,200.0,11.300733762615295
258,0.23998806199999478,-209.18,200.0,13.113354168061676
259,0.24083013299999578,-206.5,200.0,13.313418187606928
260,0.24167360499999546,-207.84,200.0,12.725269653324998
261,0.2428700379999995,-202.62,200.0,12.96293296531412
262,0.2437220449999984,-199.18,200.0,12.738063716789807
263,0.24459210300000223,-214.1,200.0,14.071900392130564
264,0.24570491200000077,-200.74,200.0,13.990722280466708
265,0.24658775799999688,-203.26,200.0,13.756381329122968
266,0.2474566099999933,-200.74,200.0,14.515921474493377
267,0.24835753999999355,-201.5,200.0,14.516564664691861
268,0.24957024299999375,-209.5,200.0,16.845442969636665
269,0.25044843099998815,-200.12,200.0,20.82460318452965
270,0.25129150299999026,-199.58,200.0,21.092184455807978
271,0.25213854099998656,-200.92,200.0,21.073283660703915
272,0.25299030999998706,-202.08,200.0,16.831802014345705
273,0.2539406619999909,-211.68,200.0,15.28786222762759
274,0.2552063939999911,-209.72,200.0,15.282398165863151
275,0.25621414999999104,-214.38,200.0,17.89195584311189
276,0.25712600999999324,-206.72,200.0,19.685886665412518
277,0.2579649159999917,-201.9,200.0,19.68758619578627
278,0.259049442999995,-200.52,200.0,14.778851659525065
279,0.2602538349999932,-200.74,200.0,10.523684705717109
280,0.2610972919999952,-203.42,200.0,8.095857740915342
281,0.2619511939999981,-203.06,200.0,5.72035193865617
282,0.263160046000003,-210.6,200.0,5.488299454512097
283,0.26406779199999875,-202.46,200.0,9.89086813432456
284,0.2649168840000016,-200.08,200.0,9.92585775462918
285,0.26575899700000605,-199.18,200.0,7.3233382449097615
286,0.2669775580000078,-199.9,200.0,5.080382749938595
287,0.2678159420000057,-199.18,200.0,5.078033716905878
288,0.2686628610000028,-199.0,200.0,9.653462902002035
289,0.26952980700000495,-204.22,200.0,10.483692158314915
290,0.2703696400000055,-200.08,200.0,10.558464467938146
291,0.27121798000000297,-199.0,200.0,10.328515817108755
292,0.2723447440000015,-199.9,200.0,10.334801847825922
293,0.27327087500000147,-225.1,200.0,12.669685984707943
294,0.274163264000002,-200.08,200.0,15.720597769100635
295,0.2750079810000017,-199.76,200.0,15.988290633097074
296,0.2759065750000005,-233.14,200.0,20.433116597553102
297,0.27674846699999733,-205.12,200.0,23.184878013471906
298,0.2776118359999984,-205.88,200.0,21.395953564261887
299,0.27861608899999624,-228.28,200.0,25.51676085331271
300,0.27951449999999767,-218.48,200.0,26.22560516647021
301,0.28040037400000273,-212.62,200.0,29.064137332245583
302,0.28130449200000385,-224.06,200.0,30.48774317664428
303,0.2822429680000056,-221.62,200.0,28.444970704393967
304,0.2831146130000022,-201.82,200.0,27.95426042140993
305,0.28398497199999895,-204.22,200.0,30.207483195280293
306,0.2849111579999999,-201.86,200.0,25.647722333634654
307,0.2857532119999959,-203.0,200.0,22.930130104095568
308,0.2866124959999965,-206.42,200.0,21.568098485511815
309,0.28752380999999616,-202.26,200.0,19.22833310807035
310,0.2887820199999993,-206.64,200.0,20.201855162533825
311,0.2899859520000021,-203.92,200.0,19.683903778098305
312,0.2908297090000076,-203.08,200.0,19.638678804424597
313,0.29172190800000664,-199.58,200.0,17.04329874572415
314,0.2925934140000095,-211.18,200.0,17.288392154732964
315,0.2934502170000073,-204.26,200.0,15.620773625774257
316,0.29431400900000426,-224.06,200.0,16.924989647609515
317,0.2952015720000034,-211.18,200.0,18.217112065312353
318,0.29610654500000777,-219.68,200.0,19.637690203418124
319,0.29694632600001114,-200.52,200.0,21.38774154450889
320,0.29778901800001023,-203.02,200.0,19.748948679533793
321,0.29897940900001174,-213.36,200.0,22.18210519788037
322,0.29997911900001384,-201.6,200.0,20.87081133570036
323,0.3010560630000114,-207.92,200.0,18.7703015502943
324,0.3019303090000136,-202.44,200.0,18.121770202459942
325,0.30282734700001157,-214.44,200.0,18.72685259333234
326,0.3036961340000133,-215.1,200.0,19.960836322625227
327,0.3049564590000102,-238.4,200.0,20.609368586861727
328,0.30617490000000913,-240.48,200.0,19.220394441560522
329,0.30701793300001157,-218.9,200.0,15.811046043682154
330,0.3078618220000138,-218.14,200.0,18.32401850718053
331,0.30882008000001093,-221.62,200.0,13.5655406962103
332,0.3096591630000134,-207.7,200.0,15.821025549501726
333,0.31054646600001234,-205.66,200.0,16.76549029864512
334,0.31138196700000975,-213.46,200.0,16.902821350942673
335,0.3122183130000096,-236.64,200.0,18.02060860415575
336,0.31305337500000974,-200.8,200.0,19.832388155234533
337,0.31389088100001317,-238.42,200.0,19.405915523203486
338,0.31479163500001306,-248.68,200.0,18.81973003561194
339,0.3156334140000112,-215.92,200.0,18.588870867908998
340,0.3164745170000174,-209.96,200.0,20.35369036480555
341,0.3173124270000187,-199.0,200.0,20.492949292838404
342,0.3181932280000197,-220.6,200.0,18.359541297240934
343,0.31905467800002185,-201.86,200.0,18.157362980624328
344,0.3202620080000216,-206.04,200.0,18.165189079466202
345,0.3211068280000191,-203.14,200.0,18.23272350500833
346,0.3219483380000199,-200.08,200.0,14.418394692367908
347,0.32278964600001814,-201.68,200.0,13.599787176073932
348,0.32364900800001806,-200.48,200.0,14.623744524299507
349,0.3244901690000148,-203.72,200.0,13.974816885150853
350,0.32567563100001706,-200.74,200.0,10.320958881774889
351,0.3265226110000157,-216.4,200.0,10.18457820376992
352,0.32746704700001317,-199.58,200.0,10.052850504439604
353,0.3285131910000132,-202.42,200.0,10.804403000422496
354,0.32955023500001346,-199.36,200.0,8.472346609833817
355,0.33041557300001756,-200.74,200.0,8.549382965320472
356,0.3312906710000192,-210.6,200.0,12.71790965451206
357,0.33216517400001777,-219.88,200.0,13.576201600740395
358,0.3330333690000131,-234.38,200.0,12.133831259264598
359,0.33426664100001346,-232.06,200.0,20.43628257753101
360,0.3350863370000141,-201.82,200.0,19.89808930495122
361,0.33628613600001245,-204.22,200.0,21.481423960259953
362,0.33717769100000794,-204.54,200.0,21.608540900260927
363,0.3384321890000095,-203.02,200.0,22.677112279958354
364,0.33930136400000777,-199.94,200.0,22.898081339749048
365,0.34056227400000694,-202.24,200.0,21.02581392344766
366,0.34142813600001176,-204.5,200.0,20.796848485061158
367,0.3422913910000105,-208.28,200.0,19.23498763975103
368,0.3431498430000133,-229.96,200.0,19.661626243390042
369,0.3440449490000077,-200.26,200.0,13.382813427166038
370,0.3449112210000109,-205.62,200.0,13.179347458658052
371,0.3457766380000109,-200.74,200.0,12.248418277138244
372,0.3466811690000071,-205.38,200.0,13.011818955039889
373,0.34755209000000775,-199.0,200.0,13.349648004423425
374,0.34840440000000683,-201.6,200.0,13.206531538204612
375,0.34928888900000743,-237.42,200.0,17.292025370038893
376,0.35019238600000335,-213.28,200.0,12.565181267548365
377,0.35107194200000436,-203.4,200.0,13.495462616663113
378,0.35191375300000516,-214.58,200.0,12.702415733576123
379,0.35290762400000375,-218.32,200.0,10.6060367041717
380,0.3537781140000007,-200.34,200.0,10.605416451765866
381,0.3546605550000024,-200.92,200.0,9.94863805228005
382,0.3559136560000056,-201.7,200.0,9.867483641192521
383,0.3567882340000068,-223.36,200.0,9.663918216471071
384,0.35766353400001094,-208.28,200.0,9.634042546718984
385,0.3585583800000123,-213.5,200.0,10.929576715532507
386,0.3594271560000166,-205.96,200.0,13.644831489398564
387,0.3603230620000204,-203.64,200.0,12.689547171986368
388,0.36160613100002337,-212.34,200.0,15.42878355664086
389,0.3628077270000247,-209.22,200.0,15.428928696942984
390,0.3636482030000252,-211.76,200.0,18.115366773045224
391,0.3644919240000277,-216.0,200.0,23.260806989445342
392,0.36534037300003064,-201.5,200.0,22.659159138539394
393,0.36618485900002895,-202.54,200.0,20.20861423440224
394,0.36738022900003386,-201.7,200.0,20.15353424297647
395,0.3688778230000338,-202.66,200.0,13.941136261206577
396,0.3697536480000281,-199.72,200.0,12.011680302429436
397,0.3706634550000274,-199.0,200.0,12.010510516930355
398,0.37153101300003044,-207.04,200.0,10.004273684349728
399,0.3724290520000295,-201.56,200.0,10.902735540796897
400,0.3733280800000287,-200.74,200.0,8.86721409963735
401,0.37422936200002965,-200.16,200.0,3.7455875067851507
402,0.3751041940000235,-201.38,200.0,3.473500978691618
403,0.37602480800002525,-204.26,200.0,3.442935928079602
404,0.37689720300001994,-203.34,200.0,3.4451503228483915
405,0.3777405180000173,-199.0,200.0,3.4513905937606753
406,0.37902791100001565,-205.14,200.0,3.5287695329150166
407,0.38006232400001494,-250.04,200.0,8.702126703999843
408,0.380939550000015,-205.7,200.0,10.539877677467421
409,0.38220486300001255,-209.1,200.0,10.45181310898972
410,0.38306981600000967,-201.92,200.0,9.801530740688738
411,0.38398233700000617,-201.52,200.0,9.777635871831361
412,0.3851878860000042,-200.84,200.0,11.238442255957072
413,0.3860591980000052,-221.04,200.0,13.632235665739739
414,0.38690080800000004,-200.88,200.0,13.629777611580039
415,0.3877713989999947,-200.48,200.0,13.599601505086266
416,0.38881956399999495,-203.86,200.0,17.40674027776505
417,0.38974050699999907,-205.38,200.0,14.817511877691249
418,0.39068957599999266,-211.32,200.0,14.771618149641085
419,0.39159349699998813,-204.8,200.0,16.51499267491744
420,0.3924361659999889,-239.84,200.0,18.52854437935297
421,0.39327018799998825,-205.88,200.0,21.142275371493962
422,0.39412850899998375,-203.5,200.0,20.548832297200267
423,0.3953299059999793,-200.44,200.0,17.93959364339571
424,0.39619290099997784,-211.18,200.0,18.74180725713719
425,0.39708480599997387,-202.58,200.0,19.694317134021283
426,0.39795646599996815,-201.96,200.0,15.096463988423974
427,0.3989125269999718,-207.7,200.0,12.533570661104859
428,0.39975775099996724,-207.12,200.0,9.945787738186057
429,0.40096942899996435,-201.32,200.0,7.391654742757811
430,0.40181772099996493,-202.08,200.0,5.377612190514725
431,0.40270834999996197,-206.1,200.0,2.7703152749100695
432,0.4035516069999616,-200.16,200.0,7.191630142871956
433,0.4043947999999631,-203.22,200.0,8.191919902243704
434,0.4052656369999639,-201.9,200.0,7.393838997377084
435,0.4064730739999618,-210.56,200.0,10.937478349098996
436,0.4073079019999568,-200.52,200.0,12.151764067291518
437,0.4083103849999574,-200.74,200.0,12.242324246921784
438,0.4091905699999572,-199.36,200.0,12.220122378732082
439,0.4103905679999542,-221.04,200.0,12.220534389712359
440,0.41126166099995487,-273.82,200.0,15.576925678209747
441,0.412104751999955,-1024.92,200.0,20.276850565797844
442,0.41297922099995077,-205.56,200.0,20.04030490540004
443,0.4138756099999483,-204.42,200.0,23.67672237122738
444,0.41471328399994434,-203.8,200.0,23.680383886614145
445,0.41557534799994755,-199.94,200.0,19.19177862870575
446,0.4168313509999422,-201.34,200.0,18.02039392220924
447,0.41766849999994804,-205.32,200.0,19.302755590795023
448,0.4190432999999487,-200.98,200.0,22.874110301017822
449,0.41988829099994973,-200.08,200.0,25.109709222352176
450,0.42077314199995186,-199.58,200.0,21.755047101522432
451,0.4216116179999503,-200.26,200.0,17.053316575388358
452,0.4226113539999474,-200.08,200.0,12.231218425616616
453,0.4234809899999519,-199.58,200.0,7.6360688863271715
454,0.4244848319999548,-199.18,200.0,12.457638029521439
455,0.42534431499995407,-204.94,200.0,16.587404814045076
456,0.4261834009999532,-199.0,200.0,16.448933384398067
457,0.42742719699995746,-212.12,200.0,19.527706276817025
458,0.42834910899995293,-203.14,200.0,16.999953335228433
459,0.4291858789999523,-207.9,200.0,16.13712560117442
460,0.43002246399995414,-205.1,200.0,16.218911454811025
461,0.4309102039999573,-209.52,200.0,19.4613804039435
462,0.4317524559999555,-205.8,200.0,19.956569927776542
463,0.432952263999951,-206.38,200.0,19.960355354597603
464,0.43385188099994565,-204.96,200.0,21.644760924026507
465,0.4346957529999429,-203.9,200.0,18.454702811242072
466,0.43590901999994713,-202.68,200.0,18.591571376124605
467,0.4367508969999463,-202.48,200.0,14.186093751324353
468,0.4375897359999499,-200.08,200.0,13.156217430951106
469,0.43857911999995025,-205.12,200.0,12.65999419651374
470,0.43945159699995173,-199.36,200.0,12.576387355651216
471,0.4407152279999522,-200.74,200.0,15.558819986637712
472,0.44156599399995144,-202.42,200.0,15.650748790086173
473,0.44244171299995116,-201.34,200.0,15.605350072046386
474,0.4436536889999516,-212.54,200.0,11.825054615045008
475,0.44448997099995324,-199.54,200.0,12.189827562803465
476,0.4453434089999533,-208.78,200.0,12.865432675794406
477,0.44618892499995155,-234.44,200.0,12.80058702677949
478,0.44702481099995595,-214.44,200.0,12.796296315605563
479,0.4478973979999523,-208.82,200.0,11.919318151776672
480,0.4488037339999522,-220.6,200.0,12.580911585254311
481,0.44964107199995595,-200.8,200.0,7.288081655321969
482,0.45048050499995895,-204.94,200.0,6.470923254531344
483,0.4513361429999563,-199.0,200.0,9.286897756525697
484,0.4522009459999552,-200.16,200.0,6.554150225137549
485,0.45306684299995226,-202.48,200.0,5.250962578343959
486,0.45393297899995133,-210.74,200.0,9.37587077665992
487,0.45480218599995226,-203.36,200.0,10.827546870907748
488,0.4560258649999511,-205.96,200.0,15.262376530613414
489,0.45687363799995495,-205.88,200.0,15.32747969539514
490,0.4577198269999556,-199.58,200.0,19.184323425591558
491,0.45897893299996184,-202.06,200.0,19.693831852628726
492,0.45981685199996036,-204.0,200.0,21.009351674701104
493,0.46066846499996217,-199.18,200.0,21.69934723691312
494,0.46150779299996714,-201.5,200.0,21.942916013797664
495,0.46241749899996876,-199.76,200.0,22.01694530933178
496,0.4633069929999749,-263.52,200.0,17.93289755293217
497,0.4641446499999802,-269.54,200.0,17.337499934584322
498,0.4649858679999852,-200.26,200.0,17.849779921881716
499,0.46590355599998645,-202.78,200.0,17.78872095350784
500,0.4668160109999846,-216.98,200.0,17.57970375660534
501,0.46765798299998096,-204.36,200.0,16.57441287172231
502,0.46857382399998215,-201.88,200.0,15.291232806949083
503,0.4695774369999839,-201.7,200.0,11.785189515297178
504,0.4704687409999835,-218.7,200.0,12.3534808980035
505,0.47131117899998287,-202.64,200.0,12.713617077494199
506,0.47231248899998235,-199.0,200.0,15.886155325249808
507,0.4732692079999836,-199.0,200.0,15.597828963764607
508,0.4741098709999818,-203.64,200.0,10.69832261397788
509,0.4749779849999811,-199.76,200.0,10.69492834452012
510,0.4758496849999787,-200.92,200.0,6.389462259133805
511,0.47671736599998127,-209.62,200.0,6.014071315865112
512,0.4775844189999816,-202.84,200.0,8.149234510990524
513,0.4784484049999804,-200.8,200.0,8.154936787020528
514,0.4793611309999761,-199.0,200.0,7.342351889715166
515,0.4804677319999797,-199.9,200.0,7.647661545490065
516,0.4814765209999763,-214.84,200.0,4.646117893296493
517,0.482345319999979,-202.28,200.0,4.907136188611335
518,0.48318515599997625,-200.62,200.0,5.662333016610511
519,0.4840505209999719,-202.24,200.0,6.397555107030433
520,0.4849176329999665,-200.44,200.0,6.394012780708709
521,0.48578686899997336,-199.36,200.0,6.402615240739276
522,0.4867123269999709,-200.26,200.0,5.679181828537878
523,0.4875790349999676,-205.12,200.0,6.5824677769337026
524,0.48844638599997126,-207.58,200.0,7.890833493621415
525,0.48930657299997193,-200.08,200.0,7.1441837689472605
526,0.49015037399997397,-199.94,200.0,8.732124004281342
527,0.4914026159999736,-199.0,200.0,8.375275606135087
528,0.49227206899997356,-210.34,200.0,9.036356360716463
529,0.4931704919999689,-213.3,200.0,11.215425330671472
530,0.4944173569999677,-211.24,200.0,14.112981264555023
531,0.49526353599996753,-199.0,200.0,14.761046597900474
532,0.49610036899996857,-201.74,200.0,14.135160898622411
533,0.49694588599997047,-203.82,200.0,14.019609349088768
534,0.49816308999997005,-202.06,200.0,12.734769841881802
535,0.4990073589999753,-200.74,200.0,13.625760296737372
536,0.4998415359999768,-200.98,200.0,11.7925610074473
537,0.5011008279999771,-204.66,200.0,12.70500505279767
538,0.5020909919999781,-202.54,200.0,17.648986821896518
539,0.5029761389999763,-201.92,200.0,14.826273262798832
540,0.503898869999972,-200.52,200.0,12.137737039413981
541,0.5047735399999738,-200.84,200.0,11.420691176523905
542,0.5056516909999687,-202.1,200.0,11.389353012174364
543,0.5066411219999694,-202.84,200.0,12.942782034631474
544,0.5075439009999698,-200.34,200.0,12.990062291776207
545,0.5083854859999732,-201.9,200.0,14.189972050809242
546,0.5092555059999739,-200.92,200.0,13.94566386600844
547,0.5101226829999774,-200.66,200.0,12.795986722272486
548,0.5110204879999785,-203.16,200.0,7.359607607227488
549,0.5119324369999845,-200.7,200.0,7.996946865562971
550,0.5128712559999826,-199.0,200.0,7.787967192043508
551,0.5137712109999839,-203.74,200.0,10.392134120617497
552,0.5149933949999834,-205.66,200.0,9.628136036743067
553,0.5160276189999848,-209.16,200.0,7.938158973747031
554,0.5168634459999879,-199.54,200.0,8.746598665995847
555,0.5177136529999871,-201.2,200.0,7.38353291343319
556,0.5185881959999818,-201.96,200.0,6.848397921310806
557,0.5194314379999767,-207.7,200.0,8.957646186557017
558,0.5202729879999808,-199.0,200.0,10.819239670057236
559,0.52113573299998,-200.3,200.0,10.324786364910093
560,0.5219834649999768,-203.34,200.0,10.390035984489975
561,0.5228296369999725,-202.54,200.0,10.131376235693562
562,0.5236898959999721,-203.68,200.0,10.108934233987496
563,0.5248944239999673,-199.0,200.0,9.452052487182218
564,0.5257715289999609,-200.88,200.0,8.572821518491304
565,0.5266075909999586,-205.16,200.0,9.70552505458615
566,0.5274512299999614,-207.66,199.7,10.451983339090582
567,0.5282956729999668,-202.44,200.0,8.130820913707954
568,0.5291860919999678,-201.5,200.0,5.290571087922774
569,0.5300313339999647,-201.9,200.0,7.666689393795427
570,0.5308748469999642,-200.16,200.0,7.621808329558545
571,0.531720258999961,-199.9,200.0,7.876687780166755
572,0.5326297209999638,-203.36,200.0,8.112898729561952
573,0.5335258399999603,-204.94,200.0,9.752908653956592
574,0.5347335879999591,-199.9,200.0,10.569039432935538
575,0.53561559099996,-201.96,200.0,9.516872818075345
576,0.5364696799999535,-222.96,199.7,23.060208997612257
577,0.5374699969999526,-199.0,200.0,23.099413248975313
578,0.5383821129999475,-200.12,200.0,25.691145557337666
579,0.539267827999943,-201.96,200.0,23.961577751163166
580,0.540108328999942,-204.88,200.0,24.005753443956035
581,0.5409768939999395,-205.48,200.0,21.40161469135261
582,0.541813897999937,-201.38,200.0,22.08974467197069
583,0.5426541519999404,-201.68,200.0,21.178814403407415
584,0.5434997639999395,-218.34,200.0,28.070667504072293
585,0.5443977549999346,-219.74,200.0,28.771937460691653
586,0.5452680609999305,-205.66,200.0,18.926315003154397
587,0.5461050719999321,-209.16,200.0,20.9756542567821
588,0.5469436799999343,-202.78,200.0,18.388938926935406
589,0.5477831959999335,-202.32,200.0,21.918128018437574
590,0.5486231509999371,-205.88,200.0,22.663122087280584
591,0.5494661529999405,-211.14,200.0,24.754535678191594
592,0.5503110529999446,-212.72,200.0,24.63931989253208
593,0.5511497019999396,-225.28,200.0,29.02376922199038
594,0.5520200299999374,-219.28,198.98,23.922500621083948
595,0.5532382049999356,-213.6,200.0,22.642808748234476
596,0.554080838999937,-199.94,200.0,20.55145548344756
597,0.5549229059999377,-202.58,200.0,20.81821798167436
598,0.5557699679999359,-214.68,200.0,21.27303624837494
599,0.556604298999936,-219.24,200.0,18.960880790056134
600,0.5574984529999369,-199.58,200.0,18.414182300154067
601,0.5583385009999375,-199.0,200.0,16.321104480376874
602,0.5592521169999358,-199.72,200.0,15.529468683266206
603,0.5604643759999419,-199.0,200.0,10.802046837115482
604,0.5613092119999479,-199.36,200.0,8.195496969677775
605,0.5621724199999463,-200.44,200.0,8.001825324802294
606,0.5634942079999448,-199.18,200.0,6.469529312026088
607,0.5646945509999455,-201.7,200.0,4.905779595153175
608,0.5655575689999424,-210.52,200.0,5.332678525403696
609,0.5667619929999432,-200.8,200.0,3.2341875049051807
610,0.5676055839999421,-205.52,200.0,3.34322764732958
611,0.568449886999943,-208.82,200.0,3.9923726997561175
612,0.5694440539999448,-200.26,200.0,4.702857857163923
613,0.5702996719999476,-203.5,200.0,5.0463208940054844
614,0.5711381529999429,-203.68,200.0,5.862869627924499
615,0.571979329999948,-200.74,200.0,5.889237000998476
616,0.5728286349999507,-200.8,200.0,5.283172808680382
617,0.5736861439999501,-199.0,200.0,4.4667739171172585
618,0.5745278809999448,-200.74,200.0,4.460505652028367
619,0.5753871569999447,-200.16,200.0,4.481750534227281
620,0.5762760399999465,-204.88,200.0,4.180140487545427
621,0.5771147959999468,-200.66,200.0,5.132200356263558
622,0.5783232169999408,-199.36,200.0,7.248649460675928
623,0.5791725489999422,-202.0,200.0,6.542533355683972
624,0.5800124929999413,-199.0,200.0,5.72814750396044
625,0.580863594999947,-206.14,200.0,5.685804564041905
626,0.5817024169999456,-202.48,200.0,9.727182681934307
627,0.5825418429999445,-200.08,200.0,9.729191780384863
628,0.5833845699999429,-204.8,200.0,13.543893893599972
629,0.5842266659999424,-200.66,200.0,13.75003594880601
630,0.5850817949999367,-201.1,200.0,13.72685508179734
631,0.5859211159999305,-204.56,200.0,12.267924710832508
632,0.5868077019999305,-209.4,200.0,14.117926902400365
633,0.5880216029999303,-199.18,200.0,14.101597174747507
634,0.5888844969999312,-203.98,200.0,14.185652817085096
635,0.589766597999926,-204.18,200.0,14.16390463089392
636,0.5909894359999299,-199.58,200.0,9.908004459828975
637,0.5918315079999346,-199.0,200.0,10.635624590949865
638,0.5927547029999332,-204.4,200.0,6.581706833171135
639,0.5937464379999327,-199.0,200.0,6.378862800996634
640,0.5946124119999325,-204.58,200.0,6.331313268686243
641,0.5958762049999322,-199.54,200.0,6.253669992632139
642,0.5967541859999344,-203.06,200.0,1.5653523829838605
643,0.5976245919999315,-200.92,200.0,4.532229082876306
644,0.5990781959999296,-199.36,200.0,4.743227150117567
645,0.5999255989999313,-201.32,200.0,7.623943187563031
646,0.6011317179999338,-201.32,200.0,7.624659007630801
647,0.6019757499999372,-200.44,200.0,7.109298893952238
648,0.602838158999937,-203.56,200.0,9.046702057162552
649,0.6036778649999377,-209.62,200.0,9.839170641011679
650,0.6048088439999404,-203.64,200.0,10.657152460421429
651,0.6056504039999382,-213.46,200.0,10.613748713829285
652,0.6066336849999416,-199.36,200.0,15.378250809810305
653,0.6075169829999396,-204.32,200.0,15.458095151291138
654,0.6087428919999383,-207.12,200.0,15.16839251227059
655,0.6096569469999409,-202.26,200.0,12.716260899900117
656,0.6109891009999444,-201.88,200.0,12.789170022044633
657,0.6119854779999443,-199.0,200.0,12.581522274384458
658,0.6128729869999461,-203.0,200.0,10.919553034715591
659,0.613762595999944,-200.16,200.0,10.843111230382785
660,0.6146222459999464,-199.0,200.0,13.119285598135406
661,0.6156101489999486,-264.32,200.0,15.950177707133118
662,0.6164817009999481,-253.52,200.0,11.838549563026017
663,0.6173616759999447,-216.98,200.0,13.874408998131624
664,0.6182270439999442,-199.54,200.0,14.894482544016
665,0.6194946019999463,-215.52,200.0,17.19902492148481
666,0.6203583399999459,-217.92,200.0,19.748284343930486
667,0.6212237989999423,-217.08,200.0,24.021880416440627
668,0.6220902169999434,-205.22,200.0,24.02778580189791
669,0.6229321799999425,-200.08,200.0,25.183555115034807
670,0.623798486999938,-219.0,200.0,23.567218467635442
671,0.6246776519999386,-203.12,200.0,22.04525078631584
672,0.6255445469999401,-199.0,200.0,22.195651845271193
673,0.6268009469999427,-214.02,200.0,18.566130047625883
674,0.6276478849999378,-215.02,200.0,19.12244933929672
675,0.6285075679999395,-203.38,200.0,17.86053586542787
676,0.6295093249999368,-211.18,200.0,16.558281990547307
677,0.6303511739999408,-199.76,200.0,12.444619828811124
678,0.6313446889999383,-204.8,200.0,11.521852750612739
679,0.6321958669999432,-199.9,200.0,9.625964535371132
680,0.633134201999944,-199.0,200.0,8.148292132873122
681,0.634005888999944,-200.16,200.0,6.889964329661725
682,0.6348482469999439,-199.54,200.0,6.079532805747148
683,0.6356890519999467,-202.08,200.0,7.648532709489797
684,0.6365312259999456,-201.1,200.0,8.790715521053016
685,0.6373660499999403,-199.58,200.0,7.591035705186192
686,0.6382048479999369,-199.0,200.0,6.282174679874264
687,0.6390733969999403,-208.46,200.0,6.119201165232754
688,0.6399201539999382,-207.44,200.0,7.543016968145461
689,0.6407608139999326,-202.22,200.0,7.566648020229164
690,0.6418962819999336,-205.56,200.0,8.523067736064888
691,0.6428771889999325,-207.9,200.0,12.422109830585722
692,0.6437204639999337,-204.76,200.0,12.49933717059563
693,0.6445650279999313,-205.16,200.0,9.470800221112466
694,0.6455586989999276,-282.72,200.0,11.439860947343089
695,0.6464257999999248,-220.88,200.0,13.596572689032405
696,0.6472827619999251,-220.08,200.0,16.194766369757026
697,0.6481765449999202,-207.12,200.0,16.19091300941281
698,0.6490683779999173,-199.58,200.0,17.15753815659023
699,0.6499313809999165,-199.0,200.0,17.951384733508167
700,0.6508226459999165,-206.2,200.0,17.039130390292822
701,0.6516660449999137,-208.96,200.0,17.38770781514107
702,0.6525856139999178,-205.58,200.0,21.68658629748404
703,0.6538518049999169,-201.5,200.0,22.478935033053514
704,0.6550643099999149,-202.48,200.0,20.626541748662447
705,0.6559419859999096,-199.72,200.0,18.198701943113445
706,0.656831999999909,-199.76,200.0,16.405514084042146
707,0.6577099249999065,-200.08,200.0,18.06980499475381
708,0.6589741939999101,-208.86,200.0,18.235909325357063
709,0.6601843519999093,-200.74,200.0,17.41809159997299
710,0.6610313229999107,-199.36,200.0,18.88959300318704
711,0.6618786859999162,-275.5,200.0,17.129608224706026
712,0.6627492269999138,-199.0,200.0,12.827010308985882
713,0.6639721809999131,-230.22,199.26,17.094554792930193
714,0.6648151809999163,-203.04,200.0,15.790913633630709
715,0.6658098279999152,-202.68,200.0,15.933521463050369
716,0.6666765699999146,-222.88,200.0,15.344834101965052
717,0.6675441879999084,-220.0,199.42,16.287203911743582
718,0.6684131969999143,-218.52,200.0,16.580787415880962
719,0.6692856019999169,-210.88,200.0,18.33501896693139
720,0.6701253469999173,-249.4,200.0,21.37631804210492
721,0.67104000399992,-202.06,200.0,18.825154018765637
722,0.671932637999916,-200.92,200.0,19.59122221932545
723,0.6728234889999101,-199.36,200.0,14.59806699042843
724,0.6736646679999083,-199.94,200.0,15.405178427806892
725,0.6745246139999139,-200.34,200.0,15.284110693012224
726,0.6753698959999141,-199.42,199.28,19.34007838252332
727,0.6765913419999166,-200.08,200.0,16.778526774880834
728,0.6774598529999167,-196.12,196.7,13.937481061081408
729,0.6783245969999143,-203.14,200.0,13.792114720962706
730,0.679549463999912,-202.94,200.0,12.598342115820383
731,0.6803990239999109,-199.36,200.0,17.075664142466067
732,0.6812407899999116,-200.92,200.0,16.256537648002183
733,0.682094802999913,-205.38,200.0,18.801371737880224
734,0.6829679149999137,-201.06,200.0,19.011359130671423
735,0.6841763029999157,-201.24,200.0,19.39011692298832
736,0.6850401479999135,-207.84,200.0,33.106061289034756
737,0.6858909169999166,-200.34,200.0,35.2518624778293
738,0.686789052999913,-202.22,200.0,35.24088893968125
739,0.6876922029999122,-210.6,200.0,35.95742072011099
740,0.6887893039999113,-202.86,200.0,34.92234541552893
741,0.6897240309999049,-204.36,200.0,31.318880176368225
742,0.6907792649999038,-199.0,200.0,31.298491851248876
743,0.6916413049999051,-200.12,200.0,28.699422717550753
744,0.6924788819999037,-204.18,200.0,28.960686217006717
745,0.6933211709999085,-200.26,200.0,30.652297798444
746,0.6941621639999127,-199.18,200.0,12.834778802756384
747,0.6950408549999096,-200.52,200.0,12.736364576274331
748,0.6958969569999098,-199.54,200.0,12.736375053096022
749,0.6967388239999082,-199.76,200.0,10.410789072627168
750,0.697639453999912,-202.1,200.0,8.899763624970628
751,0.6984768609999179,-202.84,200.0,8.038096848628907
752,0.6993787799999183,-201.24,200.0,10.861147930326565
753,0.7002499429999176,-202.44,200.0,10.889229500556231
754,0.7010965639999185,-212.92,200.0,8.071567213054339
755,0.701934807999919,-212.98,200.0,5.9783877939824235
756,0.7030112189999187,-201.34,200.0,8.430761124331621
757,0.7038530889999137,-211.12,200.0,7.882310090969581
758,0.7046857519999179,-206.38,200.0,10.515640473919438
759,0.7055260669999157,-209.6,200.0,13.127633039506899
760,0.7067840079999144,-201.34,200.0,12.31054004190347
761,0.7076536329999144,-212.08,200.0,14.596274455275767
762,0.708523007999915,-210.6,200.0,14.383158555470533
763,0.7094497449999153,-201.24,200.0,14.58143377859823
764,0.7103053429999164,-224.14,200.0,19.285946409216876
765,0.7113173789999152,-201.34,200.0,20.122094416306
766,0.7121837719999178,-202.08,200.0,19.59910582450801
767,0.7131865409999136,-201.96,200.0,18.697278484495126
768,0.7140832549999132,-200.8,200.0,16.064472879076327
769,0.7149222989999089,-201.46,200.0,14.181478449711175
770,0.715913379999904,-202.72,200.0,14.254181567617195
771,0.7171428299999079,-204.86,200.0,12.15895921119662
772,0.7179884249999091,-202.04,200.0,12.18690969402262
773,0.7188227239999065,-208.44,200.0,12.76745352137909
774,0.7196647159999046,-227.52,200.0,9.000982766221746
775,0.7206616429999073,-201.82,200.0,8.814430323919483
776,0.7215225449999068,-201.6,200.0,7.519615336674502
777,0.7223654139999098,-200.44,200.0,7.701350141696489
778,0.7232700149999118,-205.96,200.0,8.652946973460647
779,0.7241681319999174,-203.44,200.0,8.744377953721727
780,0.7250078249999206,-201.96,200.0,8.742153571922067
781,0.725873070999917,-199.0,200.0,8.53778005464687
782,0.726712993999918,-199.18,200.0,8.549937875691816
783,0.7275532019999176,-201.7,200.0,9.195813522163522
784,0.7283940339999191,-199.0,200.0,8.257809166586467
785,0.7292387629999197,-199.72,200.0,7.61058927694269
786,0.730073745999924,-202.18,200.0,8.90891005341251
787,0.730913785999924,-199.18,200.0,8.084488424568187
788,0.7317605789999249,-200.3,200.0,9.924960043353604
789,0.7329673189999255,-214.44,200.0,10.06950751796122
790,0.7338175359999255,-200.52,200.0,10.010555021829262
791,0.7346587249999246,-199.58,200.0,10.00520827765142
792,0.7355606299999238,-217.74,200.0,10.196681128391116
793,0.7364251809999232,-203.2,200.0,11.033048645481392
794,0.7373101149999215,-200.08,200.0,13.87446337524527
795,0.7384419079999205,-204.0,200.0,14.146654301192214
796,0.7393414709999178,-203.14,200.0,12.257596473957154
797,0.740234056999924,-199.9,200.0,13.068436712779894
798,0.7410928339999288,-200.08,200.0,12.167915267159252
799,0.7419326299999227,-205.94,200.0,13.977317170566717
800,0.7429008249999214,-200.52,200.0,14.191896644070715
801,0.7437951169999195,-201.24,200.0,14.192895685742403
802,0.7447111689999204,-200.08,200.0,11.351316391126016
803,0.745631804999924,-202.32,200.0,9.78523387226095
804,0.7464857549999309,-199.36,200.0,6.944517406755907
805,0.7473356279999308,-208.56,200.0,9.02025665762178
806,0.7481817809999356,-199.72,200.0,8.793943729963502
807,0.7491798409999291,-199.0,200.0,7.983103787627044
808,0.7500612439999301,-246.56,200.0,8.936558918641142
809,0.7509444569999317,-202.8,200.0,6.162051611806805
810,0.752202195999935,-199.76,200.0,5.935814434073457
811,0.7531404409999354,-203.78,200.0,8.494267378140469
812,0.7539978429999294,-199.76,200.0,8.496470627672053
813,0.7552033389999266,-200.8,200.0,8.643753671956102
814,0.7560446749999272,-206.78,200.0,8.730292037606933
815,0.7569370489999301,-199.72,200.0,7.1986258329945345
816,0.7577727719999316,-199.18,200.0,7.993778421245109
817,0.7586163169999338,-200.16,200.0,7.99400432584364
818,0.7597064239999298,-199.18,200.0,5.148991303706724
819,0.7605734639999326,-199.9,200.0,5.170136521937751
820,0.7614552289999352,-199.0,200.0,5.17169307986173
821,0.7623719149999388,-203.7,200.0,2.610699390138481
822,0.7632720089999339,-199.58,200.0,2.608709853462129
823,0.7641112209999363,-199.18,200.0,1.72728307180044
824,0.7650073389999363,-200.74,200.0,1.6628418089577366
825,0.7659287999999407,-200.92,200.0,1.0701842458391155
826,0.7668172479999456,-394.82,200.0,5.488342912339277
827,0.7676520639999467,-204.22,200.0,5.553763115794202
828,0.7685632549999468,-202.6,200.0,6.370330324390034
829,0.7694539869999417,-201.46,200.0,6.370309202513288
830,0.7703620369999413,-202.96,200.0,8.465260709500551
831,0.7712071949999384,-226.46,200.0,9.274928702168799
832,0.7720443079999342,-231.24,200.0,11.441814382262493
833,0.7728902609999366,-199.18,200.0,14.04452403038147
834,0.773736586999938,-199.18,200.0,14.042658513625454
835,0.7745758889999337,-201.9,200.0,13.816696987527674
836,0.7757872189999375,-201.32,200.0,8.603405929165444
837,0.7766390319999417,-199.0,200.0,9.27338833355923
838,0.7775084429999382,-203.36,200.0,8.456119456535145
839,0.7783490169999396,-203.58,200.0,11.047893728571452
840,0.7791889329999435,-201.52,200.0,11.321211488216793
841,0.7800288109999443,-200.92,200.0,10.512082144008676
842,0.7811043049999427,-201.02,200.0,9.16784214339984
843,0.782049362999949,-206.38,200.0,7.395474503929288
844,0.782898740999947,-211.8,200.0,8.258093133187966
845,0.7838057599999502,-206.88,200.0,12.942692574264925
846,0.7846511899999484,-206.94,200.0,13.738708088311515
847,0.785491918999945,-200.34,200.0,16.02958685741507
848,0.7863226569999497,-208.8,200.0,19.038889159024894
849,0.7871809909999499,-199.18,200.0,16.431929416351352
850,0.788100143999948,-200.34,200.0,15.716798085235808
851,0.7889831449999463,-206.06,200.0,15.718818850262528
852,0.7899352179999468,-203.38,200.0,17.427553341965144
853,0.7913481359999466,-204.48,200.0,21.487166983796932
854,0.7921973019999413,-201.82,200.0,22.29875097663016
855,0.793044649999942,-200.74,200.0,17.862921694767977
856,0.7941976679999385,-202.48,200.0,17.092337155897688
857,0.7950728439999395,-205.96,200.0,16.931434426945113
858,0.7959179969999397,-203.92,200.0,13.98705068953583
859,0.7969115369999429,-205.92,200.0,13.987611143769636
860,0.7977959119999412,-205.48,200.0,14.96839793974905
861,0.798637263999936,-199.0,200.0,17.3431479594187
862,0.7994813959999334,-200.08,200.0,15.52449276090432
863,0.800471469999934,-229.8,200.0,15.059287771399266
864,0.8014008419999357,-208.28,200.0,15.943158639906471
865,0.8022657099999364,-210.74,200.0,16.48692624253229
866,0.8031522169999334,-203.98,200.0,19.300000041590657
867,0.8040231469999313,-203.36,200.0,17.897373510426807
868,0.8048972819999278,-199.9,200.0,19.22064775972446
869,0.8057696629999285,-212.5,200.0,20.081099445617884
870,0.8066617409999282,-200.08,200.0,18.82999983225462
871,0.8075579829999313,-201.02,200.0,17.311986882137926
872,0.8083965329999359,-221.94,200.0,17.538410476846728
873,0.809233085999935,-208.0,200.0,13.113880658028705
874,0.8100697069999399,-208.28,200.0,10.534911765699333
875,0.8109191509999363,-199.36,200.0,9.82843241206041
876,0.8117877239999416,-201.24,200.0,6.989908133811615
877,0.8126304599999372,-201.32,200.0,5.527031313287905
878,0.8134943799999377,-226.26,200.0,6.7508740539612075
879,0.8143309569999388,-215.48,200.0,8.4899673449206
880,0.8151760059999376,-213.48,200.0,7.915497308038647
881,0.8160168489999364,-219.02,200.0,9.66404726278283
882,0.8168572369999367,-223.2,200.0,9.663233517388989
883,0.8176918839999345,-208.28,200.0,9.896203740718772
884,0.8185284319999369,-202.64,200.0,11.989447271124153
885,0.8197492369999395,-201.24,200.0,12.63381162552194
886,0.8205890189999394,-200.7,200.0,12.849971946434442
887,0.8214556709999385,-207.12,200.0,12.850535332768562
888,0.8222975689999359,-199.18,200.0,10.239806953664642
889,0.8232898459999376,-206.64,200.0,7.6525871915521835
890,0.824133681999939,-219.3,200.0,9.45240382283676
891,0.8250267949999426,-239.96,200.0,7.05367469296564
892,0.8258601899999434,-204.84,200.0,8.20810129213837
893,0.8267168749999456,-203.78,200.0,10.346970423708342
894,0.82770717399994,-200.08,200.0,9.706862023788048
895,0.8286124759999396,-200.3,200.0,11.087838078406667
896,0.8294762509999387,-202.78,200.0,10.943204058026817
897,0.8303514369999405,-202.64,200.0,11.678650067672544
898,0.831213289999944,-210.62,200.0,13.145757018391942
899,0.8321133569999404,-218.86,200.0,14.434819980585004
900,0.8330478299999413,-201.34,200.0,11.827888460233947
901,0.8339232889999408,-199.18,200.0,12.940194436577803
902,0.8348434909999369,-220.66,200.0,12.421491499226118
903,0.8357631079999379,-217.04,200.0,10.446883753431386
904,0.8366292299999358,-212.58,200.0,10.53407950229215
905,0.837493833999936,-203.86,200.0,9.240167309930822
906,0.838736215999937,-208.18,200.0,10.204440744920847
907,0.8396405219999394,-207.22,200.0,10.84043979376642
908,0.8404892149999412,-199.18,200.0,9.372160571243445
909,0.8413330019999421,-202.26,200.0,9.58084238210559
910,0.8425389019999372,-199.24,199.98,11.673194235486028
911,0.8434064109999397,-227.02,200.0,12.528435048041057
912,0.8443315669999407,-202.62,200.0,12.538127553089712
913,0.8452153979999437,-201.16,200.0,14.490166341142361
914,0.8461024419999461,-199.94,200.0,15.043109385215871
915,0.8469536669999513,-216.58,200.0,16.837861566009515
916,0.8477935949999562,-203.0,200.0,17.558063099608056
917,0.8486327369999529,-310.9,200.0,20.86977628158807
918,0.8494783549999525,-205.06,200.0,23.45346829789859
919,0.8503230249999518,-201.2,200.0,24.05135622088205
920,0.8511933269999545,-217.94,200.0,24.06978835096595
921,0.8520311909999521,-208.3,200.0,24.472856418442724
922,0.8528683209999528,-211.18,200.0,22.890553842220026
923,0.8537456319999563,-216.98,200.0,23.169108647498796
924,0.8545902699999601,-199.0,200.0,23.939305127067605
925,0.8557960359999583,-206.04,200.0,23.867168168316407
926,0.8566582919999561,-199.54,200.0,22.11148453565962
927,0.8574946919999533,-200.16,200.0,17.578718742627547
928,0.8583515499999521,-199.94,200.0,14.99917228927776
929,0.8593432859999552,-200.74,200.0,12.884718948221217
930,0.8602117569999521,-202.22,200.0,11.480639301608017
931,0.86107500199995,-199.36,200.0,9.136195188452286
932,0.8619477319999547,-213.5,200.0,13.349994758716443
933,0.8628417899999548,-209.04,200.0,10.747655144322694
934,0.8637368199999571,-201.68,200.0,9.411828394758542
935,0.8646052429999571,-201.24,200.0,7.20557711620256
936,0.865443036999956,-203.38,200.0,7.342536501635931
937,0.8663017499999555,-232.88,200.0,8.783080645981226
938,0.8671635889999507,-201.82,200.0,9.751530042014931
939,0.8680066419999548,-240.98,200.0,12.309863809278495
940,0.8688482269999582,-201.52,200.0,12.711179303503378
941,0.8697525199999561,-200.8,200.0,13.135798284570853
942,0.8707467909999593,-207.84,200.0,11.534804378098272
943,0.87164188699996,-202.62,200.0,12.375590295867312
944,0.8725150999999585,-202.94,200.0,13.457944821133404
945,0.873356041999962,-199.94,200.0,15.477094544368168
946,0.8742282109999593,-199.9,200.0,16.925728014664468
947,0.8750629699999593,-199.72,200.0,15.537817556859505
948,0.8760383799999616,-207.02,200.0,15.647353354476241
949,0.8769214629999595,-216.86,200.0,15.720101463072004
950,0.8778558909999603,-214.66,200.0,15.020048453232892
951,0.8787647299999577,-205.8,200.0,15.752218586282103
952,0.879690436999951,-207.14,200.0,13.275836583399135
953,0.8805952869999487,-204.14,200.0,12.634076912408679
954,0.8814686169999462,-202.36,200.0,12.86503362838026
955,0.8823119319999435,-199.9,200.0,10.512101185089577
956,0.8832169329999431,-199.72,200.0,8.926408219470089
957,0.8841117909999454,-204.94,200.0,8.746204496386781
958,0.8849549089999442,-206.16,200.0,10.273880678602898
959,0.8857980789999473,-205.58,200.0,10.012661283179993
960,0.8867946769999477,-204.96,200.0,10.343236094242943
961,0.887668095999949,-204.6,200.0,11.058933486865435
962,0.8885115639999484,-202.0,200.0,13.458288053970852
963,0.8893723779999476,-202.4,200.0,13.442971347439926
964,0.8902301419999432,-204.26,200.0,10.676085504406885
965,0.8911289849999378,-201.88,200.0,11.558976987576871
966,0.8919822499999412,-210.38,200.0,12.365934220070839
967,0.8928394279999381,-206.44,200.0,13.152452283151831
968,0.8936789629999353,-210.6,200.0,13.152448610341377
969,0.8945165189999358,-216.58,200.0,13.625391106081839
970,0.8953552229999389,-208.46,200.0,15.442505431242761
971,0.8961964299999394,-204.82,200.0,13.341736452468155
972,0.8973080079999392,-209.62,200.0,10.80449021615907
973,0.8982436679999353,-204.92,200.0,10.664570826771683
974,0.8991360049999386,-199.18,200.0,11.24013277061108
975,0.9000005299999358,-205.34,200.0,10.381003102512917
976,0.9012546689999397,-218.72,200.0,12.391058729880815
977,0.9021278809999345,-204.18,200.0,14.1914814931494
978,0.9033952429999346,-203.06,200.0,11.588006495302675
979,0.9042786849999302,-213.58,200.0,9.689370517303379
980,0.9051310969999307,-200.16,200.0,7.866297536813299
981,0.9063434789999292,-202.84,200.0,7.925269438626637
982,0.9071916949999306,-199.54,200.0,8.73508319604771
983,0.9080421429999319,-226.04,199.64,9.553520220041936
984,0.9091291469999305,-204.22,200.0,9.698432173887502
985,0.9100015919999294,-200.74,200.0,13.90994829353895
986,0.9108908119999342,-211.24,200.0,12.461543541989558
987,0.9117425839999314,-199.76,200.0,11.945952921901425
988,0.9126157799999319,-200.74,200.0,14.592506536657993
989,0.9136042339999335,-205.84,200.0,16.034985556631366
990,0.9144701559999362,-202.96,200.0,15.299533495898142
991,0.9153613029999335,-199.72,200.0,16.28995020963303
992,0.9162466729999323,-199.0,200.0,16.289278117273188
993,0.9174574019999326,-201.52,200.0,15.407826566538557
994,0.9183021789999373,-199.0,200.0,14.61970834288158
995,0.9195046589999336,-199.0,200.0,10.384349661837463
996,0.9203536909999315,-200.52,200.0,11.371046458655382
997,0.9211942919999316,-202.42,200.0,10.585761123305858
998,0.9220324509999287,-206.2,200.0,9.462503925992095
999,0.9229253599999296,-201.46,200.0,8.60932852795489
1000,0.9238452659999297,-210.74,200.0,10.735515982885271
