iteration,error_training,error_validation,error_test,elapsed
0,879.0,217.0,474.0,2.347374853
20,904.0,227.0,485.0,53.991549858
40,892.0,230.0,479.0,105.262078141
60,908.0,235.0,490.0,156.849637697
80,935.0,229.0,508.0,209.67009158
100,908.0,224.0,502.0,261.35731133
120,884.0,220.0,477.0,313.12690898
140,906.0,228.0,488.0,364.599185015
160,905.0,227.0,486.0,415.716839514
180,861.0,224.0,472.0,466.041863202
200,880.0,219.0,468.0,517.314338728
220,807.0,203.0,438.0,569.344953629
240,806.0,202.0,435.0,620.791362824
260,820.0,207.0,438.0,673.429813301
280,816.0,203.0,444.0,724.89903164
300,845.0,205.0,456.0,776.387245518
320,846.0,204.0,460.0,826.788351505
340,833.0,208.0,450.0,879.206852598
360,833.0,206.0,446.0,930.241198851
380,829.0,198.0,449.0,981.78226314
400,837.0,204.0,454.0,1031.31764405
420,842.0,206.0,455.0,1083.16938027
440,839.0,205.0,454.0,1135.1757038
460,838.0,206.0,450.0,1187.24642636
480,847.0,207.0,459.0,1236.84808464
500,848.0,206.0,461.0,1288.24322773
520,845.0,204.0,455.0,1339.16135906
540,845.0,204.0,456.0,1390.36243747
560,847.0,204.0,455.0,1442.83247454
580,838.0,204.0,456.0,1493.7216507
600,840.0,205.0,454.0,1546.00388772
620,837.0,204.0,450.0,1597.83768618
640,840.0,204.0,454.0,1649.04501761
660,848.0,207.0,461.0,1699.27202635
680,834.0,204.0,451.0,1752.68995699
700,839.0,204.0,453.0,1803.44391815
720,845.0,204.0,456.0,1856.76151678
740,837.0,204.0,453.0,1908.3792935
760,835.0,204.0,452.0,1960.36418235
780,845.0,204.0,458.0,2011.06531157
800,834.0,204.0,453.0,2060.76592898
820,838.0,204.0,452.0,2114.56961157
840,839.0,202.0,452.0,2166.87577066
860,837.0,204.0,452.0,2217.1248036
880,835.0,205.0,453.0,2268.38910926
900,842.0,205.0,458.0,2319.79793849
920,837.0,204.0,454.0,2372.12151271
940,840.0,204.0,458.0,2424.83106086
960,836.0,203.0,452.0,2477.8225196
980,840.0,204.0,458.0,2529.15805185
