iteration,error_training,error_validation,error_test,elapsed
0,904.0,224.0,475.0,3.325340238
20,903.0,224.0,487.0,73.572847566
40,901.0,226.0,485.0,145.783964458
60,932.0,236.0,505.0,218.478464758
80,916.0,228.0,490.0,291.067697979
100,900.0,225.0,486.0,363.324254055
120,888.0,214.0,490.0,436.645140703
140,882.0,218.0,483.0,508.429051843
160,885.0,226.0,478.0,579.047107552
180,864.0,222.0,474.0,650.872437162
200,886.0,217.0,481.0,723.157340903
220,880.0,220.0,474.0,795.894057431
240,896.0,228.0,475.0,867.597781871
260,853.0,217.0,466.0,937.186716777
280,889.0,225.0,482.0,1008.40297152
300,878.0,219.0,475.0,1080.77127311
320,881.0,221.0,478.0,1152.10312151
340,851.0,217.0,454.0,1222.9235697
360,864.0,215.0,461.0,1293.35402451
380,852.0,216.0,456.0,1363.85906363
400,855.0,217.0,466.0,1436.53033078
420,858.0,217.0,461.0,1509.21307836
440,859.0,219.0,466.0,1583.38944761
460,859.0,218.0,468.0,1652.81845376
480,854.0,214.0,460.0,1724.12117304
500,857.0,220.0,467.0,1795.10123207
520,862.0,219.0,466.0,1867.99575782
540,859.0,214.0,469.0,1938.89650221
560,862.0,219.0,472.0,2009.82175813
580,858.0,215.0,468.0,2081.40676567
600,860.0,218.0,471.0,2152.53850622
620,859.0,217.0,468.0,2223.97343437
640,851.0,218.0,465.0,2294.93784013
660,854.0,217.0,464.0,2365.79001925
680,858.0,219.0,464.0,2436.70502576
700,848.0,217.0,459.0,2508.03050495
720,852.0,215.0,467.0,2578.2435922
740,852.0,218.0,465.0,2648.02384668
760,853.0,215.0,469.0,2719.75256827
780,853.0,216.0,458.0,2789.86321027
800,850.0,216.0,456.0,2860.51111453
820,854.0,216.0,459.0,2930.76299148
840,852.0,215.0,456.0,2999.95421852
860,855.0,216.0,459.0,3070.96689442
880,853.0,215.0,456.0,3141.01327049
900,849.0,216.0,458.0,3211.69012724
920,852.0,215.0,456.0,3283.2480087
940,846.0,215.0,450.0,3353.34351125
960,852.0,215.0,458.0,3424.1243436
980,847.0,216.0,453.0,3494.90758603
1000,851.0,217.0,462.0,3567.45413892
1020,855.0,218.0,462.0,3637.36857089
1040,851.0,216.0,460.0,3707.85033515
1060,848.0,216.0,458.0,3775.96499595
1080,846.0,215.0,454.0,3845.35057846
1100,850.0,219.0,461.0,3915.92034502
1120,850.0,218.0,457.0,3986.81234799
1140,845.0,213.0,455.0,4058.66573264
1160,851.0,214.0,458.0,4130.14771111
1180,848.0,217.0,457.0,4199.94132751
1200,851.0,218.0,463.0,4271.22807499
1220,852.0,215.0,461.0,4342.46817516
1240,854.0,218.0,460.0,4413.37752743
1260,849.0,215.0,460.0,4485.10672327
1280,852.0,217.0,465.0,4554.25836281
1300,844.0,217.0,459.0,4625.07970898
1320,842.0,210.0,453.0,4694.59427861
1340,851.0,216.0,457.0,4766.35982403
1360,846.0,215.0,452.0,4837.24703359
1380,849.0,213.0,453.0,4907.08216759
1400,856.0,217.0,463.0,4979.83244254
1420,855.0,215.0,458.0,5051.76902606
1440,852.0,214.0,460.0,5122.71606795
1460,853.0,216.0,454.0,5197.15105566
1480,850.0,214.0,456.0,5269.51477978
1500,854.0,215.0,456.0,5342.68577715
1520,852.0,217.0,460.0,5415.1518643
1540,852.0,215.0,458.0,5487.89986584
1560,849.0,215.0,462.0,5559.24162599
1580,852.0,215.0,458.0,5631.59178857
1600,848.0,217.0,460.0,5705.5362068
1620,861.0,218.0,461.0,5781.20120959
1640,853.0,216.0,459.0,5858.35029209
1660,859.0,214.0,459.0,5934.50226213
