iteration,error_training,error_validation,error_test,elapsed
0,908.0,229.0,486.0,3.669298709
20,934.0,241.0,504.0,69.95878735
40,904.0,226.0,486.0,135.252199974
60,922.0,230.0,492.0,203.344102357
80,906.0,227.0,489.0,270.456126139
100,922.0,227.0,482.0,338.177022693
120,902.0,226.0,489.0,405.752633851
140,906.0,225.0,488.0,472.484647978
160,879.0,222.0,464.0,540.801364185
180,905.0,227.0,487.0,607.7438562
200,927.0,232.0,493.0,676.331787581
220,903.0,228.0,485.0,743.197167204
240,925.0,235.0,496.0,810.918918033
260,905.0,225.0,486.0,877.165151911
280,921.0,232.0,499.0,945.158683841
300,906.0,228.0,482.0,1011.0278613
320,908.0,235.0,481.0,1077.75757794
340,915.0,233.0,482.0,1143.79736879
360,905.0,227.0,476.0,1210.89910511
380,910.0,226.0,479.0,1278.03789219
400,900.0,227.0,485.0,1346.97050198
420,896.0,226.0,470.0,1415.25677872
440,913.0,229.0,482.0,1485.23324161
460,903.0,230.0,473.0,1554.49725949
480,885.0,225.0,467.0,1623.27590571
500,900.0,224.0,476.0,1691.54895814
520,902.0,222.0,476.0,1762.07136104
540,908.0,227.0,484.0,1830.66219367
560,906.0,225.0,480.0,1898.09347562
580,895.0,223.0,477.0,1963.68432698
600,896.0,227.0,477.0,2035.71784818
620,895.0,227.0,472.0,2104.74388057
640,889.0,226.0,476.0,2173.46620559
660,898.0,228.0,477.0,2241.58997738
680,902.0,228.0,475.0,2309.66504234
700,913.0,233.0,487.0,2375.48525299
720,893.0,229.0,482.0,2443.77093968
740,882.0,224.0,474.0,2510.51101742
760,893.0,228.0,473.0,2577.17518988
780,901.0,227.0,474.0,2646.01562705
800,895.0,228.0,474.0,2714.912135
820,902.0,222.0,482.0,2783.38511787
840,897.0,225.0,473.0,2853.18011697
860,896.0,227.0,471.0,2922.50620342
880,897.0,228.0,475.0,2989.92102846
900,894.0,223.0,476.0,3059.12460372
920,894.0,227.0,476.0,3127.50853075
940,904.0,227.0,475.0,3196.29884133
960,899.0,227.0,476.0,3264.52665146
980,904.0,229.0,475.0,3332.99658434
