iteration,MSE_trg,MSE_val,MSE_tst,acc_trg,acc_val,acc_tst,elapsed
0,904.0,226.0,486.0,0.0,0.0,0.0,0.215489006
20,904.0,226.0,486.0,0.0,0.0,0.0,4.827038304
40,904.0,226.0,486.0,0.0,0.0,0.0,9.236909831
60,904.0,226.0,486.0,0.0,0.0,0.0,13.452658277
80,904.0,226.0,486.0,0.0,0.0,0.0,17.44811146
100,903.0,226.0,486.0,0.0,0.0,0.0,21.480848821
120,903.0,226.0,486.0,0.0,0.0,0.0,26.015165626
140,903.0,226.0,486.0,0.0,0.0,0.0,31.79339915
160,903.0,226.0,486.0,0.0,0.0,0.0,36.494405691
180,903.0,226.0,486.0,0.0,0.0,0.0,40.787211726
200,903.0,226.0,486.0,0.0,0.0,0.0,45.10720422
220,903.0,226.0,486.0,0.0,0.0,0.0,50.56197258
240,902.0,226.0,486.0,0.0,0.0,0.0,55.82190174
260,902.0,226.0,486.0,0.0,0.0,0.0,60.128385502
280,902.0,226.0,486.0,0.0,0.0,0.0,64.047111228
300,901.0,226.0,486.0,0.0,0.0,0.0,67.942034622
320,901.0,226.0,485.0,0.0,0.0,0.0,71.284491646
340,901.0,226.0,485.0,0.0,0.0,0.0,74.491850512
360,900.0,226.0,485.0,0.0,0.0,0.0,77.700293739
380,899.0,224.0,485.0,0.0,0.0,0.0,80.900966643
400,899.0,224.0,485.0,0.0,0.0,0.0,84.08816677
420,896.0,225.0,482.0,0.0,0.0,0.0,87.325297092
440,893.0,225.0,481.0,0.0,0.0,0.0,90.554352628
460,893.0,225.0,481.0,0.0,0.0,0.0,93.752236449
480,895.0,224.0,481.0,0.0,0.0,0.0,96.933099239
