iter,time,reward,steps,convergence
1,0.0012744229999999135,-218.9,200.0,90.1
2,0.003069520000000381,-200.12,200.0,80.699
3,0.004257130999999248,-215.88,200.0,70.89242851760812
4,0.0052351379999997505,-242.96,200.0,61.26756787722324
5,0.0062800389999999595,-210.54,200.0,51.477421614323305
6,0.007421736999999595,-254.62,200.0,41.904964711767846
7,0.008399515999998997,-201.64,200.0,32.29417646463508
8,0.009358026999999325,-298.56,200.0,22.894176464635084
9,0.01042240399999983,-482.3,200.0,13.27272529677046
10,0.011381675000000868,-202.62,200.0,3.913268395785457
11,0.012436904000001192,-263.12,200.0,3.0228318398551632
12,0.013748450000001355,-249.36,200.0,2.8232321398551634
13,0.014439342000001076,-204.3,200.0,2.8292870667163177
14,0.015420139000001498,-206.68,200.0,3.0371961572924606
15,0.01645341100000053,-206.34,200.0,3.0509904565299295
16,0.017432229000000632,-211.74,200.0,2.8216918034539185
17,0.018399054000001414,-206.82,200.0,3.037799101788587
18,0.019373148999999756,-218.66,200.0,2.595329747052078
19,0.020302170999999092,-200.92,200.0,2.820303337664614
20,0.02123356199999904,-434.54,200.0,3.17976023864962
21,0.022140555999998313,-216.86,200.0,3.142853101226898
22,0.023278430999997823,-200.8,200.0,2.900412107147641
23,0.024205887999997344,-203.32,200.0,3.090598023654512
24,0.025500998999996582,-237.52,200.0,2.855683546027946
25,0.02640765499999631,-204.4,200.0,2.757073320022505
26,0.027345607999995636,-225.46,200.0,2.769252200721727
27,0.028331321999996106,-353.72,200.0,2.28392198761962
28,0.028931667999994914,-206.36,200.0,2.7239489631708222
29,0.029853424999995326,-213.44,200.0,2.3273434694370057
30,0.03084009799999521,-219.08,200.0,1.9825592126910057
31,0.03176663799999524,-212.32,200.0,2.437567225601827
32,0.03270503999999619,-200.6,199.42,2.4967023976527463
33,0.03359983499999686,-208.2,198.14,2.2703814072908544
34,0.03450351599999735,-286.7,200.0,2.126288580804597
35,0.03540139399999731,-210.3,200.0,2.200015982227014
36,0.036321642999997295,-204.96,200.0,2.5801913220998083
37,0.03760083299999728,-212.76,200.0,2.6588689305427717
38,0.038501766999997855,-207.12,200.0,2.2754446869792746
39,0.039413430999998056,-208.64,200.0,2.467667785463083
40,0.040381601999998296,-218.38,200.0,2.398548589844723
41,0.041731667999998834,-223.64,200.0,2.3951930059135096
42,0.04280886199999756,-225.62,199.92,2.387727950316037
43,0.043959164999998634,-203.84,200.0,2.8343927416433443
44,0.04488997499999847,-205.0,200.0,2.913864641100712
45,0.0458107409999986,-225.52,200.0,2.874967636679056
46,0.04673355499999943,-229.56,200.0,3.1133689717385176
47,0.047680025000000015,-208.12,200.0,3.027223665554654
48,0.04862158400000105,-224.32,200.0,3.0334755658700905
49,0.04958742700000052,-201.88,200.0,2.753618724432264
50,0.05056885499999986,-219.86,200.0,2.3749929429056635
51,0.05183831999999988,-209.4,200.0,1.9559200578537612
52,0.05293269900000119,-222.4,200.0,2.1698736715299445
53,0.05406418800000168,-200.7,200.0,1.780519501670227
54,0.05530872200000303,-206.7,193.9,1.7604842403119552
55,0.055693856000003095,-200.52,200.0,1.8037781396630468
56,0.05658762800000261,-275.22,200.0,1.2326132118915254
57,0.057520923000002,-223.16,200.0,1.5189122313684225
58,0.058428493000002746,-229.66,200.0,1.8768238538017912
59,0.05971556200000272,-225.98,200.0,1.9554408309014828
60,0.06061201800000404,-221.08,200.0,1.964600040257435
61,0.0615965390000035,-300.24,200.0,2.0266725899734936
62,0.062489891000003794,-245.52,200.0,2.273579913698609
63,0.06345350700000374,-237.96,200.0,2.1737937451911806
64,0.06512303300000433,-213.02,198.48,2.3088784468894605
65,0.06630135900000589,-233.04,198.98,2.3123403274734153
66,0.0672339900000054,-255.86,199.84,2.259773219593658
67,0.0684716720000047,-205.38,200.0,2.391420269757861
68,0.0695168640000059,-203.36,200.0,2.3037674052003507
69,0.07048606500000609,-207.14,200.0,2.2425863399454884
70,0.0714436980000066,-203.64,200.0,2.2012257643543975
71,0.07245280100000606,-201.86,199.4,2.1889289792967177
72,0.07349609800000678,-207.98,200.0,1.7422336250747688
73,0.07465582600000609,-279.54,199.94,2.2578798875736914
74,0.07565441300000586,-303.66,200.0,1.9720248021837539
75,0.07685403100000698,-225.48,195.28,1.975641760152072
76,0.0779293240000083,-207.24,200.0,2.5297841639051106
77,0.07890417800000904,-208.34,200.0,2.345433035420002
78,0.07997503800000949,-224.12,196.14,2.052631131942921
79,0.08115161500001022,-215.38,200.0,2.121089093278116
80,0.08212353100001124,-205.56,200.0,2.5438604420860247
81,0.08311772100001136,-219.16,200.0,2.5570536915235516
82,0.08426812900001046,-210.46,200.0,2.8632030828519097
83,0.08542988600000889,-207.76,200.0,2.440960939598601
84,0.08629601800000941,-206.82,200.0,2.4824426392652454
85,0.08722110300000985,-207.26,200.0,2.439333038874241
86,0.0881613130000094,-206.2,200.0,1.8401308474905058
87,0.08917118000000812,-211.76,200.0,1.7022270982752346
88,0.09029389700000756,-211.06,200.0,1.7037344211636074
89,0.09120461000000724,-238.86,198.9,1.7056940962542302
90,0.09230463600000682,-218.12,200.0,1.3085408179470928
91,0.09328369300000716,-222.0,200.0,1.248128102104331
92,0.09419976200000768,-222.98,200.0,1.35391399816724
93,0.09510994200000766,-206.2,200.0,1.5870820168215576
94,0.0959990330000089,-217.76,200.0,1.8505050134454415
95,0.09653253300000841,-211.9,200.0,2.0788703480988744
96,0.0974502070000085,-223.12,200.0,2.056565468022286
97,0.09793997000000765,-225.16,200.0,2.4390964505592705
98,0.09867002600000774,-248.06,199.68,3.117775998916703
99,0.09959808400000902,-215.9,200.0,3.411681788286542
100,0.10013403300000867,-215.74,200.0,3.7073859824782884
101,0.10054012300000892,-204.86,200.0,4.154326263994817
102,0.10117467200000974,-195.3,192.38,4.117871205089881
103,0.10202608200000896,-205.54,198.98,3.877515918461127
104,0.10293383300000869,-207.54,198.2,3.9925659408491456
105,0.10415028000000781,-219.42,200.0,3.81385227520022
106,0.10505585700000708,-201.88,197.04,4.27345300088359
107,0.10606030400000677,-203.4,200.0,3.8976946856092383
108,0.10697233400000528,-205.42,198.08,3.6245188612141774
109,0.10758932400000631,-209.92,200.0,3.2342707124176115
110,0.1079691530000062,-213.16,200.0,3.421969849469705
111,0.10870722900000551,-211.0,178.6,2.962804594855432
112,0.1089566230000063,-204.34,198.7,3.1372001995599414
113,0.10985447100000734,-223.24,194.04,3.3565846914416597
114,0.1111711550000063,-200.7,200.0,3.020968322920406
115,0.11208013200000622,-201.34,200.0,3.461331508436166
116,0.11314831900000577,-212.16,200.0,3.8646825120719006
117,0.11414628100000535,-208.54,197.62,3.8467135499134364
118,0.11537194900000536,-147.4,166.66,3.8052669238403567
119,0.11605696200000537,-220.6,200.0,4.092133301343922
120,0.11733782700000539,-248.48,199.74,3.5476182109601053
121,0.11760462400000549,-188.86,194.16,3.4625418058859423
122,0.11806370600000626,-265.72,199.68,3.0140876623104056
123,0.1190806450000057,-205.52,198.1,2.7837181407365947
124,0.11982365700000486,-183.78,186.46,2.80389993457812
125,0.12052739900000553,-207.88,200.0,2.3715802260789647
126,0.12095794900000634,-209.52,200.0,1.7569960181076119
127,0.12110013400000597,-223.98,200.0,2.046081869116229
128,0.1221517490000057,-203.98,186.62,2.0708318396227554
129,0.12258229600000625,-193.52,193.04,2.730911878188487
130,0.12382614100000566,-190.38,187.9,2.8065053973720424
131,0.12482831300000541,-110.64,133.52,2.9031738535404665
132,0.12574476500000564,-199.9,200.0,3.297801210429251
133,0.12665529100000583,-201.68,197.56,3.4614515063654694
134,0.1275643650000049,-166.06,171.66,3.353885444030076
135,0.12854936400000483,-199.9,200.0,3.662172399816007
136,0.1295216980000049,-184.86,187.0,3.4164738802024788
137,0.13043551700000577,-123.82,147.18,3.5851719092916383
138,0.13136921400000467,-91.82,118.34,3.507046876156518
139,0.13235712700000413,-254.5,165.94,2.6451286640022897
140,0.13253916200000404,-200.02,197.44,2.6255412762837045
141,0.13357987400000404,-56.28,101.7,2.614906250869844
142,0.1346110650000032,-160.42,174.24,2.0031839634276123
143,0.13550502400000397,-161.54,177.8,1.8391039266269735
144,0.13641373100000465,-129.16,147.16,2.0973012308956536
145,0.13735067500000397,-175.0,183.44,1.7897017532810415
146,0.13825706800000503,-215.18,200.0,2.0786612702149214
147,0.13892743200000446,-97.52,127.98,1.6972839258865313
148,0.13984896800000435,-168.98,180.48,1.9381574720331138
149,0.1409448300000058,-150.54,160.76,2.584683178019011
150,0.14191705200000548,-98.74,123.2,2.7674502323997996
151,0.14224480400000594,-205.48,200.0,3.0017070611339642
152,0.14269467000000624,-185.48,192.38,3.1371052418588237
153,0.14310224900000534,-96.52,127.8,3.597800019694845
154,0.14400976800000542,-162.78,170.68,3.446683644433403
155,0.14501565600000532,-196.82,195.84,3.558757531894033
156,0.14529120300000464,-199.58,200.0,3.3467730307233716
157,0.14629715400000443,-165.8,175.82,3.702810098864993
158,0.14717204800000516,-197.06,187.82,3.089899512043884
159,0.1480457780000055,-178.52,185.72,2.5305917596832104
160,0.14892056000000586,-169.16,181.8,2.749050352610253
161,0.15018145000000516,-194.04,190.86,2.7512939186686767
162,0.15108521200000524,-108.36,138.66,2.617072021196749
163,0.15190428800000433,-210.96,199.54,2.6014911261030385
164,0.15218335700000374,-207.5,200.0,2.588403225884169
165,0.1534858180000036,-204.5,196.56,3.0029038963806145
166,0.15470957900000393,-179.08,177.2,3.5503242426157735
167,0.15490766800000344,-19.7,64.98,3.3415373183887724
168,0.1551011600000045,-15.04,69.02,3.959437311955481
169,0.15531021800000389,-39.76,73.34,4.1162380279243225
170,0.1554632470000037,-43.16,81.1,4.171579318929295
171,0.15562876900000333,-113.24,128.88,4.277755586816944
172,0.15573307900000266,7.34,32.52,4.886313432600911
173,0.1558144160000019,25.22,27.38,4.882831152222005
174,0.15591903300000176,5.28,45.96,5.191854497857809
175,0.15605191800000107,-7.28,51.16,4.674516584652263
176,0.15625023200000143,-166.42,178.42,4.2859400174636875
177,0.15709818200000214,-181.62,182.5,4.764728708117673
178,0.15757305800000232,-187.62,189.88,4.6255489516234505
179,0.15768051900000124,-196.6,188.7,4.352250743292275
180,0.15809606300000212,5.14,43.18,4.185465449528157
181,0.15829132300000204,-192.36,185.56,4.199352552370497
182,0.15844508800000234,-170.32,161.78,4.02053274356049
183,0.1597348930000031,-45.9,82.16,4.012937533658588
184,0.16095459300000314,2.5,48.68,4.462370091519089
185,0.16116856500000232,-125.76,145.78,4.660627562186433
186,0.1613524820000034,15.26,31.58,4.989974313800789
187,0.16147794900000356,10.86,39.44,4.330114179577527
188,0.16158616500000278,-109.0,140.06,4.4983381811245895
189,0.16172969700000195,21.44,32.28,4.638519500937654
190,0.16189153300000214,-8.36,59.92,4.605089571546041
191,0.1619852820000034,19.38,29.28,4.574952391427806
192,0.16208583700000467,17.2,28.48,4.609602827604744
193,0.16219342800000547,13.16,36.36,4.749335434334763
194,0.16319471300000465,19.08,28.66,4.295907498644468
195,0.163326258000005,27.88,27.3,4.452252427812459
196,0.1634337070000047,19.22,30.12,4.354493259770575
197,0.16354199000000413,23.9,28.24,4.891216814889674
198,0.16362953100000333,14.42,32.62,4.7271176054593536
199,0.16382307200000312,18.24,29.08,4.97589403965541
200,0.16394233900000366,21.24,29.7,5.148313081142311
201,0.16402406800000335,20.98,30.86,5.249039316440845
202,0.16417783900000416,24.66,31.32,5.247405222893741
203,0.16434581500000434,29.64,26.18,4.996663284529392
204,0.16446164200000446,16.26,31.5,4.714055847352479
205,0.16456181400000425,20.38,27.22,4.524415841401619
206,0.1646491220000037,16.36,27.94,4.837593546765878
207,0.16476302800000475,21.22,30.34,4.266614547752638
208,0.16490718200000565,21.38,27.12,4.162515073903811
209,0.16499363300000702,23.04,26.8,4.1208734961911215
210,0.1650848860000078,25.7,26.32,4.10368925731313
211,0.16520637900000779,25.48,26.5,3.9129018440256402
212,0.16535232600000604,24.32,26.1,3.939473869951354
213,0.1654602620000052,23.18,26.92,3.987024538805669
214,0.16558599700000443,20.24,27.78,3.9812043447491368
215,0.16569548300000392,24.78,28.26,4.097656986542103
216,0.1657911820000031,21.4,26.02,3.6989434908759087
217,0.16589730400000313,17.06,26.74,4.149211586846336
218,0.16598663700000316,20.18,30.48,3.8476529697220974
219,0.16609006300000395,28.3,26.04,4.141126474504805
220,0.16618322400000451,18.98,28.38,4.1264203876816
221,0.16627558200000436,15.38,28.34,4.248627258940348
222,0.16636219700000332,17.82,26.12,4.153617190818531
223,0.16654699900000303,23.18,27.1,4.052726200980097
224,0.1666614360000036,17.42,27.28,4.637554054722925
225,0.16680143700000372,16.98,27.24,4.970348122673705
226,0.1669394530000048,24.22,26.72,4.980394215646055
227,0.16708902300000616,21.74,26.6,4.807638746553107
228,0.16721151200000506,26.76,26.46,5.306026301512395
229,0.16731109800000432,24.96,26.52,4.771227754340716
230,0.1674324550000037,13.42,28.5,4.763874816542296
231,0.16750736100000374,24.52,26.56,4.433578002082114
232,0.16761212600000341,19.44,27.12,4.6680609603550804
233,0.16771593400000384,25.36,26.34,4.786853900989361
234,0.1677797100000049,25.44,26.58,4.737871199736289
235,0.16789550000000553,24.78,27.5,4.273219643616653
236,0.16797912700000595,23.96,27.12,4.296539188608951
237,0.16807830800000545,20.0,26.44,4.50275979561617
238,0.16816675100000467,20.18,27.18,4.330784215376272
239,0.16825220900000382,23.62,26.66,4.600648694054508
240,0.16836110200000398,30.04,25.86,4.702151875330347
241,0.16848469400000532,23.42,27.08,5.010155780146861
242,0.1685764370000058,22.04,26.94,4.767413032719181
243,0.16873115200000655,23.84,26.74,4.890249382671252
244,0.16888592200000652,24.92,25.76,4.605332082719721
245,0.16898086300000692,20.66,28.32,4.9838727109553265
246,0.16915289400000688,27.22,27.24,5.243573541105825
247,0.169315910000007,23.36,27.72,5.057069595415546
248,0.16949492800000776,23.08,27.56,5.292225024970219
249,0.16967740200000847,23.96,27.12,5.368736217683955
250,0.16979122500000798,28.14,26.2,5.5263351013427195
251,0.1699024980000079,27.4,26.76,5.694472310624687
252,0.16999643900000727,24.6,27.12,5.631305267473286
253,0.17012608800000706,24.86,26.74,5.359698911245326
254,0.1702601890000075,24.94,26.5,5.335602828146186
255,0.1703804120000072,21.76,26.96,4.975776864255868
256,0.1706287960000079,25.2,27.18,4.610508353093318
257,0.1707540640000076,25.3,25.56,4.740097436553197
258,0.170901368000008,21.38,27.02,4.442153302902943
259,0.17099056700000936,25.5,26.92,4.380701291566697
260,0.17106991300001084,29.88,25.66,3.938304365916956
261,0.17116382000001096,21.86,25.96,3.8668903232645904
262,0.17128005800001134,23.86,27.58,4.046254716830871
263,0.17139099100001154,27.92,26.2,3.804189353301959
264,0.17150858200001196,22.12,26.38,3.843178139765647
265,0.1715997900000108,23.12,26.34,3.960092779304932
266,0.17171575900001024,21.5,26.76,3.925394577349042
267,0.171824745000011,24.04,27.12,3.955004607783509
268,0.17192056300001113,23.72,26.74,3.893385360059522
269,0.1720492540000098,28.36,26.56,3.8192085426047226
270,0.17215011700000993,27.4,25.96,3.9216741194449165
271,0.17223910900001016,29.56,25.9,3.832193767120561
272,0.17234877600000864,25.2,27.48,3.6156428278609782
273,0.17245582200000875,27.36,25.28,4.003048276255518
274,0.17254662200000936,26.2,26.76,3.726559193239035
275,0.17262687900000984,22.58,26.94,3.6932236763198873
276,0.17269593100001046,25.68,26.56,3.740971762814124
277,0.17279016100001066,24.7,27.14,3.5668187310081594
278,0.172963356000011,21.7,28.0,4.058296406554107
279,0.173113952000012,27.04,25.96,3.9828685022312795
280,0.17323367100001086,25.84,27.3,3.9709565731928658
281,0.17336894000001202,26.96,26.18,3.8689604889051155
282,0.1734891820000115,26.5,26.72,3.955328594055409
283,0.17363214500001156,29.78,26.26,3.9339209950024263
284,0.17370824000001228,20.68,28.12,4.156725539784391
285,0.17380661600001268,23.0,26.7,4.365463171926848
286,0.17392256500001402,18.54,27.5,4.586671591982595
287,0.17400632400001292,16.58,27.54,4.665372509727772
288,0.17414862800001352,15.42,28.3,4.336438343364843
289,0.17424406900001443,23.36,26.34,4.451446915165844
290,0.17431840000001486,24.44,27.36,4.514400065517687
291,0.17441651100001465,17.8,27.38,4.745167301939001
292,0.17450637100001387,26.48,26.34,4.820911669267549
293,0.174592442000014,24.48,26.42,4.441648125989529
294,0.17469918700001408,20.26,26.72,4.448006044790985
295,0.1749050730000139,25.1,26.56,4.130473939859357
296,0.17501936000001272,25.66,26.98,4.130868342017465
297,0.17507997400001152,27.66,26.68,4.05200217322503
298,0.17515437300001047,20.38,28.32,4.106627696385158
299,0.17526535100001084,27.4,26.2,3.9870089095378525
300,0.1754031020000113,22.16,27.72,3.7940016220702324
301,0.17549795900001008,23.38,26.5,3.6381019290527057
302,0.17558803700000958,22.9,26.74,3.603495303559852
303,0.17569797600000925,22.78,26.38,4.056351341534708
304,0.17583313100000986,19.46,27.02,4.061971557795312
305,0.1759517230000096,15.48,27.34,4.392002588969751
306,0.17606727100000974,26.34,26.66,4.230147042984006
307,0.1761659780000091,21.36,26.54,4.183831828249443
308,0.1762557030000096,19.2,27.2,4.1266988308863715
309,0.17636548000001007,22.18,27.06,4.1342120747477535
310,0.1765485530000106,20.82,26.58,4.330958530819854
311,0.1766465880000112,18.72,26.6,4.374298513804013
312,0.17675352700001135,27.02,26.28,4.232667335577335
313,0.1768554770000108,16.82,27.16,4.1048762253907185
314,0.1769932210000107,18.06,26.72,4.112317950629754
315,0.17709978200001153,26.22,26.6,4.278029377771901
316,0.1771986560000105,24.2,26.52,4.23243045157099
317,0.17727450900001074,26.52,26.8,4.42932293259498
318,0.17738415400001095,25.96,27.16,4.28520097173311
319,0.17750624100001033,21.9,26.86,4.143315842077665
320,0.17757463700000997,20.94,27.2,4.236011181085278
321,0.17766526400001048,28.56,25.78,4.173723622895194
322,0.17783358300001062,19.72,27.74,4.26020767355839
323,0.1779884200000108,22.76,27.38,4.207829084589129
324,0.17810919900001032,27.04,25.06,4.210929993201239
325,0.17822727300001162,27.6,26.68,3.784053970781194
326,0.17844786500001142,21.6,27.92,3.952437971648254
327,0.17855479800001106,24.1,26.9,3.7859791505654554
328,0.17869769300001082,25.46,26.2,3.7101142561203515
329,0.1787988040000119,21.94,28.12,3.6400700139614863
330,0.1789135810000122,23.0,27.1,3.3201159083966125
331,0.17903413600001272,22.36,26.0,3.3382931496055916
332,0.17914744200001387,29.74,26.24,3.288726093241506
333,0.17923286200001343,23.02,26.64,3.325077806034489
334,0.17933559200001348,22.1,27.4,3.2458789884834545
335,0.17943421900001333,18.74,27.02,3.3463653256324783
336,0.17955730100001333,22.42,26.92,3.023781451281443
337,0.1796532650000131,24.84,27.9,2.760932696435308
338,0.17981280400001332,23.98,27.98,2.8214276176830224
339,0.17992663900001382,25.28,26.86,2.978371295792259
340,0.18004807700001457,28.66,26.34,3.154221968261787
341,0.1801258680000135,21.9,26.84,3.137416727495957
342,0.18022537600001343,22.06,26.42,3.3270289619286486
343,0.1803338160000134,19.88,27.46,3.2424515582640936
344,0.18041001600001216,23.74,28.06,3.278603680197091
345,0.18048415600001277,26.78,26.84,3.1984463578955973
346,0.1805813480000129,25.98,26.0,3.323882917442842
347,0.18066749800001425,25.56,26.24,3.373496683193192
348,0.18076520100001403,26.62,26.6,3.5546699898133483
349,0.18090107300001357,17.42,28.52,3.983561696148834
350,0.181142970000014,22.28,27.32,3.683887909632662
351,0.18131695600001407,24.0,28.02,3.722477600624411
352,0.18149633400001441,20.02,26.86,3.5858918176464285
353,0.18158672900001527,21.64,26.4,3.4596772976379606
354,0.1817266430000153,15.5,29.58,3.588750747141084
355,0.18188934100001575,22.08,26.1,3.52560038452888
356,0.18201309700001644,26.34,27.28,3.4739947931794832
357,0.18212039700001625,21.54,26.82,3.6194075271231902
358,0.18219055800001627,24.44,26.94,3.5286980860200536
359,0.1823130380000162,16.84,28.08,3.3403303541355056
360,0.18243229400001582,27.34,25.44,3.521465967041982
361,0.18253412800001634,20.82,27.14,3.336906736979762
362,0.18262681000001635,23.8,27.72,3.1733206273717878
363,0.1827397010000169,24.72,26.72,3.355378269685378
364,0.18289656000001564,23.94,26.7,3.2117174608938073
365,0.1829923010000165,24.0,27.12,3.76974803276602
366,0.18308575100001612,25.78,26.64,3.9332694555041505
367,0.18319511600001626,18.96,26.36,4.297824113645851
368,0.18331490200001532,22.06,26.88,4.067278074344127
369,0.18341471100001527,17.76,27.48,4.143788277428871
370,0.18349544900001646,21.52,26.88,4.231247030293564
371,0.18360228900001552,23.24,27.54,4.3350854418271565
372,0.18367486300001623,25.02,27.66,4.236967842559282
373,0.18375339500001608,25.14,26.48,4.40107222399461
374,0.18384219500001464,28.5,26.96,4.4288371238971775
375,0.18393112700001346,27.44,25.92,3.792087662014974
376,0.18399917900001483,17.5,27.68,3.565300616845987
377,0.1841649400000147,25.32,27.46,3.1372525064280237
378,0.18429561300001573,22.86,27.82,3.1203163322009155
379,0.1844466820000168,19.12,27.72,2.879294606517637
380,0.18460553600001717,26.18,27.0,2.861203959922607
381,0.18470971300001793,19.78,27.5,2.6205131077603734
382,0.18481074800001807,22.8,26.82,2.9523581059638855
383,0.18491807300001817,25.02,26.24,2.615055385073398
384,0.18500748300001746,26.06,27.04,2.912778782925411
385,0.18510551900001815,24.48,27.22,3.047460160789332
386,0.18522241800001815,22.76,26.1,3.3539719146230937
387,0.18532978200001793,22.22,28.06,3.417618462012208
388,0.18544459300001748,24.04,28.14,3.8330388850836123
389,0.18553516200001852,19.16,27.14,3.8940556245193934
390,0.18563859700001828,20.64,26.68,4.319962808038777
391,0.18572183200001824,22.94,27.6,4.312886360901567
392,0.18589436800001735,23.4,27.1,4.071519042856753
393,0.18600778000001839,22.8,26.9,4.412388516633132
394,0.18614642200001796,26.86,26.58,3.873558570672736
395,0.18626883000001726,20.28,26.66,3.584333607862939
396,0.1864144550000173,25.14,26.12,3.23589630285599
397,0.18652477700001846,25.9,26.7,3.060416204543514
398,0.1866586920000195,19.22,28.42,3.0158878326424103
399,0.18677771600001947,24.32,26.98,2.9037608169459617
400,0.18690293900001897,20.28,26.66,2.4745479917588136
401,0.18699156500001912,20.72,27.36,2.589980286048572
402,0.18706653100002057,19.56,27.32,2.5704867841242725
403,0.18715219000002037,25.94,27.9,2.4790888462092413
404,0.18721536400002137,21.56,26.76,2.4730847398834475
405,0.18729552300002084,22.28,26.62,2.801105092495912
406,0.18737885200002147,21.52,27.46,2.693386404706625
407,0.18750280700002264,24.04,26.6,2.8720143217465073
408,0.18757978900002392,19.24,26.4,2.7296611092846628
409,0.18768963600002309,24.96,25.86,2.50326907234442
410,0.1877637320000236,28.0,26.34,2.2126564561509885
411,0.1878682860000236,22.8,27.12,2.2432891566369433
412,0.18798267300002358,23.44,27.02,2.3687683223895784
413,0.18809807800002432,26.46,26.72,2.0410235704107462
414,0.18818508400002365,20.14,27.06,2.3448260778692562
415,0.18829726400002222,23.66,27.1,1.9973020158599362
416,0.18840618700002132,21.54,26.68,2.058251839273272
417,0.18847807900002067,25.28,27.4,1.8560194804568408
418,0.1885789550000201,22.78,27.9,1.5550171738951817
419,0.18866613200002114,28.5,26.42,1.683272128055674
420,0.18876133400002004,23.38,26.42,1.9233588081745423
421,0.18886469900001934,25.18,26.3,1.9816188934446182
422,0.18895750200002048,20.7,27.2,2.1470470716442414
423,0.18904243200002036,18.42,26.32,2.328435429162367
424,0.18913211200002067,23.4,26.7,2.0245469538139433
425,0.18920740100002043,23.14,26.88,2.1616667701809686
426,0.18928545700002175,20.74,26.82,2.583603857744724
427,0.1894208940000226,25.08,26.94,2.587594837151941
428,0.189547189000022,22.38,26.92,2.9103393131598803
429,0.1896837680000214,26.1,26.36,2.9432726198997825
430,0.18979146200002184,24.28,27.38,2.96627564669469
431,0.18995429800002306,27.9,25.78,2.793752003132637
432,0.19004586100002285,26.92,27.2,2.462718339250598
433,0.19014118200002272,22.58,26.8,2.3312347890648217
434,0.19023643800002255,24.54,26.1,2.9493525478823406
435,0.190347417000023,20.8,26.88,2.9094173168195905
436,0.19046206700002344,26.3,26.26,2.853720789827846
437,0.19058454300002303,24.34,26.66,3.0632489783926165
438,0.1906882060000239,19.64,28.18,3.0472971679344956
439,0.19076740800002412,22.62,26.1,3.1365891974995446
440,0.19090764900002455,24.4,25.92,2.9175201353570026
441,0.1910277190000258,29.22,26.64,3.0121384111235496
442,0.19114809500002572,26.36,26.5,3.2463166783468025
443,0.19129876300002557,25.9,26.16,3.399446820967839
444,0.1914264170000255,24.04,26.6,3.1794753558658044
445,0.1915582560000253,19.64,26.96,3.463007161242684
446,0.19165399100002567,27.94,26.32,3.0664934539754167
447,0.1925279030000251,23.92,26.0,3.185183999287151
448,0.19263494600002673,30.52,26.82,3.0175278870563766
449,0.19270875800002685,22.88,26.1,2.8214645621838
450,0.19278350600002625,20.48,27.52,3.233782968576564
451,0.19284954400002619,26.48,26.88,3.3058803868980755
452,0.19293828700002535,23.54,26.78,3.143808821871091
453,0.19301448200002547,27.76,25.88,2.9707143354757686
454,0.19309988600002548,19.18,26.78,2.799300879397159
455,0.19319357800002557,19.66,27.5,2.6990256381976034
456,0.1932938720000248,24.28,27.06,2.7483403619128337
457,0.1933738050000251,25.46,26.7,2.6578724630666377
458,0.1934888360000251,27.8,25.96,2.5933045765693596
459,0.1935861270000263,25.32,25.24,2.6663825471216347
460,0.1937059670000263,19.46,28.04,2.5824131342703582
461,0.19380258600002698,22.78,26.52,2.4526670693263313
462,0.19393923000002644,19.98,26.6,2.3500964463981107
463,0.1940332950000272,19.72,27.52,2.614598308667081
464,0.19415262100002728,28.26,27.06,2.749905329654361
465,0.19431789300002578,26.56,26.3,2.656824532834435
466,0.19441299700002723,19.58,26.68,2.756242806251716
467,0.194527317000027,24.12,27.4,2.609176003842281
468,0.1946176790000269,20.38,27.22,2.7712551586555354
469,0.19469952200002716,24.72,26.36,3.015827381204701
470,0.1948227990000273,27.9,25.9,2.9145301048915253
471,0.19492134000002714,25.94,27.2,2.917505192688963
472,0.19502178400002634,23.32,26.5,3.113936232906111
473,0.19514522400002576,19.8,26.46,3.0870249232525206
474,0.19522564000002518,24.68,26.62,3.0938538371655318
475,0.19532543500002397,17.7,28.2,3.1997986999004286
476,0.195434360000025,24.26,26.9,3.2406766195123167
477,0.19550637600002574,25.44,27.24,3.8238022614223057
478,0.1955707910000264,24.88,27.04,3.809905843861351
479,0.19565126700002544,20.52,28.68,3.688167483089983
480,0.19574399400002385,20.38,27.48,3.5509786035642237
481,0.19585225400002493,24.6,27.24,3.4364603711718056
482,0.1959689140000247,25.82,25.98,3.2744593941916933
483,0.19606260300002454,29.42,26.08,3.5266237591553464
484,0.19615908600002463,23.1,27.04,3.382161875992305
485,0.19624506400002417,23.56,27.44,3.1751495282242423
486,0.19632923000002478,23.34,27.74,3.2027609283263203
487,0.1964212300000252,24.54,26.84,3.1213033306682747
488,0.19649887200002425,14.44,28.12,3.070913901922071
489,0.1965785540000251,20.64,28.28,3.139261346226437
490,0.19665356300002657,28.6,26.64,3.4643315071911522
491,0.19674311400002686,24.68,27.34,3.5774786381671304
492,0.19685296300002797,27.28,26.04,3.5524158488586215
493,0.19694501200002712,17.98,27.92,3.016980786657455
494,0.1970128420000261,27.68,26.18,3.1093100483349003
495,0.1971215280000269,22.5,27.56,3.5432274188935233
496,0.19724355600002674,23.04,26.48,3.6921079231001763
497,0.197344473000026,23.12,26.94,3.0681674408210218
498,0.19743070400002694,27.92,26.64,3.4195680054818567
499,0.19751264700002658,21.5,26.36,3.181986505248429
500,0.19766398500002502,24.38,27.32,2.709440544983281
501,0.1977971740000246,25.94,27.1,2.9847569394831526
502,0.19790263300002486,25.22,27.16,3.2004257356121784
503,0.1979901580000245,21.08,27.14,3.2212535891157543
504,0.19807226900002384,24.26,27.62,3.1175108275916026
505,0.19817562200002392,21.18,27.62,2.7184790097566305
506,0.19825854100002438,17.32,28.4,2.82284700842487
507,0.19833279000002335,27.42,26.3,3.067763006653307
508,0.19841023000002345,18.76,26.88,2.5959344854330246
509,0.198558812000023,20.58,28.2,2.596506033183104
510,0.19867597000002313,18.98,29.1,3.162739609048071
511,0.19879047800002425,21.48,26.88,3.0375404743735848
512,0.19888099900002487,19.9,27.24,3.1456929001998537
513,0.19898435400002512,27.36,25.96,3.3868254952119807
514,0.19908111300002496,21.2,26.34,3.2420354314485516
515,0.19921500900002442,24.74,26.74,3.371685083887113
516,0.19930573000002383,21.32,27.44,3.131640583663752
517,0.19941236500002368,25.46,27.26,3.2140863095220666
518,0.1995637030000239,25.44,25.9,3.442831384730316
519,0.19964877800002334,26.28,26.1,3.3686990499566334
520,0.19976349700002238,22.38,28.7,3.2300127221144144
521,0.1998389750000218,22.26,27.66,3.208444292508257
522,0.1999357540000215,20.84,25.92,2.885154712040797
523,0.20003657300002153,25.12,26.22,2.9390102510065796
524,0.20011397000002162,15.96,26.68,3.207622365312974
525,0.20018627600002326,20.28,26.92,2.9640260258041558
526,0.200309956000023,21.62,27.14,3.264536727052269
527,0.2004524830000225,23.34,26.04,3.006288090079666
528,0.20053507300002238,20.86,26.56,2.760522867518856
529,0.20066658700002193,22.02,28.3,3.049510793562976
530,0.2008124940000222,25.5,26.12,3.1025919598143727
531,0.2009321540000215,23.18,27.24,3.1378860381792517
532,0.20102690100002008,23.22,27.2,3.138684625353476
533,0.2011659360000202,24.96,26.16,2.8708214666311935
534,0.20127034400002053,18.54,27.76,2.619555830294691
535,0.20136789000002153,25.92,26.14,2.6383636580541436
536,0.20143922600002107,25.3,26.0,2.212140547915892
537,0.20154315400002076,25.96,26.68,2.203535040187213
538,0.20164758200002098,25.62,26.04,2.3848988477730435
539,0.2017714670000217,24.82,27.02,2.5274291352091187
540,0.20189379800002172,26.56,26.8,2.3001190050395413
541,0.2020044900000233,28.62,25.82,2.0723005677431177
542,0.2020971120000219,24.6,27.12,2.2148743201267975
543,0.20221718900002195,16.48,27.46,2.7523292615440527
544,0.20232135000002316,22.66,27.88,3.016160958821266
545,0.20247422300002427,27.14,26.18,3.052517866901149
546,0.2025733280000246,29.28,26.3,3.322057528160923
547,0.20268313200002375,17.4,27.1,3.4883721574370354
548,0.2027986160000239,18.94,27.06,3.742859626779859
549,0.20289162600002442,22.12,27.12,3.4042451755936582
550,0.2031110110000256,23.14,26.82,3.4036730636763677
551,0.2032126110000263,24.64,27.02,3.4384480392870302
552,0.20334629100002743,24.22,26.46,3.635761632651095
553,0.20343129400002624,21.22,26.54,3.289112669742951
554,0.2035307190000264,20.56,27.04,3.1657336363954784
555,0.20369002600002517,25.54,25.98,3.2060258442988463
556,0.20379778400002557,25.74,25.26,2.8433733696581744
557,0.2038933420000255,28.48,26.76,2.6439315851591383
558,0.2039642030000266,26.52,27.42,2.4409125119538535
559,0.20406286700002596,21.72,26.68,2.6003303211882263
560,0.20418739700002675,22.94,26.36,2.495976949120243
561,0.20437614700002626,27.68,26.22,2.4721451611226435
562,0.20450914400002773,24.82,26.7,2.4245127769594554
563,0.2047079420000273,25.2,26.64,2.6952948593727513
564,0.20483599100002792,22.0,26.54,2.6976085561295364
565,0.2049255310000273,23.28,26.46,2.641937952667076
566,0.20500251000002834,20.34,26.68,2.634922756710772
567,0.20509165800002904,27.2,26.34,2.576704664570682
568,0.20520027700002963,19.46,28.52,2.3560968234862534
569,0.20530676500002976,24.88,27.18,2.1451144091866574
570,0.20538740400002986,21.0,26.32,2.4182940783652245
571,0.20547450600003003,29.08,26.42,2.3384364297378735
572,0.20555784300002955,20.08,26.76,2.2724801774606607
573,0.20567497100003074,28.44,25.28,2.0688724299138697
574,0.20578467800003075,25.04,26.98,1.8275873293649212
575,0.20586859200003005,26.78,26.34,1.9514286827659006
576,0.20598521200003006,20.32,27.94,2.218155861294097
577,0.2060771190000299,22.7,27.18,2.611102414962017
578,0.20616016300003004,19.68,26.84,2.623459022776255
579,0.2062514930000301,21.52,26.52,2.596365198885752
580,0.20634185500003,28.46,25.84,2.2789068523029448
581,0.2065165450000297,21.86,26.5,2.520730948114642
582,0.20664706700002888,16.54,27.18,2.292034109141464
583,0.20675498400002823,27.4,26.4,2.197527674591305
584,0.2068738650000288,27.1,25.86,2.3058306176555
585,0.206995177000028,25.44,26.98,2.2436283077790313
586,0.2070865360000287,22.26,26.06,1.9712966448975842
587,0.20717703600002935,23.1,25.96,1.710471833380705
588,0.20728772200002865,22.84,26.5,1.65364495069849
589,0.20736507800002713,21.24,27.42,1.8822131891985492
590,0.2074610670000272,21.26,26.52,2.3899458409465666
591,0.2075611640000261,13.18,28.2,2.545155133635255
592,0.20765770100002534,21.26,29.58,2.5445621834628147
593,0.20774486400002523,17.84,27.2,2.420746384434202
594,0.20782266400002491,25.34,26.54,2.649694590114138
595,0.2078973890000242,24.3,25.84,2.705489319291673
596,0.20796855300002548,28.26,25.6,2.8961998226839105
597,0.20804897700002556,25.82,26.34,2.863807464170299
598,0.2081513430000257,24.34,26.16,3.364446737240455
599,0.20825417900002385,25.52,26.18,3.1198598239598896
600,0.2083671270000238,22.48,26.42,2.5371982040824483
601,0.20849284900002374,30.28,26.06,2.7074227007878635
602,0.2085838940000233,26.9,26.76,2.6723627971295074
603,0.20873200900002153,21.9,26.24,2.9928699776089958
604,0.20882234700002122,19.72,27.26,2.709061686323738
605,0.20891699400002217,21.5,26.82,2.924518592798085
606,0.20901161200002072,29.38,25.9,2.766052922223985
607,0.20909741600002008,25.0,25.86,2.7125842609636024
608,0.2091895350000197,26.58,27.08,2.1938010191496184
609,0.2092749500000206,23.4,28.04,2.452929262050408
610,0.20943984300001972,20.78,26.5,2.7643685516082863
611,0.20953454600002175,26.48,25.54,2.565684439372352
612,0.20961754000002308,24.6,26.88,2.6109765907422195
613,0.20974818300002163,24.68,26.14,2.184770618217349
614,0.2098367270000221,24.1,27.02,2.123405630133539
615,0.2099749950000227,23.18,26.38,1.7379283985389282
616,0.21004754300002126,19.52,26.02,1.6333696042582873
617,0.21014927900002256,22.96,25.88,1.6366317373972188
618,0.2102679150000224,22.46,28.56,2.1597284012938105
619,0.21037561000002114,26.54,25.84,2.1451487895599315
620,0.2104500640000211,26.26,27.08,1.8469998406137063
621,0.21058281700002013,27.46,27.36,1.789912995138702
622,0.21076911000002063,21.12,26.96,1.7717173769600045
623,0.21088028300002115,24.64,27.24,1.783884104281538
624,0.21100712900001994,20.78,27.34,1.7987708222283758
625,0.2111377460000181,27.32,26.18,2.0581692990608067
626,0.2112298770000205,22.08,25.38,2.5304541007601977
627,0.21134374000001976,25.1,26.12,2.492112104983575
628,0.21143511300001983,28.04,26.44,2.004835377729157
629,0.21152979600001842,26.44,26.48,1.8481021738294736
630,0.21161071200002013,28.5,27.04,2.0767547282056222
631,0.21170680900002203,24.84,26.64,1.8673218947187202
632,0.21179773200002394,23.48,26.4,2.169564060742951
633,0.21187506500002407,26.44,26.48,2.1675278947833063
634,0.2119687970000239,25.04,26.44,2.167080590788892
635,0.21205170500002524,28.86,26.56,1.9510510817737288
636,0.2121176160000271,28.56,26.76,1.8442549127866787
637,0.21218388400003008,23.74,26.3,2.0674337978455384
638,0.2122466190000285,26.78,27.06,2.289504557159776
639,0.21234607800002614,24.4,27.08,2.4673455865008407
640,0.21245669300002668,24.46,26.84,2.580720647176689
641,0.21254956700002658,21.04,27.06,2.785186859185091
642,0.21268363000002566,16.98,25.94,3.116194844509355
643,0.21280507700002715,18.96,28.1,3.095634816321883
644,0.212914488000024,22.84,27.22,3.380138853367997
645,0.21304862600002572,23.82,27.48,3.411340132670168
646,0.21312645400002417,26.18,26.2,3.3089884336190223
647,0.21328961700002225,26.0,27.36,3.155767260634856
648,0.21340732300001974,24.14,26.36,3.129600502788797
649,0.21348137000002154,24.34,25.98,2.906250308217029
650,0.2136216030000213,23.72,26.5,2.9362192212408247
651,0.21372630300001916,18.12,26.76,2.6549870465279346
652,0.21380405100001987,25.72,25.94,2.2183977545825284
653,0.21389551100001825,24.76,26.06,2.2660303358256977
654,0.2139877640000183,24.24,27.54,2.007433946598084
655,0.2141215820000184,26.98,27.0,2.2743635684607755
656,0.21426031400001833,27.26,25.6,2.075463262497073
657,0.21435359700001655,23.64,27.08,2.4549196151348958
658,0.21446520000001534,24.34,26.7,2.8348773281384596
659,0.21454302800001557,26.84,26.6,3.0474453034025606
660,0.21463514100001468,22.72,27.34,2.6983432065713613
661,0.2147121040000144,30.26,25.74,2.7484664476638114
662,0.21481988400001306,26.18,27.18,2.5100007319184954
663,0.21491346800001487,24.22,26.46,2.4663093959885933
664,0.2150343930000176,21.62,26.06,2.453700573072863
665,0.21513458200001878,21.9,27.12,2.1707354060328248
666,0.21523491600001954,21.16,28.84,2.211416319810372
667,0.2153321490000195,23.42,27.08,1.8924584494189562
668,0.21544159800002127,19.4,27.82,1.3659250552205144
669,0.21557045000002084,21.96,27.86,1.132625940845773
670,0.21566040500001904,1.64,33.96,1.3375017456861786
671,0.2157514060000203,22.06,26.78,1.5706714192563103
672,0.21585126800002108,19.86,27.78,1.9388249690921515
673,0.21592616100002182,24.84,26.42,2.1750943198401744
674,0.21602544700002113,26.54,26.42,2.2169084941285253
675,0.2161425400000212,25.12,27.3,2.283614539976678
676,0.21625857300002238,24.74,25.9,2.329166047662972
677,0.21637688000002342,23.6,27.34,2.2497266972384233
678,0.21650617900002445,22.8,27.34,2.15253268788069
679,0.21659762200002497,21.88,26.6,2.1879872579110837
680,0.21675320500002293,27.82,26.88,2.336618899304706
681,0.21681687500002056,31.38,25.1,2.289947022239398
682,0.21687715500001836,23.14,27.04,1.9154924988525992
683,0.21700726800002101,27.82,25.68,1.924991989755786
684,0.21709562600002208,26.8,25.26,2.118684014596268
685,0.2171947630000215,24.9,26.92,2.0693614114002172
686,0.21728988800002114,24.6,25.86,1.9787086678013934
687,0.2174138230000242,19.26,28.38,1.9588317337304801
688,0.21750684200002368,21.84,26.08,2.2344911045516236
689,0.2176080870000252,24.98,25.96,2.4223190093336
690,0.21770231500002346,25.74,25.74,2.023450718932625
691,0.2177842090000226,22.12,27.18,2.1189894781881002
692,0.21788191000002044,22.1,26.08,2.229477203151633
693,0.21797912500002248,27.62,26.5,2.233748165985932
694,0.2180613540000227,31.34,25.24,2.531398101916256
695,0.21815442100002436,24.02,26.7,2.4477477085690773
696,0.21823491800002337,25.14,26.78,2.3818946225203135
697,0.21833138200002544,27.42,26.74,2.5982008939961387
698,0.2184418290000245,24.88,27.54,2.522777727934329
699,0.21852486000002536,16.5,28.28,2.2981958756001264
700,0.21861432400002556,22.06,26.84,2.636351418036253
701,0.218700239000027,27.5,26.22,2.595981393639366
702,0.218793467000026,18.7,27.64,2.4987977950590254
703,0.21886700500002831,23.64,26.94,2.4597176958865066
704,0.21893831600002933,21.66,26.58,1.900913183290092
705,0.21904975500003054,27.6,27.1,1.9168913926356113
706,0.21912367200003047,20.5,27.44,1.928342261239513
707,0.2192571790000315,20.76,27.28,1.8344599956583416
708,0.21934774300003212,25.34,26.06,1.9948303293360798
709,0.21947351300002893,20.8,25.68,2.2653452373751786
710,0.21959318900003133,18.1,28.02,1.9880373664253272
711,0.21971549000003243,27.72,26.0,1.8251837946400258
712,0.21986430900003207,27.4,26.62,1.837691156212827
713,0.2199742500000319,24.86,27.34,1.6889915459560345
714,0.22006619200003463,25.78,25.48,2.025278102457864
715,0.2201813140000315,18.04,26.52,2.10746438166619
716,0.22028158100003026,21.54,27.0,2.156974669203275
717,0.22037457300002927,22.96,26.92,2.0957950103289935
718,0.2204846370000304,17.38,26.78,2.1820186004213524
719,0.22056565900003022,26.24,27.56,2.2601722443628374
720,0.2206775210000309,21.44,27.82,2.4320574913994775
721,0.22075517000002876,24.48,26.46,2.3909167043945536
722,0.22086494300002713,17.86,26.88,2.429974118589662
723,0.2209777700000295,24.4,26.98,2.759554517502262
724,0.22107132500003246,-9.1,61.66,2.6679049770843055
725,0.22120546000003216,-21.12,72.68,2.6542343095504988
726,0.22136472000002883,5.18,39.34,2.6901464477981025
727,0.22148862000003078,-10.84,62.54,2.902281819919789
728,0.22158768000003093,23.0,26.82,2.654374441083372
729,0.22171082800003106,22.64,27.22,2.3098729947168186
730,0.22180793900003337,20.98,27.02,2.0810514084316045
731,0.22189198200003446,25.4,26.94,2.229732424086351
732,0.22195256900003457,23.44,28.08,2.2055330158217465
733,0.22204153200003418,23.16,27.74,2.0498483745974383
734,0.22213379200003658,23.18,27.28,2.3642439184700326
735,0.22224959900003682,29.48,25.3,2.3907241148926817
736,0.22234053000003584,24.98,26.46,2.5626284616073955
737,0.22247154500003674,21.98,27.0,2.3743626294397133
738,0.22257766300003468,23.5,26.86,2.285022982663066
739,0.22265483200003544,20.04,26.52,2.50466923835798
740,0.22275228300003747,22.26,27.74,2.5938396903860754
741,0.22285235700003625,20.2,27.26,2.378956829238558
742,0.22296778800003736,25.9,26.7,2.445637056640874
743,0.22304457100003816,22.94,27.28,2.2288937752006683
744,0.2231770910000357,20.98,27.7,1.9940942411633003
745,0.22331806100003604,19.48,27.14,2.1756871746187514
746,0.2234678860000372,31.74,26.62,2.047988135170697
747,0.22360423000003848,19.22,34.5,1.9539562572140163
748,0.22370751000003608,21.64,27.34,1.8510593013916405
749,0.22385557200003703,25.14,26.8,1.8065295754408026
750,0.2239881500000358,24.96,26.84,2.014808948268724
751,0.22416388500003492,20.6,26.96,2.0775811543289437
752,0.22426571700003706,24.6,27.64,1.9687031025556763
753,0.22437810400003855,23.7,26.54,2.2065480636274573
754,0.22452346300003612,23.44,27.06,1.8849073585576455
755,0.22463688800003467,28.26,26.44,1.70047425689759
756,0.22474434200003301,17.82,27.06,1.6177107387237015
757,0.22484263600003374,28.68,26.28,1.6264243380504886
758,0.2249581310000366,19.76,27.96,1.609359952634971
759,0.22507677300003692,15.76,28.56,1.4584340140592904
760,0.2252116690000392,26.18,26.56,1.1945489825859756
761,0.2253255940000365,27.24,25.5,1.087950212607905
762,0.22540834400003362,19.98,26.84,1.3551495473063628
763,0.2255043810000359,25.94,26.22,1.080005097733287
764,0.22558898700003382,24.02,26.08,1.0680535312782513
765,0.22568411700003566,23.74,26.54,1.0006104021341766
766,0.22576510500003621,25.8,26.3,0.9417953834082834
767,0.22587305300003635,24.86,26.4,0.9885240374013502
768,0.22595758600003535,19.58,28.72,1.0468335178289216
769,0.2260874920000333,22.32,26.84,1.2339571351319214
770,0.22622587600003286,23.22,27.46,1.430560225537119
771,0.22640164100003446,26.2,25.46,1.737505238511087
772,0.22654282500003475,26.5,26.9,1.5044749221446145
773,0.2266387800000338,23.86,27.8,1.7864935089699336
774,0.22672277700003463,20.06,26.82,2.0416454260892216
775,0.22684113800003303,26.16,26.62,2.281151553882894
776,0.22697185900003092,24.4,26.8,2.6607899704177584
777,0.22706304300002955,26.42,27.78,2.8296276205198536
778,0.2271548060000299,28.72,25.44,2.8564502074796154
779,0.22722448600003275,22.68,27.62,2.6674610308833806
780,0.22731393600003358,25.44,27.16,2.6151966657524945
781,0.22744433900003358,22.34,27.18,2.3056564477452794
782,0.22754119200003586,16.12,27.94,2.4152839467416336
783,0.2276319550000352,20.4,27.78,2.613529691771371
784,0.22771868200003453,24.1,25.98,2.3889568397354943
785,0.22779873400003225,30.76,25.64,2.262136927817373
786,0.2279181050000325,22.26,26.54,1.9877001360306579
787,0.22801232100003332,22.62,26.82,1.8612947648696099
788,0.22820492000003156,18.86,28.6,2.082440553139678
789,0.2283363290000331,24.28,26.94,2.1286073564611074
790,0.22848440100003486,18.34,28.06,2.1804564256146266
791,0.22861560200003694,22.4,26.1,2.2172179082310555
792,0.228727420000034,22.1,28.44,2.319641100420011
793,0.22882913300003338,23.46,26.46,1.866765733869584
794,0.22895642000003136,23.38,28.46,2.4921318763726483
795,0.22903362100003122,23.54,27.62,2.4041576269532867
796,0.22912471600003315,25.7,26.36,2.360547569523308
797,0.22921086500003085,16.94,26.64,2.5204029446941725
798,0.22931012500003334,23.52,26.4,2.4684926906379716
799,0.22937840000003362,21.92,28.58,2.4064109655292376
800,0.22954554300003593,26.16,28.12,2.2332096830274337
801,0.2296259800000371,29.44,27.12,2.457268264351371
802,0.22970852800003527,24.12,27.26,2.2870695693999172
803,0.22979986100003558,20.74,28.98,2.628176762924496
804,0.22987704500003758,22.74,27.12,2.227244573823742
805,0.2299625610000362,26.32,27.84,2.201165968488463
806,0.23006130100003475,26.42,27.12,2.147062070023323
807,0.23014267700003543,25.1,25.8,2.162920009902598
808,0.2302254540000348,18.86,27.08,1.9178498460932587
809,0.230316080000037,23.1,27.08,1.9360429246431246
810,0.23042251200003605,26.64,26.0,2.1090016763257666
811,0.23052390200003714,23.86,26.96,1.9074207268120258
812,0.23154847300003567,27.26,25.7,1.8630136405835347
813,0.23166659900003594,23.52,26.18,1.7484087465506963
814,0.23177428200003547,23.2,27.5,1.7481858290265084
815,0.23187123100003504,27.74,26.64,1.8239805883270936
816,0.23199055400003488,22.92,27.76,2.2149603555374444
817,0.2320868180000346,28.24,25.3,1.9525270431963928
818,0.23217076200003461,21.22,27.14,1.9549999135328708
819,0.2322662980000345,20.98,26.58,1.9286909674085482
820,0.23241947600003598,18.48,26.98,1.9288951146778213
821,0.2325497740000344,21.42,26.86,1.9199390443573556
822,0.23267828300003401,25.86,26.9,2.2178716713778264
823,0.23280483800003182,26.96,26.26,2.217876144868194
824,0.23294963200002883,24.84,26.38,2.153335225402798
825,0.23303562500002784,23.46,26.68,2.3050028723234064
826,0.23314979400002755,28.54,25.62,2.17602529826398
827,0.2332273570000254,25.6,26.36,2.1874176468278734
828,0.23331927700002453,27.18,26.18,2.4568045358354396
829,0.23338423200002367,25.4,27.24,2.6815974946998344
830,0.2334933010000242,25.06,26.88,2.521486048611597
831,0.2336079750000266,15.84,27.28,2.538939547973201
832,0.2336992980000261,19.72,26.72,2.2423097459266166
833,0.2338129040000254,22.3,26.5,2.324901348065295
834,0.2339295510000241,15.34,27.88,2.1470916682604533
835,0.2340423770000264,22.88,26.02,1.8943944847307144
836,0.23411132200002527,26.72,26.68,1.6386130243805748
837,0.23421351100002497,26.2,26.3,1.8879725023003804
838,0.23427950800002506,18.18,27.04,2.127737062712275
839,0.23436413500002473,22.66,27.44,1.9655028731551152
840,0.23445514000002277,25.9,26.46,1.8845823833928985
841,0.23454946600002202,23.32,26.14,1.8777862350600376
842,0.2346178280000224,28.32,26.38,2.131253092101663
843,0.23471684000002213,23.62,26.26,2.049203244524581
844,0.23479084200002376,25.74,27.04,2.0354788899572616
845,0.234907379000024,20.38,27.0,2.0896919004519128
846,0.23499328200002267,21.1,27.66,2.378710860441007
847,0.23506459600002216,25.34,26.5,2.1672273481423345
848,0.23516251200002358,22.18,27.92,1.7007155498269058
849,0.2352738790000224,21.14,26.76,1.8984860815316593
850,0.2353765520000195,31.0,25.98,2.247364246611267
851,0.23546190200002215,25.1,26.16,2.724325856748951
852,0.23559340000002038,23.6,26.72,2.4483314447090097
853,0.23567910900002076,24.8,26.82,2.44783288927042
854,0.23577594900001841,22.78,25.9,2.4666994391740027
855,0.23587612500001853,24.26,27.22,2.723386061078059
856,0.23599194600001994,21.8,26.42,2.779619300585117
857,0.23610511900001896,27.78,27.26,2.717467686560078
858,0.2361821680000169,20.86,27.58,2.7085594858298907
859,0.23627991100001466,28.5,26.56,2.446342523500646
860,0.2363963680000154,17.84,28.18,2.3384403969551864
861,0.2364946830000143,25.94,26.7,2.0617869834236666
862,0.23661203800001473,18.28,27.52,2.2973328153076658
863,0.2367117780000143,18.36,27.68,2.4961027538378895
864,0.23680494600001367,2.4,45.72,2.5740192488642712
865,0.23694303600001376,27.18,27.16,2.3681465435193756
866,0.237038595000012,22.66,27.84,2.085413016290615
867,0.23712510500001116,24.46,26.72,2.2992104850262214
868,0.237239674000012,24.46,26.58,2.3194999500742606
869,0.23733961900001432,25.62,26.98,2.333575359974982
870,0.23741954700001244,21.52,26.54,2.656752586621206
871,0.2375414920000125,24.04,27.0,2.65676063962957
872,0.23762680100001177,23.84,27.86,2.503980373602335
873,0.23770909300001009,2.52,42.76,2.1793366793989932
874,0.2377966070000106,21.2,26.5,2.181377540149988
875,0.23788094600000775,19.62,27.52,2.3288904809562196
876,0.2379583230000044,25.08,25.96,2.3645426644640386
877,0.23807797600000669,22.58,26.76,2.228459896046728
878,0.238189042000009,18.82,33.34,2.2482384591804894
879,0.23828621100000902,25.54,26.08,2.253615734338348
880,0.23837508700000853,23.64,25.84,1.718604305395941
881,0.23848339000000962,22.52,27.4,1.718894468210511
882,0.23857299400000898,20.7,27.3,1.9104879521080746
883,0.23868058600000808,21.24,26.18,2.174489180063703
884,0.23874681700000977,21.52,27.66,2.56259065542357
885,0.2388183070000096,27.6,26.12,2.8169983051516994
886,0.2389154140000116,13.06,34.4,2.852771097186209
887,0.2390065190000108,22.36,27.2,3.0020264856785452
888,0.23907220300000986,28.96,26.14,3.2715404656639846
889,0.23914960300001198,21.82,27.42,3.29378020271365
890,0.23924573300001128,23.4,26.48,3.3236966772269
891,0.23934423400001137,23.0,26.28,3.1349846043848593
892,0.23943155100001334,23.06,26.86,2.9313537933201887
893,0.23951349900001162,24.56,27.0,2.569862456014442
894,0.23960094700001022,24.12,26.7,2.1965902931149808
895,0.2396752830000075,23.72,26.34,1.9918448701759701
896,0.2398285990000062,28.62,27.32,2.2224708840836334
897,0.23995376200000607,23.62,26.52,1.985301214800753
898,0.2400903200000073,22.72,26.44,1.79606679209505
899,0.24021998000000622,26.18,26.64,1.9781914082568526
900,0.2404718630000069,26.2,26.0,1.932531448782124
901,0.2406202930000063,23.96,27.64,1.8834396708784076
902,0.2407434810000062,22.92,26.46,1.8436527007452603
903,0.240861172000006,25.12,27.04,1.876304448481615
904,0.24096218000000746,22.6,26.56,1.822734851668288
905,0.24110738100000617,27.66,26.24,1.7738432215526465
906,0.24119431800000513,27.6,26.6,1.4690192930505865
907,0.24129934100000483,21.46,27.56,1.4647358021782524
908,0.24137206600000383,23.12,28.32,1.365594996334425
909,0.2414571120000062,27.1,25.72,1.1946293710567915
910,0.24154510000000684,21.86,26.72,1.174849224591247
911,0.24165607900000907,23.8,26.7,1.147178692474864
912,0.2417944380000101,24.88,27.32,1.0938858393988038
913,0.24193958300001128,24.96,26.52,1.1276742712468857
914,0.24209461100001306,26.44,27.18,1.385623888929975
915,0.24222550700001122,26.86,26.58,1.6429207850097751
916,0.24233728300000834,27.52,25.98,1.6307709879014864
917,0.24245141000000814,19.14,25.92,1.9237019987645319
918,0.24260997100000736,19.18,27.18,2.2051652761808427
919,0.24271174000000428,25.1,26.56,2.182611191327318
920,0.2428293120000049,25.66,27.12,2.430209431527131
921,0.24291749500000392,28.14,26.12,2.45306379936007
922,0.24298271000000682,19.84,28.12,2.7167382873354375
923,0.24308222000000512,24.64,25.82,2.677963185821837
924,0.24318839200000752,23.92,26.54,2.36168669362693
925,0.24327893900000674,21.66,27.54,1.990681067897242
926,0.24336196000000498,22.06,26.02,2.1995434836523153
927,0.2434987040000074,19.68,27.38,1.944740116338148
928,0.24361139500000561,20.26,26.44,1.6321259398769592
929,0.2437208990000066,24.46,26.76,1.6072114857415023
930,0.24384902700000666,21.8,26.2,1.3459454178735535
931,0.24394645100000645,21.68,27.98,1.529250967258981
932,0.2440202660000068,25.8,26.22,1.36253039197937
933,0.24412554600000647,25.84,26.18,1.2940475131355733
934,0.24419125400000397,23.94,26.12,1.3909550937785482
935,0.2443047030000045,20.9,26.56,1.6123996258975293
936,0.24438411700000273,27.1,27.0,1.3464578184535179
937,0.24446144900000277,21.16,26.98,1.574347264319735
938,0.24454652500000051,13.22,27.06,1.7940202696933916
939,0.2446987070000013,24.04,26.82,2.097209295606382
940,0.24478229500000026,25.82,26.54,2.415600544018541
941,0.24486234200000112,24.7,26.82,2.4940651011107335
942,0.24498447600000262,26.64,26.84,2.4591737468845154
943,0.24507794500000202,26.1,25.96,2.7495975315667254
944,0.2451855980000026,23.98,26.16,2.672260559917511
945,0.2452708540000046,19.94,27.84,2.3019754939011987
946,0.24536162000000417,25.06,25.3,2.3202037392719506
947,0.24545543200000353,23.26,26.44,2.2960229983732794
948,0.245582332000005,25.1,26.34,2.2956579630669274
949,0.24569703200000603,26.32,25.78,1.9960668022171517
950,0.24582934700000436,21.06,26.18,1.7546680010096787
951,0.2459800100000038,-4.68,56.36,1.618966138968289
952,0.24612295900000447,14.04,29.1,1.8148892951717557
953,0.24622197300000437,2.74,44.64,1.908960404382522
954,0.24634567900000093,18.82,29.58,2.1438269194325734
955,0.24643083000000132,19.6,28.8,2.185804528262885
956,0.24654696300000012,16.52,31.02,2.2596966956078233
957,0.2466435820000008,3.84,45.68,2.3707604214019247
958,0.24677690200000058,-1.6,51.84,2.260511817805616
959,0.24685446199999816,24.84,28.92,2.2298737590053106
960,0.2469637630000001,7.06,46.82,2.163935696740951
961,0.24706994099999946,18.42,31.22,2.2804548745611997
962,0.24717305500000109,5.2,45.12,2.0509355155934075
963,0.247304285000002,24.44,29.8,1.6948413604262123
964,0.24738096300000123,17.78,29.06,1.448582299548049
965,0.24748358500000123,12.88,29.94,1.5802276946512186
966,0.24762497400000072,20.06,29.18,1.8014788409826727
967,0.24772189599999805,11.06,41.58,1.6901558644799486
968,0.24781690200000028,23.18,29.6,1.564478641447082
969,0.24790246499999924,18.74,30.0,1.6135644801166058
970,0.2480302119999962,14.98,29.18,1.6880449143992968
971,0.24812627099999673,21.32,28.82,1.7990401360741592
972,0.24819213899999681,17.48,28.96,2.076695083839733
973,0.2482724899999944,18.98,27.32,2.10298849393234
974,0.24836945899999563,24.12,27.82,2.1531381997347374
975,0.2484582139999958,25.32,29.2,2.227446907430152
976,0.2485743579999955,21.22,26.12,2.025440389064007
977,0.24868201799999667,22.36,26.98,1.8113362288956671
978,0.24878397399999486,2.64,44.52,2.0470367634559685
979,0.24891106199999413,20.58,26.7,1.9899823877333531
980,0.24902059499999396,6.82,40.02,2.1694267797209656
981,0.2491246139999923,16.96,28.48,1.819989440989805
982,0.24932754799999302,25.88,26.28,1.7620577321812418
983,0.24943973799999242,23.64,26.46,1.9714321195475002
984,0.2495619599999941,13.8,28.04,2.3026391519494407
985,0.24968098899999447,25.68,26.78,2.1206984715699475
986,0.2498024389999962,26.44,26.7,2.079043278167411
987,0.24999261099999615,20.74,27.52,2.06051615427145
988,0.2500744029999957,26.32,26.68,1.910884625653131
989,0.25015930399999675,22.88,25.48,1.9075403831823432
990,0.25027843899999525,28.2,25.92,1.6657046411489094
991,0.2503855509999937,29.38,26.26,1.6810972841057168
992,0.2505022859999926,23.98,25.72,1.4387059762859846
993,0.2506042819999905,20.34,26.72,1.2828838461363088
994,0.2507271659999901,25.36,26.48,1.147231414403393
995,0.2508574589999881,3.74,44.04,1.5314787458761365
996,0.2509566709999902,-27.7,77.92,1.6412744352605153
997,0.25111790199999007,-32.54,81.06,1.8726422440686357
998,0.25128726899999165,-99.42,131.08,2.191802169836945
999,0.25143303899999125,-28.16,69.36,2.271566803248084
1000,0.2517850879999912,-110.96,139.84,2.3475956315003628
