,2,5,10,15,20,25,30,35,40
GMM,0.69823434992,0.784911717496,0.772070626003,0.789727126806,0.799357945425,0.818619582665,0.820224719101,0.826645264848,0.829855537721
Kmeans,0.68378812199,0.749598715891,0.76886035313,0.794542536116,0.800963081862,0.812199036918,0.812199036918,0.817014446228,0.817014446228
