iter,time,reward,steps,convergence
1,0.0010133730000063679,-259.86,200.0,90.0
2,0.0019275330000141366,-235.5,200.0,80.8956397539
3,0.0028227160000255935,-321.8,200.0,72.58717189218848
4,0.003688314000029891,-220.4,199.4,63.47263588191059
5,0.004820023000036144,-211.36,200.0,55.781833273068614
6,0.005675528000040231,-201.02,200.0,50.46202327306861
7,0.006596277000042505,-374.86,200.0,43.582783273068614
8,0.007439191000045753,-214.8,200.0,36.470215150968606
9,0.008226542000045356,-247.22,200.0,28.910600152068604
10,0.009447451000042406,-241.64,200.0,21.688880914649637
11,0.010319396000042502,-234.24,200.0,25.337505425828965
12,0.011170778000050063,-204.0,200.0,27.05124379788929
13,0.01239441400004182,-249.96,200.0,26.90211570473618
14,0.013423707000043805,-215.24,200.0,34.04565171501406
15,0.014284266000046841,-264.62,200.0,32.72019155866396
16,0.015167539000046304,-206.92,200.0,29.53089341117469
17,0.016049010000045882,-303.46,200.0,30.998304482497286
18,0.01690025400004913,-227.32,200.0,35.96159250116509
19,0.01774149100005218,-300.78,200.0,40.23107746947177
20,0.018742557000052784,-303.34,200.0,41.75558259277431
21,0.01962522700006275,-263.1,200.0,38.99976981429011
22,0.020519501000066498,-217.78,186.18,39.013768031798335
23,0.021234423000066727,-242.62,200.0,40.89387568475936
24,0.022117884000067534,-241.2,198.86,41.25957769072919
25,0.022973537000069655,-228.76,194.56,44.95469051583168
26,0.023361987000072304,-169.0,166.72,52.225385244573864
27,0.02381541700006551,-237.12,174.6,52.62630327450851
28,0.024191220000062685,-232.98,191.08,46.04870777844435
29,0.024917677000061644,-161.08,171.26,43.762740344578425
30,0.025126192000058722,-164.02,174.56,43.888523185821974
31,0.025431571000069653,-116.02,146.62,51.382140426424336
32,0.026422878000076366,-33.4,76.0,55.428755898622306
33,0.02670943400008241,-12.02,62.4,60.13275886212557
34,0.026838134000087166,21.32,27.56,58.242112617844455
35,0.02690190100008749,-10.04,61.74,56.39945460417389
36,0.027182183000078908,-32.7,78.86,57.0749486951381
37,0.027537499000075627,-185.88,173.9,59.80901392319542
38,0.0277767630000767,-140.38,154.48,64.41117318272069
39,0.02900260400008392,-235.52,199.6,67.85110954837522
40,0.02984166800007415,-118.2,138.52,69.94476844364911
41,0.03025734400007707,-27.26,73.88,64.992185450228
42,0.03052741200008313,8.0,43.66,64.60350146165015
43,0.030609563000083995,-201.68,200.0,60.63909122991807
44,0.03106376300007696,-197.96,198.56,57.39656604731031
45,0.031928509000067606,-203.8,199.9,56.95556138958648
46,0.032345491000072,-148.9,166.08,50.4792839394831
47,0.032527384000076154,-216.06,195.3,50.656400096149035
48,0.032985084000074494,-243.86,198.5,48.565188653336435
49,0.033455895000074065,-133.62,131.54,45.237533983484425
50,0.03373823800006903,-24.8,71.36,43.058516073344556
51,0.03392710800007137,14.2,33.18,42.00182139101084
52,0.034024022000068044,6.16,48.88,38.68654562518175
53,0.03416743400006794,9.94,40.36,42.80598630247615
54,0.03430619700006332,18.54,25.94,41.9235136076444
55,0.03442387800006941,-119.54,145.56,46.63193549119098
56,0.03459344300006251,-10.12,58.96,47.82260422402562
57,0.03477315300006012,4.94,43.18,48.80522505452137
58,0.03499434000005408,8.92,40.36,47.87608384782986
59,0.03505936900005224,20.08,26.5,44.911640709156416
60,0.035229057000051966,9.92,42.72,44.426354913014634
61,0.035311725000056526,9.3,43.02,44.33152598068217
62,0.03781203000005462,-10.84,49.34,47.71348752185158
63,0.037962610000064956,-14.64,60.22,42.59882472414834
64,0.03807340600006626,-197.88,168.02,48.32354232869166
65,0.03839429800005689,-295.84,84.78,43.717454821355595
66,0.0384783200000669,11.86,41.5,41.24837194723557
67,0.03877327400006436,-71.7,109.76,37.39259895185376
68,0.039040708000072755,-25.4,75.9,41.9323494456446
69,0.039173651000083964,-43.68,77.54,46.875599300296095
70,0.03930306000007988,-1.0,42.26,45.90353265940186
71,0.03953221300007215,-65.26,104.5,49.49852428821927
72,0.039891320000080555,-54.82,95.6,48.28322991740488
73,0.04027696900007527,-94.12,122.4,46.913691696270554
74,0.04069455000008304,-216.84,189.78,40.62022179659217
75,0.041240034000082915,-60.46,107.14,40.34244131390754
76,0.041404948000078434,0.92,52.48,40.800820255547066
77,0.04152880000007997,-1.98,50.06,37.90469382767533
78,0.041637351000076706,-209.62,200.0,35.4394715323251
79,0.042900436000081754,-204.4,200.0,35.2143561982156
80,0.04411056800007884,-254.46,195.24,40.80952598010695
81,0.044277062000077194,-62.78,95.5,40.88322195305942
82,0.04442852600008962,26.22,27.46,38.85159734280423
83,0.045127745000087316,20.88,30.86,44.50954638971463
84,0.04523515700007863,-100.98,115.46,45.87109219996186
85,0.04542103600007863,-6.86,60.52,46.58252509634176
86,0.04570024400007355,-40.14,89.18,46.454880751502415
87,0.04594011100007833,9.4,43.74,47.36547107521926
88,0.046019727000086164,-30.1,75.26,46.157244471580135
89,0.046121494000090024,-50.18,94.64,48.19288592352558
90,0.04630126600008566,-202.92,180.64,42.19168523485042
91,0.04671746300009261,-69.64,112.9,38.70484746511906
92,0.04714097000008621,-191.44,173.56,37.81079042136673
93,0.0472895810000864,2.66,49.18,32.73043917859481
94,0.04747621200007757,-18.32,66.18,32.40644834800598
95,0.047655457000075785,-164.24,162.7,37.33984291258649
96,0.04784906700007241,-181.02,170.58,37.46315377135183
97,0.04799354100008202,-152.42,154.52,38.35138394558364
98,0.04829910900008372,-94.48,91.72,37.59642051430051
99,0.04848371200009183,-68.36,106.46,31.624952396488073
100,0.048664955000091936,-9.9,62.46,31.542125180933148
101,0.04892183400008321,-95.14,66.68,30.929842428460375
102,0.049027959000085275,14.54,39.74,31.068303717241378
103,0.04917429900008585,-19.94,53.8,32.04197392656638
104,0.050007213000085926,-196.48,191.78,33.96646191729979
105,0.050905317000086825,-104.68,138.18,28.94040585758079
106,0.05118110600008663,-18.52,67.08,28.28680403054375
107,0.051295085000091944,5.5,49.96,31.708064941205713
108,0.05162779000009721,25.56,31.68,30.37084050022468
109,0.05180791100009685,-25.26,55.0,30.427660829162754
110,0.051992574000095715,-60.08,91.78,31.07009950510677
111,0.05230163700009882,-100.54,120.98,30.853174558667213
112,0.05258742200010147,-16.4,65.86,30.662090763149102
113,0.05281747700010442,-55.92,103.06,35.08136049830855
114,0.0530288260001015,-22.14,69.02,32.631043465530226
115,0.05317167800011191,-50.5,93.22,32.05777316543483
116,0.053263122000117846,-6.14,53.86,32.712186486922114
117,0.053428647000117735,-11.22,58.06,26.694488700183292
118,0.05387288400011414,-173.2,70.16,27.6345202703305
119,0.053965751000106366,-24.08,75.64,30.05701173449008
120,0.054147349000118083,-218.14,200.0,29.52724537816443
121,0.054562613000129545,-119.24,144.74,29.150257868549538
122,0.05542772100012883,-155.9,174.18,34.20759571234515
123,0.05563011100012716,-31.46,78.7,32.976303196773394
124,0.05574786700012169,-15.46,68.42,36.231193891992675
125,0.05588976400011347,-2.76,51.5,35.25321058365371
126,0.05600725200011425,16.32,33.9,36.28370271305972
127,0.05613720800010924,-11.74,58.22,43.9513271970742
128,0.056223464000112244,-216.46,193.7,43.833158250607184
129,0.05744927100010955,-231.18,187.62,41.73039130442291
130,0.057927802000108386,-659.44,187.6,42.130810583879615
131,0.05855130900010863,-135.84,146.98,42.520552886205685
132,0.05875557200010917,-180.14,167.86,38.44201791237363
133,0.058986763000106635,-37.84,84.78,36.34157377486586
134,0.05910044200011555,-30.16,75.38,34.320728815728906
135,0.05933605400011288,18.52,31.48,39.485844450914996
136,0.059432334000106835,22.34,32.22,37.78926630854289
137,0.0595558750001004,-74.98,108.78,30.776389137903983
138,0.05972288800009551,-67.18,102.68,31.72179990003516
139,0.059822108000105345,1.58,44.28,31.556170258600854
140,0.060044114000106674,17.38,31.92,31.617840041661047
141,0.06032111100010695,-79.02,91.4,32.24297812752029
142,0.06049689100011335,-36.06,76.1,32.05988930564139
143,0.06066943700011507,25.28,27.28,36.0434995111765
144,0.060762247000113234,-420.84,137.58,37.8692412113983
145,0.060867664000113564,-59.04,99.44,37.68862476906063
146,0.06099503100011816,-50.16,90.04,41.27443671616528
147,0.061894733000116275,-207.8,200.0,44.12980099573198
148,0.06274898800010931,-199.76,200.0,44.93137182115006
149,0.06363466200011203,-362.84,156.62,44.963110731269346
150,0.06454492300011339,-133.82,159.2,48.57659086093909
151,0.06516594900011796,-178.46,183.32,49.53776654038852
152,0.06560607600012247,-30.08,76.02,49.39647346592111
153,0.06575892600012878,19.02,29.54,44.75640196760236
154,0.06591335600012371,-90.14,118.92,46.687632973799026
155,0.06612848900012125,16.28,35.88,43.26368171329192
156,0.06622272200011992,-18.78,60.2,40.24915911416807
157,0.06631618500013303,-121.56,141.96,42.87749600122046
158,0.06650082900013388,-15.12,62.1,41.57798159090832
159,0.0666919630001388,-55.78,98.96,43.31415980209689
160,0.06703616300013948,-14.14,64.78,38.77490093534533
161,0.06721832800013772,-26.8,77.3,37.38124070731865
162,0.06736915900013685,-110.84,138.36,36.694276396864836
163,0.06769100800013916,-16.12,63.0,34.66434878317579
164,0.06787305900014928,5.92,45.82,28.725693962625712
165,0.06796159500014198,-75.44,111.14,27.62891381445935
166,0.06816378000014822,10.64,37.08,29.136912753747072
167,0.0682559510001397,-18.6,64.72,24.687880370037387
168,0.06839273300013815,26.5,28.36,24.077092573636435
169,0.06852782300013871,-333.46,42.66,22.81619660728473
170,0.06876983700013284,-11.74,63.04,23.834967358960704
171,0.06890651600014053,-187.0,188.7,26.460642319076964
172,0.06953838900014375,-168.44,180.44,28.425186530693146
173,0.06988967600014462,-48.68,89.06,30.14077893215198
174,0.07008743300015396,-5.38,58.24,32.09534980439001
175,0.07024847500015596,-138.5,163.06,33.896841558564134
176,0.07034301800015896,-29.18,78.4,32.139026897540965
177,0.07048025800015978,21.78,27.56,32.83952792013476
178,0.07055934700015598,-12.78,42.0,34.61258551609375
179,0.07065784200015912,-532.46,66.82,35.54490619258832
180,0.0708221490001506,24.64,27.12,36.08267811473492
181,0.07090259300015589,17.62,30.28,31.473957343965083
182,0.0710398820001501,-14.72,56.56,32.202827965901626
183,0.0712479510001458,16.66,31.46,33.64826126817095
184,0.07150093100014487,-204.8,200.0,33.573222501352674
185,0.07250454200014644,-175.68,183.78,38.71305431625077
186,0.07348361700013584,-183.94,190.48,40.00363924753681
187,0.0743630190001312,-20.7,70.82,41.26753156231378
188,0.07446955700012836,-155.96,158.7,40.80303016804279
189,0.07458589700013363,-206.24,184.26,40.675200302645294
190,0.07477177400012636,5.72,41.4,40.98877908292583
191,0.07486260400013123,-12.48,65.52,44.633928030499426
192,0.07496616000013034,-141.18,159.62,43.97366248542605
193,0.07511007200012898,-92.4,130.08,40.97899822421518
194,0.07529163000013739,-20.88,68.44,41.53728933105768
195,0.07561552400014193,-93.02,127.8,36.0586368061645
196,0.07582699400015258,-22.6,70.8,35.82481839308341
197,0.0760087240001468,-16.1,64.36,32.39117751094092
198,0.07687972300014678,-197.64,198.6,31.90786727846512
199,0.07761669100015922,-212.88,200.0,33.16867800650439
200,0.07805460700016909,-203.44,200.0,31.315436209472228
201,0.0788951270001661,-208.5,197.76,31.22312984224387
202,0.07947305500016455,-192.68,173.78,30.861289551707234
203,0.0797173280001573,-225.46,174.78,33.87149294624957
204,0.07989356300015515,-181.94,188.46,33.837018790816266
205,0.08035174400015421,7.82,41.88,36.47523210453347
206,0.08052374100014958,23.9,27.4,36.738040526547
207,0.08064632500015989,-78.16,117.64,37.65130666904072
208,0.08095636500016212,-169.62,182.8,36.8829291204593
209,0.08118705200016052,19.5,32.46,34.611191323581416
210,0.08127293200016084,23.66,29.78,35.786837841065804
211,0.08133294100015576,-391.64,162.48,34.993995665819746
212,0.08219731100014371,-94.5,128.24,36.27641667019204
213,0.08340269500014585,-207.4,196.08,33.82202696505366
214,0.08356490500015923,-195.7,198.42,33.464437837823304
215,0.08371117800015782,-158.8,171.14,32.49582803590163
216,0.08384809800016058,1.94,51.76,34.62914482873627
217,0.08407909800016,-8.16,56.38,35.87816319746237
218,0.08436616500014793,-82.52,123.3,38.502064329584
219,0.0850889960001524,-0.06,50.52,38.80683342563191
220,0.08533297100015602,-7.62,53.7,38.89533605285389
221,0.08550852900015116,-6.18,55.6,37.79102088575084
222,0.08567565800015586,-245.84,198.8,37.106860005818525
223,0.0864664070001595,-159.14,172.28,40.68682812938375
224,0.08675038300016524,-9.38,63.9,40.68945334572908
225,0.0869004010001646,-8.58,60.32,38.657873357493884
226,0.08724280700016607,-63.48,104.2,35.57603761064199
227,0.08740551200016,-21.84,70.42,34.88605109160236
228,0.0875104900001702,11.32,36.18,31.10991055000959
229,0.08759654800017813,13.1,35.7,29.534880348109436
230,0.0877110090001878,-39.28,84.22,28.536632743234406
231,0.08791249600018602,-3.24,53.12,26.815261043360398
232,0.08822761500019283,-13.76,67.26,25.883341953746992
233,0.0886965470001968,-212.52,131.22,21.296946677209114
234,0.08887245700019264,-124.7,136.72,19.362818467831445
235,0.08936972700018941,-59.54,103.3,18.188743228991264
236,0.08987938800018469,-77.76,118.8,18.062559768347022
237,0.0900447850001882,-122.98,145.52,16.297828106198995
238,0.09033846600019046,8.78,41.44,17.227548123943723
239,0.09048130500018203,-43.02,89.56,20.471970612744357
240,0.09073192200017388,-43.56,88.8,21.58712874676643
241,0.09084527000017317,-29.3,74.62,22.578949291100685
242,0.09097884800017653,2.96,42.92,21.511278641354778
243,0.09107511500018006,21.42,33.5,22.046119625248885
244,0.09116599800017866,21.48,32.72,22.662286235017273
245,0.09123959700018247,-2.54,55.28,22.546395860038967
246,0.09133839300018565,-265.84,77.38,23.358494447782583
247,0.0915498880001877,22.62,30.56,25.583920176875157
248,0.09240513400018813,-209.78,64.9,25.242180385446794
249,0.09249056800018707,-16.82,67.0,21.989071320775594
250,0.09266472000018666,-16.12,61.8,22.032136794110414
251,0.09288806600018518,3.16,48.28,22.640632526502415
252,0.09298507500018616,6.56,44.34,21.994485835717164
253,0.0931452710001821,-12.66,62.76,22.95447813613989
254,0.09331833900017728,-34.68,88.84,22.541082760181837
255,0.0934520170001889,-21.76,71.26,24.468280228105836
256,0.09358812700018859,-25.22,78.58,23.099477544340896
257,0.09377150500019127,6.92,42.78,24.35971650240024
258,0.09393476100018461,-68.2,110.68,24.114618137085778
259,0.09441122000018254,-29.14,80.82,25.715117909032607
260,0.09454449000017462,-123.86,152.76,27.793456919539448
261,0.094935368000165,-41.88,90.1,28.243316044984727
262,0.09513081900016118,-124.48,150.26,29.218335440668433
263,0.09525306100016451,-56.14,104.48,29.130255319710848
264,0.09566731800016726,5.16,47.82,30.19209433999788
265,0.09629226800016966,-81.04,118.38,29.64575399675143
266,0.0966522210001699,-107.4,140.2,31.086123671188886
267,0.09688594800017825,-29.06,76.96,28.242806620381845
268,0.09699988900017331,3.18,50.08,28.146448848789003
269,0.09718515700016894,-22.72,66.94,28.091900695957083
270,0.09726098000017203,18.56,29.88,23.66320761040115
271,0.09735622600015859,21.34,28.9,22.416316622546695
272,0.097431747000158,0.54,50.5,22.693357622767316
273,0.09757269000016322,-71.78,111.96,22.069120719855277
274,0.09781077200017307,-114.74,143.96,20.58988241879029
275,0.09803000100016845,-480.7,100.5,22.249352495755954
276,0.09865267500016728,-105.28,125.68,22.14095779007441
277,0.09885396200016316,-161.72,163.34,22.707738164976984
278,0.09909941900016861,-79.28,108.72,27.05407899760088
279,0.09934774000016944,-157.1,157.36,26.231910589658394
280,0.09945842600016874,-29.34,70.54,26.4785684060802
281,0.09962900000017783,-20.62,70.78,27.58550203400035
282,0.09974490000017511,-547.06,133.14,27.618179937519294
283,0.10039343000018164,-181.92,174.18,28.399644494115343
284,0.1012756870001823,-93.12,121.76,29.971341613205034
285,0.10145818800017992,-71.66,118.9,28.20240240894097
286,0.1018126770001686,-36.44,66.26,28.633986688960153
287,0.10224497300016822,-62.86,102.18,28.007452322182758
288,0.10242332700016732,-7.44,61.24,23.992242186581752
289,0.10253580800016948,-28.58,80.22,24.681628257222187
290,0.10283549800017511,-28.04,72.6,25.35001027553897
291,0.10366644000016834,-206.82,200.0,23.06703191992345
292,0.10450906200016163,-183.74,190.34,23.036027466192074
293,0.10480615000017224,-23.68,71.28,24.810066003310023
294,0.10496555000017338,-5.3,60.72,24.811346495530852
295,0.10507265100017094,-39.56,88.88,25.387071564720625
296,0.10529799000016737,-45.58,94.5,26.058330695856274
297,0.10545699400016417,-139.44,65.22,25.557065653820437
298,0.10609162200016442,-186.9,191.96,27.558082050377624
299,0.10650609300016356,-193.76,195.84,30.02384925795517
300,0.10741985000015575,-181.66,188.3,30.207717875554568
301,0.10821920300014654,-202.06,182.94,32.42099636394424
302,0.1085130490001518,-0.3,52.0,32.264431603570614
303,0.10882458200015321,-85.88,119.26,30.910509954076144
304,0.10899100700015651,0.24,49.26,30.901498263614258
305,0.10909551500014913,-23.6,75.72,29.737087992313178
306,0.10925203400014993,16.08,31.78,28.802264877442695
307,0.10950525700015135,-476.28,120.6,29.371221000525377
308,0.10963435700014657,-49.42,95.88,28.740671100215735
309,0.10979804700014029,16.9,33.68,26.73371576708999
310,0.10993021500014777,-1.52,53.22,27.521650524408965
311,0.11004898200015134,-10.84,68.4,27.25587067312394
312,0.11016702800016276,-64.52,103.9,28.037945469213156
313,0.11031229400016684,-20.32,74.42,27.442579898001192
314,0.11040687400016225,-216.68,190.48,28.25577330015853
315,0.11082526300016582,-109.06,144.16,30.045850474181805
316,0.11144433500017215,-29.5,80.62,28.633688653588713
317,0.11171060900016982,-391.8,179.66,31.855047170753288
318,0.11206145700016634,-23.14,76.8,31.964316103278925
319,0.11237003700016146,2.92,50.2,30.534698682454792
320,0.1125216120001653,-88.6,121.34,29.76972517754939
321,0.11271156500016843,-13.1,53.04,29.60192634324048
322,0.1128089870001645,4.68,45.54,28.066991680861527
323,0.11293479500015735,-5.62,51.16,28.813570028705406
324,0.11310884600015925,-12.94,58.44,30.28814992664225
325,0.11332470000016315,-79.22,108.72,29.333349171120442
326,0.11343918500016059,-202.16,183.06,33.25244854984403
327,0.11361955500015597,-24.46,67.9,29.575873927993293
328,0.11383635500015998,-163.58,140.06,29.533674242544265
329,0.11413954200016008,-93.44,127.64,30.53151513015257
330,0.11438407800017103,-146.9,164.68,30.786260055917772
331,0.11463169300016318,-169.46,183.72,31.03087518245718
332,0.11496914000017,14.26,32.9,30.859645255900016
333,0.11512800300018,-102.64,123.32,29.864864647998388
334,0.11527468100017302,-134.42,134.16,26.577841338005648
335,0.11541136700017773,4.72,39.56,26.746677696790965
336,0.11558777300018619,-248.2,198.0,24.44657888691122
337,0.11651243500018893,-3.18,51.4,26.24107459240534
338,0.1165931510001883,-109.98,132.38,25.85757885199798
339,0.11690160900019464,-26.92,64.62,25.176659101372557
340,0.11720923100018865,-6.6,55.18,24.862884255364605
341,0.11753787600018484,-81.16,114.0,24.663476124520887
342,0.11790346400019303,-23.1,58.38,26.34082713097281
343,0.1181064950001911,-23.52,56.22,25.943180473842567
344,0.11825359200018681,-435.2,47.34,26.953615980152847
345,0.11835682200019448,1.68,50.7,25.53979871745719
346,0.11844207500020332,-18.28,71.06,25.212961690300244
347,0.1185335790002,-113.44,135.1,24.952586331543635
348,0.11864893300020185,-36.16,81.1,25.60207026722467
349,0.11878686500020308,-74.3,117.7,28.521979555628196
350,0.11968415300020752,-160.3,171.58,29.172802667813833
351,0.11990929100019798,-46.6,93.02,30.986155245240024
352,0.12008316600019953,17.06,28.66,29.2149606287922
353,0.12064241300019773,-161.22,174.16,34.74699223855011
354,0.12078337400019734,-71.84,114.76,34.592369255829496
355,0.12177892600020357,-69.7,113.86,38.53451706086528
356,0.12208610500020711,-14.86,59.5,40.389975659484634
357,0.12222906500021224,-87.12,124.28,40.67434764332239
358,0.1223841290002099,-126.24,149.52,40.2043308391615
359,0.12254612100021234,-173.82,161.38,36.514103287239635
360,0.12273812400020745,-53.66,96.72,36.594535407700846
361,0.12307965100021079,-13.6,59.36,34.6115425192054
362,0.12351069600020992,-31.8,78.88,35.880758441180795
363,0.12360872200019912,-191.36,190.92,30.160550626315807
364,0.12446819400020104,-83.76,126.3,29.30372162447142
365,0.12506558700020776,-222.58,189.08,25.122231928688286
366,0.1252669490002063,5.3,45.94,22.366398771362434
367,0.12552722500021218,-196.42,196.94,22.511942436234413
368,0.1263686230002179,-160.14,179.28,22.299284935156745
369,0.12679086400022754,-158.62,170.42,24.720883199247584
370,0.12711959200022704,-119.2,141.12,24.095607677013927
371,0.1274958720002246,-510.6,77.78,28.049440058676943
372,0.1276661620002244,-0.34,52.32,27.502667194772783
373,0.1278194800002268,-190.24,103.0,29.63231528411459
374,0.12812927500021942,-39.64,87.58,30.74015425044808
375,0.12825836900022125,-724.26,129.0,32.14304559004209
376,0.1284688910002103,-20.6,62.94,31.542084211449254
377,0.12862806700020712,6.82,38.18,31.52342887928034
378,0.1287499650002104,-57.68,82.76,31.7051973905838
379,0.12889397800022095,14.96,35.98,30.912710865064874
380,0.1289950010002201,1.1,49.0,32.47473822213254
381,0.12909470600021677,-36.2,80.52,29.11254828630957
382,0.12916268800022124,15.68,29.96,29.861385973167927
383,0.1294183760002312,-4.48,55.74,28.0443987992413
384,0.12953554500023756,9.18,41.58,30.047632394497374
385,0.12965326500024332,13.9,28.74,29.913561598559834
386,0.12975911400023676,23.48,27.86,30.036219077733215
387,0.1298819440002319,-54.12,99.12,30.007631093974055
388,0.13010423500023194,-156.6,168.08,31.955442577679168
389,0.13025771800022312,3.68,44.58,31.460193238074254
390,0.1304371850002184,4.3,44.62,29.584312306269993
391,0.1309437470002166,-4.68,54.86,28.791368639529843
392,0.1310753280002217,19.1,29.62,27.7483481549561
393,0.13126714600022638,27.1,30.5,27.12388166464525
394,0.13137721000023816,-227.34,195.98,25.536485273377494
395,0.131558683000236,-221.68,198.04,25.037181917087704
396,0.13184215500024266,-70.7,110.26,29.705906016121094
397,0.13204322700025273,-35.28,82.46,29.324240521249397
398,0.13219025400024975,-50.76,92.48,25.81209763947868
399,0.1323133960002565,-61.56,101.74,26.728883224408793
400,0.13265137500025048,-200.18,194.1,27.741575482072044
401,0.1332547050002404,-135.94,156.56,27.848759504868564
402,0.13354121600023916,-63.24,102.68,27.556348036158578
403,0.13387745600023493,-232.34,161.0,28.086153721889076
404,0.13464408700022545,-199.64,180.62,27.682766324211656
405,0.13483108800022592,9.64,41.58,28.222876251895126
406,0.13493516400022543,19.8,27.22,24.74751143707098
407,0.13513651900022694,11.7,43.0,24.20650794396183
408,0.13527375000022346,-41.0,88.88,24.672522569216135
409,0.1354547520002285,5.44,46.04,23.15817909374926
410,0.13592010400022048,-21.7,67.02,24.23137903259792
411,0.1360453080002202,-109.12,136.06,24.36508735157899
412,0.13652246600021556,-4.84,53.68,24.420016807388244
413,0.13663746300021273,11.52,36.56,23.728810324544877
414,0.13675344600021333,13.76,36.64,26.201559311010946
415,0.13758471000021189,-241.94,192.42,28.091589720082048
416,0.13842620700020802,-150.88,162.76,30.288839846682038
417,0.13898445700020545,-26.62,75.1,31.19531976184112
418,0.13920217500020726,9.4,45.52,32.0458455162492
419,0.1393075310002132,-391.16,50.7,32.4459160230434
420,0.13946074700021427,-201.82,180.28,32.57225798191212
421,0.13983598900021832,-163.12,155.18,34.30732938649801
422,0.1400284590002201,14.4,35.52,35.355910173229326
423,0.14016094500021836,19.74,30.72,37.655950058325466
424,0.14107721700021614,-44.82,92.24,37.52961364667973
425,0.14217600000021946,-79.74,116.74,37.603938596228126
426,0.14237711000021136,-5.22,55.44,37.31543456424204
427,0.14245667200020762,3.62,42.6,36.90348240526413
428,0.14254850500020666,-0.04,55.54,37.233884134726765
429,0.1426891950002016,19.54,32.12,37.663658746087044
430,0.1432382290002039,-212.48,180.82,35.60475683274117
431,0.14339826300020775,-158.3,158.94,33.106325885617935
432,0.14352405100021315,-196.94,146.52,32.74799642111568
433,0.14364427500021293,-91.1,130.46,32.003522366144686
434,0.14386902700020698,-150.9,169.8,28.499637209681897
435,0.1440223850002127,22.52,28.72,26.83873979479378
436,0.14412913800020988,-22.56,71.6,23.75318273464502
437,0.14424824200021646,-399.34,59.26,26.012966064153666
438,0.144322549000222,-531.08,89.0,26.29915053539982
439,0.1445170910002247,-100.14,131.38,25.408878699375443
440,0.1446839780002307,-102.76,129.56,26.197622342546133
441,0.14502883100023212,-240.74,198.92,29.603640201493146
442,0.14553772800023523,-44.44,87.6,28.84677331177041
443,0.14570465900023066,-22.12,69.62,28.777104228849122
444,0.14587690100023565,-47.74,62.42,28.590630207007628
445,0.1459807300002467,-82.44,108.08,28.76918835278111
446,0.1460875050002528,-41.9,89.54,29.1025606860325
447,0.14635780800024634,-83.8,119.42,26.167917343446284
448,0.14659476600024846,-111.04,127.12,25.935345326978517
449,0.14677815000025873,22.76,27.34,25.473323035365382
450,0.14699494000025481,-242.5,200.0,25.026763623704355
451,0.14729779800026677,-311.66,195.44,21.490303434726073
452,0.14756477600028006,-78.76,117.42,21.63412471410686
453,0.14846431400027882,-91.32,120.16,20.714224855871983
454,0.14925327500027663,-142.3,143.26,22.209700221004706
455,0.15004313400027058,-132.98,155.56,22.089637750611168
456,0.15027620700027455,-185.3,187.66,22.6031757460731
457,0.15104251800028123,-121.26,146.7,24.314804562340367
458,0.15114234100028057,-109.68,132.5,23.40842784705018
459,0.15126015000028303,-24.42,74.1,26.284908688994285
460,0.15147441400029038,-17.42,67.42,27.799907134807267
461,0.15160882200028425,-39.84,81.0,31.261485983445738
462,0.1519645670002916,-131.88,131.9,34.2035545485813
463,0.15216255300029502,-51.58,93.48,36.56309614280501
464,0.15244201600029328,-36.52,73.12,37.07108739389371
465,0.15268756200029543,-145.98,163.42,40.03794848599881
466,0.15329081200029293,-4.66,53.02,41.579575711061054
467,0.15342098600029885,18.62,34.02,40.68141771139561
468,0.15352177800029665,9.64,38.68,42.03086122557189
469,0.153630880000307,-12.02,60.02,40.47875597502719
470,0.15377889600030414,-165.3,160.76,38.85524626869041
471,0.15400521300030334,2.7,48.2,37.112086058437576
472,0.15410664500031146,1.86,44.76,33.65502795089723
473,0.15426541600031385,16.98,29.86,31.694214869755264
474,0.154352723000315,-90.22,122.12,31.633369118965483
475,0.15449967400030573,-7.92,59.28,28.273610331663427
476,0.15464729200030547,-89.18,123.94,27.411441923658497
477,0.15553931500031126,-131.16,158.98,26.809358049141338
478,0.15578848500031484,-0.14,42.82,26.38844974686898
479,0.1559059880003133,5.06,47.0,29.485148360061466
480,0.15601741800031732,6.8,40.6,29.298995865038783
481,0.1561135640003215,26.72,29.46,27.65422073432393
482,0.15626823300031845,-216.36,117.94,29.217113197496406
483,0.15640041100031965,-50.62,92.8,29.691902469426328
484,0.15660465700031523,1.4,49.86,31.245523645483406
485,0.15671668100031866,-206.54,200.0,32.646392502834054
486,0.1575645220003139,-256.12,194.0,32.339872981249
487,0.15843697600031703,-143.48,159.74,37.464925966824886
488,0.1593838440003168,-254.18,175.8,39.87119942226313
489,0.15953367800031515,-185.94,158.58,43.133428719032054
490,0.15966739300031918,-66.6,98.5,44.6628881030845
491,0.15979922800032398,8.42,43.24,44.767040290032796
492,0.1599545330003309,13.28,34.18,47.45682906209799
493,0.16027025100032688,-48.34,93.24,47.197716185183054
494,0.16063289200033637,-26.94,75.42,44.346911141334054
495,0.1608063410003382,-201.02,174.64,41.68368541009894
496,0.16108338800034971,-55.16,101.58,41.49411745817757
497,0.1615218560003484,0.42,48.82,38.77458292356671
498,0.16165644600035023,-408.48,85.3,37.00304484255671
499,0.16182740200034118,-25.08,66.28,28.61785755680331
500,0.16210125200034042,-71.3,115.14,27.981189373805545
501,0.1624594980003451,-140.04,158.28,30.486304034852253
502,0.1626845300003481,-29.94,73.06,27.32475979139275
503,0.16281720600034078,0.32,45.66,29.466604105818995
504,0.1630771890003473,-17.28,69.72,34.44335569198217
505,0.16359440100035272,4.38,47.86,36.11705734678462
506,0.16370574600036036,0.86,45.16,35.70375427649976
507,0.16383704100036312,17.56,32.68,34.501904650237464
508,0.16392118300036884,19.58,30.88,32.24638885841962
509,0.16413893800036305,-35.76,85.5,34.59417053662406
510,0.16465754700035973,-143.3,168.0,34.63647665826899
511,0.16494626400036339,4.76,46.82,35.69631465049812
512,0.1651201320003537,-93.94,128.46,36.266355126962054
513,0.1652960130003578,3.76,46.38,34.21812217065889
514,0.16541889300036416,-43.12,85.88,28.485316962800198
515,0.16577510100037784,-23.72,55.48,25.9200144666843
516,0.1658972000003871,-46.72,78.12,28.93516156492088
517,0.16609851700037837,19.02,29.38,26.36930949000156
518,0.166250233000369,-95.8,126.86,27.317824436405203
519,0.16636830100037514,-10.22,63.44,25.199923256166525
520,0.1665362550003806,-176.6,186.26,25.32873064152809
521,0.1670857480003889,-44.32,85.42,23.399290221305204
522,0.1672629820003948,-33.48,79.46,22.721520184493045
523,0.16753662600039831,16.68,34.04,21.430520288185306
524,0.16765205000039884,-22.82,72.74,22.948581271012685
525,0.1678677400004034,-181.54,180.02,25.3306218357551
526,0.168713891000408,-127.76,151.54,22.796401556626275
527,0.16884915200040496,-24.14,69.8,23.73749954066478
528,0.16902206500040506,-5.82,51.5,26.225703945605762
529,0.16912899900040657,-30.14,80.24,30.207930469545335
530,0.169373342000398,-16.5,67.14,29.271558215956155
531,0.16945687700039969,7.94,45.06,28.10743676700459
532,0.1695387850003982,0.84,42.44,27.496259350688906
533,0.16970493400039288,-8.22,55.46,28.570564043692894
534,0.1699084680004006,-230.48,191.84,28.750795353400907
535,0.17060659200039652,-182.28,178.06,27.89144255269768
536,0.1714252730003949,-214.14,197.0,27.9917296774443
537,0.17163708700039138,-193.4,196.74,28.475734494102444
538,0.1718444620003936,-62.24,98.82,25.92200242075076
539,0.1720504500003841,-88.72,128.96,23.18303395138507
540,0.1722853970003797,-82.56,112.74,23.21157617989685
541,0.1732956800003791,-90.06,128.36,23.211448936268148
542,0.17362876500037316,-158.62,168.96,24.328160945126665
543,0.17418461700037824,-197.62,197.86,26.262466327684564
544,0.1750749710003845,-212.8,200.0,27.115500793382246
545,0.17590117400037286,-158.74,169.54,31.091511659900647
546,0.17611501800037388,-177.04,184.7,30.82131719931045
547,0.17652203000037048,-173.38,177.9,32.37816362511259
548,0.17681236700038028,-193.0,196.34,32.85896057071528
549,0.17766672700038555,-135.14,147.6,30.7666963154426
550,0.17887888800038354,-194.92,191.46,34.156075933292826
551,0.17926136300037854,-76.3,118.02,39.21471512430336
552,0.17943065200037722,3.26,51.88,44.186223030550806
553,0.17962742300036894,12.9,34.2,43.34792130414119
554,0.17999164400036705,-29.78,65.68,42.47668997864879
555,0.18016415500036942,-24.82,71.16,40.162621910835604
556,0.18046650400036413,21.06,29.98,41.17910378107836
557,0.1806964930003545,15.1,30.0,39.745583352657974
558,0.18084255400036398,-116.82,147.84,40.177988477835946
559,0.18143105800035642,0.92,45.96,42.79369054063092
560,0.18155798500036724,-186.48,187.4,40.96078783503965
561,0.18177559000035615,-26.04,72.3,38.880296967652995
562,0.18208072600036473,-73.3,119.4,33.120702168090006
563,0.18221443100037504,-130.02,156.14,31.74319632015647
564,0.18239331200038578,-25.4,72.86,30.62672400467914
565,0.1825411310003915,-176.74,184.38,28.13656053833022
566,0.1827270960003915,-81.36,119.8,27.25092958976621
567,0.18284439400039787,-336.92,194.78,27.86072654576727
568,0.1831066270003987,-181.24,186.18,27.597740582838707
569,0.18387501100039572,-1.22,51.1,28.25600871078525
570,0.1839720870003987,-47.6,89.24,26.09910142948368
571,0.18418104600040408,-16.28,61.16,23.485915330949712
572,0.1843124320004108,17.02,33.98,22.097798667714073
573,0.18439688400040666,22.68,32.38,22.627299035423807
574,0.1844812440004091,-217.64,188.54,22.51565576525679
575,0.18513277100041137,-112.9,142.12,23.774715547830237
576,0.18542359200041858,-66.12,97.68,25.931115831138992
577,0.18552901400042288,-53.98,99.7,25.487574091888956
578,0.185848440000413,-54.68,100.24,24.947940500357184
579,0.18603668000041296,-90.8,123.46,23.583121734167214
580,0.18651140600040605,2.3,46.86,24.641586605011945
581,0.18661785700041378,3.66,48.0,23.635884985164775
582,0.1867306800004087,5.6,45.12,24.175484902894404
583,0.18686455500039756,22.76,29.36,23.342345254045355
584,0.18699988100040343,28.22,26.84,24.388413904108276
585,0.18709669300039877,-11.88,60.18,25.17865974973861
586,0.18724697800040246,-287.16,180.62,27.209009277129297
587,0.18767326900041326,-210.66,199.44,27.545888777948942
588,0.18860573100040767,-209.98,200.0,27.12165310531261
589,0.18948015200039947,-202.0,196.86,27.491999835166542
590,0.1898830670003946,-272.8,186.08,32.3277879330174
591,0.1905622320004028,-119.52,142.72,38.65626746294938
592,0.19077767100040433,-0.4,48.18,42.59958216467861
593,0.1908731590004038,21.3,33.94,44.394989436614004
594,0.19104514600040545,-34.6,75.68,45.16747640347202
595,0.1911505050004081,2.78,51.56,44.587464260867634
596,0.19133378400040613,15.7,33.06,39.03343606326057
597,0.19144807200041214,14.28,34.3,39.48575216965118
598,0.1915540070004056,16.2,33.04,39.08007746658028
599,0.19167798000040648,1.42,48.64,40.9059358457776
600,0.1918277120004035,-11.3,40.34,34.24017414173638
601,0.19193460500041226,17.8,31.9,31.744671409441604
602,0.1920214770004236,21.52,32.16,34.98277588107831
603,0.19211877900042396,1.78,48.14,35.28270135076643
604,0.1922790330004176,-53.66,102.9,34.36241624604388
605,0.19250052300041887,-211.38,130.6,35.300658204591215
606,0.19273060400041686,-3.32,57.22,36.10376894048314
607,0.19289269300041667,-45.36,88.92,34.02778770960119
608,0.19320406600041906,3.6,45.78,33.699588727638954
609,0.1934332550004143,-26.38,69.12,32.39967846140245
610,0.19356721600041737,2.82,46.18,34.268771457583775
611,0.19370029600041505,-17.76,68.52,30.48241218083221
612,0.19413172900040365,-79.16,119.6,24.715326310684695
613,0.19428104000040491,22.04,32.44,22.295691747661
614,0.19437154200039686,-266.1,181.74,25.442711792071925
615,0.1949977540003971,-192.92,194.4,23.43049714012845
616,0.196259604000403,-55.44,102.92,25.37004288528984
617,0.19661756800040564,-9.04,62.18,25.98590124013308
618,0.19678959000040663,-153.62,165.42,29.417925379663394
619,0.19747674700040818,-117.0,140.12,29.463973401090577
620,0.19772520300040242,-102.78,135.18,30.72689402230292
621,0.19785992200040425,-5.82,56.72,33.200064679488385
622,0.19796084200041264,6.76,43.14,34.70078221984367
623,0.19804850600040425,6.94,38.34,36.54445156129575
624,0.19814429700039682,4.02,47.0,33.578715757197585
625,0.19875471100040443,-265.74,162.7,36.4657902446538
626,0.19900666700040404,-209.6,190.7,35.77126565774334
627,0.19990456900040954,-29.48,72.74,36.56874827874684
628,0.20003635500040673,-6.38,58.3,35.86256663137189
629,0.20014316600041582,16.58,37.4,38.072740620099104
630,0.20025411400041548,6.62,47.5,34.998963414056064
631,0.20035907700041378,-1.34,50.76,32.34907276226415
632,0.20044378100041627,-9.46,61.16,30.67052010284491
633,0.20053469500041388,-1.1,55.88,31.797510333181556
634,0.20066021700041858,8.16,41.98,33.16009807332954
635,0.20077480300042794,-48.3,96.66,32.17135649753339
636,0.20101556100043183,-86.18,125.04,31.598213671809013
637,0.20117527000043367,15.42,33.24,33.273179490788785
638,0.20128515600042363,-1.48,55.14,33.02797245530259
639,0.20139530000042782,23.38,30.38,28.96864927343098
640,0.20150140600041766,-45.0,94.72,30.72727806893251
641,0.2017746900004198,-18.74,67.94,31.738098822767363
642,0.20216721600041865,-193.6,195.54,31.777962035639383
643,0.20249267800042503,-19.96,59.58,29.569501755275457
644,0.20260176500042348,-65.4,113.0,27.589792151353993
645,0.20282283800042933,-176.42,162.78,26.046552648652003
646,0.20299834000043404,3.78,48.64,26.228993568947356
647,0.2031355450004213,-84.62,123.92,24.679874551134834
648,0.2034385670004326,-91.88,126.04,26.103179585773795
649,0.20370791800043264,-56.0,99.02,28.202885008786716
650,0.20396682100043506,-5.1,52.42,28.012189263576012
651,0.20409218600043744,-15.78,61.64,28.785909701669716
652,0.20464247300043326,-134.02,154.78,29.305176744605593
653,0.20486899400043512,-119.8,146.46,28.703009214298767
654,0.20499294100044096,24.52,26.34,29.258932687942128
655,0.2057065140004397,-13.18,61.68,30.298492091508727
656,0.2058153910004279,-6.96,58.84,29.854824584996482
657,0.2060439630004396,-82.86,94.06,28.878844076808218
658,0.2061372490004345,-18.0,64.18,25.053276659232193
659,0.206341211000435,20.04,26.54,23.379702907904157
660,0.2064203850004276,12.62,41.9,22.438327621498356
661,0.20658828800043239,21.48,27.94,21.328204543187034
662,0.20671865300042214,2.7,43.46,21.57240834312867
663,0.20685581900042393,23.24,28.1,26.121559083845874
664,0.20695768000042847,-13.72,67.3,26.17372578720487
665,0.20732392500042351,-104.92,132.9,25.793528098053013
666,0.2075779730004257,-53.3,99.78,27.061898075073845
667,0.21109731900041595,-87.18,117.22,27.98722928541389
668,0.21122607600041476,-332.3,157.74,29.78108054885247
669,0.211410561000406,-3.72,49.54,31.311433237352777
670,0.21152341600040359,3.66,44.88,30.64954879701865
671,0.21166133400039655,10.3,31.18,31.750068743451283
672,0.21177166500039846,-14.78,66.26,31.79532296159606
673,0.2119404480003908,-210.82,165.64,28.565591027479552
674,0.21274810800038324,-42.8,84.48,27.7587667459716
675,0.21296031400038373,-12.18,64.54,27.57642834661815
676,0.21315648800037934,-8.5,59.04,25.491055768643406
677,0.21392501000036646,-190.32,189.5,24.10326851581386
678,0.21430003400037378,-115.36,138.06,23.533586915892016
679,0.2144418830003758,-183.16,186.56,23.942014618672722
680,0.21457388500037666,-144.98,165.34,25.939692507792323
681,0.21538641600038488,-151.4,161.1,25.141053786696848
682,0.21555209400038677,-69.46,105.96,24.12649245131673
683,0.2162664310003919,-142.72,164.12,25.343874946764156
684,0.21716702800040366,-225.94,182.44,26.733494439841927
685,0.21748498700040386,27.46,28.58,25.95378944750704
686,0.21760344900040707,-97.64,121.56,26.2244386746381
687,0.2178944850004143,-1.9,47.62,27.499125571806722
688,0.2189672950004109,-196.24,197.06,26.504122788176982
689,0.21925451500040083,-41.9,88.54,25.53396850237694
690,0.2193955480004064,-13.1,60.3,25.259357551297207
691,0.2196163840004033,7.64,42.78,25.93090372286839
692,0.21979274800040116,-16.26,63.6,26.86260236391204
693,0.2199998050003984,-78.0,108.98,24.810455170797468
694,0.22012024600039126,17.78,34.24,24.04966933228426
695,0.22024806500039062,0.66,50.02,24.361637258309777
696,0.2205247190003945,-68.24,89.52,25.06504400225301
697,0.22063091000039492,-13.1,66.64,24.99494455445548
698,0.2208729190003993,-125.86,152.7,27.2166212250973
699,0.22129992000039067,-6.72,57.58,27.69953854915405
700,0.2214714930003936,-163.48,178.88,27.447182769574948
701,0.2218783860003981,-185.8,186.42,26.96529615917175
702,0.22303957500039928,-71.08,108.4,26.555726181527763
703,0.22333629400040422,22.64,26.84,27.105833939480256
704,0.2234654810004031,-42.86,84.54,28.26175338936423
705,0.2236287180003984,-85.74,124.76,30.39243984351607
706,0.2238875500003985,-53.42,98.86,30.778036786532432
707,0.22409381400039763,-24.12,74.12,32.08841254223431
708,0.2242718490004023,-175.1,184.32,30.310336086782524
709,0.22448211000040885,-1.4,47.12,29.01245894877444
710,0.224624630000406,-43.58,94.86,28.972798766044257
711,0.22481323400040765,-122.88,103.68,29.05985237935648
712,0.22490878700040184,6.94,43.74,27.30995296923772
713,0.22500020000040877,-211.5,200.0,26.56825579756986
714,0.22519753300041145,-58.52,103.36,27.656638070737387
715,0.22554312900039974,-240.0,197.12,25.681593362275418
716,0.22585767000039425,-122.84,140.32,25.721705974004646
717,0.22599130700039893,-105.8,133.84,23.367541715410706
718,0.22628527400040355,-141.4,148.36,22.40710392679668
719,0.22675541400039378,-170.06,163.56,23.024431711728084
720,0.22690037900039783,-14.8,60.74,22.624495435787814
721,0.2270701320004065,-21.18,70.32,22.246443280149514
722,0.2272490860004126,-48.46,95.06,23.055525675512932
723,0.22752125000042156,-206.2,184.02,28.277011954712776
724,0.2283643380004321,-259.44,199.32,25.034659666058307
725,0.2292871960004419,-196.26,198.66,24.49294439765467
726,0.23016542500045034,-201.96,198.4,25.449179782471273
727,0.23100712900044584,-140.84,145.42,26.463426061299696
728,0.23147701900045092,-21.84,63.92,26.609866576282702
729,0.23159849600045845,-0.22,55.86,29.077566879328394
730,0.23171793100046045,-124.14,148.38,29.453909667218618
731,0.23192725800045366,-111.96,137.78,34.5372667533877
732,0.23206251100046416,-81.42,116.66,35.56070410652128
733,0.23216440700046803,-174.72,175.5,31.294542804742782
734,0.23244601700046985,16.94,28.52,32.49487981286086
735,0.23256698800045683,13.74,30.44,33.69999344172561
736,0.2326514400004669,18.18,31.24,33.44003674424039
737,0.23275235400046768,20.54,30.72,34.329815702106444
738,0.23282810400047538,15.14,32.64,36.530268290016195
739,0.23293928400046582,20.62,32.02,33.96431085286611
740,0.23303450200046427,24.32,29.16,33.32879689935273
741,0.2331342480004679,-76.66,102.66,28.283660763638437
742,0.23346502100046962,20.48,29.18,28.827389730735526
743,0.23360822200046982,-29.36,72.94,28.6600455638756
744,0.23374354000047504,-30.94,81.38,28.276831203275037
745,0.23397372000047767,-33.84,65.02,28.7143359995889
746,0.23409052200047142,22.04,29.08,26.642723894457625
747,0.23421943100048281,-20.46,65.06,26.273333099745305
748,0.2343396490004892,-25.64,70.54,24.56341001178509
749,0.23447863400048163,-120.14,148.58,24.98252074357137
750,0.23577609700048185,-60.0,107.16,27.84153013745675
751,0.23622067600048524,-31.44,76.9,28.18327071080281
752,0.23641007400048863,-159.04,174.7,27.142581354740503
753,0.23701101100047595,-187.58,189.22,26.324741419581198
754,0.23738616000046875,-219.92,167.34,28.287969220316768
755,0.23752290400045695,-48.78,99.74,27.168331975319887
756,0.23771310300045911,-96.24,121.06,27.534576221192754
757,0.23796514800046964,2.0,44.18,25.563591622220734
758,0.23807881700047062,-5.7,50.56,25.581714537007876
759,0.23866515600046512,-20.84,70.58,24.91817531710599
760,0.23883871300046167,-463.32,195.24,23.260550661328132
761,0.2392775560004594,-186.94,190.56,23.26238168190484
762,0.24011754300046562,-126.56,148.54,23.500958358770966
763,0.24048803100046712,-112.16,141.7,24.66510278013345
764,0.24134347900046293,-191.18,194.12,20.53127530406438
765,0.24177223200047138,-84.22,123.02,21.683057063685887
766,0.24216255600046566,14.78,36.12,21.888336815714748
767,0.24227326800046,-25.8,71.34,22.9225758073677
768,0.24247195300046087,-1.44,49.84,23.967295859250502
769,0.2425668150004583,-164.54,175.06,25.418992348239538
770,0.24292220000046427,-82.96,123.08,27.38025460621855
771,0.24308514500046385,-11.94,56.9,26.577822736551184
772,0.24331757600046444,-19.12,44.68,26.59547348688556
773,0.2435001880004677,21.0,31.06,25.893977503070268
774,0.24443594700046845,-165.04,179.64,27.286573057445583
775,0.24530141000046513,-197.94,198.4,29.202686636934835
776,0.2459061860004681,-197.36,192.36,32.31305472807189
777,0.2467704440004752,-173.74,182.98,31.767878200624544
778,0.2470609400004804,-77.82,118.92,30.736693918968996
779,0.24719393900048203,-2.18,49.16,30.205914367409953
780,0.2472918660004808,-8.78,56.5,29.655978026128217
781,0.2474003480004825,-22.44,52.94,30.974669777146353
782,0.24751908700048375,11.96,37.92,31.865573460339267
783,0.2477044140004807,6.72,45.48,33.06422663830874
784,0.2480024930004845,-37.84,81.78,31.90637160130431
785,0.2481726270004856,19.98,31.76,29.394667382622238
786,0.24830370600048468,10.16,36.22,28.176982748447898
787,0.24836688000048923,6.72,37.98,28.281979738955943
788,0.24857704500048783,-7.26,58.82,29.98477001810175
789,0.248686699000487,20.24,30.02,28.601008216060176
790,0.24879572400048744,7.24,38.44,26.09104556524082
791,0.24887451900048063,21.22,27.68,25.47105967338488
792,0.2489604160004859,24.26,26.6,25.926932854418112
793,0.24905205700048327,16.2,30.2,25.371776602609586
794,0.2492374750004842,28.8,28.26,25.699435003375505
795,0.24932159900049555,-196.92,178.08,27.665901473848475
796,0.2501385470005033,-168.46,172.38,28.12241358197273
797,0.25030569200050934,-37.6,81.46,28.35288907122208
798,0.25042757900050105,0.78,47.22,29.126121071790504
799,0.25083959100049924,-4.44,53.38,30.6942275653009
800,0.2510009130005102,-0.02,49.7,32.19415949546391
801,0.25119547600050396,-421.94,82.72,31.2914817663164
802,0.25136829100050306,-51.42,96.58,29.00651799028204
803,0.251495172000503,-12.98,64.42,29.133240791607413
804,0.25160537100049396,20.32,30.84,29.15349504358183
805,0.2516825300004939,-37.68,85.08,25.841952409872498
806,0.2520073200005015,-14.98,70.48,24.162564620318626
807,0.25227633500050217,-120.4,135.16,25.893995781063644
808,0.25250983100050917,-64.42,109.98,23.940426441310272
809,0.252641606000509,-175.66,179.2,21.947301340877793
810,0.25283782100051155,-590.04,155.2,22.259939029080094
811,0.2534722070005131,-198.9,177.9,23.63526108567212
812,0.25373908900050424,-89.26,128.78,25.12761901310416
813,0.2543480240005067,-201.96,200.0,23.780173584783466
814,0.2551511870005072,-140.34,156.34,25.512970800191546
815,0.2552989420005076,2.86,47.58,26.019711304878427
816,0.2558734060005179,-44.76,86.72,25.38961904465923
817,0.25600357200052315,-58.28,71.2,24.266919570785134
818,0.256128138000534,-4.74,50.74,23.276258111199585
819,0.25620531800052504,23.1,28.02,23.12329032778194
820,0.2563327570005214,-16.94,64.6,21.020502392831748
821,0.2564154420005309,-79.44,117.08,21.2282303008233
822,0.25690291600052717,-165.68,174.4,19.9059201532613
823,0.2571077720005235,-136.1,156.2,20.57215987175794
824,0.2573372780005201,-8.2,56.24,19.854166993376047
825,0.2574802410005219,-11.46,64.54,21.27141566867082
826,0.25767814100052533,-35.5,74.84,22.063849151922774
827,0.2578695520005141,-55.0,103.42,21.617817862998784
828,0.2580669490005221,1.58,48.68,22.769829929493007
829,0.2582513630005252,-201.48,177.92,23.950072117149887
830,0.258596014000517,-131.3,133.58,25.633124810643046
831,0.25891426500052717,-201.38,197.42,26.733048553365386
832,0.2591213130005201,-69.14,88.74,26.073768051093925
833,0.2593221110005288,22.7,30.3,25.89231328971939
834,0.2594255190005299,-140.22,160.12,26.837917295761564
835,0.2600541790005195,-33.48,84.42,26.714929313356627
836,0.26023368500051447,-43.96,95.74,26.547675933495128
837,0.2609636610005168,-87.0,124.44,27.036700387156536
838,0.26109541400052194,-5.6,53.24,27.799048717806205
839,0.26120080900052756,8.26,40.84,27.42556938918341
840,0.2613035550005236,-9.58,60.42,26.2640325783236
841,0.26146840500052804,-2.04,52.76,23.65802165880507
842,0.26158433600052433,-56.16,80.96,25.46057713962996
843,0.26174081900052215,4.62,48.06,24.39956918209209
844,0.26184066200052314,-5.48,36.44,24.221268045281953
845,0.26207672600052945,-96.82,115.64,23.74507724389805
846,0.26260750000052724,-64.66,108.1,23.559696570955317
847,0.26288581400052635,-30.92,68.34,22.657990790059987
848,0.2637236750005343,-44.64,89.58,24.176993677334373
849,0.26469512000052475,-43.28,64.82,26.782618552040436
850,0.26478670700052476,11.4,39.5,27.05501147944862
851,0.26489667400052497,7.52,40.8,27.35862468127947
852,0.2651107720005257,18.1,31.1,25.711698677172116
853,0.2651945000005185,18.04,28.26,26.287870754368935
854,0.265285216000521,21.14,31.46,24.988988012893703
855,0.2653809770005182,-1.68,45.5,24.457734826518465
856,0.26544742200051985,25.26,27.2,24.11039972500985
857,0.2655481610005239,-27.84,74.78,24.324243841891917
858,0.2660378030005148,19.6,29.52,21.17764020105438
859,0.2661662740005113,-155.26,168.68,20.178248873500394
860,0.2666798440005209,-24.48,74.0,19.417202203508882
861,0.26680111000052875,-2.44,55.58,20.49249413452738
862,0.2670274690005243,9.46,43.94,21.343740365004372
863,0.26721561400051996,-418.28,188.66,22.368232479657657
864,0.26770146100051306,-230.06,198.18,25.80446477447706
865,0.2685943970005127,-202.1,200.0,26.031408228697916
866,0.2695226880005066,-203.52,200.0,26.523376571436877
867,0.2704663410004997,-206.3,200.0,25.58622265802465
868,0.27136858100050176,-200.8,200.0,27.239351358082423
869,0.272575265000512,-202.44,198.62,26.264941763638973
870,0.27342130100051065,-226.26,200.0,32.25892158817182
871,0.27429093900050816,-204.84,200.0,31.095336026817087
872,0.2751406930005089,-230.32,200.0,35.44559248775187
873,0.27598294300051407,-304.4,169.44,34.45415666086071
874,0.2771933550005059,-205.76,200.0,31.8223725751429
875,0.27817381500049976,-246.46,185.76,30.202485761289914
876,0.27901453000050935,-219.96,187.6,28.1167902428411
877,0.27988313000051335,-226.94,199.54,28.949344102333146
878,0.2808021490005075,-226.74,200.0,25.8848161187771
879,0.2817007620005114,-204.06,200.0,27.43923063067637
880,0.28260521700052266,-211.88,193.76,22.448222851570343
881,0.28347255600051824,-193.3,191.6,21.455551870445127
882,0.28378163200051176,-144.5,159.14,23.016131789766835
883,0.2842749860005114,-3.12,48.34,30.91920096875599
884,0.2843699610005217,-79.0,111.3,35.15483210957335
885,0.2844772830005269,4.5,45.54,41.037081916515305
886,0.28457714700051895,6.42,42.58,42.855947548408665
887,0.2847059820005171,-170.46,165.44,48.19829329763975
888,0.28482119500051795,3.64,43.46,49.60517333644365
889,0.2849181350005239,-38.22,78.98,54.35712677739917
890,0.28507495000052074,-10.94,53.1,60.171913842748836
891,0.28515910900053143,8.3,41.48,67.67285731909614
892,0.2852571730005451,-196.14,197.5,67.99197716701514
893,0.28537841200055425,-204.84,200.0,64.3309416845359
894,0.28569390800055317,-146.8,151.84,66.54565938658156
895,0.28583538000054887,-20.34,74.36,62.049776245593115
896,0.2866992750005579,-212.84,195.56,64.92968668594156
897,0.28689741700056004,-114.8,141.92,62.704456550848946
898,0.28701662900056135,11.5,38.4,68.45932752772231
899,0.2871491150005596,-15.62,60.24,62.32345056376464
900,0.2874707180005487,-130.74,128.42,55.39703238510434
901,0.28781533300055173,-0.26,53.96,50.38385115991746
902,0.28792182100055186,16.86,34.52,44.3455780581757
903,0.2882395520005474,-34.18,69.04,40.05753528278102
904,0.288430094000546,-98.02,124.56,35.066249969592185
905,0.28933262800053683,-212.48,194.9,39.23817238499346
906,0.29046977700053844,-195.72,184.36,39.702057370076574
907,0.2913405330005503,-208.12,198.24,36.89508621698105
908,0.29262407000054225,-202.66,195.88,35.51471410589951
909,0.2935502130005432,-142.7,163.5,39.4982724778799
910,0.2944251430005522,-182.38,189.42,39.07355065825776
911,0.29496083000054796,-48.8,94.68,40.080368740770105
912,0.2951285330005362,-1.36,46.9,45.31345593152526
913,0.2952828580005331,-8.24,57.18,48.63432949767672
914,0.2953993210005308,-17.96,66.98,50.88615414227127
915,0.295506882000538,-22.52,70.46,49.464756872445356
916,0.2956007670005363,-95.98,130.48,49.730774882936345
917,0.2964724530005469,-133.14,153.12,50.15174682527162
918,0.29670443000054547,6.18,42.4,47.28177115302543
919,0.29681955000054927,-18.22,60.96,43.388247022135744
920,0.296925812000552,20.94,32.6,43.40026167577933
921,0.2970161530005555,22.44,30.12,41.71153081521889
922,0.2972150140005567,8.18,42.24,36.98131359626422
923,0.2973073130005588,21.36,31.6,34.48002018695187
924,0.2974031260005603,0.86,36.52,31.406083545122648
925,0.29746639200055824,-9.08,58.82,33.39526934298483
926,0.2975814920005604,-40.6,73.32,32.05468722023106
927,0.2977207390005674,-246.8,192.46,32.107492190753945
928,0.2981093010005793,-108.14,134.56,36.15347559962389
929,0.29836418100057926,-203.52,181.02,36.352442421412576
930,0.29860267100058024,-128.36,139.1,36.92825573190278
931,0.29887950300059174,-144.98,165.1,38.303616316281236
932,0.29974449900059597,-192.68,196.22,38.17489295079276
933,0.3000310310006,-70.58,110.26,38.199944526267714
934,0.3001955770005935,4.08,49.06,37.500249384226905
935,0.3003425530005899,-24.92,74.82,32.21117314244668
936,0.3004610030005921,-144.26,163.0,32.87418779763219
937,0.30061515500058533,-56.9,100.8,32.119603839992415
938,0.3007935450005874,-89.56,122.44,27.37907485414545
939,0.30105661300058273,1.44,47.98,27.028446934051694
940,0.30124259700058076,-176.34,172.04,27.598912329527543
941,0.3019640190005788,-206.32,190.74,26.62274655211188
942,0.30280521300058183,-168.28,176.58,28.480678108634844
943,0.30311230000057776,6.06,43.04,27.55247003613855
944,0.30325478100057524,-151.78,168.54,28.230586572326892
945,0.30360322000058204,-130.16,156.02,29.596658811992558
946,0.30407321800058185,-172.02,182.22,26.026266512044128
947,0.3044573050005823,-113.2,144.14,25.85341909603512
948,0.3045916880005848,17.02,33.02,25.306018684724418
949,0.3047110440005838,5.28,48.92,24.748713393106065
950,0.3049263970005853,-24.6,73.62,24.76298307301799
951,0.3051793400005778,-38.44,86.56,26.171165519915508
952,0.30538189600058274,7.34,41.86,23.350966185707925
953,0.30559557100058043,-187.54,191.56,24.9873674684382
954,0.3063921820005788,-118.88,145.62,25.68503745503861
955,0.3066504600005686,-231.82,187.58,25.524535318325572
956,0.3072994100005815,-78.6,119.94,26.167890801532423
957,0.30754809000058003,-133.34,154.06,27.234732864295534
958,0.30786085600058755,-190.4,177.9,28.63035298523608
959,0.30862172400058796,-100.92,103.7,29.539457935036502
960,0.30874533600059806,-141.4,153.66,29.459752352195164
961,0.3093782630005961,-110.34,96.74,28.09454509169126
962,0.30953829600059635,-69.4,113.06,27.955453288888055
963,0.31037550500059297,-12.18,58.22,27.947650081279825
964,0.3104653700005855,-44.0,95.12,27.17727315902535
965,0.31058232200058455,-454.64,55.18,28.40782398382239
966,0.31075581500059,-38.2,77.58,28.70587360519088
967,0.31093408100058184,-280.2,173.58,28.579582624740908
968,0.31123178700057963,-53.4,78.16,27.5071507930622
969,0.3113401640005833,-34.4,64.14,27.406124903136163
970,0.3116444620005865,-111.12,118.72,27.713842057096933
971,0.31175909200058527,-51.46,71.8,26.67548762740073
972,0.31203809000058413,25.32,30.94,27.61751396670361
973,0.3121406280005914,0.8,44.08,26.778101274649845
974,0.3122892400005952,9.58,42.04,24.522808335708657
975,0.3124076210006024,-52.3,53.4,22.723390463401177
976,0.3125427070006026,-22.06,47.0,21.331620210402
977,0.3126944030006058,-82.88,49.92,20.01805968358145
978,0.3128017110006027,-35.08,85.42,20.230537854143297
979,0.3129531210006036,-13.92,65.5,20.465544171027453
980,0.3130788600006156,-54.1,98.1,19.496639229847386
981,0.31323447200061594,-30.36,85.24,21.347453088127274
982,0.3141018230006267,-70.74,114.04,20.568633507964115
983,0.31430935700062435,-210.3,197.7,23.355460265634424
984,0.3147545620006298,-164.08,175.44,25.12524267775044
985,0.31531469200064066,-83.26,120.76,26.07636503874189
986,0.31556076300063296,-24.52,62.72,27.32599744171113
987,0.31567881800063446,16.58,40.3,28.513020993323693
988,0.31577442600062966,-32.46,76.3,27.910846501461457
989,0.31589113700063365,-38.94,53.74,27.900074997448815
990,0.316054754000632,15.94,34.52,29.56240785774209
991,0.3161417120006291,-285.52,107.52,29.02268012921639
992,0.3162668990006239,-105.28,133.28,29.803408406928764
993,0.31650878300062857,-199.28,196.94,30.411816663955108
994,0.3173906360006242,-178.22,171.1,30.343803737248084
995,0.31775891600061357,-201.24,177.28,28.822419050538134
996,0.31799652100062303,-65.08,108.62,28.67295131548936
997,0.31821240700061537,-54.26,93.7,28.884977640959143
998,0.3183084720006235,-38.18,87.32,29.907263329572807
999,0.3184466690006218,-36.86,82.5,29.805423450161904
1000,0.3188360790006186,-15.92,65.24,28.017364618487676
