iter,time,reward,steps,convergence
1,0.029101430999999955,-201.02,200.0,80.0772528
2,0.06433138399999994,-199.9,200.0,37.0248944774938
3,0.0945199419999998,-199.0,200.0,61.024970895330625
4,0.12062153900000006,-44.16,85.78,50.963882997528486
5,0.1509651630000004,26.14,24.92,35.780246805158114
6,0.18405234900000078,24.98,25.66,35.884009461580234
7,0.21730581400000037,28.86,25.04,24.05898204228286
8,0.24365948200000087,25.16,26.1,0.662652426010208
9,0.25374941700000075,24.48,26.16,0.01732581329313554
10,0.2577912470000001,26.56,26.3,0.0002379742376632521
11,0.26252511500000075,25.32,25.66,8.642081429854898e-05
12,0.2665508680000004,23.3,26.62,6.223384373171825e-05
13,0.2716500360000005,22.64,26.26,4.0917721676692054e-05
14,0.27620954200000103,22.06,27.14,2.4699241180314857e-05
15,0.28031243900000025,26.32,24.94,1.4001404892383107e-05
16,0.28634694200000155,26.34,25.68,7.5888260226975035e-06
17,0.2922125470000019,24.2,26.44,3.981435384048382e-06
18,0.2978018560000031,22.28,26.16,2.0388313473063135e-06
19,0.30202276100000347,19.26,26.3,1.0249130859563138e-06
20,0.30601133500000177,25.4,25.46,5.078253835222313e-07
