iter,time,reward,steps,convergence
1,0.0011155110000018453,-206.8,200.0,89.38352589013603
2,0.0020098829999994905,-270.6,200.0,79.99728789013602
3,0.002873999000001959,-270.64,200.0,70.37579371301754
4,0.003792327000002871,-225.84,200.0,60.744012741828044
5,0.0047381230000027585,-209.6,200.0,50.96812967846384
6,0.005954483000003563,-213.5,200.0,41.17758077736439
7,0.006775864000005072,-207.32,200.0,31.782108775364396
8,0.007625767000003947,-218.04,200.0,22.025023418314873
9,0.00848618400000234,-310.12,200.0,12.671002158254739
10,0.009362152000004897,-320.18,200.0,2.849099094290122
11,0.010432627000003691,-199.18,200.0,3.1049326724805284
12,0.01128684900000465,-233.9,200.0,2.8702646384960304
13,0.012133613000003152,-226.18,200.0,2.744609160489399
14,0.013016080000003427,-269.68,200.0,2.7611137719000696
15,0.013859567000004347,-214.26,200.0,2.7465116467399326
16,0.014869441000005423,-312.98,200.0,2.747193390647594
17,0.01574283900000495,-255.14,200.0,2.7906844022285795
18,0.016607880000005792,-274.42,200.0,2.7570537845663976
19,0.017396746000006402,-201.08,199.7,2.3195186166831974
20,0.018288110000007407,-414.02,198.86,2.381283461228307
21,0.019236662000007954,-201.34,200.0,2.349387972191816
22,0.020149080000010144,-204.08,200.0,2.1215175419915893
23,0.020997804000010944,-260.18,200.0,2.493461822970943
24,0.021846555000010426,-221.9,198.84,2.5169740387594857
25,0.022859024000009498,-203.48,200.0,2.8342838070299976
26,0.023731970000007152,-218.6,200.0,3.1317551493744373
27,0.02460955200000825,-205.16,200.0,2.7843481509571375
28,0.025492074000009524,-221.94,200.0,2.9834403032256445
29,0.026376216000009833,-284.84,200.0,3.0668363378602095
30,0.02727566500000833,-221.04,200.0,3.0348170814170032
31,0.028183774000009265,-270.88,200.0,2.6358751975701225
32,0.02907653500000862,-209.72,200.0,3.0378934772912913
33,0.029913351000008248,-214.5,200.0,2.9996981492836525
34,0.03077319200000872,-225.98,199.66,3.2089960125227703
35,0.03165621800000906,-235.7,200.0,2.907515200784741
36,0.03266711300000935,-262.2,200.0,2.6184873366675703
37,0.033550462000008,-224.62,197.38,2.931392977966598
38,0.034447692000007635,-259.0,197.84,3.132506800409787
39,0.03509083200000873,-248.32,200.0,3.4491212174134516
40,0.03597082000000995,-227.52,200.0,3.850649801346738
41,0.03682316100000804,-215.22,200.0,4.063242099163726
42,0.03767632300000656,-211.58,200.0,3.9695378847934775
43,0.038533651000005165,-237.34,200.0,3.9413308683079604
44,0.03938726700000572,-244.02,199.98,3.5551070108634035
45,0.039917899000005974,-217.7,200.0,3.938680022684751
46,0.040771278000004685,-204.48,200.0,4.219976619437015
47,0.04161945600000294,-217.1,199.6,4.216421805630574
48,0.04203267100000474,-244.56,200.0,3.814552089691935
49,0.04288183300000625,-217.58,200.0,3.413019713125581
50,0.04315463600000413,-211.26,199.36,3.0153245483511357
51,0.04375646500000485,-229.02,200.0,2.8008113579362615
52,0.04568910500000456,-264.4,199.1,2.5191618688384794
53,0.046575187000005513,-227.34,198.4,2.369039553879374
54,0.04742885500000327,-243.6,200.0,2.7465493556063607
55,0.04843620700000173,-200.3,200.0,2.708462235732431
56,0.04932566400000127,-1085.24,200.0,2.860499574040509
57,0.05019919800000139,-208.24,200.0,2.84005420157024
58,0.05106226000000191,-229.32,198.74,2.844308360600908
59,0.05228891300000171,-204.82,200.0,2.8442875381321757
60,0.053169047000004355,-205.5,200.0,3.1283613706885744
61,0.05406837200000325,-214.08,200.0,3.14357129038588
62,0.0549331960000039,-226.08,200.0,3.578452528823638
63,0.05578584600000269,-209.02,200.0,3.3805000732882435
64,0.0565530960000018,-245.1,200.0,3.4300489260698144
65,0.05756691200000219,-238.86,200.0,3.266614423233803
66,0.0584153440000037,-282.7,200.0,3.117691300363094
67,0.0591135150000035,-217.66,200.0,2.7209542419309614
68,0.05938626000000369,-248.42,200.0,2.7218809431709543
69,0.06028519000000543,-201.82,200.0,3.1628328976497597
70,0.06126923500000814,-207.82,200.0,2.8751543860215407
71,0.06214757300000784,-204.2,200.0,2.86955337601949
72,0.06314453700000655,-246.46,200.0,2.904803175518689
73,0.06400518600000638,-424.76,200.0,2.871457337375508
74,0.06487439200000722,-308.8,200.0,2.4185062590547006
75,0.06550203500000507,-215.1,200.0,2.4072272445894582
76,0.0664398070000054,-227.0,200.0,2.311371662330815
77,0.06735915800000569,-210.02,200.0,2.7647044899301605
78,0.06823262000000696,-268.28,200.0,2.767385099606421
79,0.06910113100000714,-229.02,200.0,2.3382044772606596
80,0.06994546800000734,-202.42,198.74,2.3031420189045066
81,0.07078889100001007,-202.38,197.78,2.4935051135245203
82,0.0716350530000085,-236.88,200.0,2.418215083085663
83,0.07249898500000995,-215.38,200.0,2.8145858638303975
84,0.07335068500001185,-231.4,199.54,3.228551517497343
85,0.07379147200001057,-201.5,200.0,3.439772201606521
86,0.07465383900001044,-223.34,200.0,3.1776937513810104
87,0.07544274900001113,-216.08,197.16,2.811710589219623
88,0.07629012000001012,-216.76,200.0,2.902760794836329
89,0.07687816100001044,-241.88,200.0,3.185514947006227
90,0.07785028100001057,-207.64,200.0,3.163999947108241
91,0.07869908600001096,-259.8,197.56,2.9040602085270733
92,0.07910627000001114,-278.64,200.0,2.5458707298226635
93,0.07995639400001053,-199.9,200.0,2.4924165748212
94,0.08040973700001075,-225.84,200.0,2.4315375422728196
95,0.08162762400001,-261.06,199.36,2.1371700310153576
96,0.08247746100001052,-234.54,200.0,2.397870972166056
97,0.08332522200001335,-283.12,197.52,2.3522878571941988
98,0.0842182000000129,-205.72,200.0,2.2512351917060016
99,0.08509098000001458,-223.92,198.7,2.199567067184303
100,0.08599521800001497,-201.86,200.0,2.2879591588155024
101,0.08636174300001187,-204.5,200.0,2.795359845822644
102,0.08689082200001153,-221.48,199.9,3.2365102904820326
103,0.08711068200001293,-223.16,200.0,3.0858989799829004
104,0.0877672480000129,-239.8,200.0,2.96601674952421
105,0.08899001800001471,-205.38,200.0,2.874157509341957
106,0.08928201000001579,-202.12,193.66,2.931862101707176
107,0.08960053600001672,-347.4,200.0,2.9270066356929596
108,0.09047407300001709,-218.08,197.52,3.1976287582997984
109,0.09132167300001726,-226.34,196.38,2.9197268073626246
110,0.09161234400001916,-222.48,197.54,2.823354299649188
111,0.09208131800001951,-116.92,124.8,2.3733060479177985
112,0.09298367900001736,-219.66,197.72,2.1241591031291094
113,0.09355475200001706,-196.58,197.82,1.9163022225281678
114,0.09401556000001676,-129.12,153.8,1.883923439671858
115,0.09423119100001998,-169.18,176.4,2.010107140593015
116,0.09447634700002183,-135.94,157.08,2.213889133311281
117,0.09568907700002427,-206.56,200.0,2.134634575865693
118,0.09616772200002544,-209.08,199.3,1.805607800550849
119,0.09701867000002551,-287.3,200.0,1.7699852407152377
120,0.09742599600002322,-278.22,191.9,1.7495532143940538
121,0.09802073100002318,-264.6,176.1,1.7546300454913415
122,0.09819112700002464,-277.54,196.42,1.7832076063297648
123,0.09838135800002235,-132.88,143.96,1.7751858696147942
124,0.09869530000002413,-131.04,116.06,1.5156358818785924
125,0.09881553900002515,-212.08,189.24,1.595013766057982
126,0.09899122300002361,-102.06,121.6,1.0623633628217448
127,0.09950309100002386,-280.26,189.06,1.1351336120690398
128,0.10013628700002286,-219.18,200.0,1.1978877064959648
129,0.1006995960000232,-203.32,196.2,1.321166553162199
130,0.10113998500002452,-212.14,200.0,1.6042143609734254
131,0.10174071600002321,-210.2,196.52,1.9977909857756266
132,0.1022474150000221,-205.38,196.18,1.7773339052144812
133,0.10286232500002157,-189.28,172.88,2.2872949674980054
134,0.10321322000002198,-161.78,170.52,2.5466623365517913
135,0.10398475300002374,-286.02,200.0,2.5253231562510043
136,0.10485086200002414,-179.98,187.34,2.7957277507866998
137,0.10550743800002138,-169.3,176.14,2.8157581717739633
138,0.10584456300002287,-207.62,200.0,2.8376340758861693
139,0.10624172000002474,-198.34,196.96,3.0225044841882913
140,0.10692674700002414,-169.1,171.38,2.8411248070381774
141,0.10784307900002688,-202.02,189.14,2.361654290779462
142,0.10810814400002755,-192.98,191.72,2.374446379283305
143,0.10898539300002952,-106.48,138.9,2.367549430919397
144,0.10986145600002928,-140.62,159.58,2.567374509414109
145,0.11014186100003087,-139.72,157.34,2.378551906157056
146,0.11063294300003079,-225.38,197.84,2.194575026273751
147,0.11102160100003289,-259.52,200.0,2.1891539727720497
148,0.11135899200003152,-198.58,176.0,2.1866457834261697
149,0.11149678300003174,-329.48,186.54,2.148035582406478
150,0.11175975000003291,-206.36,185.3,2.5284108405565426
151,0.11198905800003445,-160.16,165.46,2.6138491706706732
152,0.11325324400003112,-162.7,173.64,2.6499637006230894
153,0.11362473200003365,-42.08,82.78,2.2251769712938154
154,0.11402706000003349,-99.24,124.28,1.796384120642437
155,0.11427487100003475,-170.84,159.7,1.9850697229426604
156,0.11455008000003275,-205.08,200.0,1.9706732987283782
157,0.11484478900003126,-247.1,199.96,1.9676505099668202
158,0.11569555800003073,-172.98,176.24,2.0177818309712303
159,0.11587899300003102,-113.5,111.4,2.306580134502026
160,0.11597890400003052,-208.9,178.04,1.851875604461195
161,0.11621227500003073,-196.26,193.6,1.7861100714839533
162,0.1163450440000311,-286.18,183.9,2.1657331187204907
163,0.11689191400002841,-209.42,199.5,2.3397764257701943
164,0.11709427000002748,-100.92,131.46,2.7736290329285795
165,0.11730718600002632,-55.5,94.76,2.5297253926647025
166,0.11741654000002555,-69.54,102.12,2.759385709020399
167,0.1176044250000281,-113.04,139.7,2.6867613337067136
168,0.11774668700002877,-215.28,138.06,2.8920805090931436
169,0.11864530100002924,-8.74,47.24,2.3714999703957567
170,0.11879887100002762,-170.08,166.1,2.479968920572982
171,0.11904346900002594,-102.54,128.62,2.7425037517814395
172,0.11927692000002565,-178.58,185.82,2.608594883144035
173,0.11990219700002669,-174.62,183.34,2.3689376451759268
174,0.12015752700002835,-198.7,197.06,2.2017316105993583
175,0.12102615300002739,-220.58,191.44,2.4610188351181153
176,0.12128617000002961,-43.86,93.34,2.1827281155255474
177,0.12137912900002945,-156.34,168.46,2.631371145887336
178,0.12162342300003104,-146.56,145.58,2.4311777270282025
179,0.12171505500003121,-253.62,197.08,2.695598760784765
180,0.12201202000003164,-34.06,78.82,2.6990138853466954
181,0.12213524400003095,-63.5,98.0,2.7809876683199954
182,0.1225764540000327,-165.76,159.82,2.6769456745159923
183,0.12272267300003037,-81.18,103.08,2.7134282577871907
184,0.1228967680000288,-63.3,74.66,2.4204091950761084
185,0.12328259000002717,-204.98,171.42,2.2456645725494244
186,0.12415154600002509,-214.7,200.0,2.3199640308751404
187,0.12469604700002535,-207.32,197.08,1.9548265684396984
188,0.1255652030000256,-184.04,186.94,2.0274282807431643
189,0.1260900770000255,-157.96,170.82,1.769424642812527
190,0.12626232600002396,-207.94,197.84,2.0839170851164153
191,0.12716483400002332,-201.74,200.0,2.0008359298473755
192,0.1275031770000261,-192.58,195.52,1.832230096293581
193,0.12834806200002902,-174.26,177.44,1.8532770700454968
194,0.12956047100002976,-198.62,196.08,2.059553985948809
195,0.12993878400002856,-133.26,147.88,2.388985257058825
196,0.13023653400003,-118.58,139.84,2.3979677466023546
197,0.1304425830000291,-40.36,76.32,2.361334845551287
198,0.1305491530000289,-157.88,155.36,2.40944689010313
199,0.13139264300003006,-120.68,150.06,2.4243405676376675
200,0.13153492500002884,-46.32,87.42,2.056407446539764
201,0.13168441300002698,-141.06,158.26,1.860984045710746
202,0.13183247800002817,21.5,29.1,1.7969255408230709
203,0.1319151940000296,-98.92,118.46,1.732227822885968
204,0.13204683700003272,-120.24,131.62,1.5240667756834179
205,0.13304820800003014,29.66,27.58,1.0983487358684527
206,0.13314284600003035,-26.04,66.46,1.2642484738122661
207,0.133354030000028,27.9,28.5,1.2043067001009422
208,0.1335430030000282,-116.62,104.38,1.0081166251146403
209,0.13426754100002825,-27.38,76.9,0.9615914968035757
210,0.13436612900002842,24.04,29.54,0.9044847421216378
211,0.13444616200002812,22.92,30.88,0.9046611205611075
212,0.13457749800002716,14.02,30.36,0.9562803203757231
213,0.13481582100002854,18.38,31.46,0.9440593927753813
214,0.1349552630000268,21.0,29.72,0.925160030547637
215,0.13508293100002433,24.78,28.88,1.0076498567839731
216,0.13517420000002645,15.8,28.8,0.7500655096866847
217,0.13533350500002683,15.9,31.08,0.8098862174401595
218,0.13547780700002576,19.28,26.76,1.0296332805248412
219,0.1355884790000239,22.4,30.6,1.2955716359306315
220,0.1357146280000272,18.5,28.48,1.3269390711789
221,0.1358234010000281,22.78,26.86,1.3126338646836366
222,0.13593072200002965,26.48,29.42,1.501218011604545
223,0.13600481700003186,-22.38,73.98,1.5943139001087183
224,0.13623909400003242,-189.16,187.24,1.7061377261991701
225,0.1371266730000329,-119.34,148.74,1.7243776586861252
226,0.1372622510000312,-203.48,200.0,1.9789726648011168
227,0.13854363000002934,-188.7,192.68,2.4425917253607876
228,0.1387406760000296,-87.6,122.28,2.3555874740320517
229,0.13925952100002803,-59.8,104.06,2.6171802258060026
230,0.13934824900002596,-135.0,153.22,3.109957798879018
231,0.13951138000002317,-163.56,157.42,3.3199911847933663
232,0.1399231150000233,-234.38,189.0,3.1234054705037986
233,0.1409023950000261,-226.16,198.36,3.5093142811050746
234,0.1415521510000275,-187.3,189.82,3.4681588604471982
235,0.1423586870000264,-64.08,87.8,3.5078643044690465
236,0.1424635200000246,-120.54,145.84,3.524731715016179
237,0.14267754900002316,-117.72,143.04,3.1144163105729783
238,0.1429883500000244,-35.54,76.64,3.2329751243417846
239,0.14308501100002502,-98.38,124.02,3.0714155778989563
240,0.14323556700002626,-142.1,138.92,2.5776334171645066
241,0.14335656900002647,-18.86,62.64,2.6681489776051697
242,0.14354179100002895,-37.52,69.98,2.8917946575946134
243,0.1436418840000293,-15.54,48.18,2.7805095501144264
244,0.14382742100002943,14.44,35.22,2.927894094742172
245,0.1439702340000295,-318.54,194.28,3.0411723834015616
246,0.1441458840000287,-114.84,139.68,2.9589958020512386
247,0.1443736530000308,-93.14,125.06,2.9175867383097023
248,0.1445368310000319,-198.24,190.14,3.0321297492905805
249,0.14538226900003437,-103.0,134.56,3.032035651562392
250,0.14594496400003365,-193.24,185.6,3.0698787148955917
251,0.14632042400003442,-122.7,147.66,3.106408916433655
252,0.14645200100003208,-189.98,192.0,2.864082291457852
253,0.1475089000000338,10.5,39.52,2.7845658527142136
254,0.14760397500003464,-105.76,129.32,2.874407383101859
255,0.14770761800003385,-115.72,143.54,2.6794702227931424
256,0.1480312060000344,-38.68,76.44,2.7926761038455057
257,0.14820302800003304,-117.02,133.88,2.812090497523519
258,0.148357218000033,18.6,32.38,2.4309490953596766
259,0.14843086400003358,-169.26,174.42,2.1437718203161897
260,0.1493140070000365,-29.02,74.76,2.328603888403246
261,0.14949084900003484,-145.52,151.2,2.2941830566507613
262,0.1496524770000356,14.56,33.82,2.247469841101714
263,0.14975928500003377,21.0,26.76,2.2171971843561606
264,0.14984861600003185,22.92,26.28,1.9668136872944557
265,0.1499340850000337,26.6,26.7,2.1953553710035103
266,0.150074189000037,25.02,26.5,1.9852288176512751
267,0.15016582700003767,23.38,26.54,1.9242773310533514
268,0.15032476900003644,26.26,26.84,1.8976580626302002
269,0.15049515600003716,24.88,27.54,1.8790796884469294
270,0.15063802500003476,23.94,26.02,1.65808656135011
271,0.15072166200003423,24.2,26.66,1.3009668353714876
272,0.1508671430000348,25.02,27.22,1.600051697332648
273,0.15098948200003193,20.34,28.58,1.3747824674378495
274,0.15107320800003166,25.54,25.54,1.4333945597865854
275,0.15113868600003144,25.06,27.04,1.1425057800577005
276,0.15121570700003062,23.18,27.44,1.0768902799578217
277,0.15131223700003105,20.38,27.26,1.0755684421747227
278,0.15140692900003216,25.84,26.26,1.117541900403243
279,0.1515153450000355,23.4,26.3,1.040264387116105
280,0.1516007210000332,21.08,25.84,1.0973833823772856
281,0.15167446000003437,29.0,25.34,1.1213564240563691
282,0.15192075100003422,22.96,25.88,0.8158991853154169
283,0.15203002000003707,29.96,25.68,0.7851473093617571
284,0.15216452100003508,23.04,27.14,0.9655075112445296
285,0.15229264100003448,21.76,26.42,1.2245679374124692
286,0.15248478500003415,22.64,26.38,1.581631752232029
287,0.1526104810000355,19.38,26.48,1.5982354110022046
288,0.1527383720000337,23.14,26.82,1.6590764709363157
289,0.15291303500003295,26.34,25.28,1.7599979511642623
290,0.15302518900003292,28.7,25.86,1.6799777469180726
291,0.15311332500003516,24.86,26.58,1.6769539696840035
292,0.15321014200003447,20.58,26.94,1.7062976321980465
293,0.15328937100003515,25.0,26.52,1.9626871851550483
294,0.15337996600003834,25.58,26.62,1.7141689783807479
295,0.1534540720000379,19.28,29.14,1.5475812654449606
296,0.15352466600003822,20.72,27.54,1.2194036247904136
297,0.15362510200003854,25.24,26.6,1.3951533352060657
298,0.15375299100004014,-6.6,28.36,1.3699949835634946
299,0.15385733300004034,22.24,26.52,1.3750131497630853
300,0.15401745800004107,20.2,29.26,1.6656038224658232
301,0.15413170500004014,25.52,26.8,1.6546976301839735
302,0.15421785300004132,17.94,31.34,1.8859781201367511
303,0.154315245000042,18.14,27.76,1.6415261150153626
304,0.15444187500003892,22.84,27.02,1.6186729377450129
305,0.1545437970000414,24.6,30.66,1.5891238855006826
306,0.15464764900004013,27.74,27.4,1.5927460664496045
307,0.15476688100003955,20.72,25.68,1.4819448728692657
308,0.15486054000004046,23.62,26.62,1.8474331830473965
309,0.15495769700004303,21.16,27.86,1.9716995192089208
310,0.15508071700004322,23.26,26.26,1.7552656264716504
311,0.15516724700004403,26.6,26.16,1.8471164879288693
312,0.15528232600004443,26.28,24.44,1.846087449788341
313,0.1553988650000413,13.82,30.82,1.9134539196410614
314,0.1555325350000416,17.14,29.86,1.9283165057191838
315,0.1556609200000416,20.86,26.86,1.8852059418593847
316,0.15575280700004157,17.9,26.26,2.1535678031970775
317,0.15586025800003966,15.9,30.7,2.059469078894177
318,0.15593289800003873,23.3,27.86,1.6188987592353385
319,0.15600767300004037,22.32,27.16,1.7313297544060107
320,0.15614936100004329,26.1,28.06,1.6715250163032849
321,0.15625626000004544,18.58,28.48,1.6746346440163542
322,0.15633397900004553,25.0,26.08,1.48077395377963
323,0.15645495000004317,22.62,26.98,1.4997272971903406
324,0.1565316190000452,23.72,25.4,1.564611697355224
325,0.1566177920000449,17.26,27.16,1.6077761783818183
326,0.15676597200004494,22.2,27.72,1.3394320094829353
327,0.15687895600004254,28.9,25.8,1.3338138706525762
328,0.15704796800003962,19.8,29.62,1.3166483249968315
329,0.1571725990000381,20.86,26.38,1.2474763171922922
330,0.15729022300003948,18.98,28.08,1.2645404160596065
331,0.15738395400003924,25.18,26.12,1.4238838476390705
332,0.1575001530000364,32.4,26.0,1.6297476973327136
333,0.15762555000003786,27.52,26.0,1.938631458769136
334,0.1577311310000411,30.92,26.1,1.885490828439476
335,0.1578375080000427,26.28,26.36,1.8561465265769634
336,0.1579489680000421,26.24,27.56,1.824826118679416
337,0.15803614000003918,22.58,26.8,1.9008818001538024
338,0.15811552600003864,27.9,26.14,2.1527722200728547
339,0.15820316400003875,23.3,29.12,1.9446127814176997
340,0.15827989400003872,18.4,26.52,1.9147053573215131
341,0.1583505220000383,26.0,27.22,1.7591574288109926
342,0.15850431500003737,28.04,25.72,1.7790767348575804
343,0.1586404160000363,16.5,31.0,1.4401422814291513
344,0.15882678100003744,24.38,27.68,1.6934327432394127
345,0.1589770740000347,23.66,26.98,1.9182597391600609
346,0.1591266730000349,22.44,29.12,2.0050854264854197
347,0.15922068900003694,26.12,27.42,1.959850890158353
348,0.15931189700003756,20.9,27.94,1.7735652604438954
349,0.15942771100003839,26.44,25.7,1.8544087409459955
350,0.15952624000003723,25.02,28.82,1.9003453072761425
351,0.15964865900003744,6.36,44.32,1.8396667198818235
352,0.15973456400003982,-0.86,51.58,1.853775097834007
353,0.1598098390000402,24.0,27.52,1.8036886888703365
354,0.16004110300004015,25.08,26.9,1.5971212721836947
355,0.16019267000003978,23.66,26.4,1.6559933865792835
356,0.16032526200003971,8.34,41.18,1.7966943776898454
357,0.16043124200004044,27.66,26.58,2.0109423749394324
358,0.16053857500003943,28.2,25.02,2.0052480014907013
359,0.16064431100003773,25.72,25.94,2.246595107019941
360,0.16076600100003802,24.14,26.54,2.220963856308771
361,0.16086726200003554,23.92,26.1,2.2968791968746167
362,0.16095818200003364,24.24,26.22,2.018380933575729
363,0.16107183600003339,23.16,27.02,2.096389790296139
364,0.16116968500003281,26.22,27.58,2.024408281177835
365,0.16125344900003213,21.18,28.38,1.710970832962225
366,0.1613479280000334,27.06,27.18,1.4771227085245833
367,0.1614266250000327,26.86,26.5,1.3293466500228661
368,0.1615049970000335,27.3,26.18,1.3318307771085387
369,0.16160371900003412,19.3,28.96,1.0396884143183862
370,0.16175381900003316,28.22,25.58,1.0152547188329841
371,0.16188058500003422,25.9,25.84,0.9906065365941494
372,0.16201215400003477,23.8,27.06,1.00029684108357
373,0.16209749500003667,22.3,27.26,1.1606087972753465
374,0.16224270500003968,28.06,25.96,1.2826016561044056
375,0.16236225900004086,22.18,26.8,1.2834103707264304
376,0.16249965100004005,27.82,26.82,1.320883963787343
377,0.16262690400003876,24.02,28.04,1.272392485761251
378,0.1627414670000391,29.4,25.7,1.5228904388660354
379,0.16283214200003826,25.22,25.38,1.5629400554743753
380,0.16291483300004117,24.2,27.82,1.6134591667819507
381,0.16300477700004024,27.68,26.84,1.7784412899711697
382,0.1630951340000415,22.8,27.24,1.7648012955375627
383,0.1632341700000417,28.48,27.28,1.5506107340366122
384,0.16335462500004283,25.18,26.52,1.4811486782298169
385,0.16343238100004243,26.16,26.7,1.7561036697289325
386,0.16351256400004388,22.3,26.64,1.7563768668456774
387,0.16359480800004533,23.36,26.92,1.9824470474902938
388,0.16368253100004537,27.3,26.28,1.9935422205356617
389,0.16376181300004333,20.66,27.52,1.9260396765907686
390,0.1639028810000447,21.76,26.86,1.8766288069594395
391,0.16404555900004425,21.1,26.92,1.624676925012255
392,0.164174628000044,28.12,26.4,1.6314582515139573
393,0.16430063400004258,24.66,25.18,1.8453338410681954
394,0.16442322400004272,19.78,27.54,2.0409324206755532
395,0.1645305260000427,26.76,27.58,1.8184296863929883
396,0.16464271800004227,20.82,27.36,2.0139134600076223
397,0.1647252980000431,23.88,28.8,1.983558197732523
398,0.16482028000004334,22.86,27.24,1.7042144519811966
399,0.16490568700004005,23.92,26.04,1.7335902430667982
400,0.1650339400000398,24.54,27.88,1.7513695258704995
401,0.1651180680000408,23.46,25.44,1.8285724578409082
402,0.1651975740000431,24.54,26.58,1.9103073315548813
403,0.16529019200004313,23.76,26.7,1.7145265960517597
404,0.16539576100004538,19.9,35.28,1.455034266604932
405,0.1654904100000465,21.6,27.42,1.4151996200812238
406,0.16565293900004718,23.46,27.48,1.4157745984416803
407,0.16586599500004695,24.52,27.0,1.4163474683177004
408,0.16595832600004456,26.1,27.34,1.697014494871142
409,0.16606490100004478,25.4,27.46,1.6337169372464566
410,0.16616183300004295,25.4,26.08,1.6773045987078952
411,0.16626341100004538,22.12,26.64,1.8889674809741575
412,0.16638596900004643,24.9,27.7,1.772098113419501
413,0.16651224200004577,23.62,25.46,1.7447593569284767
414,0.16663688600004534,26.34,28.44,1.7702703018804393
415,0.16671188600004783,22.02,27.42,1.8640196705369512
416,0.1668293490000501,25.3,26.3,1.6128750425639722
417,0.1669553440000513,24.5,28.24,1.6455773040350992
418,0.16706303100005115,24.86,28.04,1.5718129414173316
419,0.1671571100000513,30.44,25.46,1.6609831952559364
420,0.16723780000005206,7.38,42.5,1.7181111229421542
421,0.16732134200005078,9.6,42.02,1.5226956699125183
422,0.16742322400004994,23.12,26.32,1.6022963552906475
423,0.16749085800005048,28.72,25.22,1.6187389398585992
424,0.1675960910000498,26.0,26.28,1.6280273812248764
425,0.16769496400005224,22.22,27.7,1.5359422225223738
426,0.16778960800005294,26.1,25.88,1.7868258636768453
427,0.16789508500005113,28.48,26.74,1.8672049615410657
428,0.16797363000005205,18.26,30.18,1.6412223094624259
429,0.16808213800005234,28.04,25.86,1.6044807392449194
430,0.1681642710000517,25.52,27.44,1.5789937734276847
431,0.16825000200005036,29.48,25.98,1.5200609337293365
432,0.16834616700005256,22.0,26.54,1.4761455880903085
433,0.16842307500005305,23.72,26.12,1.5013807767104352
434,0.16849966200005184,26.96,26.84,1.5043923399372978
435,0.16862450300004994,19.66,27.62,1.7830439325512764
436,0.16872287100004968,24.58,26.8,1.5642976184494621
437,0.16881722600005133,23.1,26.78,1.255339118982998
438,0.16898691300005098,24.24,26.92,1.242886397922841
439,0.16908919600005134,26.7,25.5,1.4569808475054962
440,0.1692255500000499,21.88,27.68,1.6269483749594187
441,0.16933214800005203,25.14,25.92,1.6485927579065809
442,0.16946185300005467,21.72,27.34,1.7376975078397436
443,0.16954489900005498,30.06,25.94,1.681130245446269
444,0.16964854600005452,27.26,26.62,1.6760138370844828
445,0.16972514800005456,27.48,25.38,1.4721407647588136
446,0.16980733400005477,23.0,26.92,1.432906224267493
447,0.16991911600005594,24.9,26.08,1.3732751930400902
448,0.16999557900005513,16.9,30.72,1.3626698259941525
449,0.17012074500005525,23.6,26.62,1.0659510927737534
450,0.17024441600005602,27.84,28.06,0.7980961262281445
451,0.17035197500005594,22.62,26.76,0.7982856374387302
452,0.1704662720000556,17.08,28.9,0.7009464405179037
453,0.1705829850000562,26.54,26.82,0.6852862925063802
454,0.17066269800005784,21.08,27.5,0.716561982396694
455,0.1707684050000573,28.06,25.66,0.9131712177374046
456,0.17084082000005907,22.46,28.08,1.171178428143284
457,0.17092615000006006,26.86,26.58,1.2617708895395565
458,0.1710400490000623,19.32,27.38,1.2766766148595976
459,0.17114226300006052,13.8,28.14,1.566189970136596
460,0.17125172800006183,20.7,29.0,1.6053958310034488
461,0.1713607420000649,21.32,27.66,1.8927396811883503
462,0.17143900700006398,21.92,28.48,2.265049899822307
463,0.17151690000006425,23.52,27.16,2.304790550245753
464,0.17161347500006485,26.9,26.28,2.5921486229108472
465,0.17169345200006347,22.82,26.62,2.6296217675079654
466,0.17179303700006443,22.28,29.54,2.629254797098839
467,0.1718983650000645,16.26,29.5,2.60169416814693
468,0.17199019100006652,21.94,27.18,2.612086135293122
469,0.172081667000068,26.12,27.24,2.587974533160537
470,0.17222705100006763,-24.62,74.36,2.641122166601226
471,0.17244957300006902,8.84,42.06,2.387418282197763
472,0.17259020400006975,-83.22,113.5,2.076655395509006
473,0.1727346230000677,8.12,47.92,2.0974820739044
474,0.1728215490000693,3.12,42.68,1.7942142567615378
475,0.17291971200006984,23.04,27.1,1.4995507011117213
476,0.17303180600007195,24.2,26.48,1.3309234225452542
477,0.1731192750000723,18.44,30.24,1.3408440355895863
478,0.17330950600007,21.4,28.12,1.3151350106801136
479,0.1734123390000697,23.34,27.56,1.0813120797876583
480,0.1735375430000694,26.22,26.06,1.0841151738996704
481,0.17363991000006962,18.4,28.76,1.0813353067313027
482,0.17373175500006965,32.16,24.6,1.2583552097988115
483,0.17380966200006753,19.44,26.24,1.4581971362935922
484,0.17391380700006565,25.02,27.9,1.4549318573825953
485,0.1739894100000683,22.1,26.84,1.4497144452771162
486,0.17405772900006866,23.22,27.68,1.3872076789115009
487,0.17412591300006852,18.96,27.52,1.367468437495442
488,0.17419429600006708,26.06,26.08,1.4397692569466891
489,0.174292599000065,30.4,26.8,1.4380736867972097
490,0.17440662300006338,26.26,28.48,1.592977655074754
491,0.17452848600006377,19.92,28.08,1.5666050508941602
492,0.17459966000006588,18.88,27.06,1.354978965506487
493,0.17470665300006516,23.34,26.58,1.121014405737388
494,0.17483483900006647,22.74,27.0,1.0954683525951459
495,0.1749202050000669,22.66,25.92,1.3267238138135133
496,0.17503072200006642,23.32,26.24,1.5741605457697936
497,0.17512402300006613,18.12,27.86,1.5717782982511885
498,0.17520918300006727,21.52,26.66,1.5537094673917473
499,0.17531102000006982,16.86,27.12,1.7934574117840056
500,0.17546370200006933,26.28,25.56,1.793803334016181
501,0.17560955200006845,20.34,26.86,1.7980526238834798
502,0.17573136500006825,16.34,28.14,1.8281488164375659
503,0.17582924300006653,21.56,27.3,2.0551235971741995
504,0.1759954240000674,26.72,25.38,2.119934516763519
505,0.17616613300006634,26.68,26.68,2.142242472858675
506,0.1762775030000654,22.6,26.74,1.9092109826166392
507,0.17640014700006645,24.34,25.98,2.2000253945529296
508,0.17649883600006788,21.48,27.5,2.2000132855659316
509,0.17660642800006698,29.5,26.62,2.212978449227444
510,0.17672674000006694,20.52,27.02,2.212455202167586
511,0.1768074560000663,22.8,26.36,2.398756150273517
512,0.1768926330000653,29.1,26.8,2.4184538266267652
513,0.17698408600006488,22.54,26.66,2.4360280972422865
514,0.17707975400006504,28.52,25.96,2.6107476460130754
515,0.177225798000066,11.66,42.46,2.4559801258831966
516,0.17730158700006626,-0.94,54.2,2.510634771839341
517,0.17739766400006474,20.44,27.2,2.2360168728279737
518,0.1775179010000656,24.94,26.44,2.213764934000801
519,0.17765954200006817,26.44,25.58,2.2007578812716546
520,0.1777814020000683,26.36,26.46,2.2926343881139735
521,0.1779412960000677,28.08,26.46,2.148800811711238
522,0.17808485900006943,9.96,39.96,2.061951288979216
523,0.17817959800007088,11.92,41.44,1.8486906955820523
524,0.17829898400007238,27.44,25.92,1.5909708824798598
525,0.17837535200007082,25.64,26.78,1.7784253642878056
526,0.1784533050000725,29.18,25.6,1.6736996665942456
527,0.17852688100007086,27.16,25.96,1.6661062196600418
528,0.1786066140000706,24.38,26.44,1.6883393308196575
529,0.17868275500007158,27.4,26.76,1.4314908923287484
530,0.1787878260000717,21.02,28.08,1.381838970229071
531,0.17888034500007066,26.28,26.0,1.330380206105597
532,0.17901469700007056,30.04,25.82,1.336785767951949
533,0.17912923200006858,25.78,26.28,1.3684398927458774
534,0.17926902600006756,34.54,24.8,1.4392310719809134
535,0.17935777400006714,21.42,27.16,1.2033146670473196
536,0.17945543500006877,26.66,27.24,1.268233948752505
537,0.17951910200007148,23.9,26.96,1.2681725377209199
538,0.17962611600006895,25.2,26.82,1.2297800500054743
539,0.17970590000006936,24.18,27.04,1.237700040114754
540,0.17982732000006862,22.98,26.54,0.9384480697018318
541,0.17990076600007043,22.3,26.82,1.1848037677704901
542,0.1799911000000698,21.3,27.02,1.4268200499778558
543,0.1800594780000715,28.16,26.54,1.3625504695719883
544,0.18012197400007324,22.62,26.76,1.4285077073725687
545,0.18021814800007263,23.84,26.98,1.3553207569836032
546,0.18035081000007125,21.22,27.18,1.3615646086435689
547,0.18050340700007084,25.9,27.36,1.3003443684207725
548,0.180568675000071,21.86,27.48,1.268952441785352
549,0.18065574300007015,28.64,26.02,1.520411918555063
550,0.18074754300007,22.4,26.66,1.7776723428907388
551,0.18086355500006945,20.8,26.62,1.5576303058016783
552,0.1809356340000683,24.96,26.48,1.3276276218270013
553,0.1810564020000669,19.86,26.9,1.556037033262993
554,0.18113851100006784,24.46,26.08,1.4758282768118995
555,0.18122107400006726,21.92,27.06,1.7294318957708754
556,0.18138010600006993,23.3,27.46,1.74118762721426
557,0.18155594100007022,24.08,25.6,1.8024688298741858
558,0.18165784900006798,24.34,26.88,1.8458169863279799
559,0.1818093210000704,21.34,27.24,1.8673889736954976
560,0.18197917900007,25.96,26.28,1.8673109218192558
561,0.1820746280000698,22.54,25.78,1.8931693029449668
562,0.1821880240000695,21.74,27.6,1.9019884642933456
563,0.18227394000006925,19.26,26.72,1.6690539978512036
564,0.1823956950000678,20.5,27.38,1.9420778181278593
565,0.18251768800006474,25.76,26.88,1.779741382036626
566,0.18261489300006772,23.98,26.34,1.709118765726776
567,0.18271478900006954,26.52,25.9,1.6378385434505425
568,0.1828651850000682,21.76,27.4,1.6669006476951658
569,0.1830351540000663,24.18,28.24,1.7055269081292437
570,0.18315262600006577,3.26,47.86,1.4483542558322604
571,0.1833571720000684,24.58,26.5,1.3600459865180028
572,0.18347979200007103,28.52,26.0,1.4416580618070711
573,0.18358149800006984,26.84,27.14,1.4645863315404135
574,0.1837002520000688,29.6,26.36,1.3935858046555503
575,0.18379209700006882,19.58,27.0,1.3419335631357776
576,0.18386985000006817,27.34,26.24,1.3673472639159485
577,0.1839541470000654,21.78,27.6,1.3927130423774159
578,0.1840465280000636,26.38,27.9,1.3344207335561549
579,0.18414761000006408,23.2,26.72,1.2717985224821766
580,0.18424749200006474,22.5,27.34,1.2859323106138576
581,0.18433569300006525,26.32,27.3,1.2637874008049734
582,0.18443830800006467,22.68,26.92,1.1518857366853552
583,0.1845706570000658,25.62,27.06,1.166162970502303
584,0.18465572500006644,21.88,27.78,0.9150256817317548
585,0.18481782000006675,24.82,26.66,0.8704281182683851
586,0.18493013000006897,23.28,26.8,0.83882343279518
587,0.1850525730000676,19.36,26.66,1.1178431814326928
588,0.18516256100006956,25.3,26.28,1.114780921405302
589,0.1853083920000671,22.38,27.76,0.8528379285323618
590,0.18547587100006524,21.28,27.42,1.0965980563091338
591,0.18559000800006586,25.44,27.6,1.1684906219100009
592,0.1857196910000667,29.74,26.44,1.227505589526276
593,0.18585042100006888,26.28,25.88,1.412476049725251
594,0.18599966300006798,19.86,27.3,1.4173259306278623
595,0.1860905130000674,22.18,26.32,1.4183905658134448
596,0.18619521200006872,26.18,25.98,1.4158242945798327
597,0.18628448900006944,26.42,26.58,1.1827000572364907
598,0.1863615770000706,23.18,27.32,1.1820166843615714
599,0.18644451800006934,24.2,26.66,1.4861628562983584
600,0.18655673800006767,20.72,26.8,1.5245296429417823
601,0.18669192800006584,26.06,26.1,1.465330741249533
602,0.18684652100006716,22.56,26.38,1.4635786979637126
603,0.18693126400006577,17.56,27.36,1.278426021563469
604,0.18702216400006577,19.8,26.42,1.5236931777355172
605,0.18713546000006787,21.36,25.12,1.5787254544005604
606,0.18725481400006672,28.88,26.62,1.8417774373174958
607,0.18735083000006725,23.5,27.5,1.8619803397226313
608,0.18742710300006493,-22.52,64.18,1.9438952518955923
609,0.1875870490000615,13.3,37.96,1.9228233891365072
610,0.1878427500000619,10.1,34.92,1.722283936823682
611,0.18795853900006065,24.96,25.9,1.7550403950335678
612,0.18804632500006235,19.34,26.6,1.9962065941154392
613,0.18815274400006388,-0.28,47.04,2.0309161405164238
614,0.18830483400006415,25.88,26.18,1.845157434151306
615,0.18843469300006177,19.14,29.56,1.8398762308726462
616,0.18851370800005895,29.1,24.66,1.888190497047639
617,0.18858019400006043,20.18,26.3,1.851716739238561
618,0.18866879100005818,13.2,40.96,2.1626246963984834
619,0.18880175900005725,10.9,41.78,1.9912643775426673
620,0.1888939570000545,24.62,26.58,2.15281959082035
621,0.1889969030000529,-10.94,58.66,2.1997226417558458
622,0.18907359800005352,4.7,45.9,1.9714359400412136
623,0.18920204100005478,-6.86,54.54,1.9627274684193439
624,0.18929879500005597,-91.92,126.5,1.9840738928372261
625,0.18943923200005486,-14.28,63.22,2.032581703100763
626,0.1895221430000582,17.28,37.38,1.9845142273203706
627,0.1896152290000579,5.26,43.54,2.000218574759073
628,0.18969826100005704,27.8,25.88,1.9103406262786393
629,0.18979309300005553,0.8,53.3,1.883023437278586
630,0.18991350100005633,10.82,41.82,1.7404711802819868
631,0.1900032940000571,10.94,39.78,1.7088809340416014
632,0.1901253190000567,-51.68,97.84,1.7125468593326922
633,0.19029996000005767,-54.64,99.72,1.7158395042955519
634,0.19041168800005792,-138.0,159.62,1.6945178314916973
635,0.19055008300005838,-16.64,63.94,1.6758829520908827
636,0.1906722900000588,24.7,25.44,1.6758336147539346
637,0.19074512600005988,25.24,26.28,1.682475078927523
638,0.19088404400005743,28.9,25.4,1.4252537494766926
639,0.19106703400005642,20.6,27.54,1.7147469799555402
640,0.1911633450000565,20.78,27.24,1.6334801105072798
641,0.19134902300005763,24.58,27.3,1.5930421515046411
642,0.19149755000005797,16.7,37.28,1.5743547133899483
643,0.19158327100005934,15.6,37.26,1.7529959758762126
644,0.19168460000005894,8.06,43.46,1.6911573821789454
645,0.19179390700005783,28.16,27.74,1.672892122641943
646,0.19188687900005874,17.14,28.8,1.4981860771617448
647,0.19198957400006122,19.68,27.96,1.8380840679878516
648,0.19207254200006219,26.64,26.5,1.8271641051864946
649,0.19219403000005997,27.34,25.58,1.5565937935485692
650,0.19230698700005888,26.44,26.78,1.8017718184201386
651,0.19241812700006022,19.48,27.62,1.8410292103716515
652,0.19258843400006143,27.12,26.1,1.8860348964669185
653,0.19272930200006044,9.4,31.02,1.6274472461926535
654,0.1928273710000603,26.28,25.96,1.9077131358818504
655,0.19297495100006046,19.36,29.86,1.9116638494599427
656,0.1931038300000587,27.14,26.48,2.1655518668777423
657,0.1932057050000573,25.62,26.5,1.8632893223571796
658,0.19334503700005712,17.62,27.62,1.8648373055342862
659,0.19346741500005749,23.2,27.48,2.107947278675959
660,0.19355337500005731,25.8,27.38,1.9356994866815458
661,0.1936354840000547,21.88,26.82,1.8984891832666666
662,0.19375766000005612,26.84,27.0,1.7948160617975422
663,0.19387041900005642,19.16,26.74,1.806962294867547
664,0.19396121800005872,28.56,26.94,1.569413897828672
665,0.19404438500005838,25.62,25.36,1.7932520871202609
666,0.19417650400005826,23.02,27.56,1.5693638464922366
667,0.1943189840000592,25.86,25.98,1.5255104429264257
668,0.19445579100005972,29.06,25.72,1.601459867689826
669,0.19459767200006084,19.96,28.62,1.3413323916792046
670,0.1947280160000595,21.4,27.1,1.2410374728483895
671,0.1948385700000621,23.16,26.76,1.2407444116080697
672,0.19493634700005913,25.82,26.16,1.3481925759468267
673,0.1950184170000604,24.2,25.36,1.420730375354627
674,0.19512082600006053,25.08,27.12,1.3828805509391457
675,0.1952536040000581,17.84,27.78,1.3516461420840558
676,0.1953478580000585,22.58,27.12,1.4966239459956732
677,0.19543334500005827,19.48,27.22,1.5098979164601913
678,0.19550858700005946,23.72,26.5,1.6159414456679635
679,0.19567622100005977,27.52,26.58,1.7903381474576783
680,0.19576969500005958,23.4,26.42,1.9044488401953743
681,0.1958634140000619,26.88,27.28,1.9677101590291464
682,0.195962939000065,21.42,26.98,1.9203723644104946
683,0.19608582500006477,30.3,25.56,1.8655702357668225
684,0.19623636000006783,25.36,26.66,1.890178461738283
685,0.19642109800006935,18.96,26.76,1.646541621922624
686,0.19653733100006932,25.42,26.68,1.7160441815437686
687,0.19667029400007152,20.28,27.02,1.6675730776893984
688,0.1967821760000703,22.02,27.36,1.4408933613399961
689,0.19687591800006743,20.04,26.94,1.1772838425580683
690,0.1969868540000661,23.02,26.14,1.1510472386624886
691,0.19721055500006557,26.46,26.24,1.0952264882373621
692,0.19729597200006666,24.16,27.14,1.2844989468483017
693,0.19737381600006643,24.94,27.08,1.3286854834322486
694,0.19744796700006617,25.56,25.52,1.5476211672360694
695,0.19753370100006507,24.78,25.48,1.6266428386489373
696,0.19760275100006552,22.52,26.68,1.3919429617417058
697,0.19767959100006394,22.0,27.66,1.4322009281562829
698,0.1978009120000621,29.34,26.12,1.4837598306235755
699,0.19796286200006108,20.22,26.44,1.5995590855262507
700,0.19812724800006265,26.96,25.68,1.5851658063509313
701,0.19824182300006044,25.64,26.24,1.5632721165754213
702,0.19836445700006067,21.32,27.08,1.3440896518725325
703,0.1984949450000606,23.42,26.18,1.2762409976573736
704,0.19859562800006358,-2.96,34.36,1.3965224395936189
705,0.1987170760000616,26.48,26.2,1.3511640093191908
706,0.19879669000005862,27.5,25.54,1.3728459010506817
707,0.19888221300005782,27.26,25.96,1.3107244993816167
708,0.19898750200005821,25.56,25.92,1.2892431253914851
709,0.19908715200005744,25.14,26.38,1.2420599952583324
710,0.19920206800005857,23.26,27.6,1.1625848764701403
711,0.19928784400006094,19.64,25.92,1.233917174983779
712,0.19936255400006075,19.14,27.96,1.2152877992274491
713,0.19949477700005858,21.54,27.12,1.2057561651320021
714,0.19957482900005985,15.52,26.5,1.0860055198782603
715,0.1996569080000583,24.58,25.74,1.0803541508033825
716,0.19976201100005753,24.8,25.04,1.0326624616414921
717,0.19984016700005824,24.1,26.04,1.0572001068575527
718,0.19995671400005932,25.9,26.38,1.0504199309654498
719,0.20004342900006122,19.78,27.58,1.3111918073721551
720,0.20014631900005853,22.96,26.74,1.337161432064598
721,0.20023293900005612,27.22,26.36,1.34217865522149
722,0.2003178130000549,26.3,26.02,1.335546198090464
723,0.2004205160000545,25.42,27.58,1.3334302679050762
724,0.20051826400005623,23.6,26.5,1.4150565929079437
725,0.2006084600000584,25.96,26.36,1.4345450685202894
726,0.20072275000005746,23.26,27.94,1.6485657881232534
727,0.20080413400005526,18.74,26.22,1.681334749281352
728,0.20090496500005273,21.08,26.44,1.6619634412409652
729,0.20097866600005432,23.24,26.46,1.3350365121523886
730,0.20110114500005594,20.34,27.44,1.3580651164395263
731,0.2011921030000572,31.86,26.68,1.3384428572232572
732,0.20128691900005435,25.62,26.84,1.3461297343384317
733,0.20139219000005326,21.36,27.0,1.402211703864512
734,0.20145701100005198,22.52,26.94,1.3206660715661207
735,0.20152784200005058,21.4,27.0,1.2585860773926292
736,0.20162378300004846,25.22,27.3,0.9850520448754032
737,0.20171471000004715,24.7,26.28,0.9165394124161089
738,0.2017937730000483,26.9,25.98,1.2267490552135114
739,0.2018764500000465,26.48,26.16,1.2924811465992978
740,0.20196993400004715,25.14,28.44,1.2560123307273874
741,0.20206560800004425,15.42,40.84,1.4463887083971638
742,0.20215853900004532,11.7,40.22,1.4563579357479017
743,0.20224678200004576,11.36,35.66,1.4118651708814542
744,0.20234426600004696,13.5,39.44,1.4100139349495673
745,0.2024170720000491,10.6,38.78,1.5281659746440137
746,0.20253562000004877,18.36,26.64,1.551623896262306
747,0.20262990100004785,22.46,26.38,1.8893652023313248
748,0.2027144310000466,20.32,30.3,1.6334977101111723
749,0.20279914400004628,27.98,26.14,1.633856752634132
750,0.20290598100004686,26.62,26.38,1.6937189843746971
751,0.20298666900004392,17.82,27.94,1.4944732633561124
752,0.20309397200004398,28.14,25.94,1.5436543307611046
753,0.20316741900004587,23.56,27.26,1.5880993336223086
754,0.20323440500004608,18.24,28.64,1.4024081807899804
755,0.20331382100004447,19.18,27.12,1.5416637637074118
756,0.20340193900004522,24.42,27.02,1.5948010174037932
757,0.2035021120000451,23.94,25.48,1.550962970144291
758,0.2036127970000443,23.22,26.88,1.7561381941959717
759,0.2036861020000451,22.52,28.02,1.8193232045343826
760,0.20377392400004268,19.5,26.4,1.8197839859111646
761,0.20384983200004214,1.78,48.18,2.018612762664744
762,0.20393476000004185,26.78,25.86,2.2015681304277734
763,0.20403095100004265,23.76,28.8,2.226489737754771
764,0.2041491650000431,22.78,26.64,2.1765007198394977
765,0.20421983000004218,23.24,26.86,1.933013041223446
766,0.20440113800004056,23.9,26.78,2.10714895694748
767,0.20450018800003988,20.2,27.14,2.106899566008868
768,0.20458285700004097,29.68,24.76,2.1071616967217452
769,0.20466623600004397,17.16,30.74,2.013264000522498
770,0.20474948800004356,24.7,30.3,1.9597936024732099
771,0.20481921300004302,28.32,25.66,1.997827973093034
772,0.20493827800004283,29.66,26.56,1.7733987153296382
773,0.20502561700004307,21.18,26.76,1.7055940446751898
774,0.2051482510000433,20.56,28.1,1.7878159406137784
775,0.20524223200004243,22.8,26.18,2.0382059219289084
776,0.20536342400004415,26.54,26.42,1.9030553640256742
777,0.2054398900000436,6.54,41.78,1.7427343174723149
778,0.20555647100004393,3.2,45.06,1.5857203524059842
779,0.20570160100004387,-49.58,98.62,1.6349210449265315
780,0.20580022500004347,26.16,26.66,1.675424978407095
781,0.20587555100004096,-3.28,48.2,1.3861409795791155
782,0.20600237100003937,28.2,25.76,1.35786481917203
783,0.2060976200000404,23.7,26.76,1.3378153378894952
784,0.20617071700004175,19.2,27.68,1.2350649012148647
785,0.20624113700004187,24.16,27.9,1.016257582143864
786,0.2063466410000423,21.6,26.34,0.8997534440252581
787,0.20647788800004108,25.68,27.4,0.7909607296791119
788,0.2065660880000415,27.26,26.2,0.9484067132498513
789,0.2066504820000432,22.98,26.28,0.9622843486345583
790,0.2067690750000466,25.12,26.4,0.9301595063119636
791,0.20683092600004827,21.5,27.2,0.9482179181364169
792,0.20691222200004944,27.12,25.88,0.9643409576755866
793,0.2069890620000514,28.94,26.02,0.989690524935295
794,0.2070968710000507,24.98,26.28,0.998743214770385
795,0.20720075600005217,16.46,27.02,0.9568284212472022
796,0.20730188700005314,18.78,27.26,1.0821010129962654
797,0.2074130260000544,27.3,26.82,1.1259398859938963
798,0.20749486300005415,26.54,27.12,1.178050944732665
799,0.20756549000005364,27.14,26.66,1.341845505239143
800,0.20767132400005295,16.14,28.02,1.5711891318157314
801,0.20774794300005084,24.48,27.32,1.804097743901525
802,0.2078237060000525,18.46,27.12,1.8654562505196197
803,0.2079109060000519,19.08,27.0,1.886699714272357
804,0.20800853700005106,25.24,28.06,1.9067381957473628
805,0.20811726700005195,21.96,28.8,1.9029074078398942
806,0.20821786000005105,24.12,27.72,2.0754304001113333
807,0.20829125100005186,26.38,26.58,2.271534541944303
808,0.20839740000005236,27.1,26.8,1.9910757780097932
809,0.20847804500005296,22.82,27.36,2.0138777269719634
810,0.20856170500005433,20.44,26.48,1.8176667339722692
811,0.20868632100005158,28.24,25.7,1.6039894014558684
812,0.2088016680000493,28.68,26.6,1.6163593103847602
813,0.2088994540000506,24.04,26.32,1.6648770205231493
814,0.2090085880000494,24.3,26.12,2.0135963890357464
815,0.2091008740000504,32.0,25.56,2.2717174248129863
816,0.20917835900004889,25.78,26.8,1.999774748945503
817,0.20926653300004716,20.52,27.06,1.9996800025950408
818,0.20938206700004613,22.42,26.6,2.241072831219559
819,0.20951733500004366,22.84,26.98,2.0134034760589827
820,0.20963185200004375,25.7,26.8,2.0180487202963304
821,0.2097410550000447,23.24,26.72,2.012019887019297
822,0.2098359840000441,27.7,27.8,1.9395441647140843
823,0.2100238500000451,28.2,25.78,1.8571558177779182
824,0.21012093900004558,21.6,27.16,1.4861860201985535
825,0.2102313390000461,24.92,26.3,1.239660865180623
826,0.21030761000004716,21.52,27.46,1.215395096127034
827,0.21039905900004996,23.94,26.56,0.9759112895662877
828,0.21053714300004955,26.3,27.14,0.9651671712234137
829,0.21061729900004877,21.46,26.58,1.1704429555682683
830,0.21069663700005137,22.26,26.28,1.1891210969721253
831,0.21078900900005237,24.46,27.34,1.4089502816833455
832,0.2108758380000495,24.54,25.82,1.7468807858794175
833,0.21105774200004745,25.92,26.36,1.9807845411096647
834,0.21117030400004566,25.12,26.94,2.0535112463656926
835,0.21127657100004527,26.0,25.66,2.4056686572927064
836,0.21138690300004725,-8.82,60.3,2.4587262829659924
837,0.21155905100004802,-15.82,63.86,2.506765783125265
838,0.21185867500004818,-97.44,126.04,2.5032158334149948
839,0.21207698000004882,-97.9,130.56,2.324115270443214
840,0.21243833800004808,-178.08,188.38,2.306538458639598
841,0.2126315470000506,-152.7,169.08,2.133016853305056
842,0.2127937950000529,-9.92,62.7,1.8401101674019003
843,0.2129336600000542,8.28,42.54,1.6349515634248128
844,0.21303922800005282,-129.12,153.56,1.5897359118865773
845,0.21322599200005143,-13.24,64.22,1.2472650634129052
846,0.2133336780000512,11.1,43.02,1.248443072624768
847,0.2134810360000543,14.74,38.66,1.2437543274519718
848,0.2137652590000556,1.48,53.48,1.119820969062183
849,0.21391366200005635,0.74,52.08,1.0604778211696044
850,0.21404026100005424,21.44,28.74,1.0861455386916858
851,0.2141409970000545,24.2,26.88,1.0387644920478976
852,0.21421658700005253,24.72,25.96,1.2488268603916197
853,0.2142911260000524,18.6,27.48,1.4746973393453444
854,0.21438765000005233,28.78,26.72,1.4843679550155926
855,0.2144746090000531,17.72,27.46,1.495483771173697
856,0.21456236600005596,16.88,28.44,1.452812788199261
857,0.21468489100005428,24.32,27.42,1.400356139631431
858,0.2147871050000525,25.46,25.76,1.5798337464127443
859,0.2148674520000533,23.94,26.38,1.6546454089076739
860,0.21495178300005335,17.5,27.28,1.6040160242881463
861,0.2150723320000516,20.28,30.48,1.6443992355712944
862,0.21517723600005212,20.68,28.62,1.3861856832181743
863,0.21527784600005262,24.86,28.38,1.1335355161569687
864,0.21538684400005081,14.82,30.0,1.1025903114435773
865,0.215516016000052,15.38,29.18,1.0791200549540778
866,0.21562513000005268,23.66,28.14,1.354550712122244
867,0.21571845700005454,19.14,26.58,1.6174543524564644
868,0.21580031500005248,21.7,26.48,1.3884650633874405
869,0.2158900050000554,22.3,26.96,1.6473209342975745
870,0.21598502900005556,22.44,26.36,1.605312074432317
871,0.2160719040000565,28.36,25.72,1.5481176953273834
872,0.21617036500005682,17.12,26.02,1.5360640705117259
873,0.2162928610000563,23.52,26.72,1.5201441764680237
874,0.21640420500005675,25.62,25.54,1.7930640855201019
875,0.21651467000005553,22.36,27.46,2.0422837906532116
876,0.2166281380000541,22.44,27.46,1.8257303138559855
877,0.2167136890000556,23.04,26.84,1.8074167491352284
878,0.216822849000053,28.76,26.78,1.7878830056488701
879,0.21695550000005426,11.7,44.82,1.5569638485594937
880,0.21704880800005455,18.02,26.68,1.6139582160155548
881,0.21715568300005472,16.72,38.92,1.6320040246170229
882,0.21728203400005697,25.96,28.6,1.6478513418251055
883,0.21735914700005665,21.72,28.06,1.6889832646325502
884,0.21744998000005822,25.46,26.56,1.6977544836362064
885,0.21755424600005924,22.54,28.86,1.6976591238191077
886,0.21764923000005965,22.96,25.88,2.0110397656420624
887,0.21773719700005856,22.4,29.62,1.7738537915994486
888,0.21784454100005846,21.64,26.66,1.7149558221248733
889,0.21793246100006058,21.34,27.28,1.8499842954235262
890,0.2180115530000606,24.84,26.96,2.050388661535633
891,0.2180853160000602,18.82,28.14,2.1033488265683467
892,0.21817500400006296,19.68,26.84,2.1422146477491877
893,0.21827120500006103,24.46,26.44,2.1207169192209667
894,0.21834790700005868,24.72,26.86,1.9094930125943983
895,0.2184302510000613,21.12,26.6,1.9721564466871377
896,0.2185178460000614,21.98,28.52,1.6094039882513784
897,0.21860970800006285,22.68,26.3,1.608208345764283
898,0.21870275400006278,25.98,28.22,1.6079999604416166
899,0.21877739700006416,24.28,26.16,1.35183263628188
900,0.21885820500006403,21.68,26.5,1.0903977103709264
901,0.218959968000064,23.22,27.26,0.9948388413323359
902,0.21905343900006358,29.72,25.82,0.9474498000157118
903,0.21914261000006263,29.52,26.6,0.9923823063432762
904,0.21922985900006609,15.7,28.64,0.904918782146933
905,0.2193287050000663,18.56,26.98,0.6808497749142083
906,0.2194493900000687,26.54,25.7,0.6626619543204695
907,0.21952565400006563,21.58,29.06,0.6892507493435863
908,0.2196272610000669,22.32,26.44,0.7462531203221394
909,0.21969624500006546,19.04,26.14,0.7456668629590284
910,0.21978608900006336,25.18,26.26,0.7455879437474069
911,0.2200090040000653,24.0,27.04,0.8705619894382888
912,0.2200957820000653,18.74,27.74,1.1140822826574108
913,0.22022399600006537,19.5,26.9,1.0536895636465489
914,0.22030799500006637,28.34,26.26,1.315532592961641
915,0.22040746600006855,19.64,27.02,1.4765626388653026
916,0.22049610800007002,19.72,27.26,1.7019027626049934
917,0.22061440500007024,27.84,25.24,1.7333182554241198
918,0.22069448700007044,23.12,27.02,1.9290837996911918
919,0.22081530800006988,17.28,27.46,1.9797179223074224
920,0.220923618000068,15.5,27.2,2.0992507175816586
921,0.2210623860000709,23.24,27.38,2.3126308705319163
922,0.22115985300007068,27.64,26.3,2.065441700003986
923,0.22127606900006924,24.0,27.22,2.384063111799852
924,0.2213660940000679,26.78,25.5,2.39695068581245
925,0.22147940200006744,26.44,26.74,2.2440820636260326
926,0.22159629300006856,25.88,27.08,2.265537023189173
927,0.22172429300006868,3.44,37.32,2.2644582921512524
928,0.22183248700006786,19.18,28.92,2.0462412141821495
929,0.22195213500006616,20.74,29.08,2.2520476704472103
930,0.22205395700006747,11.7,30.58,2.189438977081122
931,0.2221635730000706,17.36,29.48,2.1132493457974477
932,0.22224725400007017,20.24,29.26,2.359484865974374
933,0.22236865100007108,21.9,30.92,2.1035138105439777
934,0.2224687660000697,26.12,28.4,1.883785721893497
935,0.2225920780000692,22.24,29.82,1.8766844494036092
936,0.22273993300007078,-20.44,64.14,1.7204955269788187
937,0.222827076000069,21.0,26.6,1.7423481807933983
938,0.2229285780000687,22.14,26.62,2.059373843593181
939,0.22301027200007084,27.58,26.68,2.1475536303339857
940,0.2231236880000722,-0.52,33.3,2.4494510268829295
941,0.22322679100007292,22.6,26.7,2.540994766799463
942,0.2233406050000717,31.08,26.12,2.312800322816142
943,0.2234432960000703,31.6,26.22,2.3360593451236342
944,0.2235686790000706,21.58,27.18,2.334872497713312
945,0.22363434900007206,22.76,26.52,2.2684207119623614
946,0.22375085700007347,26.5,27.16,2.2606046033232703
947,0.22384390700007373,15.0,34.82,2.424124757526049
948,0.22393576500007484,21.26,32.14,2.0925199234401504
949,0.22402327300007485,19.66,26.78,1.7817384257638118
950,0.2241158960000753,25.14,26.48,1.4507957682361847
951,0.2241948450000777,27.22,25.86,1.4017817593352562
952,0.2243005610000779,29.14,25.78,1.43480361791431
953,0.22442559300007758,23.16,26.0,1.392576775275701
954,0.22450511300007747,25.52,26.28,1.4293378310342917
955,0.2245816410000785,23.38,26.22,1.4631041160929832
956,0.2246994560000779,17.78,27.26,1.6075931430520327
957,0.2247977460000783,23.22,27.94,1.4496842542793722
958,0.22489071100007862,22.34,27.0,1.4977628801673937
959,0.22496407900007753,21.52,26.08,1.8386704983033895
960,0.22507705400007794,24.26,26.02,1.828931173885369
961,0.22524543900007643,22.92,26.78,1.5381342848281325
962,0.22537297600007733,22.02,26.12,1.5514667535703686
963,0.22545969800007626,17.16,26.02,1.5105357243052473
964,0.22560870300007352,22.64,25.98,1.4431209926864943
965,0.22569856100007613,24.28,26.36,1.3981598597901856
966,0.2257944680000783,27.1,26.66,1.1687536969429115
967,0.2258807840000756,21.7,26.3,1.113890774157962
968,0.22598089400007737,27.92,25.98,1.060288468820527
969,0.22610042400008012,25.6,26.34,0.7467134504779528
970,0.22621205700007962,28.86,25.3,0.7547793762819287
971,0.2262774060000794,21.0,26.54,0.7570617283358686
972,0.2263601460000828,24.58,27.38,1.000195110864162
973,0.2264453380000795,20.46,26.74,0.9992803379257389
974,0.22654734400007825,24.76,27.02,1.0418694655876741
975,0.2266223490000776,27.36,27.12,1.0253743040443966
976,0.22674577800007611,24.44,26.1,1.02760538033352
977,0.2268328090000793,19.64,27.1,0.9847314339260347
978,0.22691538300007963,23.16,26.4,1.0649786639345973
979,0.2270352560000788,25.16,24.98,0.9951315610879267
980,0.2271350000000787,26.72,27.12,1.2386613580950023
981,0.22724241800008116,23.94,26.46,1.251750238910876
982,0.22736821100008342,18.62,27.64,0.9952764142256004
983,0.2274696960000817,28.62,25.46,1.2498165024911043
984,0.22757970000008143,20.82,26.28,1.2142059748783491
985,0.22765512100007967,19.08,27.18,1.2880463817867889
986,0.22778498800007796,20.48,27.88,1.3096630905278956
987,0.22787984700007868,20.44,26.92,1.323194718316509
988,0.22795694700008085,19.8,27.6,1.521735340062746
989,0.22803682200008168,21.0,26.72,1.6525576225110945
990,0.22811245600008334,26.88,26.48,1.7013720499956648
991,0.22818652100008308,19.72,26.48,1.9669449810738016
992,0.22827523100008307,24.4,26.9,1.9046142949370932
993,0.2283691860000836,27.28,26.66,1.6569361457636966
994,0.22844528500008465,20.3,28.24,1.6419548574665144
995,0.22851636400008601,31.82,26.5,1.8235087123367564
996,0.228604387000086,25.36,26.26,2.0489185054329795
997,0.22867455100008627,23.58,27.86,2.0785607082993645
998,0.22876474400008817,25.74,26.5,2.038226750935432
999,0.2288996680000892,21.8,27.18,2.004735145156394
1000,0.22898895900008753,20.54,26.96,1.7550810930660865
