iter,time,reward,steps,convergence
1,0.0010040900000021225,-386.68,200.0,93.6
2,0.0019168959999973367,-229.9,200.0,86.39919
3,0.002879425999999796,-399.02,200.0,78.09105895145754
4,0.0038128930000027594,-514.86,200.0,72.165436664159
5,0.004340132999999469,-233.08,200.0,66.76543666415901
6,0.005083591000001775,-206.88,200.0,57.63716778188759
7,0.00597849300000064,-204.08,200.0,52.092192672036596
8,0.006821490000000097,-204.68,200.0,43.65506370914676
9,0.007662924999998211,-211.78,200.0,34.60041965707628
10,0.00854027699999449,-211.06,200.0,32.71041965707629
11,0.009387356999994267,-207.16,194.52,33.00281561879489
12,0.010230388999993068,-214.08,194.16,30.987522568705877
13,0.011168063999996036,-212.94,198.76,33.940716255107375
14,0.012406277999993165,-438.08,200.0,30.7170059783604
15,0.013259974999989765,-207.7,193.7,27.11215264019082
16,0.014591394999989404,-203.02,200.0,32.02287041279344
17,0.01546395599999073,-262.26,198.78,33.18212043641845
18,0.01635770599998665,-457.6,185.94,36.22105978937884
19,0.016730625999983317,-214.28,200.0,43.95255894783029
20,0.01713746799998006,-207.8,200.0,38.62224201713493
21,0.01798314599998463,-218.94,200.0,40.061923535172646
22,0.018876530999989427,-209.4,200.0,42.04034873178568
23,0.019775687999988634,-225.46,200.0,38.34286591698701
24,0.020625167999988037,-201.1,200.0,38.44704458488542
25,0.021212547999986953,-201.06,200.0,38.41314647521102
26,0.022051118999982577,-187.76,181.48,33.584312438770795
27,0.022503580999980954,-107.72,119.74,35.74735557533179
28,0.022808232999985023,-68.12,90.66,36.28902532112792
29,0.022894105999981207,-384.76,158.5,35.641170214746964
30,0.02412312399998484,-2.6,53.68,42.24189786736941
31,0.024317994999989878,-169.34,167.02,45.00982038761309
32,0.02447382699999423,-70.7,78.18,48.77794833354902
33,0.024629704999995283,16.92,32.42,55.685398784926065
34,0.02474414199999586,-1.56,45.8,63.212814060778484
35,0.024836897999996665,3.02,45.1,70.34070014756914
36,0.024993832999996357,-9.6,56.74,74.57021667689963
37,0.025291213999992124,-187.54,174.58,75.09806809904735
38,0.025442876999996145,-3.76,50.82,76.30482319178326
39,0.02597752999999159,6.78,47.72,71.33135295832153
40,0.026080329999992102,2.06,51.16,66.7738612158248
41,0.02619049799999118,26.08,26.6,64.49299433979425
42,0.026267104999988078,-37.28,70.08,65.67807654448733
43,0.026366276999986837,-0.56,38.04,66.85699595126096
44,0.026453918999990833,18.44,31.88,66.18843124485339
45,0.026543700999987152,-21.58,69.94,65.06179733080286
46,0.026838696999988088,-236.76,177.92,67.6700502631661
47,0.027056990999987818,-53.66,88.54,66.42047495854345
48,0.02722441899998529,16.02,28.24,63.22304601727213
49,0.027289707999990753,25.2,26.56,67.16755949409608
50,0.027423098999989293,-166.96,132.84,68.58228748713694
51,0.027833112999985588,-21.8,71.68,68.1360386058719
52,0.028047795999988523,8.86,38.3,66.34447351514623
53,0.028157826999986924,-27.56,79.26,64.70509837779852
54,0.02908888699998613,-152.4,167.44,62.130393975662535
55,0.029493942999984313,-22.74,70.64,60.437552492805686
56,0.02959535199997987,-190.06,191.76,58.20309529816122
57,0.029881013999982997,3.64,51.72,53.417358177021626
58,0.030023933999977714,3.46,42.04,53.27890796830756
59,0.030123971999977073,9.36,39.62,48.069670135684134
60,0.030287056999974027,-84.52,124.86,46.88595924451758
61,0.030834365999972135,-106.08,134.38,44.406743697983835
62,0.03135945499997206,-73.96,116.98,41.54762122102713
63,0.03157602999997522,-20.76,65.9,37.50309412676387
64,0.031859753999974316,-180.34,175.94,35.13542604459234
65,0.03203701599997544,-156.94,171.14,37.312449679409156
66,0.032363240999970344,-158.94,169.98,35.35131941621444
67,0.03325278299997336,6.14,37.08,35.161186146210625
68,0.03346117399997439,-65.34,106.22,38.372063186348505
69,0.03367744799997752,-173.7,184.48,38.09769292841945
70,0.03406741299998117,-19.46,73.56,34.6446621003992
71,0.034243662999983826,-22.32,71.8,39.74308340422853
72,0.03438344999998577,11.44,36.42,39.45479810130752
73,0.034451568999983806,2.28,49.34,39.92165612158013
74,0.03459017899998429,-33.38,81.34,40.3892666853929
75,0.03498021499998316,-4.22,56.76,38.2318570499359
76,0.03515728099998228,-30.18,73.24,37.619429273932134
77,0.035821668999979295,-145.18,154.98,36.87528872554226
78,0.036678954999977975,-218.72,200.0,36.12399625753901
79,0.03745021399998194,-243.22,195.9,38.31907433859445
80,0.03807118099998519,-40.22,58.3,39.5605304114849
81,0.03814972599998612,19.44,29.98,33.52286853061732
82,0.03822763099998383,18.52,28.72,33.5770096686996
83,0.038358408999982885,14.68,35.68,32.56384570459901
84,0.03863914299998328,-189.42,192.46,31.238035650711744
85,0.039069447999978024,-61.3,103.46,29.32391272307414
86,0.03974598799997864,-30.3,69.18,30.314553086899945
87,0.039905853999975704,7.68,42.58,33.11272422086223
88,0.040007829999979094,17.84,29.88,32.988630523439745
89,0.0400884489999811,-7.02,55.42,34.403328815017055
90,0.04018257099998124,-202.36,200.0,36.24943194210959
91,0.04056681399998752,-198.9,196.62,37.1072570983338
92,0.0410599619999914,-12.74,58.42,37.47258518954864
93,0.041207811999996125,-10.12,60.26,36.8497036269828
94,0.04198988999999642,1.8,48.24,38.33420177084496
95,0.04217054899999795,-179.48,186.8,38.56364365085297
96,0.04275147199999907,-8.56,58.7,37.16115606232041
97,0.042874421000000495,21.72,28.68,35.95018113131818
98,0.04299163799999661,-13.66,68.98,33.45271538283235
99,0.04306299599999619,-5.22,40.86,31.639124307830013
100,0.04319418699999744,12.84,40.3,30.49966198537989
101,0.04331241299999533,9.44,46.02,29.755721851574684
102,0.043479150999992555,-205.44,198.68,29.89626399862474
103,0.044357846999993455,-329.82,189.28,32.074636330345136
104,0.04523844399999888,-211.0,199.56,32.656011540324435
105,0.04608455399999656,-187.78,191.82,33.78671878085178
106,0.04695658399999303,-199.9,200.0,38.864817355139216
107,0.048080125999995005,-202.54,198.98,40.976212435831584
108,0.04916022599999792,-221.26,177.08,42.629706052473594
109,0.049305032999996,-78.86,95.0,43.847794171188994
110,0.049448447999992595,-5.02,37.9,44.6950587689818
111,0.049598771999988855,-17.42,44.98,45.303568227256065
112,0.049710860999987005,23.26,30.24,46.526481636270546
113,0.04981943299998903,-9.86,46.18,45.641704899731394
114,0.04992885199999364,-5.52,43.44,43.64181958460728
115,0.05006116999999222,-1.6,40.42,43.807431964771546
116,0.05020661499999335,-54.04,72.82,41.47677483261491
117,0.050303585999991185,18.28,32.58,40.76771172805395
118,0.050392605999988405,22.64,27.14,39.77713575484594
119,0.05049778199999366,-5.82,59.7,37.79636588812563
120,0.05065846799999463,-5.76,55.84,35.182507789947444
121,0.050767951999993954,24.06,27.12,32.68820052834907
122,0.050845801999997775,22.04,26.86,32.14801791362043
123,0.05113691500000073,-63.0,106.06,34.33006522430527
124,0.05129085099999742,-2.94,51.74,35.13989198818898
125,0.0514153900000025,-3.24,55.16,31.537433549745856
126,0.051515852000001416,3.4,45.18,28.035013500930567
127,0.05166457800000046,9.78,33.8,26.334230105638675
128,0.051800685000003455,11.86,39.98,27.6377894602406
129,0.0519019130000018,-150.9,155.5,28.434149940453
130,0.05209343799999999,-62.5,107.98,32.51708169079405
131,0.052320985999998015,-163.88,164.56,35.80870984123309
132,0.05252239900000433,-132.2,148.94,34.676972219386855
133,0.05276346600000892,-18.44,62.18,35.900080621217434
134,0.05287513200001115,0.94,49.88,38.447901094692526
135,0.05295953600001013,22.34,29.6,40.00051180100739
136,0.053065391000011175,-8.82,56.22,39.89673973643234
137,0.053225890000007325,13.8,33.26,41.42930008009576
138,0.0533900650000092,-26.32,76.62,41.60861008809834
139,0.05361107900001372,-62.2,111.0,41.84884665448203
140,0.05389121500001437,-79.72,119.9,38.83598773220304
141,0.054053959000015084,-96.7,128.76,39.3351397171943
142,0.054399410000016246,16.14,32.08,39.294196323863915
143,0.05451595200001691,17.4,31.36,34.98099839677853
144,0.05463558200001728,-210.96,188.22,31.458663372287628
145,0.05511499900001837,-176.02,156.1,32.05950363298706
146,0.055249953000014784,-87.22,113.5,34.64636351108962
147,0.055519484000015495,-54.3,84.88,34.89287776543467
148,0.05583038400001783,-46.14,92.42,30.98511686084903
149,0.056039864000020145,-1.26,48.28,31.321113429332776
150,0.05622695900002128,12.58,34.88,29.914907130656353
151,0.05634261000002283,8.4,42.6,26.158970064121537
152,0.05645262900002024,-25.18,74.98,28.38588851345845
153,0.05695727200001954,-37.02,83.54,27.41200368282042
154,0.05786350800002538,-106.44,135.72,31.44668005717084
155,0.05809856900003041,4.52,48.12,29.862756533230908
156,0.05830806300003388,-56.2,101.54,27.20493044749498
157,0.05855410100003411,-135.7,131.66,25.641459564260412
158,0.058834930000031704,-82.78,119.46,27.496957815518062
159,0.059040496000037024,-179.0,178.36,25.065903364903168
160,0.059595354000038014,-21.86,55.62,26.37847789662888
161,0.05984425000004023,-53.44,91.58,28.183744247224205
162,0.0599570190000378,-98.34,133.16,25.716461231619075
163,0.06025899800003742,-439.26,79.52,31.647814487115646
164,0.06043891300003423,5.12,46.18,28.675962389371488
165,0.060549665000031894,-189.02,192.62,29.54441548818331
166,0.061419831000030456,-202.9,193.02,30.966518464461558
167,0.061744140000030256,-141.82,158.34,30.745762832710774
168,0.062074220000027935,-209.02,197.94,32.23793745937569
169,0.0622782450000301,-46.46,74.88,34.983692295892205
170,0.06260121100002891,-19.9,66.44,35.474740764045364
171,0.06278274800003203,25.06,26.92,33.74321849144511
172,0.06284851700003458,-70.32,108.4,34.1066798354904
173,0.06310988800003514,-66.82,112.76,28.604955744190665
174,0.063590271000038,-36.62,83.02,27.482846634914218
175,0.06405020800004024,27.32,28.86,26.312054831289828
176,0.06411040500003651,4.62,48.16,25.612606783088165
177,0.06427820600003997,2.04,43.94,26.634411001199688
178,0.06441904800004039,-11.28,51.66,24.79677372305726
179,0.06451466400003625,-156.14,61.46,23.10987598508664
180,0.0646106380000333,1.38,44.94,22.193426946081615
181,0.06475840500003471,-14.88,60.2,24.69193058872378
182,0.06483724300003502,-8.64,59.58,23.09036434005063
183,0.06495569600003392,-137.38,157.3,22.981718605671432
184,0.06595564700003109,-10.74,61.78,22.905116577461374
185,0.0660600810000318,-12.62,64.36,23.523163165092846
186,0.06624636000002937,19.7,30.44,22.68086103111672
187,0.06637818600002987,-41.12,83.82,22.149285565320636
188,0.06657905300003364,-17.56,54.44,21.333873787296803
189,0.0666987900000322,16.6,34.66,20.271281294427077
190,0.06693021800003152,4.9,45.86,20.78504922659782
191,0.06701708000002782,-159.48,173.66,20.00332910890684
192,0.06821557000002798,-12.54,62.36,23.9472942946614
193,0.06833656400003463,-203.28,199.56,24.958798319958237
194,0.06920012800003406,-177.76,185.38,25.524687403630683
195,0.06945231700003518,-225.12,167.72,25.155272450320734
196,0.06978556900003952,-125.92,140.7,25.85708413992227
197,0.07000606400003306,-333.48,170.24,23.588123139353037
198,0.07038092900003079,-8.82,56.96,24.32990235279008
199,0.07049537800003236,20.52,28.54,24.328109505704354
200,0.07059613600003445,-18.56,70.16,24.31998146381789
201,0.0706944480000331,7.7,42.76,25.664769909945203
202,0.07080600400003334,-17.34,64.04,22.714671465577805
203,0.07101701200002708,-95.26,126.22,22.761186001883647
204,0.07135411100002642,10.98,41.84,23.90224270644008
205,0.07147732100002457,-82.54,118.56,27.215073647421868
206,0.07165258100003058,-94.7,118.7,27.840476985398873
207,0.07188707300002761,-160.8,172.06,30.048853179623723
208,0.07215834700002688,4.46,43.32,29.800001473212138
209,0.0722473270000279,-6.68,44.56,29.83742625564553
210,0.07236660400003103,-191.64,195.08,29.960465295922614
211,0.07279330600002965,-66.04,105.98,27.17347301494567
212,0.07293502900002835,-13.4,62.02,26.12271743073625
213,0.07302034800002843,0.52,46.26,28.06758767900559
214,0.0731572190000307,-9.12,57.34,27.435823354585494
215,0.07328531300002794,23.08,28.98,25.16038659863814
216,0.07338629100002692,-0.72,50.5,25.321960140314193
217,0.0734848550000251,-0.12,43.7,23.479982096344695
218,0.07357055000002788,-44.58,90.46,24.23756446054876
219,0.07367976300002255,3.52,43.98,27.78806751143177
220,0.07376644700002544,22.68,28.04,28.746186060558216
221,0.07390078500002772,-61.12,100.18,31.284692997458848
222,0.07421322200003289,-246.92,185.66,33.18083490354241
223,0.07507825800003332,-83.68,128.38,31.18293390592681
224,0.07527296300003883,-15.36,59.42,30.289122406881525
225,0.07540326800003783,-13.98,43.82,30.542091052440803
226,0.0755245140000369,-215.26,194.28,31.510808854845425
227,0.07602180100003153,-171.7,178.22,33.26006545320605
228,0.07629279100002861,-109.6,132.72,32.55334947693767
229,0.07662572200003126,-86.36,124.16,29.707867971548666
230,0.07679845400002705,4.4,46.58,27.366763256328102
231,0.07695431200002645,-147.88,66.0,25.862378866078792
232,0.07705351900002455,-1.54,48.24,25.738191908964517
233,0.07718329100002563,13.9,34.64,26.037782763969282
234,0.07739540600002925,-199.0,200.0,27.750503104441655
235,0.07839678700003105,-188.6,191.98,29.958563149246828
236,0.07900805100003083,-171.82,169.92,28.445882630491816
237,0.07984709200002982,-190.36,194.44,29.214027719008687
238,0.07999833200003081,-143.92,165.2,29.68643537996934
239,0.08036216100003202,25.92,28.6,30.298431469101054
240,0.08050093900003219,4.0,43.26,31.08227124026363
241,0.0806028330000359,-586.46,71.8,32.97695142897611
242,0.08072166400003766,-257.32,119.08,33.89218438814067
243,0.08097838800003387,-183.16,164.9,32.98605254532521
244,0.08125703100003534,-25.64,77.62,33.31166324904952
245,0.08142819400003987,-28.32,78.98,29.992576285075398
246,0.08160580400004136,1.66,47.72,29.05611876399675
247,0.08170406400003571,-13.68,63.02,27.389568213166363
248,0.08178663000003894,-25.62,73.4,28.272615162885792
249,0.08194126400003654,-134.8,162.46,28.129883066502277
250,0.08210096600004135,-63.72,106.92,31.400201825718682
251,0.08221186700004068,-163.28,174.04,30.538567347652112
252,0.08238372600003885,-63.92,104.6,29.673517581320606
253,0.08257565800003874,20.54,29.6,30.856647728947706
254,0.08265293300004117,-156.84,151.64,28.334959199987612
255,0.08301045500004278,2.82,47.9,27.686539183656283
256,0.08313405700004495,21.54,32.94,27.650215215270016
257,0.08323575000004269,12.78,37.18,26.718650804056285
258,0.08335515600003873,-14.84,66.28,24.596460433142184
259,0.08362981800004121,-231.72,176.84,25.16201885189664
260,0.08448378600004247,-199.94,200.0,22.34247723846084
261,0.08538953700004726,-210.2,200.0,20.16399553530763
262,0.08576815000004245,-206.68,199.04,20.888105141300638
263,0.08644486300003962,-225.28,196.7,20.295294387950133
264,0.08674103800004218,-102.32,105.32,27.558791401768154
265,0.08685782600004188,1.16,47.92,28.829495400941646
266,0.0870769430000422,-215.82,200.0,30.263889398579362
267,0.08794149600004175,-346.32,199.34,32.97846239726634
268,0.08886580200004346,-275.34,198.06,32.681371557036464
269,0.08970879300004952,-201.74,200.0,34.538985628660456
270,0.0905998150000471,-209.4,200.0,39.71859104270493
271,0.09122957000004561,-209.18,196.66,42.27275564339828
272,0.09243225700004132,-108.04,138.84,42.491710448780125
273,0.09275580400004202,-40.4,89.52,42.74895285263026
274,0.09288289700003816,-13.16,66.42,37.88100393432163
275,0.09301763000004115,23.42,26.86,46.22194823322283
276,0.09312034000004132,1.92,35.02,46.29824737172807
277,0.09322514700004092,24.32,26.4,45.327053876266305
278,0.0933519840000443,-12.42,57.64,45.62101896812676
279,0.09392532800004005,-181.6,144.12,46.18255375792812
280,0.09416789400003722,-227.44,189.38,41.135706281747304
281,0.09447388900003517,-91.76,86.58,39.954199376688834
282,0.0947078910000343,-115.46,136.02,38.03344252583908
283,0.09529951600003272,-42.66,85.6,39.27521913845787
284,0.09548968300003224,-26.92,78.32,38.91166640855872
285,0.09564383000003573,-9.94,64.68,31.02421184949059
286,0.09579583300003236,1.24,50.86,32.23666500438742
287,0.0959321310000334,-15.04,63.56,32.02310293699806
288,0.09611402100003374,14.26,34.66,32.03165115152401
289,0.09618538800003051,-2.78,46.68,30.25255930105924
290,0.0962849770000318,-13.66,59.16,30.318246469722006
291,0.0964122860000316,-7.56,57.74,31.696009511934996
292,0.09663325400003231,-23.44,74.5,32.49911404782791
293,0.0967946690000332,-24.84,66.44,32.09499063709168
294,0.0968939130000308,-167.14,178.18,30.644467793888573
295,0.09727986500003283,-107.22,135.78,31.782240797636547
296,0.09738803100003679,6.9,43.74,34.528315533864564
297,0.09761831600003745,-8.76,59.4,34.53586370024879
298,0.09771214000003425,22.94,27.42,34.70457298690256
299,0.09779378900003621,25.82,27.5,31.456979277106353
300,0.09791918900003793,18.68,27.48,29.440334811387736
301,0.09805098400003942,10.38,42.88,27.25143456466994
302,0.09818959200003974,19.46,30.9,27.182924464911878
303,0.09828134700003943,-73.26,112.8,27.547255048516966
304,0.09881608100003803,-18.2,68.84,29.8597135626313
305,0.0989748300000386,-59.66,105.78,28.679869386409546
306,0.09949399600003517,-195.28,193.9,24.442092969756114
307,0.1002036330000351,-193.18,188.94,24.770035690523468
308,0.10058272100003052,-163.92,164.2,26.180119631996156
309,0.10085729200002902,-209.28,198.78,29.89646069660096
310,0.10162238300002713,-190.72,192.0,31.990080244241057
311,0.10211097200002683,-73.12,112.36,32.98911818501922
312,0.10235296300002261,-35.68,85.76,33.07088260595249
313,0.10288947000002224,16.14,30.84,30.236440288356782
314,0.10332704700002182,-10.64,56.24,27.66709403136569
315,0.10340905700002168,-61.54,69.48,27.045169294897484
316,0.10350749500002365,-545.14,111.86,28.021985396839078
317,0.10370230000002323,-103.1,132.92,29.424238244002236
318,0.1043477650000213,-153.9,166.34,30.191488294661394
319,0.10453350100002012,-0.32,49.48,29.49681225486633
320,0.10471779300002027,-1.62,50.42,30.593281614691715
321,0.10485085600002009,-37.14,86.78,30.842482676888245
322,0.10538441100001705,9.52,40.76,29.519654205247253
323,0.10576653700001515,-65.62,110.22,30.86253087887249
324,0.10627348400002035,-141.76,144.08,32.368799212014096
325,0.10684468000001601,-88.38,121.66,32.45419423599748
326,0.10739188300001246,-207.82,200.0,31.387324163665465
327,0.10860454900001315,-60.76,102.62,28.919182121280784
328,0.10931382900001552,-87.06,109.66,27.957052484494454
329,0.1094835220000192,-30.7,80.74,26.502922609331698
330,0.10974682900001653,-162.76,172.72,25.070834835239626
331,0.11059246300001746,-63.04,96.74,26.665108516342002
332,0.11089661100001535,-34.76,75.12,28.13938008250966
333,0.11131856200001522,-137.92,150.3,27.60676828331388
334,0.11149942300001925,6.58,35.54,27.15004255238956
335,0.11161308300001593,-9.12,57.6,26.871053870087763
336,0.11174932200001564,-35.5,87.6,27.37748894093719
337,0.11199418100002134,1.46,49.0,26.958104499145218
338,0.11210937300002399,-141.9,99.16,27.054398731721477
339,0.11234325500002029,-65.52,97.96,27.666698437333842
340,0.11248692600002386,-20.02,69.48,28.07430683656395
341,0.11269650100002337,12.18,40.1,25.452588525929638
342,0.11284506000001926,17.96,30.8,24.43421260925465
343,0.11294701500001736,24.42,28.62,23.441106328262773
344,0.11304240300001567,17.8,29.3,22.73296725007768
345,0.11314815100001852,-104.04,130.04,23.252205538013676
346,0.11399972200001685,-136.8,138.66,23.6558470664983
347,0.1142493690000208,-2.96,46.5,24.522731540900978
348,0.11447035100002267,-40.58,91.66,30.62713547551318
349,0.11484211800002697,-46.38,81.12,29.67986262959338
350,0.11499554700002079,-173.24,178.7,29.446407249612946
351,0.11539771700002177,-20.26,69.24,30.291122044311056
352,0.11561660600002455,-8.18,56.08,32.83945835197149
353,0.11573196700002342,-62.48,95.46,34.45520758878985
354,0.11587637400002393,21.42,29.7,34.228722201245695
355,0.11611727000002503,8.74,45.82,33.054304351401456
356,0.11733552700003003,-15.18,67.32,34.9415921508385
357,0.11749109700003402,-1.06,53.26,36.1303700085015
358,0.11776652700003609,-21.92,69.92,29.99889295382319
359,0.11797921200003714,-162.38,144.66,30.372255301898996
360,0.11814466500003817,-55.4,99.72,29.70111913878471
361,0.11863993100003967,-150.14,160.54,29.579314181321752
362,0.11931900600003331,-152.86,166.1,27.04997508212252
363,0.11963545800003317,-165.8,175.1,27.732168720669723
364,0.1197778000000369,-28.4,72.98,29.400478570771174
365,0.1199735510000366,-57.58,81.06,30.838951300427084
366,0.1202340540000364,-36.04,87.76,30.145372891151727
367,0.12051548500004117,-145.84,153.86,31.53946792676131
368,0.12074994700004282,-72.36,117.52,31.321005003533372
369,0.12092958400003795,-145.14,165.62,33.16389929044059
370,0.1210532010000378,-110.32,138.28,34.55527695640792
371,0.12116744300004001,-40.48,70.64,37.07333288356719
372,0.12130490700004515,-63.88,78.64,37.31344324761396
373,0.12142302000005145,-22.2,64.12,35.71932459745917
374,0.12157821000005242,18.48,32.38,35.473820799201086
375,0.12177011600005017,-15.46,59.2,35.7204635619628
376,0.1219568590000506,-171.1,181.92,37.136778031144935
377,0.12220695700004569,-147.94,158.26,36.93288898740153
378,0.12240164200004955,-30.5,77.16,36.31737088215818
379,0.12259340800004992,-9.0,54.08,34.704517484091625
380,0.12275179900004929,-211.92,94.66,33.23608411950403
381,0.12287774400004992,5.64,45.34,29.594824418635817
382,0.12312786200004666,-76.82,95.36,29.146141377778594
383,0.12336963500004572,-37.88,87.42,30.322150838945475
384,0.12369319600004758,-175.62,184.66,29.73898248266345
385,0.12385317900005077,-45.88,77.68,30.758560613088356
386,0.1239654510000534,-6.2,56.08,25.759370853230315
387,0.12416707000005545,-198.16,199.48,26.62562730599757
388,0.12503458500005138,-59.54,79.6,29.182584565596734
389,0.12522682600005197,-0.16,47.88,29.585164233507736
390,0.12535162300004998,-6.72,57.04,30.139595072548037
391,0.12545707400004602,-16.7,70.1,33.40024602087292
392,0.12629670700005136,-200.74,200.0,34.643319430044684
393,0.1271834650000514,-214.08,187.4,34.25312762489309
394,0.12736038100005231,-152.6,160.78,34.46648383678521
395,0.12761317300005715,-67.8,108.62,33.380752341592064
396,0.1277414230000602,-28.22,74.34,35.025396736940806
397,0.12787456700005606,-33.08,78.08,32.29769617731763
398,0.12840468200005262,-153.26,166.24,29.45117694603806
399,0.1286157920000548,21.42,32.56,28.66042231713801
400,0.1287202660000517,-16.66,64.82,27.531945958582618
401,0.12880058700005037,-99.86,122.26,25.65892351002655
402,0.12891544700005397,-19.28,65.58,24.407528405463886
403,0.12954714400004974,-77.48,111.7,23.52285128833807
404,0.1297285080000563,-16.56,65.14,23.321473240812843
405,0.1298269980000626,3.0,42.56,22.683811270430947
406,0.12991722800006045,-23.7,61.34,22.023601289533026
407,0.13002095500005595,21.7,31.38,20.780866469596447
408,0.13100840200005592,-264.54,200.0,21.226426432154575
409,0.13184931600005712,-45.78,82.26,22.096843614214578
410,0.13199305900005953,-179.52,186.5,22.952781144571034
411,0.13235859300005615,-153.96,170.02,20.905528969714055
412,0.13260847700005485,-103.88,135.18,22.668155587345694
413,0.13283954100005957,-199.0,200.0,24.359705988890845
414,0.13302463900005534,-195.52,193.42,23.388859761872823
415,0.1335144750000552,-69.98,107.66,23.36932247643077
416,0.13364586900005548,-19.18,71.06,23.21560443039075
417,0.13380158000005338,-67.24,109.1,24.090483399471374
418,0.1339682200000567,-34.58,84.76,23.176566688017477
419,0.13412577200006126,-18.16,69.42,25.48528438690878
420,0.13446843800006292,-30.14,76.52,24.357146081198184
421,0.13468936000005982,-39.18,77.7,26.138418159317137
422,0.13491119100006443,-60.04,104.24,23.928731254906108
423,0.13509190100005952,-164.26,168.84,23.50615308413096
424,0.13595595500005686,-60.36,93.58,24.089599031073256
425,0.13608937200005755,20.84,34.16,23.305005762081535
426,0.1361899150000596,-5.9,55.42,24.152027488865375
427,0.13637632800005406,-166.54,181.06,28.16377485498265
428,0.13657560200005747,-63.78,107.84,29.127664172016587
429,0.1374474810000592,-156.38,161.76,28.71936499097577
430,0.13801472900005507,-96.64,127.92,29.671098479006
431,0.13817815700004843,-91.52,130.54,32.30287254887331
432,0.13832255300004448,7.74,38.46,33.20450339373498
433,0.13862982500004506,22.82,27.5,35.74565285030331
434,0.1387662300000443,-18.72,66.04,36.510884961160365
435,0.13886659900004616,22.76,27.2,35.61141502684389
436,0.13894029300004718,22.14,26.62,34.98661391996539
437,0.13902619400004568,17.86,26.74,29.547291382741683
438,0.1391879280000481,-39.56,91.92,28.86963696709776
439,0.13930057100004944,-204.2,187.1,26.96873947175151
440,0.13947824200005243,-179.88,183.06,29.18548088443661
441,0.1397122180000565,-131.42,147.88,25.78129114060074
442,0.1401708680000553,-21.48,67.3,24.900568860384745
443,0.14031444100005075,7.72,38.98,21.131006905203513
444,0.14043931500005158,23.14,32.08,19.450618912842355
445,0.14054757400005258,-36.64,87.54,21.571224670371148
446,0.1407293190000587,-154.74,162.7,25.73520450665412
447,0.141089537000056,-82.68,109.56,26.99503567924926
448,0.14120155300005877,-82.4,107.4,28.63577392244465
449,0.14131233400005527,-0.94,50.4,27.39308817293562
450,0.1414792370000555,-157.1,173.2,27.83563048966501
451,0.14231466200005372,-207.7,192.8,28.517874959491667
452,0.14252519000005037,0.82,46.5,31.193033298205858
453,0.1427532610000526,-21.98,74.96,31.798138734917234
454,0.1428543200000476,-9.14,62.62,34.10675958455124
455,0.1429787460000469,-18.96,65.24,34.44894956521956
456,0.1431898170000494,-87.02,120.34,31.256413674541342
457,0.1436256230000481,-88.52,119.32,31.905969569034635
458,0.14378073000004576,-15.6,69.18,31.127137147792762
459,0.144642782000048,-196.88,185.84,33.56617853016296
460,0.1452124220000499,-49.7,99.14,31.03315610367422
461,0.1458695500000502,-159.64,167.54,31.000432037159435
462,0.1459955770000505,12.34,39.54,29.99504469175053
463,0.14625123500005088,-146.06,163.76,28.792101315649244
464,0.14946644400005482,-42.36,93.88,26.681884439375438
465,0.1498809130000538,-38.76,87.48,24.933273703137097
466,0.1500144740000593,15.68,33.88,24.16755960324324
467,0.1502009740000645,7.22,41.66,25.8793583251082
468,0.15033973700005987,5.12,46.82,25.464005636060058
469,0.15046609900006302,9.64,42.72,23.233165661922705
470,0.1506532500000617,-134.22,142.94,23.04866393729739
471,0.15086888300005796,-161.08,160.9,23.29277300319166
472,0.15105627600006244,14.16,41.66,21.832576026052216
473,0.15113679200006658,0.58,46.26,21.918376722650898
474,0.15124231200007188,-7.76,55.94,22.54018325687839
475,0.15133962000007273,-25.5,67.42,24.024095395289248
476,0.1515050160000726,-69.68,109.8,24.992831881418073
477,0.15167606600007133,24.84,29.0,21.138970751346296
478,0.1517895080000713,-37.34,65.02,21.964391207728433
479,0.1519427590000717,-170.34,167.9,26.074125321838977
480,0.15281261900006626,-188.64,191.9,28.81151130788087
481,0.1531343220000707,-90.88,127.94,28.95008284028716
482,0.1533317620000716,-14.78,57.1,31.80170068092434
483,0.15340852000007033,-22.84,67.86,33.45222650992684
484,0.15357176600006994,-47.7,92.6,32.96844832460596
485,0.15367045800007162,-192.1,178.6,33.36421710568661
486,0.15452224900007394,-175.12,151.92,33.67656383908446
487,0.15469895300007153,-106.02,129.52,35.707345494153614
488,0.15492686000006728,-10.16,60.22,36.0075754600524
489,0.15512856200006553,-61.1,96.78,32.351867392669654
490,0.15534787900006108,-31.0,77.98,29.3355472043507
491,0.15548074100006204,-10.88,60.8,29.155685051921502
492,0.15576978700006094,-27.32,73.76,26.99784136560786
493,0.1566690740000638,-168.56,172.9,26.54670440809271
494,0.15700628300006514,-197.54,194.08,28.316523007919237
495,0.15750710400006795,-24.66,67.24,27.712003237961405
496,0.1576955150000643,-13.42,55.52,27.613455028813195
497,0.1578598870000647,14.56,35.1,27.812374216724397
498,0.15802706900007024,17.42,32.86,27.4418773706552
499,0.1581788800000723,17.24,32.14,28.026979623630332
500,0.1585617960000718,-136.42,159.3,31.331122383157883
501,0.15898476900007097,20.3,30.54,33.353916882834525
502,0.159098660000069,16.78,31.04,34.33818826735427
503,0.15930965300007216,8.28,49.82,35.43915899187466
504,0.15953701400007247,-159.86,164.4,35.22439175810221
505,0.15981233800007288,-34.68,84.96,35.59471545467706
506,0.16037518500007053,-68.4,90.5,37.18997320987138
507,0.16079511500007015,1.2,41.2,37.00040843815019
508,0.16094295400007042,-21.0,64.18,36.859939326842856
509,0.16116701600007133,-28.38,65.94,36.490867778912204
510,0.16189108100007132,-190.36,193.86,35.580643532858105
511,0.16242702500007056,-196.54,197.06,33.34728061889639
512,0.16279052400007288,-219.74,196.5,32.92521547203857
513,0.16399758800007191,-215.04,200.0,30.40225988005138
514,0.1648629930000709,-211.3,197.76,30.952281600794368
515,0.1653251560000797,-264.48,189.18,32.09402856945964
516,0.1661913330000715,-181.38,188.46,29.68730449920833
517,0.16642473300006344,-197.58,196.7,28.57974397581296
518,0.16735751300005575,-194.94,198.28,26.659990093319273
519,0.16820114400006503,-180.6,178.68,28.55515609178669
520,0.169060131000073,-196.14,197.86,25.049493534147874
521,0.17025797600007309,-76.02,114.36,28.145196851083092
522,0.17048814700007142,15.38,31.64,29.91592494179247
523,0.17069574000007037,-34.38,82.22,33.50735537627313
524,0.1708511950000613,-127.42,138.2,34.59307324575369
525,0.171155365000061,-170.18,164.98,31.575797742970025
526,0.17132991900005123,-18.72,69.06,34.29883732750946
527,0.17150811600006222,-105.42,126.68,33.818563780105706
528,0.17227091300005526,12.68,42.46,37.67277412247472
529,0.17236864800005947,-19.34,56.62,36.002132080477764
530,0.1724999730000576,-10.58,55.96,39.29604640017381
531,0.17264579200006125,-124.28,97.42,36.911763238453574
532,0.1727453770000693,-9.58,62.1,33.93042859964517
533,0.17287215700006442,-145.76,149.02,31.76185627739155
534,0.17304518600006702,-29.04,77.36,28.484452126540855
535,0.17324134300007188,-29.84,69.48,28.9358873037862
536,0.17337171100006543,17.26,32.16,29.525619395768206
537,0.17366822100007084,-173.86,165.62,29.625460421720856
538,0.17421139000006747,9.06,42.32,26.99323448489808
539,0.17434412200007898,-14.44,62.5,25.23597055950741
540,0.17444147100007967,1.52,45.14,22.53283285445809
541,0.17457752600007836,-11.92,52.74,21.83994683580193
542,0.1747031040000735,19.46,30.32,21.352475304868328
543,0.1748097260000776,-60.74,107.86,21.49900319295525
544,0.1749797380000757,2.0,45.64,20.729583378094482
545,0.1750783080000673,17.78,29.06,21.948055155964457
546,0.17522596400006307,10.66,38.46,21.58459481937413
547,0.17535576000005904,-60.5,99.86,22.765320215369638
548,0.17550698600005887,-31.84,79.62,23.005932969875573
549,0.17566811100004998,17.76,31.62,23.50437135492748
550,0.1757887560000455,22.38,32.9,24.29810026537738
551,0.17591066500004615,-118.76,136.68,22.692040219112066
552,0.17603688100004433,-5.44,57.72,22.74963774258672
553,0.17615509000003726,15.26,39.96,21.178665387710254
554,0.17637029100004042,14.72,33.24,21.47634652482588
555,0.17651402500004565,5.5,48.4,19.29131577360904
556,0.17659132300003932,1.5,42.48,14.656196194904016
557,0.1767702580000332,0.98,46.16,14.908026641654857
558,0.17694580400004156,-26.32,75.3,14.255065793486157
559,0.17717247600003816,-4.08,53.46,18.425493322749208
560,0.17738086900003225,-22.32,72.54,20.79720163627251
561,0.17753357700003392,-157.88,169.7,22.780593898005158
562,0.17773677400003862,-4.42,55.64,26.489966647195125
563,0.1778916890000346,-184.88,184.44,30.182111148845575
564,0.17817505600002903,-137.4,162.06,32.1458061106926
565,0.17856263100001968,-180.66,168.28,33.73208755589979
566,0.17934469000002196,-183.26,188.04,36.513270651105245
567,0.17969376300003148,-86.4,122.88,35.48171491941683
568,0.17989066400004106,-104.04,122.44,36.82706061356579
569,0.18005765800003815,-164.54,162.3,32.73069122890881
570,0.1802134100000501,3.94,50.98,30.835786944864772
571,0.18030817800004684,25.7,29.48,29.566694913241104
572,0.18041446400005157,16.56,36.12,29.39392246821958
573,0.18056927400004952,19.08,33.02,27.29841328383867
574,0.1807637730000522,24.28,27.3,26.20164992838786
575,0.18084168600006478,-19.72,51.48,25.285779434803423
576,0.18093604400006313,3.26,36.12,22.891999786186073
577,0.1810526900000582,-35.96,74.82,23.82017032648185
578,0.18122397900005183,-179.9,166.06,23.664379487369132
579,0.18141300100005253,6.64,44.62,24.358513686928113
580,0.18158060500005035,-23.7,73.9,24.925805493858004
581,0.1817260690000495,-23.54,70.16,24.727769363010708
582,0.1818077680000556,-28.14,78.22,24.799410221487587
583,0.18208846100006326,-145.72,164.46,23.899728376021
584,0.18242594500006248,-103.9,134.38,24.63613409172701
585,0.18253825800006496,-80.82,118.94,26.261237407646348
586,0.18343360800007247,-187.78,179.82,30.27887613044043
587,0.18429801800007795,-164.8,167.76,32.00744493361934
588,0.18459515000007798,20.32,30.36,31.995059101005694
589,0.18468623900008652,-58.98,65.7,31.856432313667106
590,0.1847826510000914,-3.56,53.22,30.854656875831516
591,0.1848821400000844,-37.4,80.46,32.112549900538184
592,0.185048354000088,-9.66,64.44,29.61653874457604
593,0.1852757510000913,-44.32,91.5,29.615325277325905
594,0.18550301400009062,-116.16,146.38,31.92591905141345
595,0.18591711200009797,-49.3,76.2,30.392865605262454
596,0.18613676700010728,-190.0,163.4,27.015317949014456
597,0.186689389000108,4.54,47.08,25.80256683797532
598,0.18752788800010478,-38.94,84.02,25.71643512309989
599,0.18775179500009642,12.38,39.64,25.790639908173848
600,0.18783086900009494,23.76,30.62,24.803267748983778
601,0.1879391120000946,26.04,27.14,24.646631743488776
602,0.18803619700010188,22.8,27.7,23.10420893253578
603,0.18812743200010118,-127.26,148.68,26.08545522640814
604,0.18852241700010097,-54.62,96.96,23.589281841850973
605,0.18874611800009689,-16.8,67.38,25.03280625647698
606,0.18887505700010365,-43.68,88.82,25.539801701492667
607,0.18908888800010004,-74.42,114.28,24.672896543665825
608,0.18928150500011043,21.9,29.0,24.772650841858088
609,0.1895187740001063,4.9,34.36,26.615046858025664
610,0.18966957800010675,21.46,28.22,28.69941600484797
611,0.18976536400010957,22.46,26.92,28.06540136428787
612,0.18986950000011404,20.82,27.0,29.271944822851356
613,0.19004459200012036,-157.46,169.0,27.406920925604872
614,0.19013388900012274,26.6,26.8,26.558074102523307
615,0.19036853900011863,-1.16,50.76,25.078991801686026
616,0.19053192900011595,22.68,27.6,24.618627869130112
617,0.1906597600001163,26.02,26.02,22.982940353524086
618,0.19081796600012524,27.2,26.96,22.231557045088284
619,0.19103907100011952,13.5,36.5,20.51269914896558
620,0.1911486540001306,-46.14,86.08,22.40008241332351
621,0.19150779000013074,-41.22,86.68,22.755964014735763
622,0.19201564700011886,-135.0,157.74,23.098632319885485
623,0.19250737900011927,-52.46,90.06,22.5548297405207
624,0.19278157600011525,-316.3,184.76,23.648804111229545
625,0.19369433300012417,-281.78,183.28,23.529556473600618
626,0.19455788400011897,-262.02,195.14,22.16503956290787
627,0.19529787000011822,-232.02,193.1,24.915916821902425
628,0.19566922200010595,-362.14,195.12,31.168773180081597
629,0.19606379000011032,-57.6,99.12,33.7053136976153
630,0.196202942000113,-8.94,57.08,32.29700999758495
631,0.19639505600011375,-19.7,65.96,34.07749759674653
632,0.1965857290001196,25.14,27.84,34.61827122254474
633,0.1967044410001222,21.68,28.24,35.09448770866836
634,0.1968109650001253,14.8,30.92,34.42955312211767
635,0.19694662200012658,2.44,52.38,34.09778568978835
636,0.19702521800012107,15.52,36.9,36.47369119824971
637,0.19713386400012212,16.3,34.86,36.78298383362159
638,0.19741683300011914,-26.84,79.3,31.707881494151007
639,0.1977657240001207,17.9,32.16,29.05530567008928
640,0.1978573900001095,6.1,42.78,28.06858504688814
641,0.19796024300009663,4.3,44.2,26.282474160935266
642,0.19803932700010307,16.78,32.68,26.167514186828146
643,0.19813908200009678,-9.22,57.0,26.03789972918217
644,0.19834821800009195,-191.26,192.16,27.262853660188036
645,0.1987779290001015,-170.72,182.22,28.366690154294997
646,0.1989526900001124,-19.86,71.14,28.191457019908892
647,0.1991551190001104,18.88,33.24,27.315017395544515
648,0.19931067200010943,-37.26,90.26,26.400610025362813
649,0.19944151900010354,-13.44,63.9,26.163000756210455
650,0.19959751900009337,-202.78,200.0,26.843350989021225
651,0.20049350900008278,-418.76,192.66,27.06877073217019
652,0.20179191000008245,-173.62,182.34,27.63184552886954
653,0.20196393200008345,-182.22,186.46,28.94237472076735
654,0.20247846000009417,-20.26,65.88,29.241411228786944
655,0.20266440000008856,-3.84,52.02,30.27268516773746
656,0.20289854400009233,10.78,37.22,29.005784469353443
657,0.20314557600009664,23.8,25.76,28.904361918923865
658,0.20322274100010418,-166.88,90.6,32.37993306521154
659,0.20357187400010446,-0.74,48.42,33.103906701562735
660,0.20367211000009888,-31.92,76.62,31.466093075534538
661,0.20376475200009736,16.06,29.3,31.524796798599727
662,0.20384005600008948,26.8,27.82,32.41662693664328
663,0.2040205530000918,-11.78,45.2,31.471152423651013
664,0.2041704220000895,-11.3,63.86,30.154669896496074
665,0.20429182700009108,-4.42,58.8,29.48548225835995
666,0.2044460450000969,-1.78,46.44,31.501921071959163
667,0.2046271200000973,-36.4,78.04,30.261922763295882
668,0.2047263050000936,-163.48,166.26,27.80999436958504
669,0.20490160900008902,-4.9,38.54,27.697958038639577
670,0.20514595800008806,-34.62,87.0,28.087714751389775
671,0.2056108340000833,-52.02,93.18,28.179341100486745
672,0.20627637700007995,-159.08,162.72,26.72709209707039
673,0.20675328900007628,-48.74,92.1,25.38316700903341
674,0.20690315400007364,-24.82,73.4,25.77755963368545
675,0.2071464260000795,-39.76,83.62,26.320204856546205
676,0.20737078700008738,6.08,36.74,23.953849986424
677,0.2075565990000996,20.62,29.52,24.490023059999096
678,0.2076802510000988,15.0,31.3,21.94672056851093
679,0.20782437200010406,-14.1,61.76,20.465143389674896
680,0.20798972600010757,-31.34,79.78,19.93738655538043
681,0.20835812300011014,-466.92,125.3,19.96112106095555
682,0.20922194700011687,-212.24,199.28,21.34168104176935
683,0.21008914300010417,-207.76,200.0,21.575653883731285
684,0.21095890800009443,-122.22,144.82,25.079978474951208
685,0.21153386600009583,-109.1,136.7,27.083941999462912
686,0.21243722500010165,-184.1,184.22,34.086037157107725
687,0.21267242300011446,-37.78,84.66,36.553694032655024
688,0.21283649200012178,3.32,46.46,41.3680794467802
689,0.21294062600011898,-18.34,60.96,42.51915254677188
690,0.21303649400012148,-241.48,200.0,45.96335349527652
691,0.213965097000127,-221.8,188.76,47.67007675202562
692,0.2150582850001399,-314.9,198.08,50.569351037241105
693,0.21574690100013072,-238.76,200.0,54.443459096848656
694,0.21604016200012666,-160.04,155.06,50.964213926789185
695,0.21626031200013074,-179.52,168.48,48.072479641770805
696,0.2164436710001354,-2.94,50.46,42.842888322639396
697,0.2165835300001362,-3.68,46.64,41.09295354646646
698,0.2167063040001409,15.12,32.84,38.132367808047036
699,0.21683623700015175,-1.56,51.66,39.381753803760795
700,0.2177470360001479,-68.44,116.52,38.08710370797952
701,0.2178712180001554,-119.44,140.48,35.896146719029666
702,0.2184889430001533,-39.82,88.78,31.23190341961619
703,0.21874222700016333,-244.42,200.0,28.39077118307092
704,0.21917365400015854,-47.96,84.62,28.148551507123635
705,0.21936676800015675,-168.62,178.98,27.508697923255387
706,0.21971400700016375,-16.38,62.3,26.30139307100767
707,0.2200521040001604,14.0,37.92,26.951935640168948
708,0.22016964900015523,19.52,30.26,28.036934255622896
709,0.22029724100015358,-28.8,77.54,27.358853787473702
710,0.22043159300015702,-0.92,48.58,25.352162102756107
711,0.22064814300016167,2.94,45.86,26.192765805260127
712,0.22075159700015945,-10.16,60.56,26.558107744204545
713,0.22107819900016068,-36.98,79.02,26.36669975442829
714,0.221181076000164,2.08,44.36,25.81351388362836
715,0.2212564430001578,23.16,26.94,28.61461015605704
716,0.22137262400015345,14.76,33.72,28.126565652564786
717,0.22148759700014864,23.02,26.84,25.59603174352155
718,0.22158903000014618,-33.76,73.82,25.261613945197258
719,0.2218431560001477,-92.7,128.7,25.773267938313058
720,0.22230885800014732,-61.08,103.4,25.6287561156387
721,0.2224340700001477,23.22,27.1,24.3799163325481
722,0.2225541200001544,-187.7,190.36,25.390486481458506
723,0.22331565900016415,-197.3,198.36,24.70016839207106
724,0.22395159300016587,-18.74,66.7,25.495570501183316
725,0.2240287730001569,-31.34,85.94,26.53143679322303
726,0.22424572700015233,-14.7,62.14,26.99777232782879
727,0.2243516110001451,-21.48,68.94,29.022079031314167
728,0.22452922200014314,16.84,33.48,28.301036272382856
729,0.2247199540001361,-3.28,39.04,27.64040466419135
730,0.2249185290001492,20.02,33.56,28.276434019707995
731,0.2251051670001516,-112.46,115.2,29.98468260542876
732,0.22534634900014794,-148.82,161.62,29.16696802181043
733,0.2258963740001434,-178.3,178.64,32.26361356096813
734,0.2264322280001494,-115.54,136.06,32.53611252203512
735,0.22660233100015148,-13.84,63.98,29.96357163379427
736,0.2267625230001613,-41.98,76.18,31.295007902890923
737,0.22690251500016245,-38.98,77.78,33.13153379086954
738,0.2271714170001644,-68.28,105.18,33.91136083335424
739,0.22803717300017468,-66.88,100.7,35.03259418120594
740,0.22822137100017414,-15.46,64.74,35.26114208621057
741,0.22832092400017245,12.24,40.5,34.260332406715904
742,0.22850085000017373,-18.06,56.06,34.22291952080961
743,0.22863021400017658,-255.32,179.5,32.144134666576235
744,0.22874460800017005,-44.04,89.1,32.05441171704547
745,0.22893559400017693,-14.64,68.04,32.6725684208352
746,0.2301279850001663,-189.2,192.28,32.22751085499624
747,0.2304306340001716,-13.02,61.6,30.49734837081394
748,0.23057705800016493,2.38,43.74,29.794016830680857
749,0.23068093200016904,-31.62,69.4,28.59620369034007
750,0.2308218150001693,5.66,43.14,28.73407280498953
751,0.23096264500017583,5.72,43.62,28.224365089851734
752,0.2310491570001716,22.62,27.08,26.28074383489095
753,0.23111511400016127,-11.76,63.82,25.967725547594217
754,0.23197100400015813,7.7,44.72,25.327540393382073
755,0.2320935930001582,-11.72,60.84,24.159639865535752
756,0.23222153200015327,-0.38,49.04,23.16486962779796
757,0.23233797400015987,-172.78,173.0,23.43924397767718
758,0.2324798290001695,19.84,30.76,25.722095373851165
759,0.2326184760001695,24.02,28.44,25.825159768609023
760,0.23278731100016614,16.86,31.32,24.850397852384184
761,0.2328706250001744,20.72,30.8,24.09244665537758
762,0.23295303500016473,-32.9,69.5,24.130627722377717
763,0.23310137100015993,-0.58,46.92,22.949476069738395
764,0.2333406050001514,-44.72,90.26,23.208230400309294
765,0.2335662760001469,-100.78,132.76,22.052969988359465
766,0.2344047210001463,-27.92,77.52,22.765828732748066
767,0.23467626100014627,-8.14,62.42,20.789252300606783
768,0.23481107900015274,-10.3,50.74,17.031444704349315
769,0.23490429700015625,-74.28,101.42,17.400714732827648
770,0.23507574400015585,-2.54,47.64,16.54764170651601
771,0.23523658400014824,-39.08,85.36,16.73959184902393
772,0.23554741000015156,-139.58,127.06,17.07217941770761
773,0.23576920100015286,-151.82,157.36,18.127583519963697
774,0.2359098690001531,-36.18,83.64,17.007279003453114
775,0.2361193820001546,3.76,46.92,17.6932359182184
776,0.2362926320001577,7.76,43.26,16.235875700055697
777,0.23639728400016224,-1.78,55.94,17.14725264394812
778,0.2365466320001559,10.2,42.66,17.57766116860426
779,0.23670604400015804,-123.38,151.16,16.037911894552302
780,0.23686987700016005,-4.98,60.08,17.958489509905032
781,0.23697803500016335,-7.06,60.72,17.620295614449727
782,0.23716850700016323,-170.58,181.58,18.318545104531363
783,0.23786274500015736,-93.32,133.06,17.550229683852358
784,0.2381502310001622,-76.38,93.18,18.863665213574727
785,0.23830701900016038,-80.5,87.08,19.538124091066543
786,0.23855048100016063,-88.44,123.96,21.371799178274866
787,0.23928731800015157,-189.88,190.62,21.880861545899855
788,0.24045049300013943,-459.88,199.26,26.735803084058226
789,0.24086068300013608,-209.7,200.0,30.544420131777223
790,0.2417582220001293,-212.56,200.0,32.251642651419175
791,0.24260116000013454,-183.84,183.36,33.206032957105776
792,0.24347281700013923,-171.18,181.36,33.61385369122684
793,0.24391046200014443,-89.4,126.26,34.36820034672439
794,0.2441410320001438,-103.1,134.16,34.234349325845656
795,0.24433802200013588,-166.42,164.76,34.297638843444375
796,0.24473816800013992,-182.02,186.86,39.95749763548264
797,0.2455942170001464,-142.12,153.82,41.793317956485794
798,0.2457897910001492,-197.36,199.4,38.9247474174327
799,0.24620527200015374,-130.2,151.1,39.701452746199934
800,0.24639657400015835,-127.52,145.38,39.16809918485774
801,0.2465839110001582,-37.12,82.04,40.30105074843692
802,0.24673874900015846,-47.64,94.24,41.43083739064202
803,0.24696026100016866,7.44,38.56,42.221128242948495
804,0.24714543600016725,-123.42,148.32,41.64144789774838
805,0.24756418000016822,-258.66,191.74,42.811549488280995
806,0.24806366100017385,-31.84,79.52,37.08955358742493
807,0.24926440100017544,-290.36,185.54,34.49094956573068
808,0.24975521800017475,-174.38,163.3,33.78569327164162
809,0.25014380800017477,-132.9,152.22,29.62263830698733
810,0.25039029800016976,-66.04,112.02,28.059714936080184
811,0.25061865800017813,-17.22,71.06,26.51682326204073
812,0.2507522330001706,-43.76,90.28,25.251711073274077
813,0.25107204300016406,-62.4,109.92,25.20826845829375
814,0.2513697010001579,-58.94,108.16,28.143672218077246
815,0.25163951000016027,-21.62,75.82,27.619311992045674
816,0.25172354100016037,6.68,41.42,27.542052443720202
817,0.2518135500001648,-64.26,102.38,27.224712001745228
818,0.251989557000158,-46.54,89.26,27.14776171489151
819,0.25220008700016194,-46.8,91.74,28.35770372104823
820,0.2523934660001572,-61.14,102.56,29.403299607102163
821,0.2525312590001505,21.06,31.54,30.000127603531553
822,0.252637660000147,-23.98,71.18,35.857251430345855
823,0.25281046800014906,12.2,33.38,33.669350809671236
824,0.25293835900014017,-29.72,80.42,31.26042445420793
825,0.2532517510001355,-3.84,55.24,30.92252554431546
826,0.25334191900013536,-5.64,54.58,31.21689698219854
827,0.25358687300013116,-63.54,105.5,31.62407564740831
828,0.2537073410001369,2.38,47.5,31.148390548282208
829,0.2539795790001449,-62.5,96.2,31.662500353090856
830,0.25415854300014473,-41.3,93.7,30.243415860580352
831,0.25431667600014407,-26.52,73.8,30.850862290550396
832,0.25465251800014244,-199.0,200.0,26.106124548727074
833,0.2554932110001431,-212.92,190.46,29.014737581501777
834,0.25639056300015284,-147.94,166.86,33.618400282899394
835,0.25791151500014564,-67.66,98.52,34.89559428758645
836,0.25808159100014905,-76.68,107.72,34.67377072497767
837,0.25820390000015436,11.9,41.5,35.79018192510624
838,0.2583447830001546,-34.58,43.28,36.598308346453095
839,0.25844314900015775,18.96,33.02,36.05607225679519
840,0.2585283660001636,-11.1,61.78,36.594311893059455
841,0.2587509610001604,-32.32,81.28,34.88763748723631
842,0.2589744140001642,-54.24,78.08,32.73665519314763
843,0.2590776030001649,-7.12,56.6,30.634064869435726
844,0.2592264370001658,-90.0,100.82,27.658885873822516
845,0.25949763400016934,-150.36,126.58,25.77633633814893
846,0.2597933310001679,-245.54,155.54,30.372127704258208
847,0.2599239020001818,-9.76,61.34,29.042428009234346
848,0.2600512300001867,-34.9,53.86,27.272385011610357
849,0.2608850840001935,-215.82,200.0,27.892120006399676
850,0.2618155780001956,-86.36,113.84,30.15442295239768
851,0.2620594150001949,-249.86,128.3,30.734218809100163
852,0.2622419730001866,21.56,31.88,32.75424580251134
853,0.26236646500018423,-224.2,180.36,33.53201959660472
854,0.2626592650001953,-159.26,163.06,31.15389884968282
855,0.2631911310001982,-66.44,105.88,30.937035117600875
856,0.26338327600019795,-106.74,124.48,26.51781797444117
857,0.26358356600019306,-38.64,68.08,27.473940830708102
858,0.2637563730001915,-23.86,55.4,27.45478933332685
859,0.2639137580002,20.2,34.46,26.632561370500195
860,0.26411734800019815,-0.78,50.6,24.73408160975749
861,0.2642256140002104,-55.3,101.88,25.59015283972444
862,0.2644811360001995,1.56,49.92,23.713183012113976
863,0.26458845700020106,24.8,30.48,22.0331308675177
864,0.26471461200020485,18.0,33.08,21.99292895478023
865,0.26479625900020665,9.22,41.94,22.791645984269955
866,0.26488832700020737,5.86,40.48,20.923909719154885
867,0.26501646500020115,18.52,29.6,21.83308390620967
868,0.26511927100020216,2.5,43.8,21.32141034332106
869,0.2652148520001987,16.66,29.24,20.28702172302343
870,0.26532393100019647,3.5,42.56,20.566634647366435
871,0.2654258570001957,-11.54,56.1,21.66347437433701
872,0.2655516170001988,-20.26,59.42,23.50143548690567
873,0.2656531550001944,-165.72,69.7,25.27858154170958
874,0.26595019000019704,-192.92,189.82,27.544738937247836
875,0.2666313240002012,-54.9,101.64,27.760480042525614
876,0.26676371500019513,-102.02,135.02,29.457024993706682
877,0.26698806800020236,-256.54,170.08,27.472586527282864
878,0.2671397870002039,-198.7,196.98,30.827018800087256
879,0.2674236550002007,-354.58,194.06,33.60189162646289
880,0.26863231400020027,-225.68,199.62,36.05833281167632
881,0.2688794390002016,-49.3,84.14,36.80712600945084
882,0.2690696720001995,-59.78,95.7,35.298119617144394
883,0.2692607570001968,-19.0,46.44,33.96823553147085
884,0.2694331470001998,-13.18,48.02,33.94280432277513
885,0.26967305900019767,-15.14,67.78,33.73569780238161
886,0.2698913740001956,-4.72,54.4,33.933120255108136
887,0.27005659900019907,-112.14,139.3,35.10055741580572
888,0.2704688080002029,-40.28,86.82,32.573607646926284
889,0.2712819040002046,-3.9,54.8,30.039678685681668
890,0.27154604800020365,2.32,43.66,27.684695270573485
891,0.27166835000019773,8.48,44.52,25.88432617610561
892,0.2717397630001983,0.9,45.86,26.844443817190655
893,0.27182501400019987,5.36,39.96,27.9817072314387
894,0.271964351000193,-7.82,55.18,26.98673643119763
895,0.2720616510002003,6.5,43.92,27.183164979366847
896,0.27222188000020253,-783.02,163.76,26.980925787634806
897,0.272411825000205,-385.6,195.44,26.902520633029724
898,0.272673482000215,-54.06,95.36,27.21627542620423
899,0.2727762230002071,17.12,38.24,27.982932486384517
900,0.27289585300020747,8.08,46.12,27.113453986590095
901,0.2731065970002078,-14.84,62.08,29.215794599768117
902,0.2732848590002135,-15.4,66.64,28.224237673734432
903,0.2733759530002118,-135.78,156.14,28.3616554403743
904,0.2737942340002064,-90.36,118.36,27.505993472941167
905,0.2739560230002098,-24.08,71.06,27.17024521098199
906,0.27407781200021475,-64.84,105.7,26.47631801641714
907,0.2742376100002133,-88.44,132.62,25.78577843788935
908,0.27453727800021,-183.94,100.0,25.658023948606
909,0.274793212000219,0.24,43.7,25.5296914694269
910,0.2749665310002172,-47.28,90.22,25.126764973422745
911,0.27523800400021514,-18.4,66.34,21.92796455728984
912,0.2753409520002208,-24.46,67.02,22.447657047498833
913,0.275453368000214,-22.7,69.38,21.983819494876844
914,0.2755601020002132,17.5,35.86,20.933936925715372
915,0.2759993300002037,-150.62,165.48,21.358228871885565
916,0.27721038400019893,-169.4,176.52,20.750764617138735
917,0.2778174440001919,-190.98,193.56,22.153724200557114
918,0.2782153450001914,-65.32,98.18,24.553260260564837
919,0.2788350370001922,-122.7,143.54,24.24808484263423
920,0.27949436200019306,-189.78,193.6,25.542058560239667
921,0.27983140700020215,-33.74,75.84,26.694282092529853
922,0.2800017820001983,-27.6,76.48,27.233912710709745
923,0.28010946700020156,-35.14,84.6,27.759224996738133
924,0.280243812000208,1.7,46.6,30.308536086591495
925,0.28043601900020576,-95.54,123.16,29.22994293871729
926,0.2806517270002047,5.42,40.12,30.673325208809196
927,0.28079588200020567,-17.76,59.58,31.961866691274253
928,0.2810306840001999,-478.4,49.24,30.372439642744677
929,0.28116556100020773,-14.52,59.58,31.819176829315335
930,0.28139278700021464,-18.54,62.34,30.87537108029162
931,0.2817225810002242,-18.96,64.28,30.910087384931266
932,0.2821976940002173,-149.74,147.36,32.34225760642511
933,0.28238885000021696,-148.18,148.98,30.9625255576099
934,0.2828880230002113,-115.14,142.42,30.108433687789887
935,0.2830503840002052,-105.92,133.06,30.944345125979105
936,0.28317273600021053,-91.8,121.8,30.278074204072976
937,0.28337778800020885,-72.56,106.96,27.407511105001998
938,0.2836747070002019,-40.98,81.82,27.33502705923931
939,0.28389220500019974,-51.1,91.72,26.18088033091164
940,0.28412459400020396,-3.82,53.74,26.935272540554234
941,0.2842321470001963,-7.24,63.64,25.924882754692625
942,0.28434820600018895,-30.88,74.96,23.791481236487613
943,0.2844875620001943,-21.92,71.8,23.58409013351676
944,0.2845959280002006,-57.18,86.54,23.65923532156798
945,0.284790681000203,-41.42,88.64,23.81493332747301
946,0.2849723790002088,-86.78,116.92,22.82504054213878
947,0.28543658000020855,-70.3,111.8,22.83461625160423
948,0.28603187600020874,-197.12,197.46,22.061693530156404
949,0.2863448940002087,-95.26,125.86,21.726927211435083
950,0.2865286440002137,-17.06,69.34,21.375272171640244
951,0.28672466200021063,-3.32,49.0,22.324388398181675
952,0.2867964180002076,23.32,30.12,22.05458671287208
953,0.28692510600021137,-1.74,38.14,23.50608590082468
954,0.2870075000002146,-15.68,43.5,22.636404620569653
955,0.28715193900021063,1.94,35.3,21.38138768839256
956,0.28732326100021055,-20.52,73.9,23.392606059628555
957,0.28808896000022344,-83.72,116.22,24.201175785863487
958,0.28820929500021464,-72.34,103.0,27.357318891985972
959,0.2884327560002191,-36.54,83.46,27.70297853817201
960,0.2887943940002202,-39.86,87.8,26.671596084341182
961,0.2897262310002304,-253.9,182.84,26.459729263324846
962,0.29020396200023413,-17.82,69.8,27.54579007741027
963,0.290781762000222,-533.14,167.5,27.576924595306014
964,0.29094059100022207,-71.26,116.1,27.133989179768044
965,0.29110587700021995,-43.54,89.28,27.280645374817247
966,0.2912320190002191,10.34,37.66,25.43514157637093
967,0.29159708300021236,-28.78,74.32,23.669728686542797
968,0.2918371880002013,-55.52,99.3,20.727191903935413
969,0.2919886850002058,-1.02,49.02,19.634404493203675
970,0.292148020000198,-65.32,106.7,20.95094512751617
971,0.2922842400001997,-15.14,60.64,20.054461413233348
972,0.29239325100019187,18.6,34.44,18.76315620433041
973,0.29250891600018747,9.88,31.2,16.59947482336554
974,0.29262777200018775,-137.88,146.72,17.634332171378084
975,0.29288213000018004,4.12,42.8,17.885694532051495
976,0.29296007400017743,13.54,35.08,19.35694179447722
977,0.2930421190001766,-21.44,69.9,19.845426123638156
978,0.2932395090001876,17.48,30.56,19.754352671863554
979,0.2934687710001782,23.22,27.96,19.6239394427205
980,0.2935437830001746,-15.5,63.68,17.697622229666273
981,0.2936867120001665,5.34,46.36,17.26965751559026
982,0.2937756060001675,20.24,30.08,16.426261800417173
983,0.293863842000178,25.46,28.44,17.027396643164536
984,0.2940286270001735,-42.52,89.26,15.617999781183475
985,0.2941924050001745,6.92,47.38,15.537416410999025
986,0.2942598090001667,-44.78,81.12,14.300693523243519
987,0.29445935700016435,-19.68,66.12,15.36407017450253
988,0.2945836990001567,-17.88,67.62,16.217218730749718
989,0.2948543570001476,-83.9,123.42,16.036041420038647
990,0.2950726190001518,-64.58,107.7,17.678736042763866
991,0.29532474700015143,-165.7,164.32,18.557895437872173
992,0.29555856300014227,-24.98,76.26,19.29370235383893
993,0.2957023590001455,18.2,34.44,19.228472593231114
994,0.29587576800014403,-24.98,78.24,21.11148028707715
995,0.29636876100013865,-49.04,93.18,22.840702869418532
996,0.29665468600013867,-146.18,166.06,22.860327039538515
997,0.2971340860001419,-131.68,143.1,23.2359756179451
998,0.29734800800014227,-261.82,196.46,23.719682140152877
999,0.29773387600013734,-17.58,71.92,27.302812137918863
1000,0.29811878400013825,-149.44,154.92,27.677891724642468
