iter,time,reward,steps,convergence
1,0.0010773050000096873,-493.4,300.0,89.61197999999999
2,0.0019203600000139431,-2466.05,300.0,80.02125052989
3,0.002796103000008543,-329.07,300.0,70.4363017602329
4,0.0036104230000120197,-440.28,300.0,60.8453726899229
5,0.004419084000005569,-409.68,300.0,51.2553726899229
6,0.005385451999998736,-2413.91,300.0,41.64048626980677
7,0.0062055079999936424,-2179.71,300.0,32.06579370460666
8,0.007041297000000668,-828.16,300.0,22.273136821222977
9,0.007868371000000707,-916.48,300.0,12.488421725051618
10,0.00873072100000627,-486.05,300.0,2.8959464993988524
11,0.009536185000001751,-2050.32,300.0,2.625043084254527
12,0.010347375999998576,-1698.39,300.0,2.6229077134963275
13,0.011212593999999854,-1217.47,300.0,2.6922793659895845
14,0.012056869999995001,-1846.66,300.0,2.7274973814028827
15,0.012886273999995979,-359.65,300.0,2.926907183142171
16,0.013823965999989696,-2074.31,300.0,3.204645415007339
17,0.014633025999984284,-314.57,300.0,3.248608869951507
18,0.015454919999982053,-2520.53,300.0,3.65024626333519
19,0.01664654099998586,-496.8,300.0,4.044961359506547
20,0.01780696199998033,-614.5,300.0,3.8379791799900254
21,0.018624073999987445,-1938.87,300.0,3.699759435643531
22,0.019861710999990123,-1349.92,300.0,3.90460427651173
23,0.020727223999998046,-387.59,300.0,3.6195696740349335
24,0.021610910999996236,-791.42,300.0,3.650152104221488
25,0.02242150599998638,-1518.24,300.0,3.444355232409839
26,0.02323278799998718,-545.55,300.0,3.266939887424379
27,0.024106592999984855,-560.14,300.0,3.5186359677161705
28,0.02498598699997956,-2943.2,300.0,3.349987269470753
29,0.025824336999974662,-333.28,300.0,2.94373379998468
30,0.026683347999977514,-384.73,300.0,3.31147764704721
31,0.02753269099997624,-1083.42,300.0,3.5648100697344303
32,0.028374685999978055,-1205.03,300.0,3.4699307323924513
33,0.029221255999971163,-590.03,300.0,3.7197271824617033
34,0.030061985999964236,-1052.23,300.0,3.802154620624524
35,0.030960337999971443,-299.81,300.0,4.031318971836285
36,0.03217737799997167,-639.89,300.0,3.7482375234187337
37,0.0329911489999688,-1891.57,300.0,3.3156621807408
38,0.03420359299997244,-730.17,300.0,3.0768189176294083
39,0.03503482999997232,-813.86,300.0,3.0680374710542724
40,0.03609133699997358,-388.03,300.0,2.9183531281610304
41,0.0369048199999753,-311.24,300.0,2.6354349229129292
42,0.03772607899998093,-992.68,300.0,2.35738221233974
43,0.038574871999983884,-566.15,300.0,2.400965562591754
44,0.03939036699998155,-314.59,300.0,2.2498782755179376
45,0.04019747899998549,-497.74,300.0,1.8227467858500475
46,0.041013696999996796,-828.92,300.0,2.4625410959574383
47,0.041818211000006045,-671.65,300.0,2.5705920275629404
48,0.042625029000006975,-374.3,300.0,2.8835780639806385
49,0.04344016199999601,-1903.44,300.0,2.8578107856712536
50,0.04440052500000036,-951.15,300.0,2.6961796854325835
51,0.04538372399998991,-583.92,300.0,2.716150702702444
52,0.04631427999999005,-497.83,300.0,3.305751075839198
53,0.04715895699999351,-351.85,300.0,3.6291647298364973
54,0.04839452699999924,-327.76,300.0,3.717217896022632
55,0.04921236900000281,-301.16,300.0,4.009944874948531
56,0.05003840800000603,-416.61,300.0,3.5808561085908743
57,0.050903093000002286,-1017.23,300.0,3.650483686993693
58,0.051715910000012855,-330.58,300.0,3.3343898866166612
59,0.05256139600001575,-300.98,300.0,3.3638225981499517
60,0.053402398000017115,-340.17,300.0,3.3044136415354024
61,0.0542094440000227,-345.49,300.0,3.281917035514298
62,0.0550203710000261,-464.74,300.0,2.9045181844930985
63,0.05617624900001772,-454.42,300.0,2.3201885548688956
64,0.05706938900002001,-345.69,300.0,2.4291868408009
65,0.05787736500001017,-440.55,300.0,2.1164042073882214
66,0.058714582000007454,-1040.15,300.0,2.5566307291750396
67,0.05958417600000132,-453.52,300.0,2.2820333423690657
68,0.060393586999992976,-1551.16,300.0,2.6728940821362186
69,0.06123412999998834,-468.75,300.0,3.257459249799868
70,0.0620429749999829,-302.73,300.0,3.25520925573623
71,0.06288256999997088,-701.79,300.0,3.20644875403097
72,0.06374450699996714,-1523.1,300.0,2.993696109856826
73,0.06456969599996398,-355.75,300.0,2.9971017734660705
74,0.06540368899996452,-348.52,300.0,2.512666975409947
75,0.06621284599997068,-492.74,300.0,2.553800338257743
76,0.06702201099997751,-460.2,300.0,2.3112714865260005
77,0.0678301189999786,-350.57,300.0,2.3248382087104176
78,0.06864268899997228,-480.23,300.0,1.8526899161503507
79,0.06945408899997574,-693.47,300.0,1.8249734898706023
80,0.07029604799997458,-494.28,300.0,2.171837544252264
81,0.07110369899997693,-492.03,300.0,2.6573737598988942
82,0.07191578599997683,-300.35,300.0,2.637000405564554
83,0.07272061699997323,-551.75,300.0,2.5050437041130933
84,0.07354974799997649,-531.33,300.0,2.5883284707958
85,0.07436026399997786,-320.6,300.0,2.558797408539172
86,0.07535602999998048,-321.11,300.0,2.0643408735620055
87,0.07617959499998506,-300.44,300.0,2.055587672814967
88,0.07702381999999375,-393.15,300.0,2.142851931531273
89,0.07784285499998589,-303.67,300.0,1.5767616185051339
90,0.07865047499998923,-347.71,300.0,1.4703389464161305
91,0.07945627399999466,-321.11,300.0,1.0786928703517475
92,0.0802979420000014,-327.02,300.0,1.0698548136720092
93,0.08110905099999854,-345.16,300.0,1.0690091495919234
94,0.0819371689999997,-316.36,300.0,0.9791026965750916
95,0.08277012000000639,-467.11,300.0,1.4051282099414437
96,0.08358636800001307,-301.43,300.0,1.4088681431702041
97,0.08444306900001664,-308.27,300.0,1.3341437537217402
98,0.08525661700001308,-300.17,300.0,1.2827294287249018
99,0.08608149900001649,-589.98,300.0,1.2034876400670753
100,0.08694707800002277,-323.24,300.0,0.8889769915438294
101,0.08803544800002783,-311.99,300.0,1.17277167703553
102,0.08927219000003106,-299.81,300.0,1.1804102203127613
103,0.09009709900003315,-300.71,300.0,1.1798855761359932
104,0.091060593000023,-311.86,300.0,1.2492993620990447
105,0.09187272000001201,-300.17,300.0,0.8564656963921905
106,0.0926801580000074,-364.42,300.0,0.8553316336445235
107,0.09389752100000237,-303.42,300.0,0.9343468167013385
108,0.09494913800000404,-300.71,300.0,1.004336541053179
109,0.09576178300001459,-300.08,300.0,1.0005289381381615
110,0.09656728200000941,-317.74,300.0,1.3085768327912475
111,0.09737129100001596,-348.54,300.0,0.9132017425741765
112,0.09817420500000651,-330.6,300.0,0.7990153040143525
113,0.09899660099999608,-304.18,300.0,1.1480081355001084
114,0.09980065399999205,-303.12,300.0,1.0801060766497705
115,0.10060452499998007,-301.38,300.0,0.9570633224584618
116,0.10140167999998084,-299.9,300.0,1.0725416852723235
117,0.10222029099998053,-300.71,300.0,0.9907397140570161
118,0.10305838099998255,-300.71,300.0,0.9859862180896037
119,0.1038594129999808,-319.66,300.0,1.0950661248253162
120,0.10466096899997979,-299.99,300.0,0.8166868730481006
121,0.10546303499998544,-305.59,300.0,0.8232305350257569
122,0.10626555899997925,-303.59,300.0,0.9302580896817652
123,0.10707435999998438,-302.23,300.0,0.5951426093119835
124,0.10802337399998407,-300.44,300.0,0.6928930525863961
125,0.10883269699999687,-302.03,300.0,0.6970449905492672
126,0.10997154400000397,-306.07,300.0,0.5656238038744433
127,0.11080515800000512,-300.84,300.0,0.5541949614151577
128,0.11160446300000615,-304.94,300.0,0.4412541122422013
