,mean_fit_time,mean_score_time,mean_test_score,mean_train_score,param_NN__alpha,param_NN__hidden_layer_sizes,param_km__n_clusters,params,rank_test_score,split0_test_score,split0_train_score,split1_test_score,split1_train_score,split2_test_score,split2_train_score,split3_test_score,split3_train_score,split4_test_score,split4_train_score,std_fit_time,std_score_time,std_test_score,std_train_score
0,0.0382884025574,0.000703191757202,0.616372391653,0.616372690763,0.1,"(50, 50)",2,"{'NN__hidden_layer_sizes': (50, 50), 'km__n_clusters': 2, 'NN__alpha': 0.1}",121,0.616,0.616465863454,0.616,0.616465863454,0.616,0.616465863454,0.616,0.616465863454,0.617886178862,0.616,0.00149085122401,9.02431927538e-05,0.000750814039095,0.000186345381526
1,0.0550789833069,0.000823068618774,0.61316211878,0.637657831325,0.1,"(50, 50)",5,"{'NN__hidden_layer_sizes': (50, 50), 'km__n_clusters': 5, 'NN__alpha': 0.1}",137,0.616,0.616465863454,0.52,0.542168674699,0.6,0.60843373494,0.712,0.805220883534,0.617886178862,0.616,0.00476758997949,0.000296565626508,0.0611739122775,0.0882811015658
2,0.0756036758423,0.00067081451416,0.699839486356,0.714767871486,0.1,"(50, 50)",10,"{'NN__hidden_layer_sizes': (50, 50), 'km__n_clusters': 10, 'NN__alpha': 0.1}",41,0.76,0.753012048193,0.696,0.736947791165,0.72,0.740963855422,0.704,0.728915662651,0.617886178862,0.614,0.00683090477491,1.61883230561e-05,0.0462621038282,0.0509806225579
3,0.084868478775,0.00072455406189,0.677367576244,0.676604016064,0.1,"(50, 50)",15,"{'NN__hidden_layer_sizes': (50, 50), 'km__n_clusters': 15, 'NN__alpha': 0.1}",70,0.728,0.694779116466,0.744,0.746987951807,0.616,0.616465863454,0.672,0.696787148594,0.626016260163,0.628,0.00587310808244,4.5825514636e-05,0.0518383531726,0.0483126056035
4,0.111796617508,0.000713586807251,0.691813804173,0.694962248996,0.1,"(50, 50)",20,"{'NN__hidden_layer_sizes': (50, 50), 'km__n_clusters': 20, 'NN__alpha': 0.1}",49,0.728,0.730923694779,0.592,0.692771084337,0.776,0.654618473896,0.616,0.624497991968,0.747967479675,0.772,0.0170508170614,1.44222549657e-05,0.0738883211271,0.0525845482495
5,0.13350481987,0.000778818130493,0.733547351525,0.73073253012,0.1,"(50, 50)",25,"{'NN__hidden_layer_sizes': (50, 50), 'km__n_clusters': 25, 'NN__alpha': 0.1}",21,0.776,0.775100401606,0.768,0.779116465863,0.616,0.626506024096,0.752,0.734939759036,0.756097560976,0.738,0.0216723807153,7.61986077205e-05,0.0595048256519,0.0552144812703
6,0.144785404205,0.000767421722412,0.743178170144,0.731138955823,0.1,"(50, 50)",30,"{'NN__hidden_layer_sizes': (50, 50), 'km__n_clusters': 30, 'NN__alpha': 0.1}",19,0.712,0.714859437751,0.736,0.781124497992,0.808,0.78313253012,0.704,0.644578313253,0.756097560976,0.732,0.00954819577506,5.09652602378e-05,0.0372743159423,0.0509124643717
7,0.187948179245,0.000971651077271,0.70304975923,0.712652208835,0.1,"(50, 50)",35,"{'NN__hidden_layer_sizes': (50, 50), 'km__n_clusters': 35, 'NN__alpha': 0.1}",38,0.632,0.616465863454,0.696,0.692771084337,0.744,0.724899598394,0.688,0.781124497992,0.756097560976,0.748,0.0189606415448,0.000179578583092,0.0442754878613,0.0560981130212
8,0.193580007553,0.000933027267456,0.75922953451,0.779297991968,0.1,"(50, 50)",40,"{'NN__hidden_layer_sizes': (50, 50), 'km__n_clusters': 40, 'NN__alpha': 0.1}",9,0.784,0.787148594378,0.752,0.787148594378,0.752,0.761044176707,0.752,0.787148594378,0.756097560976,0.774,0.00271266283489,0.000307445785856,0.0125102428208,0.0104514722892
9,0.0430418968201,0.0006995677948,0.616372391653,0.616372690763,0.1,"(50,)",2,"{'NN__hidden_layer_sizes': (50,), 'km__n_clusters': 2, 'NN__alpha': 0.1}",121,0.616,0.616465863454,0.616,0.616465863454,0.616,0.616465863454,0.616,0.616465863454,0.617886178862,0.616,0.00598471230463,0.000203925664463,0.000750814039095,0.000186345381526
10,0.0555801868439,0.000675821304321,0.658105939005,0.65283373494,0.1,"(50,)",5,"{'NN__hidden_layer_sizes': (50,), 'km__n_clusters': 5, 'NN__alpha': 0.1}",89,0.656,0.682730923695,0.616,0.616465863454,0.616,0.616465863454,0.688,0.626506024096,0.715447154472,0.722,0.00345065856097,0.000120789694865,0.0392529476973,0.0424645890806
11,0.0724115371704,0.000811767578125,0.609951845907,0.612761445783,0.1,"(50,)",10,"{'NN__hidden_layer_sizes': (50,), 'km__n_clusters': 10, 'NN__alpha': 0.1}",141,0.616,0.616465863454,0.616,0.616465863454,0.6,0.602409638554,0.616,0.616465863454,0.60162601626,0.612,0.00240528552509,0.00028999695334,0.00745492163257,0.00545724918658
12,0.0861275196075,0.000694465637207,0.680577849117,0.689334939759,0.1,"(50,)",15,"{'NN__hidden_layer_sizes': (50,), 'km__n_clusters': 15, 'NN__alpha': 0.1}",65,0.6,0.63453815261,0.664,0.656626506024,0.616,0.616465863454,0.744,0.761044176707,0.780487804878,0.778,0.00805091969607,8.32032882707e-05,0.0705154291668,0.0669120906443
13,0.0971141815186,0.000737857818604,0.574638844302,0.601669076305,0.1,"(50,)",20,"{'NN__hidden_layer_sizes': (50,), 'km__n_clusters': 20, 'NN__alpha': 0.1}",161,0.568,0.64859437751,0.672,0.708835341365,0.624,0.604417670683,0.616,0.624497991968,0.390243902439,0.422,0.0047392363483,0.000111108317271,0.0972412486792,0.0964326536002
14,0.11299905777,0.000672101974487,0.585874799358,0.590454618474,0.1,"(50,)",25,"{'NN__hidden_layer_sizes': (50,), 'km__n_clusters': 25, 'NN__alpha': 0.1}",149,0.6,0.620481927711,0.728,0.755020080321,0.616,0.598393574297,0.6,0.59437751004,0.382113821138,0.384,0.00590480638483,9.14642780863e-05,0.111857566993,0.118899416416
15,0.146451950073,0.000687456130981,0.714285714286,0.738746987952,0.1,"(50,)",30,"{'NN__hidden_layer_sizes': (50,), 'km__n_clusters': 30, 'NN__alpha': 0.1}",28,0.784,0.767068273092,0.728,0.761044176707,0.752,0.779116465863,0.584,0.626506024096,0.723577235772,0.76,0.01339583734,0.000100572700166,0.0687100956902,0.0565308394658
16,0.142059803009,0.000669002532959,0.569823434992,0.569972690763,0.1,"(50,)",35,"{'NN__hidden_layer_sizes': (50,), 'km__n_clusters': 35, 'NN__alpha': 0.1}",165,0.616,0.616465863454,0.616,0.616465863454,0.616,0.616465863454,0.616,0.616465863454,0.382113821138,0.384,0.00601723756767,5.53531748271e-05,0.0931009408478,0.0929863453815
17,0.154568624496,0.000681209564209,0.686998394864,0.68216064257,0.1,"(50,)",40,"{'NN__hidden_layer_sizes': (50,), 'km__n_clusters': 40, 'NN__alpha': 0.1}",55,0.736,0.692771084337,0.616,0.618473895582,0.624,0.588353413655,0.72,0.801204819277,0.739837398374,0.71,0.00321665775757,8.15687627741e-05,0.0553101607764,0.0747193753228
18,0.0367110729218,0.000593566894531,0.621187800963,0.620790361446,0.1,"(25,)",2,"{'NN__hidden_layer_sizes': (25,), 'km__n_clusters': 2, 'NN__alpha': 0.1}",115,0.616,0.616465863454,0.64,0.638554216867,0.616,0.616465863454,0.616,0.616465863454,0.617886178862,0.616,0.0037784378634,0.000117315566814,0.00945298587046,0.00888376013714
19,0.0431467533112,0.000520801544189,0.439807383628,0.447884337349,0.1,"(25,)",5,"{'NN__hidden_layer_sizes': (25,), 'km__n_clusters': 5, 'NN__alpha': 0.1}",177,0.384,0.383534136546,0.384,0.383534136546,0.384,0.383534136546,0.664,0.704819277108,0.382113821138,0.384,0.00354616401355,2.23150619905e-05,0.112323530075,0.128467596582
20,0.0616912841797,0.000583076477051,0.600321027287,0.602340562249,0.1,"(25,)",10,"{'NN__hidden_layer_sizes': (25,), 'km__n_clusters': 10, 'NN__alpha': 0.1}",145,0.616,0.60843373494,0.616,0.606425702811,0.456,0.465863453815,0.736,0.744979919679,0.577235772358,0.586,0.00178988059777,4.57807379861e-05,0.0898694936781,0.0886485380769
21,0.0766181945801,0.000572633743286,0.560192616372,0.56137188755,0.1,"(25,)",15,"{'NN__hidden_layer_sizes': (25,), 'km__n_clusters': 15, 'NN__alpha': 0.1}",169,0.568,0.550200803213,0.616,0.606425702811,0.416,0.449799196787,0.576,0.60843373494,0.626016260163,0.592,0.00609527148648,2.81590005739e-05,0.0755932016289,0.059591951589
22,0.090385055542,0.000565910339355,0.584269662921,0.585890763052,0.1,"(25,)",20,"{'NN__hidden_layer_sizes': (25,), 'km__n_clusters': 20, 'NN__alpha': 0.1}",153,0.616,0.614457831325,0.4,0.375502008032,0.616,0.616465863454,0.704,0.75702811245,0.585365853659,0.566,0.00639010105797,6.47094553134e-06,0.100465882345,0.123043063361
23,0.111129236221,0.000659942626953,0.664526484751,0.672515662651,0.1,"(25,)",25,"{'NN__hidden_layer_sizes': (25,), 'km__n_clusters': 25, 'NN__alpha': 0.1}",80,0.696,0.682730923695,0.648,0.646586345382,0.616,0.616465863454,0.656,0.698795180723,0.707317073171,0.718,0.00570998018117,0.000115625784343,0.0331981907602,0.0365450381214
24,0.130444526672,0.000602865219116,0.6227929374,0.638803212851,0.1,"(25,)",30,"{'NN__hidden_layer_sizes': (25,), 'km__n_clusters': 30, 'NN__alpha': 0.1}",113,0.696,0.654618473896,0.568,0.578313253012,0.536,0.588353413655,0.68,0.682730923695,0.634146341463,0.69,0.0184438260059,2.89933461424e-05,0.0622189336389,0.0469150183982
25,0.147035217285,0.0006263256073,0.656500802568,0.649304417671,0.1,"(25,)",35,"{'NN__hidden_layer_sizes': (25,), 'km__n_clusters': 35, 'NN__alpha': 0.1}",94,0.808,0.755020080321,0.624,0.640562248996,0.616,0.616465863454,0.616,0.618473895582,0.617886178862,0.616,0.00518127420372,5.09560244141e-05,0.0759585227603,0.0536475587785
26,0.176570653915,0.000665950775146,0.577849117175,0.570212048193,0.1,"(25,)",40,"{'NN__hidden_layer_sizes': (25,), 'km__n_clusters': 40, 'NN__alpha': 0.1}",157,0.384,0.385542168675,0.616,0.616465863454,0.672,0.680722891566,0.624,0.582329317269,0.593495934959,0.586,0.0162562186021,5.03616345288e-05,0.100428624495,0.0988444373373
27,0.0448482036591,0.000844383239746,0.616372391653,0.616372690763,0.1,"(25, 25)",2,"{'NN__hidden_layer_sizes': (25, 25), 'km__n_clusters': 2, 'NN__alpha': 0.1}",121,0.616,0.616465863454,0.616,0.616465863454,0.616,0.616465863454,0.616,0.616465863454,0.617886178862,0.616,0.00578880171014,0.000418684628653,0.000750814039095,0.000186345381526
28,0.0505167484283,0.00063362121582,0.555377207063,0.56778313253,0.1,"(25, 25)",5,"{'NN__hidden_layer_sizes': (25, 25), 'km__n_clusters': 5, 'NN__alpha': 0.1}",173,0.584,0.586345381526,0.592,0.568273092369,0.664,0.664658634538,0.336,0.409638554217,0.60162601626,0.61,0.00402353756627,7.83469135284e-05,0.113487057829,0.0854653515603
29,0.0716416358948,0.000656604766846,0.664526484751,0.665368674699,0.1,"(25, 25)",10,"{'NN__hidden_layer_sizes': (25, 25), 'km__n_clusters': 10, 'NN__alpha': 0.1}",80,0.616,0.616465863454,0.616,0.616465863454,0.728,0.712851405622,0.744,0.765060240964,0.617886178862,0.616,0.00775114242549,7.81882089042e-05,0.0587371775768,0.062310920483
30,0.106663751602,0.000765895843506,0.686998394864,0.695768674699,0.1,"(25, 25)",15,"{'NN__hidden_layer_sizes': (25, 25), 'km__n_clusters': 15, 'NN__alpha': 0.1}",55,0.592,0.628514056225,0.616,0.616465863454,0.672,0.700803212851,0.768,0.765060240964,0.788617886179,0.768,0.0125250088266,0.000135007884024,0.0788828698469,0.0645850627654
31,0.108414411545,0.000840997695923,0.635634028892,0.634430522088,0.1,"(25, 25)",20,"{'NN__hidden_layer_sizes': (25, 25), 'km__n_clusters': 20, 'NN__alpha': 0.1}",109,0.72,0.706827309237,0.616,0.616465863454,0.624,0.604417670683,0.576,0.610441767068,0.642276422764,0.634,0.0037090888311,0.000110624535318,0.0474850987349,0.0375245005709
32,0.135997581482,0.000841379165649,0.704654895666,0.739575903614,0.1,"(25, 25)",25,"{'NN__hidden_layer_sizes': (25, 25), 'km__n_clusters': 25, 'NN__alpha': 0.1}",34,0.656,0.740963855422,0.664,0.718875502008,0.736,0.726907630522,0.768,0.78313253012,0.69918699187,0.728,0.00805491273248,0.0003196476743,0.0425997479887,0.0229002158815
33,0.145688247681,0.000659942626953,0.645264847512,0.674902811245,0.1,"(25, 25)",30,"{'NN__hidden_layer_sizes': (25, 25), 'km__n_clusters': 30, 'NN__alpha': 0.1}",100,0.656,0.654618473896,0.576,0.576305220884,0.704,0.726907630522,0.592,0.670682730924,0.69918699187,0.746,0.0142454383014,2.98840356217e-05,0.0531150452061,0.0598499118155
34,0.15589723587,0.000702333450317,0.6886035313,0.701823293173,0.1,"(25, 25)",35,"{'NN__hidden_layer_sizes': (25, 25), 'km__n_clusters': 35, 'NN__alpha': 0.1}",51,0.72,0.728915662651,0.704,0.759036144578,0.624,0.604417670683,0.672,0.686746987952,0.723577235772,0.73,0.00970208163263,4.50974020573e-05,0.037142281116,0.0538820636748
35,0.166772937775,0.000704860687256,0.616372391653,0.616372690763,0.1,"(25, 25)",40,"{'NN__hidden_layer_sizes': (25, 25), 'km__n_clusters': 40, 'NN__alpha': 0.1}",121,0.616,0.616465863454,0.616,0.616465863454,0.616,0.616465863454,0.616,0.616465863454,0.617886178862,0.616,0.0177033472464,4.58115204302e-05,0.000750814039095,0.000186345381526
36,0.054656791687,0.000868797302246,0.699839486356,0.701002409639,0.1,"(100, 25, 100)",2,"{'NN__hidden_layer_sizes': (100, 25, 100), 'km__n_clusters': 2, 'NN__alpha': 0.1}",41,0.616,0.616465863454,0.616,0.616465863454,0.776,0.734939759036,0.784,0.785140562249,0.707317073171,0.752,0.0036399991969,0.00011750848543,0.0735978543472,0.0708866445999
37,0.0680052280426,0.000790786743164,0.661316211878,0.663762248996,0.1,"(100, 25, 100)",5,"{'NN__hidden_layer_sizes': (100, 25, 100), 'km__n_clusters': 5, 'NN__alpha': 0.1}",88,0.616,0.616465863454,0.576,0.598393574297,0.68,0.696787148594,0.816,0.791164658635,0.617886178862,0.616,0.0187981795532,1.12055717626e-05,0.0843545058911,0.0722679211291
38,0.0842862129211,0.000894594192505,0.638844301766,0.650107630522,0.1,"(100, 25, 100)",10,"{'NN__hidden_layer_sizes': (100, 25, 100), 'km__n_clusters': 10, 'NN__alpha': 0.1}",105,0.616,0.616465863454,0.728,0.785140562249,0.616,0.616465863454,0.616,0.616465863454,0.617886178862,0.616,0.016458666375,6.68112331809e-05,0.0446731933791,0.0675167069473
39,0.111268615723,0.000842428207397,0.76404494382,0.771681927711,0.1,"(100, 25, 100)",15,"{'NN__hidden_layer_sizes': (100, 25, 100), 'km__n_clusters': 15, 'NN__alpha': 0.1}",5,0.784,0.771084337349,0.76,0.779116465863,0.784,0.773092369478,0.736,0.779116465863,0.756097560976,0.756,0.0089098509635,3.20371411548e-05,0.0182580008322,0.00847129307759
40,0.120969772339,0.000905990600586,0.780096308186,0.774069076305,0.1,"(100, 25, 100)",20,"{'NN__hidden_layer_sizes': (100, 25, 100), 'km__n_clusters': 20, 'NN__alpha': 0.1}",3,0.776,0.746987951807,0.76,0.775100401606,0.816,0.785140562249,0.76,0.779116465863,0.788617886179,0.784,0.0160710230729,0.000112278394401,0.0209382329745,0.0140080557091
41,0.13422794342,0.000871992111206,0.674157303371,0.703521285141,0.1,"(100, 25, 100)",25,"{'NN__hidden_layer_sizes': (100, 25, 100), 'km__n_clusters': 25, 'NN__alpha': 0.1}",74,0.72,0.710843373494,0.696,0.781124497992,0.616,0.612449799197,0.72,0.79718875502,0.617886178862,0.616,0.00876455965918,2.71833149722e-05,0.0473585107002,0.0784900725455
42,0.144346618652,0.000865173339844,0.645264847512,0.649167871486,0.1,"(100, 25, 100)",30,"{'NN__hidden_layer_sizes': (100, 25, 100), 'km__n_clusters': 30, 'NN__alpha': 0.1}",100,0.616,0.616465863454,0.616,0.610441767068,0.616,0.616465863454,0.616,0.616465863454,0.764227642276,0.786,0.0106182622919,5.7049336458e-06,0.0590036274172,0.0684558347331
43,0.165456151962,0.000976419448853,0.707865168539,0.704324497992,0.1,"(100, 25, 100)",35,"{'NN__hidden_layer_sizes': (100, 25, 100), 'km__n_clusters': 35, 'NN__alpha': 0.1}",29,0.736,0.744979919679,0.752,0.785140562249,0.824,0.773092369478,0.608,0.602409638554,0.617886178862,0.616,0.0106477213979,0.000145198175271,0.0827963355131,0.0788682131444
44,0.203240585327,0.000956439971924,0.743178170144,0.761294779116,0.1,"(100, 25, 100)",40,"{'NN__hidden_layer_sizes': (100, 25, 100), 'km__n_clusters': 40, 'NN__alpha': 0.1}",19,0.752,0.748995983936,0.768,0.791164658635,0.784,0.787148594378,0.744,0.791164658635,0.666666666667,0.688,0.00725041303682,2.99515231919e-05,0.0403669741245,0.0399405162136
45,0.0463694572449,0.000714111328125,0.616372391653,0.616372690763,0.01,"(50, 50)",2,"{'NN__hidden_layer_sizes': (50, 50), 'km__n_clusters': 2, 'NN__alpha': 0.01}",121,0.616,0.616465863454,0.616,0.616465863454,0.616,0.616465863454,0.616,0.616465863454,0.617886178862,0.616,0.00360683468312,0.000102178470517,0.000750814039095,0.000186345381526
46,0.0591042518616,0.000736951828003,0.61316211878,0.637657831325,0.01,"(50, 50)",5,"{'NN__hidden_layer_sizes': (50, 50), 'km__n_clusters': 5, 'NN__alpha': 0.01}",137,0.616,0.616465863454,0.52,0.542168674699,0.6,0.60843373494,0.712,0.805220883534,0.617886178862,0.616,0.00367994961192,9.39882206136e-05,0.0611739122775,0.0882811015658
47,0.0759875297546,0.000661659240723,0.699839486356,0.714767871486,0.01,"(50, 50)",10,"{'NN__hidden_layer_sizes': (50, 50), 'km__n_clusters': 10, 'NN__alpha': 0.01}",41,0.76,0.753012048193,0.696,0.736947791165,0.72,0.740963855422,0.704,0.728915662651,0.617886178862,0.614,0.00732186191887,4.54723674827e-06,0.0462621038282,0.0509806225579
48,0.0827894210815,0.000668287277222,0.677367576244,0.676604016064,0.01,"(50, 50)",15,"{'NN__hidden_layer_sizes': (50, 50), 'km__n_clusters': 15, 'NN__alpha': 0.01}",70,0.728,0.694779116466,0.744,0.746987951807,0.616,0.616465863454,0.672,0.696787148594,0.626016260163,0.628,0.00611599988927,1.19770635732e-05,0.0518383531726,0.0483126056035
49,0.109137773514,0.000705814361572,0.691813804173,0.695363855422,0.01,"(50, 50)",20,"{'NN__hidden_layer_sizes': (50, 50), 'km__n_clusters': 20, 'NN__alpha': 0.01}",49,0.728,0.730923694779,0.592,0.692771084337,0.776,0.656626506024,0.616,0.624497991968,0.747967479675,0.772,0.0187503936272,4.53192517366e-05,0.0738883211271,0.0522816911246
50,0.145708417892,0.000842761993408,0.731942215088,0.731134136546,0.01,"(50, 50)",25,"{'NN__hidden_layer_sizes': (50, 50), 'km__n_clusters': 25, 'NN__alpha': 0.01}",23,0.776,0.775100401606,0.768,0.779116465863,0.616,0.628514056225,0.744,0.734939759036,0.756097560976,0.738,0.013705881428,0.000187888931501,0.059091884955,0.0544570291491
51,0.14519443512,0.00073881149292,0.744783306581,0.733138955823,0.01,"(50, 50)",30,"{'NN__hidden_layer_sizes': (50, 50), 'km__n_clusters': 30, 'NN__alpha': 0.01}",17,0.712,0.714859437751,0.736,0.781124497992,0.808,0.78313253012,0.704,0.644578313253,0.764227642276,0.742,0.00712964244321,2.85511200967e-05,0.0379647576792,0.0511030645374
52,0.157308578491,0.000724267959595,0.706260032103,0.710644176707,0.01,"(50, 50)",35,"{'NN__hidden_layer_sizes': (50, 50), 'km__n_clusters': 35, 'NN__alpha': 0.01}",30,0.632,0.616465863454,0.696,0.68875502008,0.744,0.724899598394,0.704,0.775100401606,0.756097560976,0.748,0.00686033613203,2.48080918708e-05,0.0436434379008,0.0549581101835
53,0.183595943451,0.000770425796509,0.757624398074,0.778896385542,0.01,"(50, 50)",40,"{'NN__hidden_layer_sizes': (50, 50), 'km__n_clusters': 40, 'NN__alpha': 0.01}",10,0.784,0.785140562249,0.752,0.787148594378,0.752,0.761044176707,0.744,0.787148594378,0.756097560976,0.774,0.00780582977841,0.000106606392921,0.0137833081107,0.0101770682984
54,0.0321446418762,0.000572729110718,0.616372391653,0.616372690763,0.01,"(50,)",2,"{'NN__hidden_layer_sizes': (50,), 'km__n_clusters': 2, 'NN__alpha': 0.01}",121,0.616,0.616465863454,0.616,0.616465863454,0.616,0.616465863454,0.616,0.616465863454,0.617886178862,0.616,0.00167274184618,4.65714917909e-05,0.000750814039095,0.000186345381526
55,0.0467593193054,0.000579452514648,0.658105939005,0.652432128514,0.01,"(50,)",5,"{'NN__hidden_layer_sizes': (50,), 'km__n_clusters': 5, 'NN__alpha': 0.01}",89,0.656,0.680722891566,0.616,0.616465863454,0.616,0.616465863454,0.688,0.626506024096,0.715447154472,0.722,0.00342392774322,3.19162608776e-05,0.0392529476973,0.0421885371925
56,0.0619234085083,0.000623559951782,0.609951845907,0.612761445783,0.01,"(50,)",10,"{'NN__hidden_layer_sizes': (50,), 'km__n_clusters': 10, 'NN__alpha': 0.01}",141,0.616,0.616465863454,0.616,0.616465863454,0.6,0.602409638554,0.616,0.616465863454,0.60162601626,0.612,0.00183709856781,6.21850502778e-05,0.00745492163257,0.00545724918658
57,0.07893242836,0.000581550598145,0.680577849117,0.689334939759,0.01,"(50,)",15,"{'NN__hidden_layer_sizes': (50,), 'km__n_clusters': 15, 'NN__alpha': 0.01}",65,0.6,0.63453815261,0.664,0.656626506024,0.616,0.616465863454,0.744,0.761044176707,0.780487804878,0.778,0.00466876833901,8.89067964394e-06,0.0705154291668,0.0669120906443
58,0.0918962478638,0.000687980651855,0.574638844302,0.601669076305,0.01,"(50,)",20,"{'NN__hidden_layer_sizes': (50,), 'km__n_clusters': 20, 'NN__alpha': 0.01}",161,0.568,0.64859437751,0.672,0.708835341365,0.624,0.604417670683,0.616,0.624497991968,0.390243902439,0.422,0.005805554972,6.36100769043e-05,0.0972412486792,0.0964326536002
59,0.115487241745,0.000678586959839,0.585874799358,0.590454618474,0.01,"(50,)",25,"{'NN__hidden_layer_sizes': (50,), 'km__n_clusters': 25, 'NN__alpha': 0.01}",149,0.6,0.620481927711,0.728,0.755020080321,0.616,0.598393574297,0.6,0.59437751004,0.382113821138,0.384,0.00324720570157,9.04842201002e-05,0.111857566993,0.118899416416
60,0.13386759758,0.0006516456604,0.715890850722,0.740353413655,0.01,"(50,)",30,"{'NN__hidden_layer_sizes': (50,), 'km__n_clusters': 30, 'NN__alpha': 0.01}",25,0.784,0.767068273092,0.736,0.769076305221,0.752,0.779116465863,0.584,0.626506024096,0.723577235772,0.76,0.00311087189604,5.11578495838e-05,0.0691040409648,0.0572511639978
61,0.148720598221,0.000703001022339,0.569823434992,0.569972690763,0.01,"(50,)",35,"{'NN__hidden_layer_sizes': (50,), 'km__n_clusters': 35, 'NN__alpha': 0.01}",165,0.616,0.616465863454,0.616,0.616465863454,0.616,0.616465863454,0.616,0.616465863454,0.382113821138,0.384,0.00322649709554,0.00012406516655,0.0931009408478,0.0929863453815
62,0.164822816849,0.000673389434814,0.686998394864,0.68216064257,0.01,"(50,)",40,"{'NN__hidden_layer_sizes': (50,), 'km__n_clusters': 40, 'NN__alpha': 0.01}",55,0.736,0.692771084337,0.616,0.618473895582,0.624,0.588353413655,0.72,0.801204819277,0.739837398374,0.71,0.00755947866807,7.07312987524e-05,0.0553101607764,0.0747193753228
63,0.0465682506561,0.000785684585571,0.621187800963,0.620790361446,0.01,"(25,)",2,"{'NN__hidden_layer_sizes': (25,), 'km__n_clusters': 2, 'NN__alpha': 0.01}",115,0.616,0.616465863454,0.64,0.638554216867,0.616,0.616465863454,0.616,0.616465863454,0.617886178862,0.616,0.00768770983716,0.000191427914815,0.00945298587046,0.00888376013714
64,0.0496965408325,0.000693464279175,0.439807383628,0.447884337349,0.01,"(25,)",5,"{'NN__hidden_layer_sizes': (25,), 'km__n_clusters': 5, 'NN__alpha': 0.01}",177,0.384,0.383534136546,0.384,0.383534136546,0.384,0.383534136546,0.664,0.704819277108,0.382113821138,0.384,0.0038934257858,0.00018372045001,0.112323530075,0.128467596582
65,0.0639272212982,0.00072455406189,0.600321027287,0.602340562249,0.01,"(25,)",10,"{'NN__hidden_layer_sizes': (25,), 'km__n_clusters': 10, 'NN__alpha': 0.01}",145,0.616,0.60843373494,0.616,0.606425702811,0.456,0.465863453815,0.736,0.744979919679,0.577235772358,0.586,0.00262592561144,0.000122674363897,0.0898694936781,0.0886485380769
66,0.0779342651367,0.000594329833984,0.560192616372,0.56137188755,0.01,"(25,)",15,"{'NN__hidden_layer_sizes': (25,), 'km__n_clusters': 15, 'NN__alpha': 0.01}",169,0.568,0.550200803213,0.616,0.606425702811,0.416,0.449799196787,0.576,0.60843373494,0.626016260163,0.592,0.0059466677768,7.08557233791e-05,0.0755932016289,0.059591951589
67,0.0975823402405,0.000616836547852,0.584269662921,0.585890763052,0.01,"(25,)",20,"{'NN__hidden_layer_sizes': (25,), 'km__n_clusters': 20, 'NN__alpha': 0.01}",153,0.616,0.614457831325,0.4,0.375502008032,0.616,0.616465863454,0.704,0.75702811245,0.585365853659,0.566,0.00598353285939,6.88486479099e-05,0.100465882345,0.123043063361
68,0.120760393143,0.00071702003479,0.664526484751,0.672515662651,0.01,"(25,)",25,"{'NN__hidden_layer_sizes': (25,), 'km__n_clusters': 25, 'NN__alpha': 0.01}",80,0.696,0.682730923695,0.648,0.646586345382,0.616,0.616465863454,0.656,0.698795180723,0.707317073171,0.718,0.0170054933434,0.000235186827585,0.0331981907602,0.0365450381214
69,0.133705615997,0.000619745254517,0.6227929374,0.638803212851,0.01,"(25,)",30,"{'NN__hidden_layer_sizes': (25,), 'km__n_clusters': 30, 'NN__alpha': 0.01}",113,0.696,0.654618473896,0.568,0.578313253012,0.536,0.588353413655,0.68,0.682730923695,0.634146341463,0.69,0.0146500534364,4.22873107482e-05,0.0622189336389,0.0469150183982
70,0.14191737175,0.000668621063232,0.656500802568,0.649304417671,0.01,"(25,)",35,"{'NN__hidden_layer_sizes': (25,), 'km__n_clusters': 35, 'NN__alpha': 0.01}",94,0.808,0.755020080321,0.624,0.640562248996,0.616,0.616465863454,0.616,0.618473895582,0.617886178862,0.616,0.0101015591269,8.93214897998e-05,0.0759585227603,0.0536475587785
71,0.159340047836,0.000669956207275,0.577849117175,0.570212048193,0.01,"(25,)",40,"{'NN__hidden_layer_sizes': (25,), 'km__n_clusters': 40, 'NN__alpha': 0.01}",157,0.384,0.385542168675,0.616,0.616465863454,0.672,0.680722891566,0.624,0.582329317269,0.593495934959,0.586,0.00421879699139,9.43059257318e-05,0.100428624495,0.0988444373373
72,0.0393736362457,0.00065803527832,0.616372391653,0.616372690763,0.01,"(25, 25)",2,"{'NN__hidden_layer_sizes': (25, 25), 'km__n_clusters': 2, 'NN__alpha': 0.01}",121,0.616,0.616465863454,0.616,0.616465863454,0.616,0.616465863454,0.616,0.616465863454,0.617886178862,0.616,0.00338280263594,9.9578966767e-05,0.000750814039095,0.000186345381526
73,0.0507439136505,0.000641250610352,0.555377207063,0.56778313253,0.01,"(25, 25)",5,"{'NN__hidden_layer_sizes': (25, 25), 'km__n_clusters': 5, 'NN__alpha': 0.01}",173,0.584,0.586345381526,0.592,0.568273092369,0.664,0.664658634538,0.336,0.409638554217,0.60162601626,0.61,0.00211116280844,8.05906429555e-05,0.113487057829,0.0854653515603
74,0.068298625946,0.000662803649902,0.664526484751,0.665368674699,0.01,"(25, 25)",10,"{'NN__hidden_layer_sizes': (25, 25), 'km__n_clusters': 10, 'NN__alpha': 0.01}",80,0.616,0.616465863454,0.616,0.616465863454,0.728,0.712851405622,0.744,0.765060240964,0.617886178862,0.616,0.00596878860463,9.17401729555e-05,0.0587371775768,0.062310920483
75,0.089289522171,0.000654792785645,0.686998394864,0.69376064257,0.01,"(25, 25)",15,"{'NN__hidden_layer_sizes': (25, 25), 'km__n_clusters': 15, 'NN__alpha': 0.01}",55,0.592,0.628514056225,0.616,0.616465863454,0.672,0.690763052209,0.768,0.765060240964,0.788617886179,0.768,0.00742650605047,5.76226879127e-05,0.0788828698469,0.0645533893441
76,0.103709745407,0.000646018981934,0.635634028892,0.634430522088,0.01,"(25, 25)",20,"{'NN__hidden_layer_sizes': (25, 25), 'km__n_clusters': 20, 'NN__alpha': 0.01}",109,0.72,0.706827309237,0.616,0.616465863454,0.624,0.604417670683,0.576,0.610441767068,0.642276422764,0.634,0.00446926090849,2.358469556e-05,0.0474850987349,0.0375245005709
77,0.127520608902,0.000643491744995,0.704654895666,0.740379116466,0.01,"(25, 25)",25,"{'NN__hidden_layer_sizes': (25, 25), 'km__n_clusters': 25, 'NN__alpha': 0.01}",34,0.656,0.74297188755,0.664,0.718875502008,0.736,0.726907630522,0.768,0.785140562249,0.69918699187,0.728,0.00411006802261,2.22601763446e-05,0.0425997479887,0.0236957311905
78,0.140259838104,0.000676393508911,0.645264847512,0.674902811245,0.01,"(25, 25)",30,"{'NN__hidden_layer_sizes': (25, 25), 'km__n_clusters': 30, 'NN__alpha': 0.01}",100,0.656,0.654618473896,0.576,0.576305220884,0.704,0.726907630522,0.592,0.670682730924,0.69918699187,0.746,0.0112599072674,7.15414665367e-05,0.0531150452061,0.0598499118155
79,0.150271987915,0.000712966918945,0.6886035313,0.701023293173,0.01,"(25, 25)",35,"{'NN__hidden_layer_sizes': (25, 25), 'km__n_clusters': 35, 'NN__alpha': 0.01}",51,0.72,0.728915662651,0.704,0.759036144578,0.624,0.604417670683,0.672,0.686746987952,0.723577235772,0.726,0.00694442354925,8.46407581107e-05,0.037142281116,0.0534860173778
80,0.16148443222,0.000695180892944,0.616372391653,0.616372690763,0.01,"(25, 25)",40,"{'NN__hidden_layer_sizes': (25, 25), 'km__n_clusters': 40, 'NN__alpha': 0.01}",121,0.616,0.616465863454,0.616,0.616465863454,0.616,0.616465863454,0.616,0.616465863454,0.617886178862,0.616,0.00794307560281,6.04990421249e-05,0.000750814039095,0.000186345381526
81,0.0546174526215,0.000825977325439,0.699839486356,0.701002409639,0.01,"(100, 25, 100)",2,"{'NN__hidden_layer_sizes': (100, 25, 100), 'km__n_clusters': 2, 'NN__alpha': 0.01}",41,0.616,0.616465863454,0.616,0.616465863454,0.776,0.734939759036,0.784,0.785140562249,0.707317073171,0.752,0.00240939988987,4.95391353738e-05,0.0735978543472,0.0708866445999
82,0.0749695301056,0.000827646255493,0.650080256822,0.656934939759,0.01,"(100, 25, 100)",5,"{'NN__hidden_layer_sizes': (100, 25, 100), 'km__n_clusters': 5, 'NN__alpha': 0.01}",99,0.616,0.616465863454,0.568,0.610441767068,0.648,0.650602409639,0.8,0.791164658635,0.617886178862,0.616,0.0142952646429,4.89490472036e-05,0.0793719890738,0.0686042985593
83,0.0812959194183,0.000848150253296,0.638844301766,0.650107630522,0.01,"(100, 25, 100)",10,"{'NN__hidden_layer_sizes': (100, 25, 100), 'km__n_clusters': 10, 'NN__alpha': 0.01}",105,0.616,0.616465863454,0.728,0.785140562249,0.616,0.616465863454,0.616,0.616465863454,0.617886178862,0.616,0.0132910289378,6.27646317099e-05,0.0446731933791,0.0675167069473
84,0.116481781006,0.000857830047607,0.762439807384,0.772083534137,0.01,"(100, 25, 100)",15,"{'NN__hidden_layer_sizes': (100, 25, 100), 'km__n_clusters': 15, 'NN__alpha': 0.01}",8,0.768,0.765060240964,0.76,0.779116465863,0.792,0.781124497992,0.736,0.779116465863,0.756097560976,0.756,0.0107154497772,4.48072183559e-05,0.0181912729993,0.00988605079996
85,0.129562044144,0.00095157623291,0.781701444623,0.776077108434,0.01,"(100, 25, 100)",20,"{'NN__hidden_layer_sizes': (100, 25, 100), 'km__n_clusters': 20, 'NN__alpha': 0.01}",1,0.776,0.746987951807,0.768,0.78313253012,0.816,0.785140562249,0.76,0.781124497992,0.788617886179,0.784,0.0278770050935,0.000102443711049,0.0195999896833,0.014603784137
86,0.136928796768,0.000880193710327,0.677367576244,0.704726104418,0.01,"(100, 25, 100)",25,"{'NN__hidden_layer_sizes': (100, 25, 100), 'km__n_clusters': 25, 'NN__alpha': 0.01}",70,0.728,0.71686746988,0.704,0.781124497992,0.616,0.612449799197,0.72,0.79718875502,0.617886178862,0.616,0.0112858680636,3.62751811414e-05,0.0497543309541,0.0786393122589
87,0.148400354385,0.000926446914673,0.669341894061,0.675672289157,0.01,"(100, 25, 100)",30,"{'NN__hidden_layer_sizes': (100, 25, 100), 'km__n_clusters': 30, 'NN__alpha': 0.01}",79,0.616,0.616465863454,0.616,0.610441767068,0.736,0.746987951807,0.616,0.616465863454,0.764227642276,0.788,0.010120704623,7.5545123014e-05,0.0661947677098,0.0761173581564
88,0.165070581436,0.000970411300659,0.706260032103,0.703119678715,0.01,"(100, 25, 100)",35,"{'NN__hidden_layer_sizes': (100, 25, 100), 'km__n_clusters': 35, 'NN__alpha': 0.01}",30,0.736,0.744979919679,0.744,0.78313253012,0.824,0.769076305221,0.608,0.602409638554,0.617886178862,0.616,0.0100522702949,8.6730295673e-05,0.0819988594476,0.0777649835751
89,0.201452970505,0.00110940933228,0.754414125201,0.763286746988,0.01,"(100, 25, 100)",40,"{'NN__hidden_layer_sizes': (100, 25, 100), 'km__n_clusters': 40, 'NN__alpha': 0.01}",15,0.736,0.738955823293,0.776,0.791164658635,0.784,0.789156626506,0.752,0.789156626506,0.723577235772,0.708,0.0143080801012,0.000244603398311,0.0229359894896,0.0339537848573
90,0.0395489692688,0.000764036178589,0.616372391653,0.616372690763,0.001,"(50, 50)",2,"{'NN__hidden_layer_sizes': (50, 50), 'km__n_clusters': 2, 'NN__alpha': 0.001}",121,0.616,0.616465863454,0.616,0.616465863454,0.616,0.616465863454,0.616,0.616465863454,0.617886178862,0.616,0.00299530978552,0.000173534177654,0.000750814039095,0.000186345381526
91,0.0609135627747,0.000788402557373,0.61316211878,0.637657831325,0.001,"(50, 50)",5,"{'NN__hidden_layer_sizes': (50, 50), 'km__n_clusters': 5, 'NN__alpha': 0.001}",137,0.616,0.616465863454,0.52,0.542168674699,0.6,0.60843373494,0.712,0.805220883534,0.617886178862,0.616,0.00902832529226,0.000120789017202,0.0611739122775,0.0882811015658
92,0.0896170139313,0.000737380981445,0.699839486356,0.714767871486,0.001,"(50, 50)",10,"{'NN__hidden_layer_sizes': (50, 50), 'km__n_clusters': 10, 'NN__alpha': 0.001}",41,0.76,0.753012048193,0.696,0.736947791165,0.72,0.740963855422,0.704,0.728915662651,0.617886178862,0.614,0.00615805306745,4.64103428389e-05,0.0462621038282,0.0509806225579
93,0.0843934059143,0.000736474990845,0.677367576244,0.676604016064,0.001,"(50, 50)",15,"{'NN__hidden_layer_sizes': (50, 50), 'km__n_clusters': 15, 'NN__alpha': 0.001}",70,0.728,0.694779116466,0.744,0.746987951807,0.616,0.616465863454,0.672,0.696787148594,0.626016260163,0.628,0.00549404276254,5.09221007444e-05,0.0518383531726,0.0483126056035
94,0.107808589935,0.00072021484375,0.686998394864,0.692963855422,0.001,"(50, 50)",20,"{'NN__hidden_layer_sizes': (50, 50), 'km__n_clusters': 20, 'NN__alpha': 0.001}",55,0.728,0.730923694779,0.592,0.692771084337,0.776,0.656626506024,0.616,0.624497991968,0.723577235772,0.76,0.00634612345901,6.20902405712e-05,0.0708021113819,0.0488729141026
95,0.122228384018,0.000700235366821,0.731942215088,0.731134136546,0.001,"(50, 50)",25,"{'NN__hidden_layer_sizes': (50, 50), 'km__n_clusters': 25, 'NN__alpha': 0.001}",23,0.776,0.775100401606,0.768,0.779116465863,0.616,0.628514056225,0.744,0.734939759036,0.756097560976,0.738,0.00371867456838,1.60772632697e-05,0.059091884955,0.0544570291491
96,0.142871379852,0.000732278823853,0.744783306581,0.731534136546,0.001,"(50, 50)",30,"{'NN__hidden_layer_sizes': (50, 50), 'km__n_clusters': 30, 'NN__alpha': 0.001}",17,0.712,0.714859437751,0.736,0.781124497992,0.832,0.777108433735,0.704,0.644578313253,0.739837398374,0.74,0.00985469853947,2.97756457144e-05,0.0457810582492,0.0498943927533
97,0.152937841415,0.000820779800415,0.704654895666,0.711848995984,0.001,"(50, 50)",35,"{'NN__hidden_layer_sizes': (50, 50), 'km__n_clusters': 35, 'NN__alpha': 0.001}",34,0.64,0.620481927711,0.696,0.68875502008,0.744,0.724899598394,0.688,0.777108433735,0.756097560976,0.748,0.00766547645332,0.000136153717819,0.0417431951241,0.0540689937359
98,0.18156080246,0.000752401351929,0.757624398074,0.778896385542,0.001,"(50, 50)",40,"{'NN__hidden_layer_sizes': (50, 50), 'km__n_clusters': 40, 'NN__alpha': 0.001}",10,0.784,0.785140562249,0.752,0.787148594378,0.752,0.761044176707,0.744,0.787148594378,0.756097560976,0.774,0.00746291975275,5.77405105676e-05,0.0137833081107,0.0101770682984
99,0.0324113845825,0.000540018081665,0.616372391653,0.616372690763,0.001,"(50,)",2,"{'NN__hidden_layer_sizes': (50,), 'km__n_clusters': 2, 'NN__alpha': 0.001}",121,0.616,0.616465863454,0.616,0.616465863454,0.616,0.616465863454,0.616,0.616465863454,0.617886178862,0.616,0.00217166931404,4.80873193187e-06,0.000750814039095,0.000186345381526
100,0.046507358551,0.000630474090576,0.658105939005,0.652432128514,0.001,"(50,)",5,"{'NN__hidden_layer_sizes': (50,), 'km__n_clusters': 5, 'NN__alpha': 0.001}",89,0.656,0.680722891566,0.616,0.616465863454,0.616,0.616465863454,0.688,0.626506024096,0.715447154472,0.722,0.00488833215336,8.25667463557e-05,0.0392529476973,0.0421885371925
101,0.0595383167267,0.000616025924683,0.609951845907,0.612761445783,0.001,"(50,)",10,"{'NN__hidden_layer_sizes': (50,), 'km__n_clusters': 10, 'NN__alpha': 0.001}",141,0.616,0.616465863454,0.616,0.616465863454,0.6,0.602409638554,0.616,0.616465863454,0.60162601626,0.612,0.000572624557079,4.78675160952e-05,0.00745492163257,0.00545724918658
102,0.07901263237,0.000594329833984,0.680577849117,0.688933333333,0.001,"(50,)",15,"{'NN__hidden_layer_sizes': (50,), 'km__n_clusters': 15, 'NN__alpha': 0.001}",65,0.6,0.63453815261,0.664,0.656626506024,0.616,0.616465863454,0.744,0.759036144578,0.780487804878,0.778,0.00380665950064,2.22184626314e-05,0.0705154291668,0.066485150557
103,0.0928482055664,0.000622415542603,0.574638844302,0.601669076305,0.001,"(50,)",20,"{'NN__hidden_layer_sizes': (50,), 'km__n_clusters': 20, 'NN__alpha': 0.001}",161,0.568,0.64859437751,0.672,0.708835341365,0.624,0.604417670683,0.616,0.624497991968,0.390243902439,0.422,0.00491609948505,4.6695141508e-05,0.0972412486792,0.0964326536002
104,0.106899261475,0.000599336624146,0.585874799358,0.590454618474,0.001,"(50,)",25,"{'NN__hidden_layer_sizes': (50,), 'km__n_clusters': 25, 'NN__alpha': 0.001}",149,0.6,0.620481927711,0.728,0.755020080321,0.616,0.598393574297,0.6,0.59437751004,0.382113821138,0.384,0.00258057107671,6.57862488548e-06,0.111857566993,0.118899416416
105,0.131756019592,0.000623989105225,0.715890850722,0.740353413655,0.001,"(50,)",30,"{'NN__hidden_layer_sizes': (50,), 'km__n_clusters': 30, 'NN__alpha': 0.001}",25,0.784,0.767068273092,0.736,0.769076305221,0.752,0.779116465863,0.584,0.626506024096,0.723577235772,0.76,0.00414314040897,1.01616672336e-05,0.0691040409648,0.0572511639978
106,0.140474748611,0.000650691986084,0.569823434992,0.569972690763,0.001,"(50,)",35,"{'NN__hidden_layer_sizes': (50,), 'km__n_clusters': 35, 'NN__alpha': 0.001}",165,0.616,0.616465863454,0.616,0.616465863454,0.616,0.616465863454,0.616,0.616465863454,0.382113821138,0.384,0.00770587188761,4.70523520705e-05,0.0931009408478,0.0929863453815
107,0.158322668076,0.000700426101685,0.686998394864,0.68216064257,0.001,"(50,)",40,"{'NN__hidden_layer_sizes': (50,), 'km__n_clusters': 40, 'NN__alpha': 0.001}",55,0.736,0.692771084337,0.616,0.618473895582,0.624,0.588353413655,0.72,0.801204819277,0.739837398374,0.71,0.00714427140398,8.3246727635e-05,0.0553101607764,0.0747193753228
108,0.038748216629,0.000635147094727,0.621187800963,0.620790361446,0.001,"(25,)",2,"{'NN__hidden_layer_sizes': (25,), 'km__n_clusters': 2, 'NN__alpha': 0.001}",115,0.616,0.616465863454,0.64,0.638554216867,0.616,0.616465863454,0.616,0.616465863454,0.617886178862,0.616,0.00318919621613,0.000142258594361,0.00945298587046,0.00888376013714
109,0.0445642948151,0.000618553161621,0.439807383628,0.447884337349,0.001,"(25,)",5,"{'NN__hidden_layer_sizes': (25,), 'km__n_clusters': 5, 'NN__alpha': 0.001}",177,0.384,0.383534136546,0.384,0.383534136546,0.384,0.383534136546,0.664,0.704819277108,0.382113821138,0.384,0.00400587934711,0.000126906570395,0.112323530075,0.128467596582
110,0.0563986778259,0.000538730621338,0.600321027287,0.602340562249,0.001,"(25,)",10,"{'NN__hidden_layer_sizes': (25,), 'km__n_clusters': 10, 'NN__alpha': 0.001}",145,0.616,0.60843373494,0.616,0.606425702811,0.456,0.465863453815,0.736,0.744979919679,0.577235772358,0.586,0.00231314236934,5.67135611016e-06,0.0898694936781,0.0886485380769
111,0.0746453762054,0.000573396682739,0.560192616372,0.56137188755,0.001,"(25,)",15,"{'NN__hidden_layer_sizes': (25,), 'km__n_clusters': 15, 'NN__alpha': 0.001}",169,0.568,0.550200803213,0.616,0.606425702811,0.416,0.449799196787,0.576,0.60843373494,0.626016260163,0.592,0.00609620472393,2.41573441295e-05,0.0755932016289,0.059591951589
112,0.0934677600861,0.00067400932312,0.584269662921,0.585890763052,0.001,"(25,)",20,"{'NN__hidden_layer_sizes': (25,), 'km__n_clusters': 20, 'NN__alpha': 0.001}",153,0.616,0.614457831325,0.4,0.375502008032,0.616,0.616465863454,0.704,0.75702811245,0.585365853659,0.566,0.00652784845319,0.000111911862655,0.100465882345,0.123043063361
113,0.116496801376,0.000580406188965,0.664526484751,0.672515662651,0.001,"(25,)",25,"{'NN__hidden_layer_sizes': (25,), 'km__n_clusters': 25, 'NN__alpha': 0.001}",80,0.696,0.682730923695,0.648,0.646586345382,0.616,0.616465863454,0.656,0.698795180723,0.707317073171,0.718,0.00863333129822,4.62704066113e-06,0.0331981907602,0.0365450381214
114,0.143826389313,0.000689029693604,0.621187800963,0.638803212851,0.001,"(25,)",30,"{'NN__hidden_layer_sizes': (25,), 'km__n_clusters': 30, 'NN__alpha': 0.001}",115,0.696,0.654618473896,0.568,0.578313253012,0.528,0.588353413655,0.68,0.682730923695,0.634146341463,0.69,0.0211478069091,0.000151793977559,0.0644987545941,0.0469150183982
115,0.154179191589,0.000786447525024,0.656500802568,0.649304417671,0.001,"(25,)",35,"{'NN__hidden_layer_sizes': (25,), 'km__n_clusters': 35, 'NN__alpha': 0.001}",94,0.808,0.755020080321,0.624,0.640562248996,0.616,0.616465863454,0.616,0.618473895582,0.617886178862,0.616,0.0181485370668,0.000184727268976,0.0759585227603,0.0536475587785
116,0.162199783325,0.000642824172974,0.577849117175,0.570212048193,0.001,"(25,)",40,"{'NN__hidden_layer_sizes': (25,), 'km__n_clusters': 40, 'NN__alpha': 0.001}",157,0.384,0.385542168675,0.616,0.616465863454,0.672,0.680722891566,0.624,0.582329317269,0.593495934959,0.586,0.00746351527741,4.08545105744e-05,0.100428624495,0.0988444373373
117,0.0362748146057,0.00067720413208,0.616372391653,0.616372690763,0.001,"(25, 25)",2,"{'NN__hidden_layer_sizes': (25, 25), 'km__n_clusters': 2, 'NN__alpha': 0.001}",121,0.616,0.616465863454,0.616,0.616465863454,0.616,0.616465863454,0.616,0.616465863454,0.617886178862,0.616,0.000829635549356,5.87196645623e-05,0.000750814039095,0.000186345381526
118,0.0478643417358,0.000672245025635,0.555377207063,0.56778313253,0.001,"(25, 25)",5,"{'NN__hidden_layer_sizes': (25, 25), 'km__n_clusters': 5, 'NN__alpha': 0.001}",173,0.584,0.586345381526,0.592,0.568273092369,0.664,0.664658634538,0.336,0.409638554217,0.60162601626,0.61,0.00203517488011,0.000147932271102,0.113487057829,0.0854653515603
119,0.0643411159515,0.000603008270264,0.664526484751,0.665368674699,0.001,"(25, 25)",10,"{'NN__hidden_layer_sizes': (25, 25), 'km__n_clusters': 10, 'NN__alpha': 0.001}",80,0.616,0.616465863454,0.616,0.616465863454,0.728,0.712851405622,0.744,0.765060240964,0.617886178862,0.616,0.00730755031265,6.3050783829e-06,0.0587371775768,0.062310920483
120,0.0854094028473,0.000615215301514,0.686998394864,0.69376064257,0.001,"(25, 25)",15,"{'NN__hidden_layer_sizes': (25, 25), 'km__n_clusters': 15, 'NN__alpha': 0.001}",55,0.592,0.628514056225,0.616,0.616465863454,0.672,0.690763052209,0.768,0.765060240964,0.788617886179,0.768,0.00818929370799,1.3825482053e-05,0.0788828698469,0.0645533893441
121,0.0956718444824,0.000626945495605,0.635634028892,0.634430522088,0.001,"(25, 25)",20,"{'NN__hidden_layer_sizes': (25, 25), 'km__n_clusters': 20, 'NN__alpha': 0.001}",109,0.72,0.706827309237,0.616,0.616465863454,0.624,0.604417670683,0.576,0.610441767068,0.642276422764,0.634,0.00553743692301,5.95302117035e-06,0.0474850987349,0.0375245005709
122,0.127675628662,0.000691652297974,0.70304975923,0.73997751004,0.001,"(25, 25)",25,"{'NN__hidden_layer_sizes': (25, 25), 'km__n_clusters': 25, 'NN__alpha': 0.001}",38,0.656,0.74297188755,0.664,0.718875502008,0.736,0.726907630522,0.76,0.78313253012,0.69918699187,0.728,0.00357086646181,5.56632584197e-05,0.0402696919174,0.0229386106605
123,0.13814239502,0.000693416595459,0.645264847512,0.674902811245,0.001,"(25, 25)",30,"{'NN__hidden_layer_sizes': (25, 25), 'km__n_clusters': 30, 'NN__alpha': 0.001}",100,0.656,0.654618473896,0.576,0.576305220884,0.704,0.726907630522,0.592,0.670682730924,0.69918699187,0.746,0.00939959799497,7.6225011201e-05,0.0531150452061,0.0598499118155
124,0.145292139053,0.000697803497314,0.6886035313,0.701023293173,0.001,"(25, 25)",35,"{'NN__hidden_layer_sizes': (25, 25), 'km__n_clusters': 35, 'NN__alpha': 0.001}",51,0.72,0.728915662651,0.704,0.759036144578,0.624,0.604417670683,0.672,0.686746987952,0.723577235772,0.726,0.0100353900236,0.00010067210316,0.037142281116,0.0534860173778
125,0.15334239006,0.000643014907837,0.616372391653,0.616372690763,0.001,"(25, 25)",40,"{'NN__hidden_layer_sizes': (25, 25), 'km__n_clusters': 40, 'NN__alpha': 0.001}",121,0.616,0.616465863454,0.616,0.616465863454,0.616,0.616465863454,0.616,0.616465863454,0.617886178862,0.616,0.00333345213976,5.18416516301e-06,0.000750814039095,0.000186345381526
126,0.0532442092896,0.000861358642578,0.699839486356,0.701002409639,0.001,"(100, 25, 100)",2,"{'NN__hidden_layer_sizes': (100, 25, 100), 'km__n_clusters': 2, 'NN__alpha': 0.001}",41,0.616,0.616465863454,0.616,0.616465863454,0.776,0.734939759036,0.784,0.785140562249,0.707317073171,0.752,0.00145288384257,7.28131121252e-05,0.0735978543472,0.0708866445999
127,0.0686889648438,0.000861692428589,0.658105939005,0.663762248996,0.001,"(100, 25, 100)",5,"{'NN__hidden_layer_sizes': (100, 25, 100), 'km__n_clusters': 5, 'NN__alpha': 0.001}",89,0.616,0.616465863454,0.576,0.598393574297,0.68,0.696787148594,0.8,0.791164658635,0.617886178862,0.616,0.0205604160541,9.86778064368e-05,0.0785085144448,0.0722679211291
128,0.0818606376648,0.000853204727173,0.638844301766,0.650107630522,0.001,"(100, 25, 100)",10,"{'NN__hidden_layer_sizes': (100, 25, 100), 'km__n_clusters': 10, 'NN__alpha': 0.001}",105,0.616,0.616465863454,0.728,0.785140562249,0.616,0.616465863454,0.616,0.616465863454,0.617886178862,0.616,0.013967544177,6.92274281758e-05,0.0446731933791,0.0675167069473
129,0.11578836441,0.000903940200806,0.76404494382,0.773689959839,0.001,"(100, 25, 100)",15,"{'NN__hidden_layer_sizes': (100, 25, 100), 'km__n_clusters': 15, 'NN__alpha': 0.001}",5,0.784,0.771084337349,0.76,0.781124497992,0.784,0.781124497992,0.736,0.779116465863,0.756097560976,0.756,0.00995804160972,9.68296018046e-05,0.0182580008322,0.00958869783019
130,0.122694444656,0.000935506820679,0.781701444623,0.774470682731,0.001,"(100, 25, 100)",20,"{'NN__hidden_layer_sizes': (100, 25, 100), 'km__n_clusters': 20, 'NN__alpha': 0.001}",1,0.776,0.746987951807,0.76,0.775100401606,0.824,0.785140562249,0.76,0.781124497992,0.788617886179,0.784,0.0180633561335,9.06127869095e-05,0.0237473130371,0.0141747981923
131,0.130457544327,0.000911474227905,0.674157303371,0.703922891566,0.001,"(100, 25, 100)",25,"{'NN__hidden_layer_sizes': (100, 25, 100), 'km__n_clusters': 25, 'NN__alpha': 0.001}",74,0.72,0.710843373494,0.704,0.781124497992,0.616,0.612449799197,0.712,0.799196787149,0.617886178862,0.616,0.0115117466333,0.000129851084613,0.0468130769099,0.0789719668911
132,0.148473453522,0.000900411605835,0.672552166934,0.676475502008,0.001,"(100, 25, 100)",30,"{'NN__hidden_layer_sizes': (100, 25, 100), 'km__n_clusters': 30, 'NN__alpha': 0.001}",77,0.616,0.616465863454,0.616,0.610441767068,0.752,0.751004016064,0.616,0.616465863454,0.764227642276,0.788,0.0195819784045,9.44035938842e-05,0.0696475929573,0.0768830028663
133,0.161974191666,0.000887155532837,0.706260032103,0.703922891566,0.001,"(100, 25, 100)",35,"{'NN__hidden_layer_sizes': (100, 25, 100), 'km__n_clusters': 35, 'NN__alpha': 0.001}",30,0.736,0.744979919679,0.744,0.78313253012,0.824,0.773092369478,0.608,0.602409638554,0.617886178862,0.616,0.00904672797018,3.43319442521e-05,0.0819988594476,0.0784597202013
134,0.188050222397,0.000888204574585,0.757624398074,0.763688353414,0.001,"(100, 25, 100)",40,"{'NN__hidden_layer_sizes': (100, 25, 100), 'km__n_clusters': 40, 'NN__alpha': 0.001}",10,0.736,0.736947791165,0.776,0.791164658635,0.784,0.787148594378,0.768,0.795180722892,0.723577235772,0.708,0.0100449038589,7.96417983861e-06,0.0234865520379,0.0349666983438
135,0.0374573230743,0.000648641586304,0.616372391653,0.616372690763,0.0001,"(50, 50)",2,"{'NN__hidden_layer_sizes': (50, 50), 'km__n_clusters': 2, 'NN__alpha': 0.0001}",121,0.616,0.616465863454,0.616,0.616465863454,0.616,0.616465863454,0.616,0.616465863454,0.617886178862,0.616,0.00214363625254,2.56282118242e-05,0.000750814039095,0.000186345381526
136,0.0555763244629,0.000745105743408,0.61316211878,0.637657831325,0.0001,"(50, 50)",5,"{'NN__hidden_layer_sizes': (50, 50), 'km__n_clusters': 5, 'NN__alpha': 0.0001}",137,0.616,0.616465863454,0.52,0.542168674699,0.6,0.60843373494,0.712,0.805220883534,0.617886178862,0.616,0.00517892135944,0.000107651984406,0.0611739122775,0.0882811015658
137,0.0745021820068,0.000732803344727,0.699839486356,0.714767871486,0.0001,"(50, 50)",10,"{'NN__hidden_layer_sizes': (50, 50), 'km__n_clusters': 10, 'NN__alpha': 0.0001}",41,0.76,0.753012048193,0.696,0.736947791165,0.72,0.740963855422,0.704,0.728915662651,0.617886178862,0.614,0.00697881361286,0.00010048381187,0.0462621038282,0.0509806225579
138,0.0809019088745,0.000674486160278,0.678972712681,0.67700562249,0.0001,"(50, 50)",15,"{'NN__hidden_layer_sizes': (50, 50), 'km__n_clusters': 15, 'NN__alpha': 0.0001}",69,0.728,0.694779116466,0.744,0.746987951807,0.616,0.616465863454,0.68,0.698795180723,0.626016260163,0.628,0.00681522472953,6.21353764697e-06,0.0517711126377,0.0484867441938
139,0.101877832413,0.000710248947144,0.686998394864,0.692562248996,0.0001,"(50, 50)",20,"{'NN__hidden_layer_sizes': (50, 50), 'km__n_clusters': 20, 'NN__alpha': 0.0001}",55,0.728,0.730923694779,0.592,0.690763052209,0.776,0.656626506024,0.616,0.624497991968,0.723577235772,0.76,0.00539688914147,4.80482945963e-05,0.0708021113819,0.0488810977779
140,0.118977975845,0.00075159072876,0.733547351525,0.732338955823,0.0001,"(50, 50)",25,"{'NN__hidden_layer_sizes': (50, 50), 'km__n_clusters': 25, 'NN__alpha': 0.0001}",21,0.776,0.775100401606,0.768,0.779116465863,0.616,0.63453815261,0.752,0.734939759036,0.756097560976,0.738,0.00604395349175,8.52063572242e-05,0.0595048256519,0.0521928834203
141,0.13731880188,0.000700664520264,0.749598715891,0.731934136546,0.0001,"(50, 50)",30,"{'NN__hidden_layer_sizes': (50, 50), 'km__n_clusters': 30, 'NN__alpha': 0.0001}",16,0.712,0.714859437751,0.736,0.781124497992,0.832,0.777108433735,0.704,0.644578313253,0.764227642276,0.742,0.00817097899201,7.46885918553e-06,0.0462875036084,0.0499686213436
142,0.155180692673,0.000823259353638,0.70304975923,0.713855421687,0.0001,"(50, 50)",35,"{'NN__hidden_layer_sizes': (50, 50), 'km__n_clusters': 35, 'NN__alpha': 0.0001}",38,0.64,0.620481927711,0.696,0.692771084337,0.744,0.724899598394,0.68,0.781124497992,0.756097560976,0.75,0.00954066704373,4.38358347235e-05,0.0424997144395,0.0549848918636
143,0.183226537704,0.000764656066895,0.757624398074,0.778896385542,0.0001,"(50, 50)",40,"{'NN__hidden_layer_sizes': (50, 50), 'km__n_clusters': 40, 'NN__alpha': 0.0001}",10,0.784,0.785140562249,0.752,0.787148594378,0.752,0.761044176707,0.744,0.787148594378,0.756097560976,0.774,0.0085301653661,6.13210360699e-05,0.0137833081107,0.0101770682984
144,0.0328074932098,0.00064868927002,0.616372391653,0.616372690763,0.0001,"(50,)",2,"{'NN__hidden_layer_sizes': (50,), 'km__n_clusters': 2, 'NN__alpha': 0.0001}",121,0.616,0.616465863454,0.616,0.616465863454,0.616,0.616465863454,0.616,0.616465863454,0.617886178862,0.616,0.00177424047802,8.31431460636e-05,0.000750814039095,0.000186345381526
145,0.0460259914398,0.000628852844238,0.658105939005,0.65283373494,0.0001,"(50,)",5,"{'NN__hidden_layer_sizes': (50,), 'km__n_clusters': 5, 'NN__alpha': 0.0001}",89,0.656,0.682730923695,0.616,0.616465863454,0.616,0.616465863454,0.688,0.626506024096,0.715447154472,0.722,0.00170716051745,8.43362512257e-05,0.0392529476973,0.0424645890806
146,0.0599714279175,0.000672435760498,0.609951845907,0.612761445783,0.0001,"(50,)",10,"{'NN__hidden_layer_sizes': (50,), 'km__n_clusters': 10, 'NN__alpha': 0.0001}",141,0.616,0.616465863454,0.616,0.616465863454,0.6,0.602409638554,0.616,0.616465863454,0.60162601626,0.612,0.00196000375183,0.00012157585914,0.00745492163257,0.00545724918658
147,0.081817817688,0.000612020492554,0.680577849117,0.688933333333,0.0001,"(50,)",15,"{'NN__hidden_layer_sizes': (50,), 'km__n_clusters': 15, 'NN__alpha': 0.0001}",65,0.6,0.63453815261,0.664,0.656626506024,0.616,0.616465863454,0.744,0.759036144578,0.780487804878,0.778,0.00396856374036,3.07228960039e-05,0.0705154291668,0.066485150557
148,0.0929769515991,0.000665044784546,0.574638844302,0.601669076305,0.0001,"(50,)",20,"{'NN__hidden_layer_sizes': (50,), 'km__n_clusters': 20, 'NN__alpha': 0.0001}",161,0.568,0.64859437751,0.672,0.708835341365,0.624,0.604417670683,0.616,0.624497991968,0.390243902439,0.422,0.00412343590986,7.95604763251e-05,0.0972412486792,0.0964326536002
149,0.110462093353,0.000605869293213,0.585874799358,0.590454618474,0.0001,"(50,)",25,"{'NN__hidden_layer_sizes': (50,), 'km__n_clusters': 25, 'NN__alpha': 0.0001}",149,0.6,0.620481927711,0.728,0.755020080321,0.616,0.598393574297,0.6,0.59437751004,0.382113821138,0.384,0.00449700566749,4.82855016335e-06,0.111857566993,0.118899416416
150,0.134342765808,0.000638961791992,0.715890850722,0.740353413655,0.0001,"(50,)",30,"{'NN__hidden_layer_sizes': (50,), 'km__n_clusters': 30, 'NN__alpha': 0.0001}",25,0.784,0.767068273092,0.736,0.769076305221,0.752,0.779116465863,0.584,0.626506024096,0.723577235772,0.76,0.00307602933573,2.37151594177e-05,0.0691040409648,0.0572511639978
151,0.145631933212,0.000755739212036,0.569823434992,0.569972690763,0.0001,"(50,)",35,"{'NN__hidden_layer_sizes': (50,), 'km__n_clusters': 35, 'NN__alpha': 0.0001}",165,0.616,0.616465863454,0.616,0.616465863454,0.616,0.616465863454,0.616,0.616465863454,0.382113821138,0.384,0.00373999307486,0.000142562380901,0.0931009408478,0.0929863453815
152,0.15756816864,0.000754451751709,0.686998394864,0.68216064257,0.0001,"(50,)",40,"{'NN__hidden_layer_sizes': (50,), 'km__n_clusters': 40, 'NN__alpha': 0.0001}",55,0.736,0.692771084337,0.616,0.618473895582,0.624,0.588353413655,0.72,0.801204819277,0.739837398374,0.71,0.00538106397198,8.7031677523e-05,0.0553101607764,0.0747193753228
153,0.0367541790009,0.000550556182861,0.621187800963,0.620790361446,0.0001,"(25,)",2,"{'NN__hidden_layer_sizes': (25,), 'km__n_clusters': 2, 'NN__alpha': 0.0001}",115,0.616,0.616465863454,0.64,0.638554216867,0.616,0.616465863454,0.616,0.616465863454,0.617886178862,0.616,0.00506380854489,4.34394202016e-05,0.00945298587046,0.00888376013714
154,0.0450264453888,0.000555419921875,0.439807383628,0.447884337349,0.0001,"(25,)",5,"{'NN__hidden_layer_sizes': (25,), 'km__n_clusters': 5, 'NN__alpha': 0.0001}",177,0.384,0.383534136546,0.384,0.383534136546,0.384,0.383534136546,0.664,0.704819277108,0.382113821138,0.384,0.00545382812604,3.3416249977e-05,0.112323530075,0.128467596582
155,0.0586326122284,0.000562810897827,0.600321027287,0.602340562249,0.0001,"(25,)",10,"{'NN__hidden_layer_sizes': (25,), 'km__n_clusters': 10, 'NN__alpha': 0.0001}",145,0.616,0.60843373494,0.616,0.606425702811,0.456,0.465863453815,0.736,0.744979919679,0.577235772358,0.586,0.00164262477285,2.99279806323e-05,0.0898694936781,0.0886485380769
156,0.0715599060059,0.000551652908325,0.560192616372,0.56137188755,0.0001,"(25,)",15,"{'NN__hidden_layer_sizes': (25,), 'km__n_clusters': 15, 'NN__alpha': 0.0001}",169,0.568,0.550200803213,0.616,0.606425702811,0.416,0.449799196787,0.576,0.60843373494,0.626016260163,0.592,0.00600462162121,1.30294390145e-05,0.0755932016289,0.059591951589
157,0.0884606361389,0.000631809234619,0.584269662921,0.585890763052,0.0001,"(25,)",20,"{'NN__hidden_layer_sizes': (25,), 'km__n_clusters': 20, 'NN__alpha': 0.0001}",153,0.616,0.614457831325,0.4,0.375502008032,0.616,0.616465863454,0.704,0.75702811245,0.585365853659,0.566,0.00736729189077,5.65475393794e-05,0.100465882345,0.123043063361
158,0.107719993591,0.000587606430054,0.664526484751,0.672515662651,0.0001,"(25,)",25,"{'NN__hidden_layer_sizes': (25,), 'km__n_clusters': 25, 'NN__alpha': 0.0001}",80,0.696,0.682730923695,0.648,0.646586345382,0.616,0.616465863454,0.656,0.698795180723,0.707317073171,0.718,0.00892266966638,2.64954171129e-05,0.0331981907602,0.0365450381214
159,0.144966840744,0.00100736618042,0.621187800963,0.638803212851,0.0001,"(25,)",30,"{'NN__hidden_layer_sizes': (25,), 'km__n_clusters': 30, 'NN__alpha': 0.0001}",115,0.696,0.654618473896,0.568,0.578313253012,0.528,0.588353413655,0.68,0.682730923695,0.634146341463,0.69,0.00781045587534,0.000826375240794,0.0644987545941,0.0469150183982
160,0.149969768524,0.000608062744141,0.656500802568,0.649304417671,0.0001,"(25,)",35,"{'NN__hidden_layer_sizes': (25,), 'km__n_clusters': 35, 'NN__alpha': 0.0001}",94,0.808,0.755020080321,0.624,0.640562248996,0.616,0.616465863454,0.616,0.618473895582,0.617886178862,0.616,0.0138129043499,1.55346491485e-05,0.0759585227603,0.0536475587785
161,0.162182760239,0.000829172134399,0.577849117175,0.570212048193,0.0001,"(25,)",40,"{'NN__hidden_layer_sizes': (25,), 'km__n_clusters': 40, 'NN__alpha': 0.0001}",157,0.384,0.385542168675,0.616,0.616465863454,0.672,0.680722891566,0.624,0.582329317269,0.593495934959,0.586,0.00516970428591,0.000126314550221,0.100428624495,0.0988444373373
162,0.0351959228516,0.000587368011475,0.616372391653,0.616372690763,0.0001,"(25, 25)",2,"{'NN__hidden_layer_sizes': (25, 25), 'km__n_clusters': 2, 'NN__alpha': 0.0001}",121,0.616,0.616465863454,0.616,0.616465863454,0.616,0.616465863454,0.616,0.616465863454,0.617886178862,0.616,0.00127559796849,2.46080315113e-05,0.000750814039095,0.000186345381526
163,0.048744392395,0.000648355484009,0.555377207063,0.56778313253,0.0001,"(25, 25)",5,"{'NN__hidden_layer_sizes': (25, 25), 'km__n_clusters': 5, 'NN__alpha': 0.0001}",173,0.584,0.586345381526,0.592,0.568273092369,0.664,0.664658634538,0.336,0.409638554217,0.60162601626,0.61,0.00403640915889,7.64556898793e-05,0.113487057829,0.0854653515603
164,0.0659016609192,0.00071439743042,0.664526484751,0.665368674699,0.0001,"(25, 25)",10,"{'NN__hidden_layer_sizes': (25, 25), 'km__n_clusters': 10, 'NN__alpha': 0.0001}",80,0.616,0.616465863454,0.616,0.616465863454,0.728,0.712851405622,0.744,0.765060240964,0.617886178862,0.616,0.00772882879399,0.000148837796881,0.0587371775768,0.062310920483
165,0.0883339881897,0.00064959526062,0.686998394864,0.695768674699,0.0001,"(25, 25)",15,"{'NN__hidden_layer_sizes': (25, 25), 'km__n_clusters': 15, 'NN__alpha': 0.0001}",55,0.592,0.628514056225,0.616,0.616465863454,0.672,0.700803212851,0.768,0.765060240964,0.788617886179,0.768,0.00688150425587,7.75762326486e-05,0.0788828698469,0.0645850627654
166,0.0954051971436,0.00080885887146,0.635634028892,0.634430522088,0.0001,"(25, 25)",20,"{'NN__hidden_layer_sizes': (25, 25), 'km__n_clusters': 20, 'NN__alpha': 0.0001}",109,0.72,0.706827309237,0.616,0.616465863454,0.624,0.604417670683,0.576,0.610441767068,0.642276422764,0.634,0.0031967585387,0.00023295228224,0.0474850987349,0.0375245005709
167,0.126426696777,0.000688886642456,0.704654895666,0.740780722892,0.0001,"(25, 25)",25,"{'NN__hidden_layer_sizes': (25, 25), 'km__n_clusters': 25, 'NN__alpha': 0.0001}",34,0.656,0.744979919679,0.664,0.718875502008,0.736,0.726907630522,0.768,0.785140562249,0.69918699187,0.728,0.00292527817238,0.000112184249072,0.0425997479887,0.0237532181944
168,0.140217638016,0.000639581680298,0.645264847512,0.674902811245,0.0001,"(25, 25)",30,"{'NN__hidden_layer_sizes': (25, 25), 'km__n_clusters': 30, 'NN__alpha': 0.0001}",100,0.656,0.654618473896,0.576,0.576305220884,0.704,0.726907630522,0.592,0.670682730924,0.69918699187,0.746,0.0118730317843,5.82366357451e-06,0.0531150452061,0.0598499118155
169,0.151913404465,0.000667190551758,0.6886035313,0.701023293173,0.0001,"(25, 25)",35,"{'NN__hidden_layer_sizes': (25, 25), 'km__n_clusters': 35, 'NN__alpha': 0.0001}",51,0.72,0.728915662651,0.704,0.759036144578,0.624,0.604417670683,0.672,0.686746987952,0.723577235772,0.726,0.00891661680256,4.49434135952e-05,0.037142281116,0.0534860173778
170,0.156186199188,0.000678586959839,0.616372391653,0.616372690763,0.0001,"(25, 25)",40,"{'NN__hidden_layer_sizes': (25, 25), 'km__n_clusters': 40, 'NN__alpha': 0.0001}",121,0.616,0.616465863454,0.616,0.616465863454,0.616,0.616465863454,0.616,0.616465863454,0.617886178862,0.616,0.00231485329987,5.00030097053e-05,0.000750814039095,0.000186345381526
171,0.0522977828979,0.000828647613525,0.699839486356,0.701002409639,0.0001,"(100, 25, 100)",2,"{'NN__hidden_layer_sizes': (100, 25, 100), 'km__n_clusters': 2, 'NN__alpha': 0.0001}",41,0.616,0.616465863454,0.616,0.616465863454,0.776,0.734939759036,0.784,0.785140562249,0.707317073171,0.752,0.00281005745309,8.91387859183e-05,0.0735978543472,0.0708866445999
172,0.0775129795074,0.000940418243408,0.651685393258,0.658139759036,0.0001,"(100, 25, 100)",5,"{'NN__hidden_layer_sizes': (100, 25, 100), 'km__n_clusters': 5, 'NN__alpha': 0.0001}",98,0.616,0.616465863454,0.576,0.616465863454,0.648,0.650602409639,0.8,0.791164658635,0.617886178862,0.616,0.0152305594298,0.000243342695666,0.0777603835905,0.0678256912781
173,0.0954314231873,0.000965976715088,0.638844301766,0.650107630522,0.0001,"(100, 25, 100)",10,"{'NN__hidden_layer_sizes': (100, 25, 100), 'km__n_clusters': 10, 'NN__alpha': 0.0001}",105,0.616,0.616465863454,0.728,0.785140562249,0.616,0.616465863454,0.616,0.616465863454,0.617886178862,0.616,0.0232726662151,0.000290365429133,0.0446731933791,0.0675167069473
174,0.118876647949,0.000947761535645,0.76404494382,0.772083534137,0.0001,"(100, 25, 100)",15,"{'NN__hidden_layer_sizes': (100, 25, 100), 'km__n_clusters': 15, 'NN__alpha': 0.0001}",5,0.784,0.771084337349,0.76,0.781124497992,0.784,0.773092369478,0.736,0.779116465863,0.756097560976,0.756,0.0132817765001,0.000150989445201,0.0182580008322,0.00885321827809
175,0.138149785995,0.000972700119019,0.780096308186,0.776077108434,0.0001,"(100, 25, 100)",20,"{'NN__hidden_layer_sizes': (100, 25, 100), 'km__n_clusters': 20, 'NN__alpha': 0.0001}",3,0.776,0.746987951807,0.768,0.78313253012,0.816,0.785140562249,0.76,0.781124497992,0.780487804878,0.784,0.0153882221269,8.9602561624e-05,0.0192984288901,0.014603784137
176,0.134588050842,0.000929164886475,0.674157303371,0.703922891566,0.0001,"(100, 25, 100)",25,"{'NN__hidden_layer_sizes': (100, 25, 100), 'km__n_clusters': 25, 'NN__alpha': 0.0001}",74,0.72,0.710843373494,0.704,0.781124497992,0.616,0.612449799197,0.712,0.799196787149,0.617886178862,0.616,0.0101892020613,0.000122977255292,0.0468130769099,0.0789719668911
177,0.149415397644,0.000931692123413,0.672552166934,0.676475502008,0.0001,"(100, 25, 100)",30,"{'NN__hidden_layer_sizes': (100, 25, 100), 'km__n_clusters': 30, 'NN__alpha': 0.0001}",77,0.616,0.616465863454,0.616,0.610441767068,0.752,0.751004016064,0.616,0.616465863454,0.764227642276,0.788,0.017762037597,0.000112947655813,0.0696475929573,0.0768830028663
178,0.172680664062,0.0011447429657,0.706260032103,0.703922891566,0.0001,"(100, 25, 100)",35,"{'NN__hidden_layer_sizes': (100, 25, 100), 'km__n_clusters': 35, 'NN__alpha': 0.0001}",30,0.736,0.744979919679,0.744,0.78313253012,0.824,0.773092369478,0.608,0.602409638554,0.617886178862,0.616,0.0145707257591,0.000224061899137,0.0819988594476,0.0784597202013
179,0.199255037308,0.000954389572144,0.757624398074,0.763688353414,0.0001,"(100, 25, 100)",40,"{'NN__hidden_layer_sizes': (100, 25, 100), 'km__n_clusters': 40, 'NN__alpha': 0.0001}",10,0.736,0.736947791165,0.776,0.791164658635,0.784,0.787148594378,0.768,0.795180722892,0.723577235772,0.708,0.0109904167234,0.000114473397891,0.0234865520379,0.0349666983438
