,x,y,target
0,-55.2672691345,-27.7133922577,0.0
1,-1.22368073463,21.1622333527,1.0
2,16.7449760437,11.5427436829,2.0
3,12.2083730698,-30.9745388031,3.0
4,-8.70030593872,45.5554084778,4.0
5,2.31124734879,-34.3781509399,5.0
6,-36.1377906799,17.5229644775,6.0
7,28.9570426941,42.5269470215,7.0
8,8.52208137512,-4.69182872772,8.0
9,1.85970807076,-32.7432746887,9.0
10,-51.822883606,-28.2807922363,0.0
11,-2.95010900497,29.9118385315,1.0
12,47.7314720154,-11.6852359772,2.0
13,25.5513496399,-31.7534675598,3.0
14,-3.72741055489,48.9990272522,4.0
15,-12.642156601,1.39527225494,5.0
16,-42.1186752319,21.6672878265,6.0
17,30.6231613159,38.0808525085,7.0
18,16.050737381,1.59055793285,8.0
19,3.66460204124,-37.9429130554,9.0
20,-57.1431617737,-15.0585098267,0.0
21,-1.54352664948,28.5823669434,1.0
22,46.3816833496,-10.5226402283,2.0
23,25.1674671173,-27.2775669098,3.0
24,-8.25334644318,43.6741714478,4.0
25,-18.9729309082,-5.10008478165,5.0
26,-36.1287078857,16.1522083282,6.0
27,25.3652858734,44.5150489807,7.0
28,11.7404708862,0.566275656223,8.0
29,3.64334750175,-37.7237167358,9.0
30,-55.9297790527,-31.002872467,0.0
31,3.60026478767,-38.0853233337,9.0
32,-17.1470451355,-11.1738033295,5.0
33,-11.7764320374,1.02050113678,5.0
34,-39.5503005981,20.0533237457,6.0
35,-11.5054302216,-1.29586672783,5.0
36,-52.425365448,-14.5924682617,0.0
37,6.50460004807,-29.1590309143,9.0
38,17.577829361,2.19319009781,8.0
39,-7.24958944321,-40.0200767517,9.0
40,14.5431404114,0.015970621258,8.0
41,-4.16114091873,50.1365623474,4.0
42,-3.6771979332,29.2249279022,1.0
43,30.9206447601,40.287361145,7.0
44,32.7262649536,28.9167251587,7.0
45,20.787902832,-31.7691249847,3.0
46,-11.0147981644,-1.72791624069,5.0
47,-2.94912362099,26.777048111,1.0
48,-57.1921463013,-21.9361495972,0.0
49,-60.7834129333,-19.1208972931,0.0
50,17.8056659698,10.8580503464,2.0
51,17.3227214813,12.6900033951,2.0
52,26.2568492889,43.7875518799,7.0
53,10.5115718842,0.168252840638,8.0
54,17.4547424316,13.0107879639,2.0
55,-56.4242477417,-15.1610116959,0.0
56,-2.48343706131,27.8315467834,1.0
57,16.753118515,11.6745891571,2.0
58,-36.9239425659,15.4398756027,6.0
59,21.4998760223,-28.3792304993,3.0
60,20.7992115021,-31.1603965759,3.0
61,31.078453064,38.6931037903,7.0
62,21.5171089172,-30.9804115295,3.0
63,26.3045730591,-30.8527889252,3.0
64,-6.98532962799,47.709022522,4.0
65,-39.5387001038,16.7301597595,6.0
66,-45.6718711853,24.501127243,6.0
67,-55.7839126587,19.5862941742,6.0
68,-0.180549964309,52.734336853,4.0
69,21.9770488739,6.59978961945,9.0
70,-2.8698079586,25.8138656616,1.0
71,-17.4180850983,-12.0283613205,5.0
72,-58.1319313049,-15.8827552795,0.0
73,2.72813653946,-35.2289352417,9.0
74,-9.06455039978,-9.2871761322,5.0
75,16.8536167145,12.812333107,2.0
76,13.3426828384,-2.60124754906,8.0
77,17.3920116425,13.5974779129,2.0
78,-62.5243453979,-20.5145587921,0.0
79,-63.0352897644,-23.321893692,0.0
80,-2.56233501434,28.2135124207,1.0
81,32.1269493103,32.1291236877,7.0
82,-36.9047203064,17.2839126587,6.0
83,26.2337818146,-29.8465881348,3.0
84,46.3115501404,-4.10370492935,2.0
85,-4.08558988571,27.5897216797,1.0
86,24.7107543945,44.4991607666,7.0
87,-3.53019690514,19.0275478363,4.0
88,-38.2273292542,18.0141372681,6.0
89,21.917755127,-30.5242061615,3.0
90,-3.68236327171,29.2514362335,1.0
91,28.0375366211,-30.6633262634,3.0
92,-8.7810344696,-40.3178787231,9.0
93,-1.3959710598,21.2468338013,1.0
94,30.1741790771,36.2267570496,7.0
95,-34.1035385132,17.317533493,6.0
96,15.2626800537,3.51064658165,8.0
97,-8.74826526642,44.2862052917,4.0
98,26.6063690186,-30.7265396118,3.0
99,1.94196867943,12.4265499115,1.0
100,-8.5509223938,44.4778823853,4.0
101,-59.6847229004,-15.4052019119,0.0
102,-20.665391922,-8.25519657135,5.0
103,28.0780086517,-24.6756477356,3.0
104,-34.3458747864,16.5759353638,6.0
105,1.20856559277,-38.0368614197,9.0
106,-36.431350708,19.4874858856,6.0
107,-3.07717108727,31.0833396912,1.0
108,30.9424514771,39.7972755432,7.0
109,-19.0944042206,-6.1633477211,5.0
110,-0.246663123369,55.0377235413,4.0
111,-0.84638184309,53.2243270874,4.0
112,30.8573322296,35.4800033569,7.0
113,33.7021408081,-3.45857548714,2.0
114,11.2883987427,-1.56523013115,8.0
115,17.8926525116,11.0626001358,2.0
116,18.0665512085,10.6804924011,2.0
117,-14.5205411911,0.289604246616,5.0
118,28.7098674774,39.4830474854,7.0
119,0.310239255428,-38.8453407288,9.0
120,-9.0139503479,-9.12936210632,5.0
121,-0.636915445328,51.6036491394,4.0
122,12.6637115479,1.80490672588,8.0
123,7.76291418076,-2.46061897278,8.0
124,-4.19211339951,50.4583206177,4.0
125,-1.68387186527,-26.1150360107,9.0
126,-57.6277770996,-15.9736375809,0.0
127,16.6926307678,2.86668038368,8.0
128,-14.2772054672,-34.114238739,9.0
129,2.22604894638,10.8620119095,8.0
130,-55.8777542114,-21.8995800018,0.0
131,1.06218266487,32.0469055176,1.0
132,45.3172836304,0.239961847663,2.0
133,27.7468299866,-29.481803894,3.0
134,-10.3188877106,38.9580383301,4.0
135,-14.5906896591,1.8860296011,5.0
136,-52.9467201233,17.5980682373,6.0
137,33.027961731,36.7472724915,7.0
138,15.9306402206,-6.96255779266,8.0
139,0.361651659012,-36.9283447266,9.0
140,-53.8683547974,-15.8127717972,0.0
141,-1.91142177582,31.8824634552,1.0
142,35.8434410095,-4.04703474045,2.0
143,27.2506771088,-32.3646507263,3.0
144,-12.6123018265,39.5344696045,4.0
145,-13.0513334274,0.470457792282,5.0
146,-42.622089386,17.1401233673,6.0
147,33.2136154175,37.145980835,7.0
148,10.0812282562,-5.47711420059,8.0
149,0.597224473953,-34.6215553284,9.0
150,-60.8465042114,-17.3457527161,0.0
151,-1.16618442535,32.6385231018,1.0
152,39.4845542908,-10.3259725571,2.0
153,27.2241077423,-29.0479202271,3.0
154,-11.8612957001,41.0677337646,4.0
155,-16.8764839172,3.17664670944,5.0
156,-38.8701629639,17.7425823212,6.0
157,37.1165771484,37.2382698059,7.0
158,8.65392208099,1.46738755703,8.0
159,1.0873926878,-35.8960723877,9.0
160,-52.681854248,-17.3112545013,0.0
161,1.69602584839,-36.3157577515,9.0
162,-13.2480068207,0.700714707375,5.0
163,-13.3714818954,3.94094872475,5.0
164,-55.438495636,17.9541873932,6.0
165,-15.5180616379,0.206884965301,5.0
166,-52.0873031616,-20.9924964905,0.0
167,-0.180519446731,-40.0454673767,9.0
168,16.0146923065,-6.96554756165,8.0
169,0.351084858179,-37.4488143921,9.0
170,13.3346920013,5.97010040283,8.0
171,-14.0830659866,40.5200767517,4.0
172,-0.0349103696644,31.3118667603,1.0
173,25.9720993042,42.3073921204,7.0
174,24.3707466125,38.027973175,7.0
175,23.6519393921,-29.2757644653,3.0
176,-12.8136377335,1.97301030159,5.0
177,-0.230996146798,32.4072151184,1.0
178,-62.9995994568,-24.4387321472,0.0
179,-56.387840271,-14.182518959,0.0
180,40.996383667,-6.46149158478,2.0
181,39.5405311584,-4.85623645782,2.0
182,33.6671829224,35.5528373718,7.0
183,8.23339366913,-3.5050444603,8.0
184,50.6938247681,-5.14567661285,2.0
185,-56.9778327942,-15.9629535675,0.0
186,-0.718775570393,29.1328048706,1.0
187,45.6475868225,-6.50654792786,2.0
188,-52.7325134277,19.3409061432,6.0
189,27.0332965851,-32.4245223999,3.0
190,25.517206192,-29.990940094,3.0
191,38.936340332,35.0877037048,7.0
192,25.5211811066,-27.6016216278,3.0
193,24.6093425751,-30.6538276672,3.0
194,-13.0617284775,43.1800346375,4.0
195,-38.7103309631,16.6832027435,6.0
196,-52.5616264343,19.4369735718,6.0
197,-54.2300796509,17.4403018951,6.0
198,-15.3149662018,43.0405235291,4.0
199,1.5185135603,-34.3933105469,9.0
200,-3.83594870567,30.6442432404,1.0
201,-14.8619756699,1.02780330181,5.0
202,-59.2033920288,-17.6855888367,0.0
203,-3.04241800308,-30.7608604431,9.0
204,-15.548787117,3.08873987198,5.0
205,39.2046813965,-10.4333143234,2.0
206,13.3883209229,5.85289859772,8.0
207,39.8655548096,-5.74413919449,2.0
208,-55.683139801,-15.7164011002,0.0
209,-59.6101036072,-15.8005533218,0.0
210,-0.606875240803,31.35090065,1.0
211,37.0690917969,26.8442497253,7.0
212,-55.7341270447,19.2277202606,6.0
213,26.2903079987,-29.928276062,3.0
214,40.3912391663,-5.39207458496,2.0
215,-4.40072250366,31.6381111145,1.0
216,37.9799194336,35.6421394348,7.0
217,22.8970375061,-30.9425125122,3.0
218,-1.01535713673,32.6725540161,1.0
219,24.9372558594,-30.3628368378,3.0
220,-3.34562659264,-30.6321125031,9.0
221,-1.35125422478,29.8491840363,1.0
222,25.9336738586,41.1570777893,7.0
223,-40.0925827026,20.7467308044,6.0
224,5.86750936508,-2.15605354309,8.0
225,-13.3436985016,40.4186477661,4.0
226,26.8036308289,-28.8359355927,3.0
227,-3.28585553169,30.3801879883,1.0
228,-12.7618789673,40.5824661255,4.0
229,-63.4986152649,-23.4006748199,0.0
230,-14.8549880981,-0.00713656004518,5.0
231,19.2616443634,32.3492088318,3.0
232,-44.4719696045,12.6190128326,6.0
233,1.48489904404,-35.4298973083,9.0
234,-51.4753341675,14.9350576401,6.0
235,-1.02372431755,30.8345966339,1.0
236,36.2168922424,32.584815979,7.0
237,-16.4716911316,-1.16828501225,5.0
238,-15.2565937042,43.1279067993,4.0
239,-11.3918952942,40.8878822327,4.0
240,37.5528411865,36.1773147583,7.0
241,50.9144973755,-4.48028182983,2.0
242,9.24467945099,1.09055173397,8.0
243,46.2538414001,1.07542514801,2.0
244,40.8980865479,-6.81577253342,2.0
245,-14.2493801117,2.20638585091,5.0
246,-13.8773183823,1.62657403946,5.0
247,-10.5757255554,41.1688575745,4.0
248,8.74783992767,-1.65801239014,8.0
249,7.84240293503,-2.5356900692,8.0
250,-12.5681056976,39.6793174744,4.0
251,-0.766880631447,-30.3888664246,9.0
252,-58.227355957,-17.0282382965,0.0
253,5.97328138351,-2.12002587318,8.0
254,1.06448793411,-29.4068470001,9.0
255,10.8397550583,-1.98543572426,8.0
256,-51.8173370361,-29.1490821838,0.0
257,6.35416889191,10.6739683151,1.0
258,43.4830360413,-5.6666727066,2.0
259,11.7482347488,-31.0983486176,3.0
260,-1.41301143169,53.4226760864,4.0
261,-16.0854587555,-15.6199426651,5.0
262,-52.4297828674,14.6617698669,6.0
263,15.5742931366,43.109752655,7.0
264,9.13607788086,-13.1244316101,8.0
265,14.9529514313,27.6112613678,9.0
266,-61.1416130066,-21.9649486542,0.0
267,-4.86458921432,29.8345756531,1.0
268,43.7294197083,-5.23087930679,2.0
269,16.6032676697,-34.640537262,3.0
270,-3.03454685211,52.3163604736,4.0
271,-13.8709764481,-4.15353822708,5.0
272,-50.1588935852,16.5640888214,6.0
273,33.4517784119,32.8957061768,7.0
274,16.7628726959,-3.40394425392,8.0
275,16.161813736,28.1783027649,9.0
276,-54.7314682007,-23.7834510803,0.0
277,3.77115297318,19.8647480011,1.0
278,42.9968070984,-0.505114734173,2.0
279,19.8055324554,-35.2429466248,3.0
280,-2.95550012589,54.9270095825,4.0
281,-17.5456752777,-14.4746170044,5.0
282,-55.7323188782,17.8810844421,6.0
283,14.92324543,43.0616607666,7.0
284,16.7785263062,-3.50365519524,8.0
285,-8.22507953644,-36.6026992798,9.0
286,-51.2497138977,-29.3317832947,0.0
287,-0.798788607121,-39.6257820129,9.0
288,-16.3342494965,-14.7527456284,5.0
289,-20.9709968567,-13.2739076614,5.0
290,-46.3310852051,18.0290412903,6.0
291,-16.0814800262,-24.6214981079,5.0
292,-52.7369308472,-31.0307846069,0.0
293,-4.03673934937,-27.8952617645,9.0
294,20.2719421387,-8.73351860046,8.0
295,-9.63809204102,-31.8505725861,9.0
296,11.2358427048,-8.51591587067,8.0
297,-5.74514770508,51.0276069641,4.0
298,2.78863763809,8.04634952545,1.0
299,34.2967605591,33.4785919189,7.0
300,23.5343017578,38.6488075256,7.0
301,17.0297374725,-34.9078559875,3.0
302,-15.3875274658,-14.2020645142,5.0
303,8.2464838028,9.63372135162,1.0
304,-57.2156105042,-22.3831996918,0.0
305,-56.6183776855,-24.0982627869,0.0
306,44.4198493958,1.08240759373,2.0
307,40.7019920349,-4.83022880554,2.0
308,24.1191253662,41.8930778503,7.0
309,8.5031709671,-12.9662723541,8.0
310,42.9560775757,-5.15215158463,2.0
311,-56.2938194275,-24.2272987366,0.0
312,-4.26810884476,31.3637485504,1.0
313,44.7799415588,-2.44989967346,2.0
314,-54.1910514832,12.701956749,6.0
315,13.5706157684,-32.2377662659,3.0
316,17.8843021393,-33.6535377502,3.0
317,13.909655571,43.3927879333,7.0
318,14.5782594681,-33.9852256775,3.0
319,15.220032692,-33.6889953613,3.0
320,-3.6323928833,53.1497268677,4.0
321,-49.3725471497,17.9932327271,6.0
322,-49.2299842834,17.9530735016,6.0
323,-46.9543151855,21.6557636261,6.0
324,-4.60535907745,56.0503845215,4.0
325,14.7220439911,29.3253631592,9.0
326,4.39350938797,11.4120054245,1.0
327,27.9909877777,-14.6717863083,5.0
328,-54.8660888672,-22.5842227936,0.0
329,15.9555950165,28.39494133,9.0
330,-16.5260677338,-14.5419874191,5.0
331,42.820766449,-4.47354269028,2.0
332,10.4934949875,-12.3055896759,8.0
333,43.4854316711,0.436364769936,2.0
334,-53.0819549561,-28.5705375671,0.0
335,-54.1097564697,-23.4686813354,0.0
336,3.68503403664,20.1807918549,1.0
337,29.5294284821,36.9243392944,7.0
338,-40.6800689697,21.4268741608,6.0
339,16.7476844788,-34.6627082825,3.0
340,40.6433639526,-4.0872426033,2.0
341,3.40104651451,20.9431324005,1.0
342,30.5690326691,37.01121521,7.0
343,-3.10622882843,52.3817367554,4.0
344,-52.890914917,15.7151699066,6.0
345,18.5790252686,-33.1357460022,3.0
346,7.29695320129,11.3215284348,1.0
347,14.1687116623,-30.5432929993,3.0
348,15.3234815598,28.0570220947,9.0
349,4.63969898224,13.3394603729,1.0
350,35.4819946289,35.2135620117,7.0
351,-45.924571991,17.7529582977,6.0
352,15.1097383499,-5.70693635941,8.0
353,-8.09286975861,51.2860145569,4.0
354,13.9393787384,-30.5471305847,3.0
355,7.38717079163,14.2386875153,1.0
356,1.26669383049,49.8613014221,4.0
357,-58.9312553406,-21.0148029327,0.0
358,-19.7933330536,-17.363948822,5.0
359,19.69389534,-35.2838249207,3.0
360,-50.9707489014,16.6374320984,6.0
361,15.4076957703,29.0133666992,9.0
362,-48.5611457825,18.1685066223,6.0
363,0.688546001911,8.398686409,1.0
364,36.7014923096,38.170124054,7.0
365,-18.6290168762,-10.5790243149,5.0
366,-12.9746828079,50.2913742065,4.0
367,-4.99456548691,51.0790977478,4.0
368,30.428609848,36.8941459656,7.0
369,43.0364646912,-5.6915602684,2.0
370,12.7332773209,-9.45153236389,8.0
371,43.3575286865,0.743420302868,2.0
372,46.5879478455,-1.30475652218,2.0
373,-20.5666847229,-13.8699388504,5.0
374,24.7064914703,39.7235183716,7.0
375,7.85158395767,34.9446372986,9.0
376,-15.691444397,1.93893015385,5.0
377,-4.07940864563,54.1439323425,4.0
378,12.9281129837,-14.2213449478,8.0
379,11.087887764,-8.61747837067,8.0
380,-4.06841659546,49.9661712646,4.0
381,7.14248037338,35.6873130798,9.0
382,-59.0892868042,-21.6820907593,0.0
383,16.6134281158,-3.400578022,8.0
384,14.911570549,28.2756271362,9.0
385,22.6695709229,-28.4726905823,3.0
386,-63.8928375244,-21.7648296356,0.0
387,2.06263685226,29.4253425598,1.0
388,47.2343788147,-10.3445720673,2.0
389,18.5897865295,-32.1417884827,3.0
390,-14.2699680328,43.6479759216,4.0
391,-13.4608545303,-10.8752508163,5.0
392,-43.3368759155,11.2311601639,6.0
393,13.5869789124,40.3101615906,7.0
394,6.428399086,-10.5034046173,8.0
395,-14.4812402725,-34.3233070374,9.0
396,-62.5115280151,-23.0186328888,0.0
397,-0.526035785675,25.0689849854,1.0
398,49.0795249939,-12.0068683624,2.0
399,10.2599573135,-32.4716796875,3.0
400,-9.40312194824,58.0528640747,4.0
401,-14.196267128,-8.85303783417,5.0
402,-42.7841110229,11.2752771378,6.0
403,13.994808197,41.5042800903,7.0
404,15.5031528473,-0.994931340218,8.0
405,0.709874093533,-40.3722763062,9.0
406,-58.7096862793,-17.5055179596,0.0
407,-0.254917949438,26.9974708557,1.0
408,48.2478599548,-7.05283546448,2.0
409,8.99489784241,-40.4836006165,3.0
410,-12.4697179794,43.5020370483,4.0
411,-14.0452604294,-9.34288883209,5.0
412,-42.1652259827,13.1641302109,6.0
413,13.5648097992,42.4967422485,7.0
414,3.30245184898,-11.1633844376,8.0
415,0.55498033762,-40.5830345154,9.0
416,-51.4344100952,-16.3882541656,0.0
417,-0.210205465555,-31.0511264801,9.0
418,-13.4008722305,-11.6100215912,5.0
419,-15.1961956024,-9.08597946167,5.0
420,-42.3170700073,11.5424146652,6.0
421,-12.115029335,-11.9594449997,5.0
422,-65.10521698,-21.8063392639,0.0
423,-0.716136276722,-31.8826541901,9.0
424,8.36893367767,-7.74974346161,8.0
425,-4.09183168411,-34.3850746155,9.0
426,8.61064815521,-9.4855632782,8.0
427,-10.485370636,42.832572937,4.0
428,-1.25422120094,27.8504638672,1.0
429,13.3792295456,40.7525138855,7.0
430,16.0108852386,41.8750572205,7.0
431,9.5748758316,-34.7536506653,3.0
432,-13.4573640823,-9.71396541595,5.0
433,-0.838124752045,25.1475906372,1.0
434,-62.5676345825,-23.5780086517,0.0
435,-59.9833526611,-18.5043869019,0.0
436,49.500453949,-15.7576732635,2.0
437,47.2420387268,-7.59028053284,2.0
438,13.6057548523,40.419178009,7.0
439,6.36533975601,-13.2087278366,8.0
440,47.3806304932,-8.0269651413,2.0
441,-58.575717926,-27.390789032,0.0
442,55.0677223206,-17.4750881195,1.0
443,48.9321670532,-11.2465763092,2.0
444,-45.8997993469,13.2099733353,6.0
445,9.14125156403,-35.0030250549,3.0
446,9.28581905365,-31.0600852966,3.0
447,12.8643074036,43.2884788513,7.0
448,9.74359703064,-30.3353366852,3.0
449,9.39618587494,-31.2948055267,3.0
450,-12.7116975784,44.7813453674,4.0
451,-42.5016670227,13.3670406342,6.0
452,-43.4944915771,11.7857694626,6.0
453,-42.6212463379,13.4118976593,6.0
454,-12.0613737106,43.3072929382,4.0
455,-4.64418172836,-33.6794891357,9.0
456,-0.822449982166,28.3680992126,1.0
457,-14.2422161102,-13.4335212708,5.0
458,-51.6309089661,-19.7398300171,0.0
459,-1.0367244482,-32.0073394775,9.0
460,-14.8365592957,-9.47127914429,5.0
461,47.879776001,-10.1613464355,2.0
462,7.41580820084,-9.46603298187,8.0
463,47.2382316589,-6.35501909256,2.0
464,-57.4981842041,-28.4691734314,0.0
465,-62.2353782654,-19.0169200897,0.0
466,-1.3471262455,24.825220108,1.0
467,12.6700057983,41.6647262573,7.0
468,-38.6053276062,14.6557836533,6.0
469,9.75109195709,-31.7779273987,3.0
470,49.3368873596,-5.94276046753,2.0
471,-1.66587114334,24.3740444183,1.0
472,17.6509342194,39.6567420959,7.0
473,-8.58576583862,43.2127304077,4.0
474,-42.8213005066,16.3866844177,6.0
475,10.1126718521,-31.6193656921,3.0
476,-2.81321907043,28.7754955292,1.0
477,6.84882640839,-29.229391098,3.0
478,-2.25414848328,-33.4380455017,9.0
479,-0.157198399305,26.2468204498,1.0
480,13.7050142288,28.5872592926,7.0
481,-43.5069122314,13.7669696808,6.0
482,11.1204414368,-11.1512117386,8.0
483,-12.9267110825,44.9336891174,4.0
484,12.5814533234,-32.0829048157,3.0
485,-0.510548233986,25.5261268616,1.0
486,-11.5407047272,42.7939414978,4.0
487,-64.2812576294,-19.7942695618,0.0
488,-12.8332853317,-6.83877658844,5.0
489,9.17729187012,-32.9353675842,3.0
490,-41.6587905884,14.197432518,6.0
491,-0.753812849522,-31.9677848816,9.0
492,-34.1934585571,11.307343483,6.0
493,-0.378725409508,27.2936420441,1.0
494,13.4522447586,43.0168685913,7.0
495,-13.6634521484,-6.96598482132,5.0
496,-9.39928722382,42.8237915039,4.0
497,-11.5252895355,43.6241111755,4.0
498,14.1874265671,40.9711036682,7.0
499,47.3477897644,-5.22189331055,2.0
500,10.5032873154,-13.5279607773,8.0
501,48.2066383362,-6.29454565048,2.0
502,-13.2138662338,58.7235412598,2.0
503,-17.936542511,-3.91177010536,5.0
504,17.5861415863,39.6544342041,7.0
505,-2.70971393585,-33.4672203064,9.0
506,-13.3976402283,-9.37243556976,5.0
507,-9.14142990112,43.2981185913,4.0
508,9.0680809021,-8.11535549164,8.0
509,8.730219841,-6.71812057495,8.0
510,-14.6217250824,43.5351448059,4.0
511,-12.996632576,-36.3271942139,9.0
512,-55.9750442505,-23.3214378357,0.0
513,6.16311454773,-8.91394710541,8.0
514,-2.76375722885,-33.6480331421,9.0
515,8.37717723846,-9.595079422,8.0
516,-51.8423652649,-21.4554042816,0.0
517,52.7440986633,-19.9372997284,1.0
518,45.1850624084,-16.0972156525,2.0
519,7.48411560059,-21.4842243195,3.0
520,-6.33734989166,58.3704109192,4.0
521,-22.1008892059,-18.7780323029,5.0
522,-38.8215827942,13.6333751678,6.0
523,37.0908546448,27.110830307,7.0
524,3.23180246353,-0.826394557953,8.0
525,-9.2806892395,-29.3735122681,9.0
526,-57.2870788574,-24.905538559,0.0
527,53.676235199,-17.779712677,1.0
528,42.6348991394,-7.69672250748,2.0
529,8.83082389832,-20.4731292725,3.0
530,-3.90182566643,58.1268882751,4.0
531,-17.6048793793,-19.8654537201,5.0
532,-46.9537315369,12.5775241852,6.0
533,31.6843242645,29.7236595154,7.0
534,3.51665639877,-3.33613729477,8.0
535,-13.4469070435,-38.0862464905,9.0
536,-50.3094100952,-22.4291057587,0.0
537,55.6121406555,-19.1291694641,1.0
538,47.2720031738,-20.221786499,2.0
539,9.00434780121,-19.2948474884,3.0
540,-10.1433782578,56.7145118713,4.0
541,-18.1535396576,-17.8842277527,5.0
542,-46.1467437744,14.7131471634,6.0
543,23.6215324402,41.7228889465,7.0
544,3.58080816269,-4.40232467651,8.0
545,-7.79236602783,-27.6898975372,9.0
546,-51.1061706543,-21.6875991821,0.0
547,15.2895584106,-5.36852312088,9.0
548,-16.2456417084,-11.4805526733,5.0
549,-18.6047058105,-19.808423996,5.0
550,-37.6786956787,11.9796361923,6.0
551,-19.0733528137,-19.5039634705,5.0
552,-60.6104316711,-26.0868835449,0.0
553,-13.2375898361,-33.7550544739,9.0
554,2.76052546501,-1.14372777939,8.0
555,-8.7768201828,-28.2755622864,9.0
556,2.92574477196,-3.98615670204,8.0
557,-6.44408416748,56.5611991882,4.0
558,54.9899139404,-20.5196990967,1.0
559,29.7474117279,38.9156837463,7.0
560,31.1570453644,30.3742408752,7.0
561,7.8075671196,-21.4207401276,3.0
562,-18.3067893982,-17.8872623444,5.0
563,56.284122467,-20.9365692139,1.0
564,-55.3328285217,-20.8089485168,0.0
565,-64.168548584,-26.3677539825,0.0
566,31.8692054749,-14.7142210007,2.0
567,46.8222084045,-19.1628074646,2.0
568,34.7947998047,28.3693618774,7.0
569,2.47383141518,-4.85272216797,8.0
570,45.1452865601,-14.1958189011,2.0
571,-51.7631111145,-27.400182724,0.0
572,54.6008682251,-18.8268470764,1.0
573,46.7433128357,-19.1079559326,2.0
574,-36.1135673523,11.2043838501,6.0
575,45.7248077393,-21.6059322357,3.0
576,24.5976524353,-26.0530910492,3.0
577,21.8298473358,41.6536178589,7.0
578,7.59015989304,-19.1868228912,3.0
579,7.91381978989,-20.4871616364,3.0
580,-5.58138656616,54.7062911987,4.0
581,-37.9995536804,10.7301912308,6.0
582,-38.3801651001,12.9683761597,6.0
583,-46.8903656006,12.0101175308,6.0
584,-4.26556348801,58.1844215393,4.0
585,-13.0123558044,-37.98204422,9.0
586,55.1765480042,-21.2114772797,1.0
587,-18.2742862701,-16.2227020264,5.0
588,-49.8440437317,-18.8380203247,0.0
589,-7.58004713058,-31.161529541,9.0
590,-19.6798248291,-19.9208297729,5.0
591,48.5419464111,-17.9952888489,2.0
592,2.17133140564,-4.25641918182,8.0
593,43.8889350891,-5.89488840103,2.0
594,-58.6221542358,-25.5037403107,0.0
595,-50.5088577271,-21.4902629852,0.0
596,56.341091156,-20.8154640198,1.0
597,33.3755722046,30.7691402435,7.0
598,-38.0197792053,10.7217960358,6.0
599,45.9250831604,-21.3531074524,3.0
600,53.3364753723,-15.5816612244,2.0
601,56.0882263184,-20.490983963,1.0
602,32.0053634644,30.6429443359,7.0
603,-6.70072460175,58.5356063843,4.0
604,-35.8926086426,11.2544307709,6.0
605,7.02710485458,-20.3567562103,3.0
606,56.4764289856,-19.7340545654,1.0
607,8.41362857819,-19.5736885071,3.0
608,-8.77813339233,-28.8064212799,9.0
609,55.6120223999,-21.6211662292,1.0
610,33.3578453064,34.5958328247,7.0
611,-38.7897758484,13.2455329895,6.0
612,2.84810638428,-3.79737734795,8.0
613,-7.37821865082,57.3627624512,4.0
614,8.5927400589,-21.1072845459,3.0
615,4.0669631958,5.10101795197,1.0
616,-6.63924694061,57.6609153748,4.0
617,-49.4890937805,-22.9139957428,0.0
618,-17.444688797,-21.4121627808,5.0
619,8.49248504639,-20.971326828,3.0
620,-38.2005844116,13.8471851349,6.0
621,-8.68813705444,-28.4386234283,9.0
622,-36.8141021729,11.503080368,6.0
623,51.402130127,-19.7953052521,1.0
624,32.2320480347,32.5709762573,7.0
625,-18.3752040863,-15.9227361679,5.0
626,-11.615354538,57.6854667664,4.0
627,-5.93783187866,53.2317352295,4.0
628,36.9305534363,30.2303218842,7.0
629,47.4338798523,-18.6479911804,2.0
630,2.18733263016,-1.02326691151,8.0
631,43.4502716064,-4.43998336792,2.0
632,47.0145339966,-18.3234386444,2.0
633,-22.7219352722,-19.7716770172,5.0
634,31.1089324951,29.9682025909,7.0
635,-3.32296252251,-36.6997909546,9.0
636,-17.8293590546,-18.89494133,5.0
637,-6.2835226059,59.1959190369,4.0
638,3.03520989418,-0.997359871864,8.0
639,2.10953044891,-3.74920988083,8.0
640,-5.4950633049,58.3384399414,4.0
641,-11.8091745377,-35.3429756165,9.0
642,-52.4797172546,-21.7558479309,0.0
643,2.30556559563,-3.93513441086,8.0
644,0.0553203225136,-41.4915275574,9.0
645,2.73466181755,-1.37645745277,8.0
646,-54.3557014465,-29.3146190643,0.0
647,6.06192016602,8.7657251358,1.0
648,37.8776283264,-3.34796500206,2.0
649,16.1671676636,-36.836933136,3.0
650,-11.9123935699,41.3983573914,4.0
651,-25.0164470673,-14.1478319168,5.0
652,-50.1320877075,20.2947330475,6.0
653,30.3574466705,30.4503421783,7.0
654,11.2985143661,-10.5320291519,8.0
655,7.02467298508,40.2923126221,9.0
656,-48.649684906,-26.5300445557,0.0
657,2.44197010994,7.80640459061,1.0
658,38.8552360535,-7.12494659424,2.0
659,15.5969467163,-38.962223053,3.0
660,-12.6970300674,41.5628166199,4.0
661,-19.6531009674,-5.15507268906,5.0
662,-50.8982505798,18.47123909,6.0
663,21.3713760376,41.7791023254,7.0
664,14.1844120026,-8.66633701324,8.0
665,6.22089338303,36.0033760071,9.0
666,-54.1517486572,-17.8319568634,0.0
667,2.07483363152,8.55811309814,1.0
668,38.4613990784,-4.43109703064,2.0
669,15.9758777618,-35.8963279724,3.0
670,-9.27650260925,41.4505882263,4.0
671,-19.6806201935,-4.77621746063,5.0
672,-51.2203330994,18.39112854,6.0
673,11.5747690201,43.6943092346,7.0
674,11.2182292938,-10.4708375931,8.0
675,6.54655361176,35.2307548523,9.0
676,-53.755897522,-23.2955188751,0.0
677,5.75885105133,35.9895477295,9.0
678,-25.7714538574,-13.7002868652,5.0
679,-18.9698734283,-2.34106087685,5.0
680,-54.8043136597,17.4596595764,6.0
681,-19.5866584778,-3.96126747131,5.0
682,-62.0165596008,-22.9471721649,0.0
683,6.33603191376,33.9569854736,9.0
684,12.8967151642,-7.37183380127,8.0
685,6.03734874725,35.544631958,9.0
686,12.8216285706,-7.71828556061,8.0
687,-10.2499780655,39.8355445862,4.0
688,11.0926876068,9.94049453735,1.0
689,9.15668010712,42.434463501,7.0
690,9.35393619537,37.4701118469,7.0
691,18.3890342712,-23.8410873413,3.0
692,-18.3561706543,-3.76746702194,5.0
693,11.0496168137,9.90800762177,1.0
694,-55.4788246155,-17.1781520844,0.0
695,-51.5235404968,-23.6084194183,0.0
696,37.5165367126,-8.81365966797,2.0
697,38.2552642822,-7.48706626892,2.0
698,24.1966991425,42.5679321289,7.0
699,13.3471956253,-6.7471280098,8.0
700,36.4849777222,-9.68966579437,2.0
701,-55.2635192871,-14.5018091202,0.0
702,8.86462688446,12.3069629669,1.0
703,36.5683555603,-9.7022190094,2.0
704,-55.5445709229,19.7166633606,6.0
705,17.062707901,-37.5320739746,3.0
706,16.0717277527,-37.8382873535,3.0
707,23.2936210632,42.6615524292,7.0
708,17.2446899414,-38.7495803833,3.0
709,16.8617916107,-33.4616279602,3.0
710,-2.55222034454,47.2702674866,4.0
711,-53.5239906311,15.2992067337,6.0
712,-48.8499832153,20.1424560547,6.0
713,-57.0629577637,16.3776931763,6.0
714,-11.8820705414,41.9866065979,4.0
715,6.30981254578,35.334487915,9.0
716,4.44814538956,8.25961017609,1.0
717,-24.6632804871,-12.1295804977,5.0
718,-54.9868469238,-16.7804489136,0.0
719,4.05235433578,34.368396759,9.0
720,-24.9204540253,-12.3682527542,5.0
721,37.6532592773,-8.15058422089,2.0
722,10.0046272278,-13.820063591,8.0
723,39.3763809204,-7.2157740593,2.0
724,-51.7999916077,-18.2749443054,0.0
725,-55.2911758423,-22.2557449341,0.0
726,9.23235034943,12.1491756439,1.0
727,23.891374588,43.1983261108,7.0
728,-50.9554595947,17.8561229706,6.0
729,16.0967121124,-38.2261657715,3.0
730,43.0638961792,2.614995718,2.0
731,-0.294183045626,9.3848028183,1.0
732,11.5037193298,43.4471473694,7.0
733,-12.2560005188,41.7964324951,4.0
734,-46.0929679871,24.3774871826,6.0
735,16.7142086029,-39.0860939026,3.0
736,0.131283834577,8.07863903046,1.0
737,12.0872955322,-28.7723464966,3.0
738,5.0395860672,34.9540214539,9.0
739,4.59983634949,7.68874168396,1.0
740,23.4272060394,43.7021713257,7.0
741,-52.5944023132,16.0494117737,6.0
742,11.5228700638,-5.04148340225,8.0
743,-5.90431594849,57.9331207275,4.0
744,12.0412864685,-28.82853508,3.0
745,4.71722316742,8.67663097382,1.0
746,16.7932929993,35.1787071228,4.0
747,-57.5321083069,-18.3690090179,0.0
748,-22.0646076202,-13.9253139496,5.0
749,15.4700965881,-34.8702316284,3.0
750,-43.5411872864,23.0461978912,6.0
751,6.70724821091,36.8901824951,9.0
752,-43.3072357178,23.0023994446,6.0
753,5.76349830627,8.98913860321,1.0
754,23.4998493195,43.859539032,7.0
755,-16.891494751,-4.27273511887,5.0
756,-12.7985305786,58.2786750793,4.0
757,8.2891368866,46.052280426,4.0
758,23.4411010742,44.4095420837,7.0
759,38.0310516357,-5.38669729233,2.0
760,14.9512786865,-2.09609222412,8.0
761,37.9965820312,-5.87231397629,2.0
762,38.1666870117,-4.69353580475,2.0
763,-20.1028614044,-2.38235449791,5.0
764,31.9454231262,31.6603107452,7.0
765,7.35114860535,37.8121185303,9.0
766,-17.3140640259,3.52565073967,5.0
767,-11.7535409927,56.8310127258,4.0
768,9.93515872955,-12.1632881165,8.0
769,12.9428453445,-4.29178285599,8.0
770,16.6897983551,35.2379264832,4.0
771,6.95672941208,40.2601356506,9.0
772,-53.5560302734,-20.0959835052,0.0
773,11.0166091919,-10.1538171768,8.0
774,7.01658535004,34.4594993591,9.0
775,13.2683839798,-5.59754800797,8.0
776,-52.1323509216,-31.6576728821,0.0
777,6.4656701088,14.1740684509,1.0
778,44.7429389954,-0.707211792469,2.0
779,13.0434703827,-28.4776763916,3.0
780,-11.4145936966,55.3302841187,4.0
781,-14.9077501297,-2.72349786758,5.0
782,-51.5608901978,8.94204711914,6.0
783,28.6497192383,36.9997596741,7.0
784,11.4411821365,-17.2654800415,8.0
785,-1.59362494946,-37.578830719,9.0
786,-62.8154029846,-27.4745254517,0.0
787,8.53102588654,14.6767692566,1.0
788,46.9929161072,-0.56107622385,2.0
789,15.6682910919,-31.4729537964,3.0
790,-10.0608282089,53.3424606323,4.0
791,-16.8663482666,0.816375076771,5.0
792,-52.1300621033,8.43394374847,6.0
793,33.2812271118,33.6218833923,7.0
794,-3.81975531578,25.6668224335,8.0
795,-12.7824821472,-31.6184082031,9.0
796,-51.5240898132,-30.0389499664,0.0
797,8.18902683258,12.4627151489,1.0
798,44.876991272,2.72288274765,2.0
799,15.5913066864,-30.7567901611,3.0
800,-16.1609115601,54.7064437866,4.0
801,-16.0198879242,1.30655825138,5.0
802,-42.4179382324,14.6793270111,6.0
803,33.9539146423,34.875164032,7.0
804,11.467965126,-3.47917795181,8.0
805,0.149200543761,-41.9660224915,9.0
806,-56.0860557556,-24.5651340485,0.0
807,-14.4573125839,-33.45652771,9.0
808,-13.1279220581,-4.25082111359,5.0
809,-17.845533371,-3.11200284958,5.0
810,-52.6587867737,10.9622554779,6.0
811,-15.0112295151,-3.52761006355,5.0
812,-55.5006217957,-24.4986934662,0.0
813,6.53166103363,-22.741153717,9.0
814,8.3413028717,-14.8585510254,8.0
815,-12.3527088165,-35.5177879333,9.0
816,5.06335163116,-13.9882526398,8.0
817,-10.1154088974,51.2872848511,4.0
818,5.94402122498,5.04968214035,1.0
819,36.5417442322,34.5662956238,7.0
820,28.1787376404,37.4828338623,7.0
821,16.6102905273,-28.6075782776,3.0
822,-16.9842853546,-3.56417965889,5.0
823,6.10181903839,7.0055437088,1.0
824,-57.6090393066,-11.098613739,0.0
825,-52.5529708862,-28.9206066132,0.0
826,39.8964004517,-5.35634279251,2.0
827,46.582736969,2.61880254745,2.0
828,37.8704872131,35.3547935486,7.0
829,4.75317382812,-13.7140130997,8.0
830,43.9946289062,2.41822862625,2.0
831,-55.2294235229,-29.9848861694,0.0
832,54.3761901855,-16.5341854095,1.0
833,49.1759300232,-3.86276626587,2.0
834,-40.4730873108,16.3712348938,6.0
835,16.6342792511,-28.3298587799,3.0
836,16.6048736572,-27.9875717163,3.0
837,32.7957115173,35.6562461853,7.0
838,22.589515686,-24.5091152191,3.0
839,22.8709793091,-24.9346542358,3.0
840,-8.77626895905,54.2190971375,4.0
841,-41.3284568787,14.1895084381,6.0
842,-52.8366088867,10.8862552643,6.0
843,-51.5356407166,8.67411994934,6.0
844,-10.4924297333,54.9599342346,4.0
845,-0.402251988649,-41.6579322815,9.0
846,9.23782920837,7.83900690079,1.0
847,-12.5745706558,-3.54448127747,5.0
848,-53.2704620361,-18.716053009,0.0
849,-2.39053249359,-32.209903717,9.0
850,-13.147480011,-1.26167154312,5.0
851,45.7148628235,3.68546819687,2.0
852,9.86792087555,-2.17511963844,8.0
853,47.4651107788,2.24944853783,2.0
854,-52.8000984192,-15.6311311722,0.0
855,-56.7531356812,-27.7256011963,0.0
856,1.53086352348,7.41584396362,1.0
857,32.3570518494,36.2789993286,7.0
858,-50.1382446289,11.4723863602,6.0
859,19.5765857697,-33.2317657471,3.0
860,40.3221855164,-11.8846206665,2.0
861,6.72734308243,9.8226184845,1.0
862,27.0764503479,41.5985679626,7.0
863,-10.1715812683,49.5546264648,4.0
864,-43.5416870117,15.0385580063,6.0
865,14.5757055283,-29.9529476166,3.0
866,5.00608301163,10.9052391052,1.0
867,18.8355064392,-31.0281562805,3.0
868,-13.6366596222,-33.5505409241,9.0
869,4.70011281967,11.7455949783,1.0
870,36.3420753479,35.2193374634,7.0
871,-48.6547813416,13.5113706589,6.0
872,11.1195039749,-17.2353820801,8.0
873,-16.4431285858,55.5806427002,4.0
874,17.3515720367,-29.6064987183,3.0
875,6.5353937149,12.4476013184,1.0
876,-14.7856721878,50.3800544739,4.0
877,-55.497253418,-27.9101009369,0.0
878,-13.5574064255,-6.55201864243,5.0
879,19.2143001556,-28.6183662415,3.0
880,-38.98595047,19.8971748352,6.0
881,-0.28616720438,-40.3002853394,9.0
882,-54.733707428,16.2656478882,6.0
883,9.66986942291,10.0546550751,1.0
884,33.9912796021,36.5360679626,7.0
885,-15.8766736984,0.825799226761,5.0
886,-10.4168214798,55.2777175903,4.0
887,-9.97031402588,51.8102264404,4.0
888,32.5854644775,35.9464569092,7.0
889,45.8987083435,3.74907970428,2.0
890,2.74612522125,-13.4208726883,8.0
891,19.6702747345,33.0637664795,2.0
892,37.2198944092,-4.60326814651,2.0
893,-14.7917137146,-5.29991865158,5.0
894,34.6745376587,31.5484275818,7.0
895,-14.1028900146,-36.2915687561,9.0
896,-16.3825721741,0.945827722549,5.0
897,-15.8387928009,53.9589653015,4.0
898,2.98929977417,-13.370388031,8.0
899,8.25652122498,-30.7063064575,8.0
900,-15.98508358,53.6727256775,4.0
901,-14.0276927948,-36.5065841675,9.0
902,-52.4397277832,-24.9668884277,0.0
903,2.29330635071,-13.3619279861,8.0
904,-14.6357336044,-34.6395950317,9.0
905,11.3779087067,-17.3379669189,8.0
906,54.309928894,-17.1908321381,1.0
907,43.6958198547,-1.15840482712,2.0
908,11.774980545,-38.4794921875,3.0
909,-9.05503940582,48.7142410278,4.0
910,-17.8437805176,-15.6559352875,5.0
911,-55.438293457,15.1462593079,6.0
912,21.7687835693,36.1827087402,7.0
913,13.0406961441,-11.5056743622,8.0
914,-3.21376848221,-40.2668647766,9.0
915,-59.7200660706,-26.5816707611,0.0
916,54.5439224243,-17.8162975311,1.0
917,48.3456077576,1.58545708656,2.0
918,10.1121931076,-36.7505722046,3.0
919,-16.5899276733,55.1506309509,4.0
920,-14.8605165482,-20.7958908081,5.0
921,-56.1909065247,16.907497406,6.0
922,24.2196807861,33.9643478394,7.0
923,12.7145042419,-12.8598718643,8.0
924,-4.67878389359,-35.9866828918,9.0
925,-59.4779281616,-26.3507804871,0.0
926,54.9908752441,-16.325422287,1.0
927,45.7989501953,-2.66435480118,2.0
928,12.4237747192,-33.5035324097,3.0
929,-5.25194787979,45.7976150513,4.0
930,-13.0667705536,-23.9029655457,5.0
931,-53.8058395386,14.4297332764,6.0
932,23.2415313721,36.4236526489,7.0
933,13.7404966354,-12.4336576462,8.0
934,-4.35250282288,-37.2597351074,9.0
935,-59.0451660156,-24.4683437347,0.0
936,-7.20940542221,-37.6550331116,9.0
937,-14.7917289734,-22.0586490631,5.0
938,-16.79246521,-16.6695632935,5.0
939,-48.0066642761,15.4278287888,6.0
940,-13.3900232315,-21.3923950195,5.0
941,-59.1475257874,-27.9160728455,0.0
942,-2.88059043884,-38.3428153992,9.0
943,12.4430923462,-12.0010385513,8.0
944,-4.04175424576,-38.513633728,9.0
945,8.75030040741,-10.2930297852,8.0
946,1.75021195412,47.675327301,4.0
947,51.8362426758,-19.9666976929,1.0
948,24.8542881012,34.6992759705,7.0
949,20.9823436737,38.4242019653,7.0
950,9.00245094299,-36.1463127136,3.0
951,-12.6992902756,-21.1652812958,5.0
952,53.1296882629,-19.0908241272,1.0
953,46.5156021118,-2.45783543587,2.0
954,24.4148368835,34.4180755615,7.0
955,12.5463161469,-13.2034816742,8.0
956,49.0689201355,-16.9827270508,2.0
957,-57.069442749,-27.5585479736,0.0
958,53.6869621277,-19.0126571655,1.0
959,46.2440757751,-13.8986444473,2.0
960,-55.6977844238,15.1168556213,6.0
961,11.5207090378,-36.9739189148,3.0
962,9.91750812531,-36.5769996643,3.0
963,23.1002693176,35.6209602356,7.0
964,11.2794904709,-39.7786903381,3.0
965,8.90507030487,-38.9311408997,3.0
966,-4.96612596512,45.4783477783,4.0
967,-47.5352516174,14.5742425919,6.0
968,-49.0470352173,15.7019233704,6.0
969,-54.8077583313,15.0751495361,6.0
970,-5.19659280777,45.7350082397,4.0
971,-2.65545034409,-39.9545135498,9.0
972,52.1657867432,-19.6219120026,1.0
973,-16.6367359161,-16.7821750641,5.0
974,-60.0307044983,-27.8712749481,0.0
975,-3.40829443932,-39.7466659546,9.0
976,-15.0665426254,-20.8184928894,5.0
977,46.6485481262,-14.6956148148,2.0
978,9.82746124268,-11.4236402512,8.0
979,49.0518989563,-17.0418243408,2.0
980,-52.1717300415,-31.705291748,0.0
981,-60.4007034302,-23.3209667206,0.0
982,53.1524429321,-19.722694397,1.0
983,26.0803127289,36.5480613708,7.0
984,-54.527885437,14.8619775772,6.0
985,10.9393482208,-40.5166015625,3.0
986,48.5729484558,0.191054850817,2.0
987,54.1911048889,-17.3807888031,1.0
988,-15.9226827621,56.6037025452,4.0
989,-43.8674354553,21.6432132721,6.0
990,11.8690252304,-38.2586669922,3.0
991,53.0732269287,-19.2136287689,1.0
992,9.14597225189,-40.3754959106,3.0
993,-2.6912612915,-38.5645065308,9.0
994,52.535785675,-18.2677955627,1.0
995,22.9420146942,35.405002594,7.0
996,-47.0114517212,15.9165897369,6.0
997,7.01719474792,-14.0017709732,8.0
998,4.30723047256,45.8649139404,4.0
999,10.0140142441,-36.1238822937,3.0
1000,52.1099433899,-19.0801296234,1.0
1001,1.58129906654,45.7851867676,4.0
1002,-58.4781913757,-28.3523101807,0.0
1003,-17.7507724762,-10.4841737747,5.0
1004,9.00034141541,-38.792049408,3.0
1005,-52.6095123291,15.2807350159,6.0
1006,-4.79621219635,-36.3662033081,9.0
1007,-51.4308166504,13.712220192,6.0
1008,53.8892745972,-18.4635753632,1.0
1009,15.7560815811,42.8333091736,7.0
1010,-14.3406381607,-22.4162960052,5.0
1011,-8.63455581665,48.1449584961,4.0
1012,3.01538848877,46.4921569824,4.0
1013,25.176908493,35.338104248,7.0
1014,46.2891044617,-10.2812767029,2.0
1015,13.975025177,-12.6894435883,8.0
1016,46.0659370422,-15.6065998077,2.0
1017,48.0192718506,-1.66361439228,2.0
1018,-14.2424669266,-22.449432373,5.0
1019,24.8554821014,36.3020973206,7.0
1020,-7.07444190979,-37.757434845,9.0
1021,-13.4933872223,-18.1830997467,5.0
1022,11.730342865,42.9141731262,4.0
1023,3.75120782852,46.8843078613,4.0
1024,-7.30629062653,-27.0164051056,9.0
1025,-60.5492668152,-28.1368579865,0.0
1026,8.47223472595,-13.7740163803,8.0
1027,-4.94359397888,-35.8412246704,9.0
1028,12.0542469025,-11.5873527527,8.0
1029,-53.7939605713,-25.7261047363,0.0
1030,9.58834171295,7.67644071579,1.0
1031,46.1454086304,-4.1856880188,2.0
1032,20.2881011963,-36.1416015625,3.0
1033,3.46634912491,46.9317741394,4.0
1034,-21.0811347961,-3.99529290199,5.0
1035,-52.8572845459,16.5546665192,6.0
1036,26.2425765991,35.5864868164,7.0
1037,18.1449871063,-3.69253945351,8.0
1038,5.8936958313,-33.1892433167,9.0
1039,-59.644153595,-19.7501792908,0.0
1040,7.64924001694,8.22755813599,1.0
1041,44.7429199219,-11.6798257828,2.0
1042,20.4433498383,-36.8160705566,3.0
1043,7.66651010513,46.1283836365,4.0
1044,-17.300447464,-8.56245517731,5.0
1045,-52.5221099854,12.4050254822,6.0
1046,25.0610980988,35.4725074768,7.0
1047,18.8018856049,-0.0625289976597,8.0
1048,-6.1139421463,-23.8950862885,9.0
1049,-63.3949394226,-17.2752513885,0.0
1050,5.40914726257,13.1485557556,1.0
1051,46.1091499329,-15.5109233856,2.0
1052,21.1897926331,-36.0926628113,3.0
1053,0.582549095154,48.7674026489,4.0
1054,-15.4183721542,-14.0855560303,5.0
1055,-47.8367195129,16.3361682892,6.0
1056,26.948009491,33.318107605,7.0
1057,22.7966499329,-6.93676280975,8.0
1058,-7.34099340439,-23.6166400909,9.0
1059,-59.9528312683,-25.1346702576,0.0
1060,-3.11815547943,-26.9980220795,9.0
1061,-22.5556983948,-5.99190950394,5.0
1062,-22.4445457458,-2.84780216217,5.0
1063,-41.1210479736,20.8397159576,6.0
1064,-22.6252727509,-5.91643333435,5.0
1065,-60.6832733154,-18.1633796692,0.0
1066,-5.81952190399,-23.71991539,9.0
1067,22.5070972443,-8.17176818848,8.0
1068,-3.61378002167,-27.2110137939,9.0
1069,9.25625991821,-3.57251381874,8.0
1070,7.50742292404,46.1345710754,4.0
1071,7.82267189026,6.56077289581,1.0
1072,25.3955059052,33.2939186096,7.0
1073,28.9141254425,35.3181228638,7.0
1074,21.6862163544,-35.7149925232,3.0
1075,-18.5616321564,-10.7996244431,5.0
1076,4.28348207474,12.3226690292,1.0
1077,-62.6467933655,-15.7308092117,0.0
1078,-63.2963256836,-15.4783468246,0.0
1079,25.9971466064,32.973941803,7.0
1080,18.8622512817,0.0388080775738,8.0
1081,44.5992851257,-15.2913389206,2.0
1082,-63.7793426514,-27.4612560272,0.0
1083,0.87906819582,9.40875530243,1.0
1084,45.6658668518,-14.6293230057,2.0
1085,-38.3736228943,15.2282619476,6.0
1086,31.5319023132,-14.6961126328,3.0
1087,22.2752017975,-34.8459281921,3.0
1088,18.292552948,44.1046333313,7.0
1089,18.7506389618,-38.4076843262,3.0
1090,20.6674976349,-39.0540657043,3.0
1091,1.68885588646,48.6636276245,4.0
1092,-49.9317474365,20.9554271698,6.0
1093,-44.5995521545,20.7716655731,6.0
1094,-47.5506477356,23.9926280975,6.0
1095,16.4521617889,27.2301025391,4.0
1096,-6.5400891304,-23.904914856,9.0
1097,5.49833297729,13.7782211304,1.0
1098,-24.4348983765,-9.74654865265,5.0
1099,-59.1143417358,-25.0530529022,0.0
1100,19.4280509949,-2.80910825729,9.0
1101,-18.3476905823,-1.6200928688,5.0
1102,49.2788543701,-12.2002429962,2.0
1103,22.0324954987,-8.25351524353,8.0
1104,43.6321601868,-15.9069290161,2.0
1105,-64.3119659424,-27.8962669373,0.0
1106,-64.2947998047,-26.6464557648,0.0
1107,2.75618219376,10.0996713638,1.0
1108,35.3868942261,30.4878921509,7.0
1109,-46.2399635315,24.8095283508,6.0
1110,21.1618537903,-38.0901412964,3.0
1111,47.4204101562,-14.3023843765,2.0
1112,6.06155633926,13.2862100601,1.0
1113,18.4681549072,44.2626228333,7.0
1114,0.882037043571,49.0165634155,4.0
1115,-46.7000007629,23.824131012,6.0
1116,21.3330764771,-37.7782249451,3.0
1117,8.61426925659,6.40496444702,1.0
1118,18.9003868103,31.8099632263,3.0
1119,-5.37164115906,-23.4593505859,9.0
1120,7.10491943359,11.5077562332,1.0
1121,26.6550559998,34.3848876953,7.0
1122,-47.4049453735,21.1000347137,6.0
1123,21.605386734,-8.30819129944,8.0
1124,0.839782118797,49.6555709839,4.0
1125,21.6330718994,-37.9082183838,3.0
1126,2.60545825958,11.7250862122,1.0
1127,-2.16296172142,51.0298538208,4.0
1128,-53.1572341919,-25.5298995972,0.0
1129,-19.9209785461,-7.98968935013,5.0
1130,21.1191139221,-39.4218788147,3.0
1131,-35.2208557129,16.3814048767,6.0
1132,-2.15139651299,-25.089422226,9.0
1133,-50.7651634216,15.7895860672,6.0
1134,3.68305897713,11.6657743454,1.0
1135,17.3462562561,43.2672729492,7.0
1136,-24.2356052399,-10.1775360107,5.0
1137,-5.93913650513,49.1176986694,4.0
1138,2.37585306168,47.7881126404,4.0
1139,35.0960540771,33.5563430786,7.0
1140,48.2026367188,-2.46047353745,2.0
1141,18.8519077301,-3.13968896866,8.0
1142,45.1380386353,-11.7643432617,2.0
1143,49.4643363953,-17.7422599792,2.0
1144,-21.3139247894,-3.36254549026,5.0
1145,17.4164085388,43.3900032043,7.0
1146,0.0249977037311,-26.7346038818,9.0
1147,-24.1818809509,-10.0124416351,5.0
1148,-2.71278500557,50.5425376892,4.0
1149,23.3373146057,-10.1036663055,8.0
1150,19.8417892456,-7.55540370941,8.0
1151,0.279822528362,50.263256073,4.0
1152,-5.00167322159,-22.7311000824,9.0
1153,-61.3238601685,-25.5238685608,0.0
1154,23.0320243835,-6.21702528,8.0
1155,-1.67157042027,-25.7162246704,9.0
1156,22.9038829803,-6.58484315872,8.0
1157,-53.7299232483,-21.8124771118,0.0
1158,-2.45998454094,25.2278614044,1.0
1159,45.8329086304,-0.797242820263,2.0
1160,19.3417644501,-38.7691459656,3.0
1161,-3.43728160858,51.0014266968,4.0
1162,-21.6840229034,-12.6972799301,5.0
1163,-53.9377632141,13.8989648819,6.0
1164,34.3693771362,28.738658905,7.0
1165,28.2098064423,-14.895734787,8.0
1166,-1.28954684734,-29.8006896973,9.0
1167,-54.1993408203,-26.5391387939,0.0
1168,-2.65227341652,26.28647995,1.0
1169,45.8234214783,-13.6411104202,2.0
1170,21.560338974,-34.6320075989,3.0
1171,-9.96868515015,48.9781990051,4.0
1172,-22.1302852631,-13.9239969254,5.0
1173,-37.0291252136,12.9448881149,6.0
1174,27.508480072,40.4428138733,7.0
1175,15.2670917511,3.15624070168,8.0
1176,-44.7375602722,5.61584091187,9.0
1177,-54.0176391602,-27.3098545074,0.0
1178,-3.04549026489,18.8335876465,1.0
1179,39.0459251404,-3.00346255302,2.0
1180,22.6398696899,-37.9567756653,3.0
1181,-5.89338922501,56.1020927429,4.0
1182,-14.6517696381,2.81247854233,5.0
1183,-44.3525466919,21.9048976898,6.0
1184,22.4138774872,41.909122467,7.0
1185,14.6351528168,2.2919883728,8.0
1186,-1.07986557484,-29.9177570343,9.0
1187,-49.2551383972,-25.5618724823,0.0
1188,-7.42272424698,-32.6770973206,9.0
1189,-20.124080658,-11.84471035,5.0
1190,-14.3511762619,-5.76551008224,5.0
1191,-47.7088356018,23.9391078949,6.0
1192,-14.6569004059,-1.68005812168,5.0
1193,-54.5632400513,-30.9940071106,0.0
1194,-8.92679309845,-35.3074531555,9.0
1195,20.5430870056,-1.73226809502,8.0
1196,-7.44445323944,-31.9711589813,9.0
1197,17.8027496338,1.82483839989,8.0
1198,-9.08018302917,48.4217910767,4.0
1199,8.03482913971,8.68813228607,1.0
1200,35.7475662231,29.0476322174,7.0
1201,33.4844284058,29.273645401,7.0
1202,25.5719394684,-20.2259635925,3.0
1203,-24.3505992889,-12.3390350342,5.0
1204,-3.19190311432,19.8566951752,1.0
1205,-55.6380805969,-32.1265144348,0.0
1206,-54.9586029053,-31.4261379242,0.0
1207,41.5130615234,-9.33977794647,2.0
1208,38.4088172913,-4.60475301743,2.0
1209,32.6917304993,31.6276187897,7.0
1210,-2.92280459404,-0.165139347315,8.0
1211,44.2684364319,1.85387086868,2.0
1212,-49.441444397,-25.0611763,0.0
1213,4.93648433685,15.5203342438,1.0
1214,42.9922142029,-3.84810614586,2.0
1215,-44.6796875,7.46390628815,6.0
1216,23.0665130615,-37.9613265991,3.0
1217,22.9474143982,-28.2184524536,3.0
1218,33.899307251,27.7843990326,7.0
1219,24.4578895569,-27.0171203613,3.0
1220,25.2152576447,-33.362701416,3.0
1221,-12.3477125168,49.2139434814,4.0
1222,-44.9919281006,20.3922195435,6.0
1223,-39.7112464905,15.608045578,6.0
1224,-39.3077316284,15.431558609,6.0
1225,-3.0340282917,49.4408569336,4.0
1226,0.337857097387,-35.0226249695,9.0
1227,3.05858826637,10.5917129517,1.0
1228,-19.2909126282,-3.66551089287,5.0
1229,-49.2230796814,-26.7557010651,0.0
1230,-3.89376807213,-29.4283924103,9.0
1231,-20.9302902222,-12.1860265732,5.0
1232,43.5064582825,-2.10449409485,2.0
1233,20.1794872284,-1.81121218204,8.0
1234,40.6846809387,-11.7846908569,2.0
1235,-48.7864112854,-26.5217113495,0.0
1236,-49.4989700317,-25.3546600342,0.0
1237,6.28483343124,13.6173410416,1.0
1238,35.5145378113,28.9658184052,7.0
1239,-45.0744094849,18.6469364166,6.0
1240,27.8068389893,-30.8251876831,3.0
1241,40.8717384338,-2.90262961388,2.0
1242,-3.37795710564,19.0168991089,1.0
1243,36.6436386108,29.9427604675,7.0
1244,-6.76432943344,49.2530517578,4.0
1245,-44.905544281,20.225894928,6.0
1246,21.5787220001,-29.2658729553,3.0
1247,3.87407445908,10.9479084015,1.0
1248,28.2595062256,-14.973567009,3.0
1249,-7.64185333252,-31.5576267242,9.0
1250,3.65511989594,10.8603982925,1.0
1251,33.4045600891,32.2753944397,7.0
1252,-46.1497535706,21.6653137207,6.0
1253,15.7185564041,0.902674376965,8.0
1254,-5.61603450775,49.7084541321,4.0
1255,19.8062553406,-33.49426651,3.0
1256,1.14823865891,10.4925584793,1.0
1257,-8.37920856476,51.3264160156,4.0
1258,-49.1888809204,-19.3385391235,0.0
1259,-14.3505859375,4.19445371628,5.0
1260,28.3795642853,-30.9928035736,3.0
1261,-40.4453773499,15.2574005127,6.0
1262,-4.77841711044,-29.9875888824,9.0
1263,-45.3779258728,6.6658411026,6.0
1264,-4.65592193604,17.8438396454,1.0
1265,35.3093833923,28.0356082916,7.0
1266,-16.0155658722,-0.719564557076,5.0
1267,-11.0835161209,50.5822219849,4.0
1268,1.72486829758,46.9608230591,4.0
1269,25.2112388611,42.0974388123,7.0
1270,43.9897956848,2.61742472649,2.0
1271,30.9102706909,-14.545586586,8.0
1272,43.3935852051,1.498503685,2.0
1273,29.4150085449,-14.0953588486,2.0
1274,-17.3665542603,3.65676736832,5.0
1275,27.719285965,42.5678977966,7.0
1276,-4.03704929352,-30.0323600769,9.0
1277,-12.8340148926,3.245459795,5.0
1278,-7.40501356125,48.3168449402,4.0
1279,14.5115375519,2.77068710327,8.0
1280,16.4688034058,-0.0699541717768,8.0
1281,-0.396240592003,55.2300186157,4.0
1282,-8.35030841827,-37.2959403992,9.0
1283,-48.2827796936,-27.1079616547,0.0
1284,14.2454500198,1.5150244236,8.0
1285,-4.04138755798,-27.8468360901,9.0
1286,15.0723819733,1.06630349159,8.0
1287,-63.4679718018,-17.2366085052,0.0
1288,2.55867123604,27.0184803009,1.0
1289,43.7396392822,-14.8395872116,2.0
1290,26.3872051239,-33.4884262085,3.0
1291,-14.6825122833,49.4778900146,4.0
1292,-15.878329277,-19.1212615967,5.0
1293,-45.0005226135,6.19242811203,6.0
1294,39.3553619385,29.1494693756,7.0
1295,12.345205307,-2.7767162323,8.0
1296,-5.69485282898,-35.362285614,9.0
1297,-55.0824394226,-19.62084198,0.0
1298,-3.13682508469,19.3232784271,1.0
1299,50.3385734558,-18.6131095886,2.0
1300,22.5409641266,-34.5109786987,3.0
1301,-15.1991128922,49.257938385,4.0
1302,-12.5072383881,-16.7596569061,5.0
1303,-45.700756073,22.128484726,6.0
1304,27.9375858307,38.0346755981,7.0
1305,29.3933811188,-14.1076612473,8.0
1306,-6.66858053207,-33.4993209839,9.0
1307,-56.6681594849,-19.9671192169,0.0
1308,-1.20175242424,33.2052726746,1.0
1309,41.86120224,-13.7763624191,2.0
1310,12.651304245,-34.3293876648,3.0
1311,-15.637804985,49.153427124,4.0
1312,-22.6301269531,-11.0977869034,5.0
1313,-45.4911231995,5.1930513382,6.0
1314,29.4181747437,33.3787612915,7.0
1315,14.5997962952,-1.17227590084,8.0
1316,-7.63120269775,-32.9475135803,9.0
1317,-65.039894104,-25.7413291931,0.0
1318,-7.52256584167,-35.198474884,9.0
1319,-19.4839000702,-10.2719221115,5.0
1320,-21.992395401,-10.3665294647,5.0
1321,-45.2570648193,5.65682983398,6.0
1322,-17.803647995,-11.8784923553,5.0
1323,-53.8358345032,-13.4217882156,0.0
1324,-2.04343485832,-35.5014457703,9.0
1325,12.889418602,0.174374401569,8.0
1326,-8.09929275513,-30.1067562103,9.0
1327,10.9927988052,-1.10430026054,8.0
1328,-13.8734741211,49.3102874756,4.0
1329,4.63206768036,15.0266008377,1.0
1330,27.3843212128,38.0483703613,7.0
1331,30.7017803192,32.3512458801,7.0
1332,18.4294567108,-36.0553131104,3.0
1333,-21.2848510742,-10.9041252136,5.0
1334,5.99268770218,14.8473510742,1.0
1335,-56.7254486084,-18.4559288025,0.0
1336,-56.6232185364,-18.0920028687,0.0
1337,43.3843917847,-16.1098747253,2.0
1338,43.0273170471,-16.8728485107,2.0
1339,29.5466022491,33.5266113281,7.0
1340,12.7234354019,-2.64886927605,8.0
1341,49.9817390442,-18.3643035889,2.0
1342,-55.9996643066,-30.1506404877,0.0
1343,-1.61238372326,26.8879680634,1.0
1344,44.0198554993,-16.5507583618,2.0
1345,-42.0145072937,15.5112304688,6.0
1346,19.3583469391,-28.6885108948,3.0
1347,17.257226944,-36.8203048706,3.0
1348,34.7605514526,29.5915603638,7.0
1349,17.9526805878,-39.7663726807,3.0
1350,18.2157096863,-37.8040161133,3.0
1351,-14.2618551254,49.0432167053,4.0
1352,-42.3714599609,15.2723932266,6.0
1353,-43.0973396301,15.4598388672,6.0
1354,-41.7595252991,16.0506668091,6.0
1355,-12.1706895828,51.2308311462,4.0
1356,-0.830373466015,-39.7525024414,9.0
1357,6.98689508438,13.2465572357,1.0
1358,-22.8205661774,-12.0323925018,5.0
1359,-52.7516555786,-23.3311634064,0.0
1360,-5.71291923523,-32.5661506653,9.0
1361,-46.6039428711,11.2940502167,5.0
1362,46.206237793,-8.24392795563,2.0
1363,10.372133255,-4.82365131378,8.0
1364,41.7517967224,-17.2863731384,2.0
1365,-55.0295295715,-26.4740467072,0.0
1366,-57.5408248901,-19.3579177856,0.0
1367,-2.6130771637,25.9492073059,1.0
1368,34.0963096619,29.2102661133,7.0
1369,-43.2682418823,18.6620922089,6.0
1370,18.4789428711,-35.0420913696,3.0
1371,46.4182395935,-16.3508358002,2.0
1372,8.16838550568,15.2898435593,1.0
1373,36.6927528381,34.6182327271,7.0
1374,-12.3304023743,51.6396102905,4.0
1375,-45.5183525085,5.16517591476,6.0
1376,22.2274284363,-27.5892429352,3.0
1377,6.73065423965,14.9993209839,1.0
1378,14.0152435303,-35.2243347168,3.0
1379,-7.12493228912,-36.2780647278,9.0
1380,5.03937864304,14.0765953064,1.0
1381,29.4325637817,38.0320243835,7.0
1382,-43.2249908447,19.7568531036,6.0
1383,14.8747520447,1.04263353348,8.0
1384,-14.4517335892,48.996723175,4.0
1385,17.0828647614,-37.3360671997,3.0
1386,3.4966802597,12.8283920288,1.0
1387,-5.01493501663,50.1554679871,4.0
1388,-56.1419181824,-19.3462238312,0.0
1389,-21.671661377,-8.00321960449,5.0
1390,19.681640625,-38.7610740662,3.0
1391,-43.7518844604,17.8589820862,6.0
1392,-8.88453006744,-34.1743049622,9.0
1393,-44.7218856812,7.20036840439,6.0
1394,3.02017974854,13.5608892441,1.0
1395,38.4477844238,33.0108718872,7.0
1396,-20.8060245514,-8.15013885498,5.0
1397,-11.5142688751,48.0400810242,4.0
1398,-11.2927150726,48.0189208984,4.0
1399,24.6021270752,41.4853973389,7.0
1400,44.4680671692,-17.2756767273,2.0
1401,13.8167848587,0.442756831646,8.0
1402,45.4646263123,-15.1787776947,2.0
1403,45.6190986633,-17.0471382141,2.0
1404,-23.4269428253,-12.6247997284,5.0
1405,31.2298851013,31.6437644958,7.0
1406,-8.96034049988,-34.1864967346,9.0
1407,-17.9870128632,-12.7743825912,5.0
1408,-10.7750253677,47.5614738464,4.0
1409,11.5999736786,-0.975619375706,8.0
1410,13.1263170242,-3.47820138931,8.0
1411,-12.2691993713,51.5087394714,4.0
1412,-12.5873508453,-38.1068687439,9.0
1413,-53.8221740723,-13.5888643265,0.0
1414,15.5267782211,-0.0790354982018,8.0
1415,-58.9917755127,-26.5945720673,0.0
1416,2.34606146812,27.8157405853,1.0
1417,48.4349708557,-5.43178081512,2.0
1418,10.7982463837,-30.5141620636,3.0
1419,-6.86111450195,59.1296386719,4.0
1420,-17.5944728851,-18.0762329102,5.0
1421,-51.9664497375,13.0481529236,6.0
1422,23.0232944489,37.9181442261,7.0
1423,7.56996631622,-13.4786024094,8.0
1424,-6.14550971985,-37.5812110901,9.0
1425,-60.7595558167,-20.0653266907,0.0
1426,2.53100085258,28.9133853912,1.0
1427,50.1514434814,-2.18652248383,2.0
1428,11.3073196411,-33.5172615051,3.0
1429,-9.43406295776,56.2445526123,4.0
1430,-15.7579984665,-18.5628528595,5.0
1431,-52.4806251526,12.9130783081,6.0
1432,22.2761936188,38.8258895874,7.0
1433,7.94460201263,-13.72681427,8.0
1434,-9.27013683319,-37.8083534241,9.0
1435,-57.1739845276,-24.4582519531,0.0
1436,0.250859588385,28.7275676727,1.0
1437,48.933265686,-0.145423412323,2.0
1438,14.3964071274,-29.9588394165,3.0
1439,-7.62678098679,56.4096832275,4.0
1440,-16.0784511566,-24.6849689484,5.0
1441,-53.2458686829,13.4987154007,6.0
1442,22.5101299286,38.0977020264,7.0
1443,8.46546649933,-14.6244506836,8.0
1444,-5.68026924133,-37.7569923401,9.0
1445,-60.3329544067,-21.227935791,0.0
1446,-6.63301372528,-39.4257698059,9.0
1447,-15.9054040909,-18.8741416931,5.0
1448,-13.7387504578,-18.0871944427,5.0
1449,-47.0474433899,13.1571435928,6.0
1450,-15.6597042084,-18.0833568573,5.0
1451,-59.8339042664,-21.8721199036,0.0
1452,-8.96815490723,-37.2205848694,9.0
1453,5.42835378647,-10.8951396942,8.0
1454,-6.95223236084,-39.9776649475,9.0
1455,6.20763444901,-11.0169744492,8.0
1456,-8.23110675812,52.9586753845,4.0
1457,1.54872298241,31.4087028503,1.0
1458,26.0216026306,37.2792434692,7.0
1459,27.5858516693,36.1254959106,7.0
1460,17.2587604523,-31.4963951111,3.0
1461,-17.024728775,-21.0693950653,5.0
1462,2.00723600388,31.3996562958,1.0
1463,-58.8069915771,-22.7232036591,0.0
1464,-58.7997131348,-22.6916885376,0.0
1465,50.3234443665,-0.426953673363,2.0
1466,48.3867073059,-5.54417324066,2.0
1467,15.7332792282,40.7746200562,7.0
1468,4.34319734573,26.3877716064,8.0
1469,49.8430633545,0.185425892472,2.0
1470,-64.9500808716,-25.8577365875,0.0
1471,3.03817510605,29.3533000946,1.0
1472,49.5154914856,-2.93771600723,2.0
1473,-52.0792694092,13.5884790421,6.0
1474,13.0708694458,-32.7683067322,3.0
1475,13.1965847015,-36.7745323181,3.0
1476,23.6345043182,38.1688156128,7.0
1477,11.6023626328,-33.993560791,3.0
1478,11.9365139008,-35.4935569763,3.0
1479,-9.41015815735,56.8071250916,4.0
1480,-52.1195755005,15.5696401596,6.0
1481,-56.4665756226,16.5541572571,6.0
1482,-50.0777168274,15.0486869812,6.0
1483,-7.903028965,54.8506164551,4.0
1484,-4.58057117462,-38.826259613,9.0
1485,3.06166100502,29.6952342987,1.0
1486,-15.3264141083,-17.9084892273,5.0
1487,-64.2881698608,-24.8865814209,0.0
1488,-5.94558334351,-40.4438056946,9.0
1489,-19.8887195587,-15.1181545258,5.0
1490,49.2028961182,-1.66602861881,2.0
1491,5.97003221512,-12.6074743271,8.0
1492,49.375164032,-1.09236478806,2.0
1493,-65.2365493774,-25.4100456238,0.0
1494,-58.3063087463,-23.2506008148,0.0
1495,3.46479988098,30.4263134003,1.0
1496,26.7615070343,38.1350822449,7.0
1497,-51.4566192627,12.4913816452,6.0
1498,14.9928541183,-32.191532135,3.0
1499,48.9172019958,1.7462323904,2.0
1500,2.56353855133,27.8274536133,1.0
1501,28.0976085663,36.9897346497,7.0
1502,-9.28167533875,55.0689468384,4.0
1503,-50.7563934326,13.7482585907,6.0
1504,15.9942626953,-33.296585083,3.0
1505,0.326467096806,28.8356456757,1.0
1506,17.1889286041,-31.1165428162,3.0
1507,-8.82301998138,-37.0485572815,9.0
1508,2.12802052498,30.461151123,1.0
1509,26.1051483154,37.5298271179,7.0
1510,-48.9336204529,14.1552343369,6.0
1511,5.81970024109,-11.8971290588,8.0
1512,-7.76106786728,56.7284469604,4.0
1513,13.8029127121,-36.9530639648,3.0
1514,2.35039448738,31.2208995819,1.0
1515,-7.29257011414,56.0313110352,4.0
1516,-60.1138648987,-22.1866931915,0.0
1517,-17.1260871887,-21.2015247345,5.0
1518,15.642416954,-31.7844543457,3.0
1519,-49.1968040466,14.110165596,6.0
1520,-5.43956518173,-39.223033905,9.0
1521,-45.6130142212,17.123588562,6.0
1522,3.72280049324,29.7598114014,1.0
1523,22.2710933685,37.20703125,7.0
1524,-13.2677249908,-23.7897109985,5.0
1525,-8.97820186615,55.552898407,4.0
1526,-3.90036940575,57.5328636169,4.0
1527,23.0394287109,38.7347869873,7.0
1528,48.4308662415,-1.23928630352,2.0
1529,4.61570358276,-12.8455381393,8.0
1530,41.4503631592,-10.100276947,2.0
1531,49.4365959167,-2.98126292229,2.0
1532,-17.0454711914,-19.6174297333,5.0
1533,22.4863166809,37.4875984192,7.0
1534,-5.62633514404,-34.1549873352,9.0
1535,-18.4293708801,-14.5533847809,5.0
1536,-8.66244888306,56.2974967957,4.0
1537,4.17276477814,-12.5089578629,8.0
1538,4.13930463791,-11.884095192,8.0
1539,-9.0172996521,53.6776123047,4.0
1540,-10.5359048843,-37.6880950928,9.0
1541,-56.5404930115,-26.6443920135,0.0
1542,12.5901966095,27.1744251251,8.0
1543,-10.1458158493,-37.4556388855,9.0
1544,4.25896692276,-11.2636957169,8.0
1545,-56.0314178467,-17.6047859192,0.0
1546,3.57159161568,15.6685028076,1.0
1547,46.0937614441,-11.3601713181,2.0
1548,20.505115509,-28.9441947937,3.0
1549,-2.3211607933,53.4316215515,4.0
1550,-19.529592514,-1.39164340496,5.0
1551,-42.1314506531,20.3189792633,6.0
1552,39.1462440491,28.0940971375,7.0
1553,-1.63801693916,17.741153717,8.0
1554,5.54628562927,34.6787033081,9.0
1555,-56.8427429199,-17.1119365692,0.0
1556,0.627951085567,11.5732860565,1.0
1557,49.6367149353,-12.8774032593,2.0
1558,19.1232872009,-24.48462677,3.0
1559,-1.57078814507,53.187915802,4.0
1560,-20.3884067535,-1.50563633442,5.0
1561,-41.2255592346,18.4879322052,6.0
1562,9.1910610199,35.3428382874,9.0
1563,-53.1248550415,-19.4161376953,0.0
1564,-0.0852134153247,11.3303918839,1.0
1565,49.4677276611,-12.7685489655,2.0
1566,21.8863735199,-27.4158802032,3.0
1567,-2.46943211555,56.460811615,4.0
1568,-21.5197715759,-2.7984995842,5.0
1569,-36.9990234375,19.8481712341,6.0
1570,37.1945648193,27.5603904724,7.0
1571,-2.01433300972,8.76807594299,8.0
1572,12.8810272217,43.8646965027,9.0
1573,-54.3998794556,-12.1534938812,0.0
1574,8.86105251312,35.883518219,9.0
1575,-22.6899223328,-0.832833468914,5.0
1576,-13.2949533463,4.56185770035,5.0
1577,-41.458732605,17.2272930145,6.0
1578,-19.8067073822,-1.00001358986,5.0
1579,-55.9696044922,-20.6871299744,0.0
1580,13.7319307327,30.4243373871,9.0
1581,5.37839126587,0.819945156574,8.0
1582,-22.8719406128,-0.64881414175,9.0
1583,5.56663036346,-0.998993098736,8.0
1584,-4.61245250702,53.5164604187,4.0
1585,6.04518032074,15.8940134048,1.0
1586,34.6457633972,34.0120124817,7.0
1587,39.0472259521,30.5306167603,7.0
1588,27.4282150269,-23.9613075256,3.0
1589,-15.4234876633,3.53697824478,5.0
1590,3.26806139946,14.3963546753,1.0
1591,-54.6948509216,-12.5722761154,0.0
1592,-52.0980262756,-25.4705448151,0.0
1593,41.4485588074,-17.5206489563,2.0
1594,46.3041152954,-2.56857585907,2.0
1595,40.4426193237,31.0949516296,7.0
1596,13.5882511139,-3.37318205833,8.0
1597,42.1591835022,-16.7145786285,2.0
1598,-58.6640892029,-14.0949039459,0.0
1599,0.158856347203,12.1444826126,1.0
1600,37.7278594971,-2.68150091171,2.0
1601,-42.0182418823,18.9848213196,6.0
1602,26.0715236664,-23.1595745087,3.0
1603,27.7065544128,-24.0540943146,3.0
1604,39.0018463135,30.8172187805,7.0
1605,27.4561882019,-21.9293880463,3.0
1606,16.6816425323,0.434905439615,3.0
1607,-2.38092017174,56.2604560852,4.0
1608,-40.5650291443,18.634098053,6.0
1609,-38.3932876587,19.6493740082,6.0
1610,-42.2581520081,18.6177043915,6.0
1611,22.6391029358,5.81878042221,4.0
1612,8.08898544312,34.704410553,9.0
1613,4.1271443367,13.8050613403,1.0
1614,-19.7687835693,-1.69613993168,5.0
1615,-56.286529541,-13.4329557419,0.0
1616,-0.437295824289,-38.578578949,9.0
1617,-21.4391078949,-8.2275724411,5.0
1618,57.0478096008,-22.1651248932,2.0
1619,6.62131404877,-0.58987057209,8.0
1620,-63.1496772766,-26.9982261658,0.0
1621,3.94075417519,14.7044382095,1.0
1622,36.2127838135,31.4048595428,7.0
1623,-42.1728591919,19.0503292084,6.0
1624,21.0217876434,-26.9946479797,3.0
1625,45.2260093689,-0.805825173855,2.0
1626,5.00389671326,16.4585876465,1.0
1627,39.0191650391,32.6242599487,7.0
1628,22.6132011414,5.88764286041,4.0
1629,-40.0239219666,19.2892837524,6.0
1630,20.6302452087,-29.46849823,3.0
1631,5.82130861282,16.4716892242,1.0
1632,20.0702190399,-26.394115448,3.0
1633,14.9216413498,29.465927124,9.0
1634,5.37384128571,14.5162391663,1.0
1635,39.5225257874,29.0888080597,7.0
1636,-46.7328453064,21.0049743652,6.0
1637,5.52796316147,-0.193423733115,8.0
1638,-4.72859191895,54.122303009,4.0
1639,20.0566082001,-28.6485519409,3.0
1640,6.52043914795,15.6131916046,1.0
1641,-2.72939491272,53.3537368774,4.0
1642,-55.2294921875,-15.3709077835,0.0
1643,-22.2289772034,-1.70946764946,5.0
1644,19.9843978882,-29.4940795898,3.0
1645,-37.7447090149,20.0503959656,6.0
1646,1.63733494282,-38.0409240723,9.0
1647,-35.1351089478,17.9544868469,6.0
1648,6.38788223267,16.0625190735,1.0
1649,32.0190353394,33.7248268127,7.0
1650,-12.8041372299,-3.01324176788,5.0
1651,-2.27283239365,52.9313659668,4.0
1652,-2.62494516373,57.0185050964,4.0
1653,36.3480453491,32.5720291138,7.0
1654,51.0967140198,-10.0254688263,2.0
1655,41.7002296448,-13.4497013092,2.0
1656,-20.7765922546,-1.71611452103,5.0
1657,-12.7164030075,5.5246591568,7.0
1658,19.078081131,-27.6280002594,9.0
1659,-21.6990013123,-2.12861871719,5.0
1660,22.6370258331,5.54058027267,4.0
1661,-4.38213586807,53.3183059692,4.0
1662,-22.7531833649,-0.557793915272,9.0
1663,-52.6269493103,-22.9184608459,0.0
1664,7.45365333557,1.01324474812,8.0
1665,14.8208684921,29.9194202423,9.0
1666,7.28451347351,0.557996928692,8.0
1667,-62.1292037964,-21.9502010345,0.0
1668,3.01617074013,5.04506826401,1.0
1669,47.1412239075,-6.18658065796,2.0
1670,12.7533845901,-26.7906208038,3.0
1671,-7.3966884613,41.0123405457,4.0
1672,-21.4672851562,-17.7501525879,5.0
1673,-54.0856285095,20.4144535065,6.0
1674,32.3292808533,29.912858963,7.0
1675,18.8219871521,-6.97391605377,8.0
1676,-4.38901567459,-35.3010139465,9.0
1677,-60.0872459412,-19.0441818237,0.0
1678,5.01433563232,7.49333953857,1.0
1679,35.2444267273,-4.27958726883,2.0
1680,24.9958229065,-22.7973880768,3.0
1681,-6.79900932312,51.1026382446,4.0
1682,-22.4774799347,-16.4993247986,5.0
1683,-50.3542976379,12.2726163864,6.0
1684,26.7544994354,43.9034042358,7.0
1685,21.5371742249,-3.54149866104,8.0
1686,-5.04295301437,-32.3021888733,9.0
1687,-64.3207168579,-20.5094432831,0.0
1688,2.55989146233,7.31815719604,1.0
1689,34.8660888672,-4.44594430923,2.0
1690,13.2799015045,-25.6527042389,3.0
1691,-6.85742092133,50.1778259277,4.0
1692,-23.5032978058,-17.160364151,5.0
1693,-53.7646522522,20.4468803406,6.0
1694,32.2165603638,30.1998653412,7.0
1695,18.4124755859,-6.98010444641,8.0
1696,-0.953536391258,-37.677696228,9.0
1697,-55.2799491882,-25.8789081573,0.0
1698,-1.20588326454,-35.0096511841,9.0
1699,-22.4622516632,-15.6614046097,5.0
1700,-15.7300548553,-13.6113395691,5.0
1701,-53.7649383545,19.2726707458,6.0
1702,-17.5061569214,-12.7107753754,5.0
1703,-53.4545631409,-17.18608284,0.0
1704,-9.25491333008,-38.9944343567,9.0
1705,10.470790863,-7.14745950699,8.0
1706,-8.56503200531,-38.3250389099,9.0
1707,21.2311782837,-3.26163983345,8.0
1708,11.3659191132,40.8599433899,4.0
1709,3.78185176849,5.18681716919,1.0
1710,22.3864803314,34.7663879395,7.0
1711,24.3980464935,42.5542259216,7.0
1712,25.4800186157,-20.2120056152,3.0
1713,-22.6236629486,-17.1873912811,5.0
1714,6.05773735046,7.96999645233,1.0
1715,-65.2404556274,-23.0772438049,0.0
1716,-54.2125968933,-25.1425971985,0.0
1717,50.6199302673,-5.30663490295,2.0
1718,49.4056396484,0.81213748455,2.0
1719,35.3187408447,36.9534225464,7.0
1720,19.0194129944,-2.3993537426,8.0
1721,48.4923553467,1.84795439243,2.0
1722,-51.133140564,-16.2132797241,0.0
1723,2.60509443283,6.41314029694,1.0
1724,50.8199501038,-2.79452800751,2.0
1725,-49.3810424805,11.9891605377,6.0
1726,23.6483268738,-22.2072639465,3.0
1727,23.6543807983,-21.9593544006,3.0
1728,36.0198745728,39.174118042,7.0
1729,10.3068208694,-26.599615097,3.0
1730,24.3795490265,-22.4812202454,3.0
1731,2.32852625847,46.2361488342,4.0
1732,-34.4987068176,15.5354089737,6.0
1733,-53.4803657532,18.8224277496,6.0
1734,-56.4710388184,18.9032726288,6.0
1735,-16.9343967438,52.895111084,4.0
1736,-3.96212768555,-33.3025741577,9.0
1737,7.41506242752,6.41593694687,1.0
1738,-21.4801635742,-18.3903846741,5.0
1739,-62.7271614075,-21.6068153381,0.0
1740,-1.4835973978,-35.1620903015,9.0
1741,-23.5701808929,-17.3987445831,5.0
1742,51.3456459045,0.358047157526,2.0
1743,16.6359062195,-7.47103357315,8.0
1744,39.1578407288,-2.33399033546,2.0
1745,-56.3266983032,-25.9912166595,0.0
1746,-64.2701263428,-20.8235874176,0.0
1747,6.4000954628,4.95039415359,1.0
1748,37.1342658997,37.4619064331,7.0
1749,-35.955947876,15.3227062225,6.0
1750,23.5328330994,-23.1329879761,3.0
1751,36.9182090759,-6.47888469696,2.0
1752,10.1131029129,8.26359653473,1.0
1753,36.1270675659,37.7397613525,7.0
1754,-16.924287796,52.9002609253,4.0
1755,-37.5108184814,16.5057144165,6.0
1756,22.7809867859,-26.0224723816,3.0
1757,8.26923084259,7.12889528275,1.0
1758,15.8426370621,-34.2503433228,3.0
1759,-3.36079216003,-32.9231300354,9.0
1760,3.71930551529,7.21101474762,1.0
1761,31.0481567383,34.3372993469,7.0
1762,-36.7613792419,14.1295394897,6.0
1763,10.8915939331,3.09590959549,8.0
1764,-11.8538856506,49.9872779846,4.0
1765,12.9958086014,-26.1052455902,3.0
1766,6.26662683487,5.34284734726,1.0
1767,-7.44176197052,45.9405250549,4.0
1768,-59.1039123535,-13.9549322128,0.0
1769,-20.1516780853,-17.8111858368,5.0
1770,24.3847332001,-31.3780097961,3.0
1771,-37.1934013367,18.3795032501,6.0
1772,-4.29213762283,-31.9761295319,9.0
1773,-50.0728187561,14.1404781342,6.0
1774,6.75924825668,5.64740371704,1.0
1775,34.5707931519,30.9911136627,7.0
1776,-21.6554317474,-16.486333847,5.0
1777,-8.75085258484,45.9177284241,4.0
1778,-16.3569812775,53.3427734375,4.0
1779,27.5246353149,40.7406806946,7.0
1780,50.6058692932,-0.206867843866,2.0
1781,17.3577690125,-9.00542545319,8.0
1782,48.2531509399,-6.39602804184,2.0
1783,49.795627594,-6.76345539093,2.0
1784,-23.6860809326,-16.8257961273,5.0
1785,36.6439247131,33.263874054,7.0
1786,0.552439749241,-34.2693977356,9.0
1787,-20.6952972412,-17.0863494873,5.0
1788,-10.3981428146,49.2280006409,4.0
1789,11.0382633209,4.49849224091,8.0
1790,10.5225696564,5.09567451477,8.0
1791,-9.64039516449,50.6396789551,4.0
1792,-1.33402407169,-34.1771888733,9.0
1793,-52.5040931702,-17.5536689758,0.0
1794,9.00565814972,-0.526721179485,8.0
1795,1.04278564453,-29.446308136,9.0
1796,17.3973388672,-9.16523361206,8.0
