iterations,fitness,time,fevals
0,0.0250470945362,0.00108776600064,275
10,0.0304325283374,0.00213101400004,459
20,0.0330030099585,0.00311304000024,646
30,0.0357791501604,0.00405481300004,829
40,0.0412953571225,0.00498031999996,1016
50,0.0423510420111,0.00590021700009,1199
60,0.0434806818865,0.00683449700045,1387
70,0.0455381024814,0.00774890299908,1572
80,0.0477828545841,0.00868158899902,1758
90,0.0481013556894,0.00957896,1941
100,0.049131263986,0.0104678930002,2127
110,0.0516992497538,0.0113604100006,2310
120,0.0531274282443,0.0122485850006,2497
130,0.0563157938694,0.0131388250011,2684
140,0.0534797898251,0.0139854980007,2867
150,0.0560326583256,0.0148931340009,3057
160,0.0588971769603,0.0157552310011,3240
170,0.0558446642927,0.0166131390015,3424
180,0.0611888142663,0.0175084250022,3610
190,0.0593099287619,0.0183883380014,3799
200,0.0582229796983,0.0192925100018,3986
210,0.0622139475573,0.0201358650029,4174
220,0.0600819080242,0.021023977004,4364
230,0.0609442889357,0.0218856930042,4553
240,0.0590230738024,0.0227211730034,4737
250,0.0643715474632,0.0235406660031,4923
260,0.0643715474632,0.0243653100024,5113
270,0.0689125750187,0.0251643870033,5301
280,0.0661908079516,0.0259963890039,5495
290,0.0673694045326,0.0268502120034,5689
300,0.0695564554791,0.027663517003,5876
310,0.0702543188299,0.0284709030038,6061
320,0.0754938730103,0.0293043730035,6247
330,0.0718970617219,0.0301065850035,6429
340,0.0702530487116,0.0308737260038,6614
350,0.0754383255841,0.0316554980036,6797
360,0.0713034741666,0.0324380400034,6985
370,0.0713034741666,0.033285921003,7169
380,0.0677321783322,0.0341396270032,7359
390,0.0701868247524,0.0349594610034,7547
400,0.0731759836968,0.0357649910038,7739
410,0.0733249645162,0.0366025400035,7927
420,0.0754726022845,0.0374119980042,8116
430,0.0773642542145,0.0381713900042,8299
440,0.0754726022845,0.0389600520029,8486
450,0.0733249645162,0.0397480460033,8667
460,0.0757638592508,0.040502955002,8854
470,0.0733249645162,0.0412528630022,9040
480,0.0745330701895,0.0419653120025,9227
490,0.0733249645162,0.0427507610038,9408
500,0.0785549020676,0.0435341890043,9596
510,0.0738722317534,0.0443108320051,9779
520,0.0785549020676,0.0450740860051,9961
530,0.0759671004109,0.0458672540062,10154
540,0.0739979378815,0.0466384780048,10341
550,0.0771354621626,0.0474300010046,10530
560,0.0731324006761,0.0482291800035,10720
570,0.0746133421557,0.0489889940036,10899
580,0.0734984518949,0.0497961540041,11079
590,0.0734984518949,0.0506389240036,11271
600,0.0715812456285,0.0514838120034,11458
610,0.0717132855412,0.0523551070037,11639
620,0.0715812456285,0.0531937730048,11826
630,0.0715812456285,0.053998328005,12016
640,0.0715812456285,0.0548039340047,12199
650,0.0715812456285,0.0556118400036,12379
660,0.0685773206935,0.0598905350034,12569
670,0.0750997571973,0.060726634003,12753
680,0.0696544899018,0.0615492680026,12941
690,0.0701627028606,0.0623548740023,13123
700,0.0737478803571,0.0631450700021,13311
710,0.0745104326575,0.0639137380022,13500
720,0.0750437720289,0.0646618170013,13686
730,0.0767052782451,0.0654453210009,13873
740,0.0751455827643,0.0662549180015,14060
750,0.0776766685428,0.0670765110026,14254
760,0.0869056829135,0.0678747970032,14441
770,0.0869056829135,0.0686331090037,14623
780,0.0879526941564,0.0693425590052,14808
790,0.0881062662746,0.0700582700047,14996
800,0.0885516742169,0.0707925440038,15185
810,0.0885516742169,0.0715056760037,15372
820,0.088585874471,0.0721982970026,15556
830,0.088585874471,0.0729285640027,15745
840,0.0877909267445,0.0736674860018,15938
850,0.0876174802405,0.0744231510034,16125
860,0.0876174802405,0.0751481770039,16303
870,0.0837045206271,0.075902659004,16496
880,0.0837045206271,0.0766483210027,16680
890,0.0854504142585,0.0774140270023,16871
900,0.0864568207868,0.0781722050033,17060
910,0.0864568207868,0.0789134060033,17245
920,0.0864568207868,0.0796339630033,17433
930,0.0908775220217,0.0803353530046,17618
940,0.0841821094851,0.0810567390054,17799
950,0.0861849930983,0.081794020005,17977
960,0.0886732114951,0.0825299090047,18164
970,0.0886732114951,0.0832578040045,18343
980,0.0872497473888,0.0840099450033,18530
990,0.0872497473888,0.0847350710028,18714
1000,0.0872497473888,0.0853880290015,18899
1010,0.0873236622188,0.0860273430008,19090
1020,0.0887834862276,0.0866765620012,19276
1030,0.0873236622188,0.0873489630012,19460
1040,0.0890492972045,0.0880035410009,19647
1050,0.0872497473888,0.0886597950011,19836
1060,0.0872497473888,0.0893388990025,20023
1070,0.0872497473888,0.0900494280031,20204
1080,0.0871403500953,0.0907663820035,20392
1090,0.0908250579151,0.0914879800021,20579
1100,0.0885692576053,0.0922598650013,20763
1110,0.0885692576053,0.0930133590009,20952
1120,0.0862587403843,0.0937726360007,21137
1130,0.084865995712,0.0945481480012,21317
1140,0.0853738185623,0.0953083330023,21502
1150,0.0841030987353,0.0960445240016,21686
1160,0.083937543782,0.096796611002,21873
1170,0.0852011799936,0.0975777010026,22054
1180,0.0828335197171,0.098366031003,22238
1190,0.0837799772493,0.0991470080025,22425
1200,0.0846213493538,0.0999044580021,22611
1210,0.0837799772493,0.100661533002,22796
1220,0.0837799772493,0.101410407002,22977
1230,0.0837799772493,0.102169617001,23159
1240,0.0836534640662,0.102916035003,23349
1250,0.0839286501148,0.103706954003,23535
1260,0.0836534640662,0.104451193003,23726
1270,0.0916931790165,0.105213294004,23912
1280,0.0920607563693,0.105981270004,24099
1290,0.0916931790165,0.106702312005,24283
1300,0.0916931790165,0.107401508005,24468
1310,0.0916931790165,0.108086840004,24656
1320,0.0915182760716,0.108789472006,24849
1330,0.0915182760716,0.109465163005,25031
1340,0.0921744633611,0.110082527004,25216
1350,0.0921744633611,0.110683127004,25405
1360,0.0921744633611,0.111303650005,25585
1370,0.0938190910672,0.111925280005,25769
1380,0.0938190910672,0.112582844005,25958
1390,0.0938190910672,0.113242859006,26144
1400,0.0938190910672,0.113880602006,26330
1410,0.0938190910672,0.114493706007,26511
1420,0.0941667103048,0.115085524007,26698
1430,0.0938190910672,0.115686573006,26885
1440,0.0938190910672,0.116294354006,27072
1450,0.0950645082007,0.116946056005,27257
1460,0.0959619535786,0.117609427005,27445
1470,0.0959619535786,0.118247349006,27633
1480,0.0941476099866,0.118871144006,27817
1490,0.0941476099866,0.119506480005,28002
1500,0.0944176404042,0.120132120004,28184
1510,0.0940605483439,0.120763076004,28366
1520,0.0971890874982,0.121449795004,28548
1530,0.095760136175,0.122148174005,28740
1540,0.095760136175,0.122868615004,28930
1550,0.095760136175,0.123573262004,29116
1560,0.095760136175,0.124282048006,29302
1570,0.095760136175,0.124945082007,29493
1580,0.095760136175,0.125612796006,29681
1590,0.095760136175,0.126275184006,29869
1600,0.095760136175,0.126931005005,30055
1610,0.0967347617422,0.127590284004,30240
1620,0.095760136175,0.128267342005,30424
1630,0.095760136175,0.128946698005,30605
1640,0.0960885129631,0.129615070005,30789
1650,0.0960885129631,0.130246468005,30973
1660,0.095760136175,0.130885787004,31156
1670,0.0962859618356,0.131561050006,31342
1680,0.0957496453816,0.132248726006,31529
1690,0.0957496453816,0.132919447005,31714
1700,0.0957496453816,0.133608220005,31899
1710,0.0957496453816,0.134310086007,32084
1720,0.0957496453816,0.135023912007,32269
1730,0.0957559073617,0.135714093007,32457
1740,0.093492648476,0.136375453007,32639
1750,0.09292556384,0.137036140006,32828
1760,0.092931461869,0.137748367006,33012
1770,0.09292556384,0.138428102007,33204
1780,0.09292556384,0.139081013007,33385
1790,0.09292556384,0.139739200007,33577
1800,0.09292556384,0.140390233006,33765
1810,0.0905537379909,0.141054061005,33948
1820,0.0911432864676,0.141743506005,34131
1830,0.0914374165636,0.142390897006,34318
1840,0.0915489620124,0.143025713007,34505
1850,0.0915489620124,0.143617139007,34685
1860,0.0915489620124,0.144212126008,34869
1870,0.0915489620124,0.144813336008,35062
1880,0.091806130967,0.145409767008,35250
1890,0.091806130967,0.146074638009,35439
1900,0.0922225327599,0.146712938009,35629
1910,0.091806130967,0.147334223009,35815
1920,0.0923600032795,0.14794579101,35997
1930,0.0919864371945,0.148577055012,36180
1940,0.0930430574661,0.149249307011,36365
1950,0.0929868691571,0.14993798401,36549
1960,0.0936461159291,0.150630671011,36734
1970,0.0938590099045,0.15130356701,36922
1980,0.0936461159291,0.15195096201,37111
1990,0.0936461159291,0.152618802009,37298
2000,0.0936461159291,0.153270765008,37484
2010,0.0936461159291,0.153931799006,37670
2020,0.0936461159291,0.154635175006,37850
2030,0.0936461159291,0.155344188006,38039
2040,0.0922749687186,0.156093592006,38224
2050,0.0922749687186,0.156890808006,38409
2060,0.0922749687186,0.157599242008,38596
2070,0.0937314985239,0.158305783008,38777
2080,0.0922749687186,0.158998412009,38966
2090,0.0922749687186,0.159663042008,39151
2100,0.0911111832587,0.160336369008,39338
2110,0.0911111832587,0.161008293007,39523
2120,0.0911111832587,0.161715298007,39716
2130,0.0911111832587,0.162392714006,39899
2140,0.0911111832587,0.163091707005,40084
2150,0.0911111832587,0.163799881006,40271
2160,0.0911111832587,0.164522138006,40458
2170,0.0911111832587,0.165250556005,40647
2180,0.0918752827499,0.165946144005,40832
2190,0.0933282081872,0.166635918005,41016
2200,0.0933282081872,0.167371083005,41200
2210,0.0911111832587,0.168129799005,41383
2220,0.0883829747823,0.168889045004,41569
2230,0.0883829747823,0.169647895005,41755
2240,0.0883829747823,0.170428196005,41944
2250,0.0883829747823,0.171172983004,42126
2260,0.0883829747823,0.171898936003,42309
2270,0.0883829747823,0.172654752003,42496
2280,0.0883829747823,0.173413461003,42680
2290,0.0883829747823,0.174140395002,42865
2300,0.0900348181449,0.174834901003,43052
2310,0.0918038357717,0.175552881003,43236
2320,0.0913475450027,0.176278058003,43425
2330,0.0913475450027,0.177029305003,43612
2340,0.0913475450027,0.177764621003,43800
2350,0.0913475450027,0.178495091004,43985
2360,0.0897214344847,0.179252623004,44171
2370,0.0899721257363,0.180000265003,44359
2380,0.0917345670607,0.180754665003,44544
2390,0.0902003881398,0.181488807004,44731
2400,0.0899721257363,0.182205752004,44912
2410,0.089825143937,0.182877234005,45099
2420,0.0890155148186,0.183598196005,45284
2430,0.0894106830209,0.184307743004,45474
2440,0.0888972018511,0.185028943004,45658
2450,0.0888972018511,0.185755694005,45843
2460,0.0863047345066,0.186502670005,46029
2470,0.083688406746,0.187277176004,46213
2480,0.083688406746,0.188045374003,46397
2490,0.0843265509591,0.188772407004,46585
2500,0.0855286593916,0.189497543004,46777
2510,0.0832210937653,0.190268576005,46956
2520,0.0853735168146,0.191029846004,47139
2530,0.0823766048962,0.191776130005,47327
2540,0.0823766048962,0.192612157005,47514
2550,0.0849443109494,0.193387576004,47706
2560,0.0823766048962,0.194109335003,47896
2570,0.0823766048962,0.194880570003,48082
2580,0.0825341584335,0.195646160004,48265
2590,0.0799366205022,0.196397320004,48454
2600,0.0812241702886,0.197147302004,48639
2610,0.0793558154204,0.197869475003,48824
2620,0.0787363780781,0.198572971003,49010
2630,0.0840035499549,0.199339689003,49197
2640,0.0772286335273,0.200113131003,49389
2650,0.0772286335273,0.200885088003,49575
2660,0.0772286335273,0.201707880002,49763
2670,0.0714585894641,0.202495997002,49948
2680,0.0714585894641,0.203267069002,50136
2690,0.0775709841575,0.204033477003,50324
2700,0.0748295080888,0.204788420002,50508
2710,0.0765529849149,0.205514043002,50689
2720,0.0762937755336,0.206244837002,50869
2730,0.0762937755336,0.207010260001,51049
2740,0.0773408947294,0.207804031999,51232
2750,0.0741892133625,0.208573400998,51415
2760,0.0741892133625,0.209394662998,51598
2770,0.0774296698681,0.210188370998,51784
2780,0.0741892133625,0.210945643998,51965
2790,0.0781393510883,0.211700868997,52151
2800,0.0766154927111,0.212447252996,52333
2810,0.0771883783212,0.213157985996,52521
2820,0.0790697720192,0.213864760997,52706
2830,0.0812879198762,0.214574477997,52890
2840,0.0804455775886,0.215338369997,53076
2850,0.0771989460479,0.216112580998,53268
2860,0.0821248057875,0.216862609997,53456
2870,0.0804560966568,0.217636809997,53637
2880,0.0823189671042,0.218417543996,53822
2890,0.0839611404949,0.219163884996,54012
2900,0.0855233102126,0.219913694997,54198
2910,0.0853063163303,0.220640712996,54384
2920,0.0857075796494,0.221381360996,54574
2930,0.0889011447517,0.222092089996,54761
2940,0.0872229957765,0.222840992996,54945
2950,0.0867964527245,0.223603622995,55134
2960,0.0867964527245,0.224348390995,55321
2970,0.0890632709104,0.225099660996,55505
2980,0.0876174471523,0.225872303996,55691
2990,0.087596052003,0.226622922995,55878
3000,0.087598385931,0.227321353996,56063
