iterations,fitness,time,fevals
0,0.0309789334802,0.00261518499974,470
10,0.0370749708433,0.00507990699953,840
20,0.04605250346,0.00741260299947,1215
30,0.0481629402485,0.00985670499904,1579
40,0.0503105223922,0.0121314819989,1944
50,0.0607305667904,0.0155059679983,2314
60,0.0614729608679,0.0187594799991,2678
70,0.062603997359,0.0217023829991,3042
80,0.0623723370234,0.0245810769993,3409
90,0.0688981977266,0.0270810879992,3777
100,0.0677798692664,0.0293900069992,4145
110,0.0736011062624,0.0313803639983,4514
120,0.072316084355,0.0332639659991,4877
130,0.0771956005751,0.0351871189996,5239
140,0.0786073949265,0.0371891480008,5606
150,0.0851445131548,0.0400360140011,5976
160,0.0836265635614,0.042680808001,6341
170,0.0862562031093,0.0452287790013,6710
180,0.0862562031093,0.0477088800017,7074
190,0.0883943863523,0.0497568210012,7444
200,0.0933914095049,0.0518565250022,7815
210,0.0908121930464,0.053780041002,8182
220,0.0924911463566,0.0556489560022,8550
230,0.101134155037,0.0574147260031,8921
240,0.0931426140014,0.0592437400046,9275
250,0.0897007253365,0.0609898430048,9643
260,0.0934243641732,0.0626735840051,10019
270,0.0921473211754,0.0644431470064,10387
280,0.0950382012807,0.0662343370059,10755
290,0.0991291613905,0.0679224150063,11114
300,0.0926132884743,0.0696863550074,11480
310,0.0940183010373,0.0714865070076,11847
320,0.0960395335181,0.0732877040082,12218
330,0.0960395335181,0.0750348450074,12580
340,0.0973348654495,0.0768722560078,12948
350,0.0979148294668,0.0787239940091,13315
360,0.0976967636282,0.0806126810094,13683
370,0.0977831987194,0.0824154710099,14054
380,0.094142194959,0.0842692430087,14413
390,0.098692418759,0.0860998550088,14774
400,0.0976038279494,0.0880179400083,15148
410,0.095639118482,0.0898554290088,15510
420,0.0904749418976,0.0917307990076,15872
430,0.0944146621706,0.0936184860093,16238
440,0.0848270046068,0.0955912560094,16607
450,0.0898076281807,0.0975190680092,16972
460,0.0879273206191,0.0994042580096,17336
470,0.0903646890365,0.101393116009,17707
480,0.0898004780656,0.103285853009,18077
490,0.0854311658304,0.10606527601,18437
500,0.0848290926848,0.108685657011,18808
510,0.089646971878,0.111222182011,19176
520,0.0967486882055,0.113604455011,19545
530,0.0967486882055,0.11552390201,19915
540,0.0957460507221,0.11742215101,20274
550,0.096794861129,0.11918351701,20642
560,0.0998407009675,0.120917848009,21010
570,0.0993741621137,0.122664133009,21375
580,0.0981719957606,0.124409065009,21743
590,0.0883273713937,0.126305610009,22110
600,0.102858728359,0.128114499008,22474
610,0.102858728359,0.129932418007,22837
620,0.0975743895712,0.131673527007,23207
630,0.10661355675,0.133427919007,23577
640,0.106955460962,0.135214260006,23946
650,0.0971004873003,0.136980235005,24314
660,0.111440802574,0.138721935005,24685
670,0.110445673356,0.140393215004,25057
680,0.111750215505,0.142025377005,25430
690,0.111682511626,0.143676832005,25793
700,0.107285845397,0.145349156006,26159
710,0.107285845397,0.147137312006,26525
720,0.110953814225,0.148850097006,26897
730,0.115446843439,0.150524026007,27262
740,0.115446843439,0.152140532007,27628
750,0.115446843439,0.153781080007,27990
760,0.105606167905,0.155409596007,28363
770,0.114336178013,0.157013737007,28737
780,0.113344003781,0.158528113008,29103
790,0.113076027526,0.160062692008,29471
800,0.11383976853,0.161596528009,29832
810,0.110159949965,0.163210657009,30196
820,0.110693598748,0.164804586009,30568
830,0.108105580091,0.166385864009,30931
840,0.108117615955,0.16800577301,31296
850,0.1091611511,0.169710189009,31661
860,0.103555924119,0.17140257101,32034
870,0.102918223732,0.17306442201,32402
880,0.104923995555,0.174731805009,32778
890,0.101113872099,0.17642275901,33147
900,0.109175763176,0.178110837011,33516
910,0.109607043533,0.179797376011,33886
920,0.108088183407,0.18148771201,34250
930,0.100277002692,0.183256950009,34620
940,0.104295808336,0.184923515009,34981
950,0.102202515351,0.186604062008,35345
960,0.103950808522,0.188265427008,35713
970,0.107864772556,0.189942805007,36085
980,0.108225337743,0.192516975008,36455
990,0.108208710536,0.194868017008,36817
1000,0.102975772359,0.197240543008,37186
1010,0.102511536857,0.199626931008,37545
1020,0.0991724974104,0.201544960008,37907
1030,0.099171255509,0.203493360008,38275
1040,0.0993929021742,0.205203731008,38639
1050,0.100406354165,0.206992730007,39008
1060,0.0950444723496,0.208820173008,39383
1070,0.0949054177289,0.210565590009,39758
1080,0.101250658813,0.212788819008,40124
1090,0.101187613181,0.214669629007,40486
1100,0.093913697069,0.216395604008,40846
1110,0.0983766129259,0.218114829007,41213
1120,0.0965576375509,0.219817879006,41587
1130,0.0999979772381,0.221529274006,41952
1140,0.096055974093,0.223227049006,42315
1150,0.100370143811,0.225000300006,42684
1160,0.0984027538611,0.226726370007,43050
1170,0.104586274619,0.228358492008,43408
1180,0.105440642738,0.229984035008,43774
1190,0.0995969753309,0.231534938008,44137
1200,0.105014361044,0.233133000009,44495
1210,0.101923703748,0.234854013008,44862
1220,0.0982347857854,0.236613287007,45230
1230,0.099269741279,0.238373757007,45599
1240,0.100575157806,0.240096860009,45965
1250,0.097040088398,0.241815804009,46339
1260,0.101325112241,0.243471400008,46706
1270,0.102044493633,0.245225920009,47074
1280,0.103625206475,0.246957881011,47440
1290,0.10032610074,0.248802081011,47814
1300,0.0939090521199,0.25061072401,48183
1310,0.0969017920323,0.25240968501,48543
1320,0.106073895023,0.25423723801,48905
1330,0.104114609257,0.25602590201,49276
1340,0.0968262841131,0.257855066009,49639
1350,0.0995440153064,0.259632160009,50004
1360,0.0930907609986,0.261450955008,50376
1370,0.0949104393908,0.263329871008,50747
1380,0.0905115632747,0.265237329008,51106
1390,0.0974224950849,0.267036273006,51476
1400,0.100220629822,0.268928286006,51843
1410,0.100220629822,0.270847826007,52213
1420,0.108512207776,0.272585113005,52581
1430,0.110591840394,0.275085609004,52947
1440,0.111922268262,0.277527750004,53318
1450,0.105867873324,0.280107453003,53692
1460,0.118754385138,0.282459767002,54054
1470,0.115312505209,0.284686777002,54427
1480,0.118743536653,0.287005194003,54792
1490,0.118743536653,0.289550286003,55159
1500,0.118743536653,0.291941445003,55522
1510,0.11195462397,0.294241441003,55884
1520,0.108859089489,0.296608376004,56246
1530,0.11160071683,0.298648135005,56613
1540,0.105672006369,0.300585903005,56983
1550,0.103535634111,0.302552106004,57350
1560,0.105906359721,0.304351960005,57716
1570,0.101495139145,0.306019481004,58080
1580,0.114755507641,0.307649406004,58448
1590,0.103682226968,0.309342222004,58809
1600,0.111529254851,0.311043955004,59170
1610,0.109632705727,0.312670753003,59537
1620,0.115411065483,0.314275862003,59910
1630,0.109932628278,0.315911534002,60277
1640,0.106165649217,0.317613816003,60644
1650,0.110175099289,0.319328673004,61009
1660,0.108019652232,0.321035985004,61380
1670,0.105832292133,0.322731809005,61751
1680,0.105641717174,0.324421662006,62124
1690,0.109780183976,0.326151576006,62491
1700,0.112535413218,0.327858294006,62850
1710,0.107547760528,0.329510029005,63213
1720,0.110075990098,0.331174197006,63580
1730,0.112231919595,0.332837569007,63947
1740,0.103488754364,0.334521464009,64309
1750,0.112283726073,0.336305191007,64674
1760,0.112283726073,0.338138697007,65044
1770,0.100935017191,0.339874954007,65410
1780,0.0983951002489,0.341665220007,65780
1790,0.100296272259,0.343420451007,66148
1800,0.108920930029,0.345205527006,66520
1810,0.105741614573,0.346931046006,66897
1820,0.103535926417,0.348666416006,67263
1830,0.103535926417,0.350417976006,67634
1840,0.108622623953,0.352183604005,68010
1850,0.0956785794606,0.353968804005,68374
1860,0.0982078054729,0.355761882005,68745
1870,0.0943668440648,0.357591245005,69113
1880,0.0943668440648,0.359384560004,69481
1890,0.0978018268128,0.361199424004,69843
1900,0.101574069096,0.363002517004,70212
1910,0.093443884745,0.364799557003,70571
1920,0.0883036616506,0.366589006004,70936
1930,0.0946368152922,0.368329999004,71290
1940,0.0974757798757,0.370080193004,71663
1950,0.104197221331,0.371747035004,72037
1960,0.105246507281,0.373380700003,72405
1970,0.103292697186,0.375071469003,72772
1980,0.0994210640598,0.376855331004,73142
1990,0.0969399126672,0.378581028004,73502
2000,0.101156136325,0.380273125005,73869
2010,0.101156136325,0.382036286006,74238
2020,0.103777629192,0.383732151005,74601
2030,0.102206468999,0.385486655006,74964
2040,0.101556535908,0.387220281005,75331
2050,0.0948489646201,0.388983320005,75688
2060,0.101178516612,0.395331857006,76056
2070,0.109451869698,0.397138268007,76417
2080,0.102339090963,0.398856616006,76794
2090,0.10452114701,0.400539403006,77162
2100,0.0977113699688,0.402351172006,77534
2110,0.0934016998502,0.404098782006,77901
2120,0.0976253127059,0.405934322007,78273
2130,0.0972540712153,0.407878889007,78641
2140,0.103098246942,0.409732111008,79001
2150,0.103098246942,0.411499219008,79367
2160,0.10025380578,0.413295383009,79736
2170,0.101303296416,0.415058250008,80108
2180,0.10472541239,0.416821803008,80474
2190,0.103922994506,0.418512058008,80848
2200,0.103850412072,0.420280925007,81216
2210,0.103850412072,0.421969697009,81586
2220,0.0929629422043,0.423806174009,81958
2230,0.093702696462,0.425690758009,82323
2240,0.103755254548,0.427507244009,82690
2250,0.101433659001,0.429306996008,83056
2260,0.0973072729378,0.431064092007,83414
2270,0.103912474348,0.432801552008,83782
2280,0.0982798956047,0.434642986009,84156
2290,0.100303924905,0.436436815007,84522
2300,0.101282843041,0.438215095008,84887
2310,0.101282843041,0.439991570009,85252
2320,0.100800594989,0.441731302008,85626
2330,0.0991254112672,0.443494582008,85992
2340,0.101437619046,0.445329229007,86352
2350,0.10090436716,0.447114937007,86720
2360,0.0951928716166,0.448931035007,87082
2370,0.100584782057,0.450714303008,87443
2380,0.103583950928,0.452510458008,87807
2390,0.11129741188,0.454228919007,88175
2400,0.103522315217,0.455837535006,88535
2410,0.110481043406,0.457654805006,88898
2420,0.113471356961,0.459218863007,89264
2430,0.112666257462,0.460558211007,89639
2440,0.113476159,0.461776232007,90006
2450,0.111767121539,0.462986106006,90370
2460,0.111767121539,0.464243867007,90740
2470,0.111767121539,0.465649853008,91107
2480,0.111978995478,0.467115217007,91471
2490,0.109165057889,0.468710453008,91835
2500,0.1100561595,0.470446040006,92197
2510,0.105728052273,0.472165141005,92565
2520,0.107803796966,0.473939052004,92931
2530,0.110988783739,0.475762171003,93302
2540,0.104168814121,0.477498032003,93661
2550,0.105156783899,0.479260438002,94027
2560,0.103351679977,0.481011620002,94394
2570,0.10990832205,0.482836868003,94762
2580,0.105934399949,0.484613624001,95127
2590,0.105673067213,0.486281268002,95484
2600,0.110244923071,0.487913802002,95852
2610,0.10713451154,0.489549522003,96219
2620,0.106396842193,0.491133101003,96586
2630,0.101994857314,0.492769983002,96946
2640,0.100485586698,0.494466908003,97309
2650,0.106686760097,0.496202094004,97675
2660,0.102654784584,0.497925008003,98045
2670,0.101457073745,0.499659941004,98407
2680,0.0978523039383,0.501421070005,98777
2690,0.097639687075,0.503212933005,99137
2700,0.0991033451841,0.504920663005,99510
2710,0.0975539096679,0.506669587005,99878
2720,0.102583201311,0.508369134004,100249
2730,0.102583201311,0.510112155005,100619
2740,0.0985020024523,0.511862159005,100981
2750,0.102788867943,0.513614996004,101349
2760,0.101300462604,0.515406633005,101715
2770,0.0961650253574,0.517143372004,102080
2780,0.0969864539399,0.518937229004,102445
2790,0.0997942183522,0.520692217004,102806
2800,0.106056809075,0.522420463003,103168
2810,0.109800381322,0.524115322003,103539
2820,0.112898465078,0.525750300005,103911
2830,0.110084745412,0.527420620005,104280
2840,0.107960656607,0.529127688005,104655
2850,0.111844406791,0.530831642005,105020
2860,0.114556446494,0.532501369005,105383
2870,0.114231861913,0.534124896007,105747
2880,0.115204471685,0.535831277008,106119
2890,0.117275281089,0.537419646009,106482
2900,0.113755526468,0.539015221009,106852
2910,0.117095595496,0.540579662009,107219
2920,0.110640033728,0.542163066008,107590
2930,0.116065144519,0.543733520008,107965
2940,0.112132659745,0.545384859008,108340
2950,0.114462095064,0.546976111009,108706
2960,0.110888565232,0.548619839008,109076
2970,0.108341955958,0.550199330008,109441
2980,0.113959505154,0.551870074009,109809
2990,0.114641401198,0.553505506008,110172
3000,0.106473933926,0.555063849009,110546
