iterations,fitness,time,fevals
0,0.024717712858,0.00127501400129,547
10,0.0289068330648,0.00250758800212,993
20,0.0345681256785,0.0037278510008,1469
30,0.0356907806457,0.00490126099976,1903
40,0.0394040861524,0.00611464699978,2358
50,0.0380957858187,0.00732805900043,2805
60,0.0381000282855,0.00851213900023,3267
70,0.0376066254999,0.00971949000086,3732
80,0.0405637013456,0.0109377850004,4192
90,0.0441173744048,0.0121081429988,4637
100,0.0455265163025,0.0132548739984,5106
110,0.0490245762812,0.014431743999,5563
120,0.0493544714321,0.0155984859994,6009
130,0.0465816501234,0.0167405559987,6467
140,0.046163421208,0.0178799019995,6925
150,0.0457460753636,0.0190584479988,7382
160,0.050737023964,0.020193721999,7831
170,0.0532495132373,0.0213549309992,8284
180,0.0532495132373,0.0225259849994,8747
190,0.0488745258994,0.0236402299997,9199
200,0.0497910106739,0.024756214998,9652
210,0.0532241416057,0.0258853369978,10110
220,0.048989281585,0.0270518249981,10560
230,0.0507328536306,0.0281854349978,11011
240,0.053166465728,0.0292973699979,11477
250,0.053566971846,0.0304435029993,11925
260,0.0520258454949,0.0315826489987,12389
270,0.0502585094124,0.0326852629987,12843
280,0.0572999969236,0.0338044809996,13302
290,0.0532292573358,0.0349062749992,13746
300,0.0559830335508,0.0360779799994,14200
310,0.0504106822959,0.037213122001,14656
320,0.0516670145055,0.0383323340011,15118
330,0.0505149537961,0.0394339550003,15577
340,0.0528322675101,0.0405553050005,16035
350,0.0554332445697,0.0416427429991,16483
360,0.0536785321004,0.0428091109989,16939
370,0.0529139802294,0.0439371039993,17400
380,0.0585110537147,0.0450809679987,17850
390,0.0550539406898,0.0462260959994,18293
400,0.0529420182528,0.047336141999,18767
410,0.0499349567491,0.0484294620001,19227
420,0.0553459485397,0.049579116001,19686
430,0.056402923342,0.050697294002,20143
440,0.0545858172726,0.0518326810015,20608
450,0.0538142900895,0.0529542870008,21067
460,0.0523366687632,0.0540749480006,21534
470,0.0510473858323,0.0552165620011,21993
480,0.0564104537505,0.0563645740003,22435
490,0.0533068656594,0.0575315839997,22893
500,0.0475691620155,0.0586681290006,23358
510,0.0506000552984,0.0598215100017,23813
520,0.0504166113315,0.0609973820028,24289
530,0.0530066935245,0.062140621003,24759
540,0.0521428467898,0.063249994002,25211
550,0.0606776827757,0.0644152850018,25682
560,0.0549490919674,0.0655356340012,26127
570,0.0536659004017,0.0666408990019,26570
580,0.0557131653379,0.0678060850023,27028
590,0.0556364779076,0.0688983480031,27497
600,0.0538248888527,0.0700011350036,27936
610,0.0577228746558,0.071122840005,28391
620,0.0518312691247,0.0722712270053,28854
630,0.0555700107415,0.0734321910058,29328
640,0.0541443612585,0.0745765090069,29790
650,0.069669027457,0.0757252330059,30250
660,0.0640860799419,0.0767412280056,30704
670,0.058845052484,0.0778095500045,31151
680,0.0564171675566,0.0788864680053,31614
690,0.059132627386,0.0799969930067,32058
700,0.0539454190951,0.0811364220062,32512
710,0.0622677639093,0.0822681450063,32979
720,0.0564742614768,0.083349604005,33437
730,0.052077452357,0.0844877940053,33893
740,0.0591455421857,0.0855871030053,34347
750,0.0549326162214,0.0867049560056,34801
760,0.0522353234267,0.0878075520068,35250
770,0.0545572930581,0.0889361080062,35719
780,0.0567168365202,0.0900317990054,36181
790,0.0614191998377,0.0911336720055,36635
800,0.0600221172482,0.0922630800051,37080
810,0.0563042665326,0.0934004520041,37541
820,0.0570300158182,0.0945283790024,37979
830,0.0542279740051,0.0996290720032,38444
840,0.0543278105235,0.100815534004,38908
850,0.0548209349818,0.101965952004,39366
860,0.0559003131905,0.103144027005,39818
870,0.0520661080777,0.104278042007,40268
880,0.0521534871043,0.105390048006,40723
890,0.0521012731193,0.106511920005,41174
900,0.0475410169615,0.107667101005,41617
910,0.0457418491811,0.108812431004,42064
920,0.0484862665422,0.109955775004,42508
930,0.0495458572232,0.111105600005,42958
940,0.0490575366443,0.112250536004,43428
950,0.050629330575,0.113389060003,43891
960,0.0499386375876,0.114529935003,44335
970,0.0490347684226,0.115670495003,44793
980,0.0501347439715,0.116836296003,45252
990,0.0490220643183,0.117975072004,45701
1000,0.0492990248677,0.119146206003,46164
1010,0.0519552496708,0.120316460003,46621
1020,0.0518103316414,0.121504178003,47088
1030,0.0567719198516,0.122642223005,47541
1040,0.0544621239817,0.123773068006,47995
1050,0.052766110629,0.124920092007,48458
1060,0.0583661349392,0.126041112007,48915
1070,0.0570268056242,0.127141179008,49372
1080,0.0569024274607,0.128256954007,49822
1090,0.0538609678414,0.129346568008,50282
1100,0.0546096616453,0.13046502101,50736
1110,0.0550351629933,0.13158833401,51187
1120,0.0551829680848,0.132691272011,51635
1130,0.0556647208812,0.133799347012,52089
1140,0.0553047448097,0.134967105012,52547
1150,0.0551103430046,0.136090407012,53003
1160,0.0549911447359,0.13722178301,53456
1170,0.0623424928075,0.138370995011,53917
1180,0.0546651389838,0.139505454012,54370
1190,0.0615884260465,0.140657815011,54834
1200,0.0573048279489,0.141727484011,55297
1210,0.0585630902265,0.142851366012,55763
1220,0.0665990539451,0.143938239013,56227
1230,0.059766128742,0.144986322011,56680
1240,0.0573422327103,0.146078868011,57153
1250,0.0575911181142,0.147217406011,57604
1260,0.0729768193715,0.148318514011,58068
1270,0.0644455222602,0.14938944001,58523
1280,0.0604931368864,0.150500529011,58990
1290,0.0660340932799,0.151574975011,59438
1300,0.0631095591737,0.152647359011,59877
1310,0.0690080312301,0.153752822012,60347
1320,0.0640124532602,0.154879265012,60807
1330,0.0603922291013,0.156009515013,61255
1340,0.0680494466742,0.157113669013,61714
1350,0.0635564133794,0.158205269014,62160
1360,0.068844460484,0.159376759013,62602
1370,0.0704545144509,0.160482814013,63071
1380,0.0712489776395,0.161575331013,63537
1390,0.0621420407853,0.162723889012,63996
1400,0.0661402281551,0.163817013012,64452
1410,0.0654921762555,0.164911805012,64910
1420,0.0613808657023,0.166023868012,65359
1430,0.0609011540995,0.167099577013,65810
1440,0.0626098637463,0.168191587014,66249
1450,0.0636797255741,0.169289790014,66717
1460,0.0647450065424,0.170370685015,67196
1470,0.0646090326808,0.171483057014,67642
1480,0.0578428712937,0.172524300015,68083
1490,0.0607327573061,0.173586287014,68538
1500,0.0597004262678,0.174688991014,69003
1510,0.061059666304,0.175776808013,69464
1520,0.0608982692199,0.176856661014,69903
1530,0.0686486465015,0.177926332013,70356
1540,0.0634366225375,0.179001962013,70812
1550,0.0546878537738,0.180160261012,71260
1560,0.0535272840232,0.181293114012,71728
1570,0.0550659840651,0.18242916601,72187
1580,0.0516200547023,0.183577295011,72648
1590,0.0488466350382,0.184762474011,73111
1600,0.0497739832827,0.185942979011,73565
1610,0.049130688435,0.18710751901,74026
1620,0.0537228875771,0.18823768101,74475
1630,0.0469140355643,0.189372604011,74926
1640,0.051611948247,0.19057601301,75387
1650,0.0502691731663,0.191735658011,75843
1660,0.0584156486208,0.192888709011,76281
1670,0.0517591927752,0.194017561011,76752
1680,0.056236827678,0.19515963201,77206
1690,0.0593364882071,0.196260773011,77649
1700,0.0543930321975,0.197364556012,78098
1710,0.061801364492,0.198473225011,78539
1720,0.0665894751874,0.199582071011,79000
1730,0.0621510803984,0.200749931011,79462
1740,0.0621510803984,0.201885676011,79928
1750,0.0699088005054,0.202955127012,80384
1760,0.0709993803489,0.204027010011,80840
1770,0.0701754504097,0.205037815012,81271
1780,0.0685873454487,0.206022058012,81718
1790,0.0698806935964,0.207089767011,82169
1800,0.0698806935964,0.208141276011,82622
1810,0.0634758987157,0.20918296801,83071
1820,0.0588845490911,0.210251031011,83517
1830,0.058145355802,0.211376907011,83981
1840,0.0522512542134,0.212495348011,84441
1850,0.0556496681324,0.21365389801,84894
1860,0.0539314611993,0.214788554011,85361
1870,0.0514368262178,0.21593901101,85828
1880,0.0542650441718,0.217099968009,86279
1890,0.058767709486,0.218211062011,86745
1900,0.0546421827946,0.219327209012,87187
1910,0.0555537686024,0.220437323012,87638
1920,0.0559438779332,0.221589889014,88095
1930,0.053353771005,0.222739063012,88561
1940,0.0550374005691,0.223888747014,89023
1950,0.0529936375362,0.225016045015,89478
1960,0.0543262046014,0.226105587015,89932
1970,0.0553120417765,0.227223634016,90389
1980,0.0560651965432,0.228339735017,90844
1990,0.0600003185178,0.229496454018,91296
2000,0.055213440108,0.230666579018,91750
2010,0.0600746318032,0.231778711019,92200
2020,0.0552176664658,0.232881116019,92666
2030,0.0629417571973,0.23402969002,93129
2040,0.0587678631047,0.235159841019,93592
2050,0.0562455968406,0.236302170018,94059
2060,0.0570215841537,0.237408955018,94528
2070,0.0575394912592,0.238528096017,94984
2080,0.0589087501996,0.239647857017,95452
2090,0.0599708050591,0.240739033017,95911
2100,0.0596585434117,0.241875750018,96367
2110,0.0653748822746,0.242964788018,96826
2120,0.0615349148896,0.244084275017,97276
2130,0.0640553072002,0.245190470016,97719
2140,0.0618054332279,0.246256458015,98171
2150,0.0598356385888,0.247349454015,98631
2160,0.0645601663415,0.248415510016,99086
2170,0.0664785746248,0.249504269015,99549
2180,0.065726389298,0.250619725015,100001
2190,0.0592956767737,0.251745805015,100452
2200,0.0652379304215,0.252869473015,100913
2210,0.0665588645894,0.253971158016,101373
2220,0.0674271882727,0.255031160015,101829
2230,0.0718750003234,0.256071489015,102297
2240,0.0643448047091,0.257134424015,102766
2250,0.0643212691342,0.258227612014,103229
2260,0.059453116042,0.259302330012,103684
2270,0.064487975028,0.260449423013,104128
2280,0.058887233075,0.261584285014,104592
2290,0.0603584356372,0.262743301013,105058
2300,0.0605497968657,0.263859452012,105525
2310,0.0586341662765,0.264953809012,105957
2320,0.0553785095641,0.266072141012,106415
2330,0.0648251748544,0.267182779013,106857
2340,0.0560387657866,0.268303218012,107297
2350,0.0584991661997,0.269436541013,107760
2360,0.0592094532421,0.270513754014,108209
2370,0.0649412179339,0.271613804014,108669
2380,0.0584873325469,0.272765465015,109114
2390,0.0654641407423,0.273884683016,109561
2400,0.0589125328618,0.275022390017,110019
2410,0.0591056523119,0.276151877017,110483
2420,0.0595922738573,0.277303268018,110947
2430,0.0607631161212,0.278387521019,111415
2440,0.0682128037152,0.279497024017,111879
2450,0.0647252767705,0.280642990017,112336
2460,0.0644437489575,0.281732917018,112790
2470,0.0638130603579,0.282857649017,113243
2480,0.0622035621165,0.283971463017,113704
2490,0.0570550178062,0.285093665017,114148
2500,0.0629016672405,0.286209418016,114613
2510,0.0578850777498,0.287348992017,115084
2520,0.0584947360737,0.288449725016,115538
2530,0.057374935659,0.289567545016,115994
2540,0.0550204692916,0.290668794016,116444
2550,0.0607126641114,0.291760452015,116903
2560,0.0578691255718,0.292875419016,117361
2570,0.0580535977407,0.293992456016,117824
2580,0.063806058912,0.295092672017,118267
2590,0.0604587646017,0.296221457016,118720
2600,0.06131143139,0.297329733015,119174
2610,0.0552487378574,0.298425791016,119622
2620,0.0684529763581,0.299549180016,120073
2630,0.0580388240373,0.300704336016,120532
2640,0.0572890676077,0.301824705017,120986
2650,0.0572676006724,0.302932324017,121421
2660,0.0625090695252,0.304007197017,121874
2670,0.0611543925071,0.305114671017,122342
2680,0.0696073720455,0.306197084017,122808
2690,0.0705404704243,0.307737374016,123258
2700,0.0589252907958,0.308858075015,123705
2710,0.0630670295734,0.309960498014,124157
2720,0.0601918090358,0.311070712014,124616
2730,0.0642733062145,0.312166125015,125079
2740,0.0700521261965,0.313274524016,125538
2750,0.0653863841659,0.314368882016,126015
2760,0.0619116802127,0.315435293016,126459
2770,0.0601021841964,0.316543036017,126904
2780,0.056337097299,0.317670993018,127369
2790,0.0548890417537,0.318824206017,127826
2800,0.0635945614735,0.319940118015,128268
2810,0.0627642241738,0.320990977016,128705
2820,0.063030640725,0.322064953016,129169
2830,0.0679138102249,0.323178706016,129639
2840,0.0679138102249,0.324217954016,130087
2850,0.0645741018147,0.325213149017,130545
2860,0.0671634229636,0.326234084017,130999
2870,0.0677507996512,0.327282808017,131455
2880,0.0640294440069,0.328350036018,131900
2890,0.0628295821768,0.329459393017,132351
2900,0.0574714219277,0.330576984015,132797
2910,0.0549972377963,0.331680215017,133251
2920,0.0578869534439,0.332804628017,133707
2930,0.059609543054,0.333917512016,134163
2940,0.0578077786084,0.335078271017,134604
2950,0.0576470721863,0.336173812018,135077
2960,0.056455453538,0.337268615018,135533
2970,0.0582613229349,0.338372167018,135980
2980,0.055054535113,0.339496063018,136420
2990,0.0552305741435,0.340623514017,136872
3000,0.0575950958569,0.341739793017,137328
