iterations,fitness,time,fevals
0,0.0241295348421,0.00125793900042,437
10,0.0288377324521,0.00238153300052,775
20,0.0311883984852,0.00349156300035,1113
30,0.0329050093765,0.00457843200093,1448
40,0.0347184527232,0.00567609300197,1780
50,0.0366138865461,0.00676165800178,2116
60,0.0403854366789,0.00785347200326,2453
70,0.0427698098504,0.00893237300261,2791
80,0.0436908415373,0.0100330130026,3138
90,0.0423252770849,0.0110829010027,3468
100,0.0425661085412,0.0120852310029,3795
110,0.0462076018548,0.0131070800035,4132
120,0.0472386420772,0.0141330140032,4463
130,0.0456435515603,0.0151320720033,4782
140,0.0500997594773,0.0161446300044,5116
150,0.0491392611694,0.0172024390049,5443
160,0.0491392611694,0.0182335720037,5763
170,0.0465650651277,0.019252998005,6089
180,0.0467997494248,0.0202878230048,6434
190,0.0506428532439,0.021376495004,6776
200,0.045723570353,0.0224516770031,7112
210,0.0500407925179,0.0235139850047,7448
220,0.0510468711269,0.0245436410041,7788
230,0.0510468711269,0.0255709540052,8128
240,0.0510468711269,0.0265882700041,8455
250,0.0510108743703,0.0275807180042,8786
260,0.0510108743703,0.0285737890044,9122
270,0.0508649206464,0.0295691730043,9461
280,0.0481728038077,0.0305735110051,9798
290,0.0488949820329,0.0315954000052,10130
300,0.0477787426982,0.0326495400059,10468
310,0.0507134991401,0.0336788790064,10803
320,0.053191095452,0.034710659007,11146
330,0.0541720637481,0.0356891210067,11487
340,0.0515973606194,0.0366978080074,11826
350,0.0521023157742,0.0376934270062,12161
360,0.0549533982342,0.0387180960061,12504
370,0.055761696691,0.0396995520059,12839
380,0.0544400849795,0.0406818900065,13165
390,0.052522372711,0.0416498010072,13500
400,0.0594536962768,0.0426551990076,13840
410,0.0595787977155,0.0436380840074,14179
420,0.0627218573884,0.044599606008,14519
430,0.0590516435265,0.0455593400093,14847
440,0.060431611335,0.046530064008,15178
450,0.0621309752124,0.0475093080095,15523
460,0.0587535548105,0.048441805011,15845
470,0.0644460917725,0.0494105560119,16168
480,0.0603996672061,0.0503820670128,16488
490,0.0650778752775,0.051370027013,16824
500,0.0646589292457,0.0523304090129,17170
510,0.0651883177279,0.0532986960116,17507
520,0.0655912987536,0.0542864430117,17850
530,0.0655912987536,0.0556173800123,18194
540,0.0656444182793,0.0569411590131,18524
550,0.0643415668771,0.0583029460122,18855
560,0.0632056327289,0.0595584550119,19185
570,0.0628805426123,0.060915543012,19520
580,0.0625680736881,0.0622409720108,19858
590,0.0649464641736,0.0635549800118,20205
600,0.0649464641736,0.0647901430111,20532
610,0.061954344663,0.0659214960124,20857
620,0.061954344663,0.0670233360124,21198
630,0.0634797672461,0.0681103270126,21534
640,0.0654359030202,0.0690758190121,21874
650,0.0704097629338,0.0700638120124,22205
660,0.0699550584501,0.0710185310127,22539
670,0.0699550584501,0.0719294120136,22867
680,0.0687431533395,0.0728704650137,23197
690,0.0700048829006,0.0738261850129,23532
700,0.067391349869,0.0748197130124,23870
710,0.0692446011002,0.0757825170131,24203
720,0.0628046094713,0.0767217850134,24534
730,0.0625106071937,0.077708671015,24870
740,0.0671139819134,0.0787614700148,25221
750,0.0592021139822,0.0797640020137,25559
760,0.0656329527131,0.0807363640142,25896
770,0.068365718722,0.081700634013,26227
780,0.0654886899285,0.0826552080143,26562
790,0.0711800725765,0.0836180780134,26892
800,0.0715391659862,0.0845959740127,27228
810,0.064486084835,0.0855568580137,27568
820,0.0649271552727,0.086527567013,27907
830,0.0662539606253,0.0875048990129,28235
840,0.0690505148417,0.0884504530113,28569
850,0.076878287781,0.0894034690118,28910
860,0.0721595499769,0.0903583110121,29247
870,0.0721601640271,0.0912800000115,29586
880,0.0753326567624,0.0922300310121,29917
890,0.0751568124264,0.0932272950122,30259
900,0.0748765698251,0.0941871880113,30597
910,0.0742921478403,0.0951074060104,30933
920,0.0769627118174,0.0960122690103,31267
930,0.0731119419964,0.0969370460098,31597
940,0.0731119419964,0.0978929040102,31928
950,0.0641014199198,0.0988357650094,32254
960,0.0723201085656,0.0997841970093,32572
970,0.0709283282872,0.10071555001,32903
980,0.0716945797344,0.10170801001,33241
990,0.0705921559485,0.10270155501,33562
1000,0.069914603348,0.103652726009,33899
1010,0.0720450432698,0.104650172008,34240
1020,0.0685274508766,0.105634574007,34580
1030,0.0701913301884,0.106583327008,34913
1040,0.0700064031761,0.107546589008,35250
1050,0.0752793073522,0.108494253009,35588
1060,0.0752793073522,0.109431627008,35925
1070,0.0756651128411,0.110341826008,36265
1080,0.0775150674435,0.11122555701,36594
1090,0.0703669397647,0.112128855009,36933
1100,0.0739785963147,0.11309294501,37267
1110,0.0739785963147,0.114018380011,37602
1120,0.0810557133362,0.114964765011,37928
1130,0.0714979726738,0.115917775011,38270
1140,0.0691142288237,0.116892787009,38605
1150,0.0693463328961,0.117835252009,38944
1160,0.0746809096077,0.118763682009,39282
1170,0.0706454526032,0.119765274008,39620
1180,0.0693448243059,0.120731427009,39953
1190,0.0698941306987,0.121684851008,40280
1200,0.0781097802098,0.122604428008,40610
1210,0.0781778142924,0.123563049008,40941
1220,0.0817265368303,0.124525788009,41281
1230,0.0779914593499,0.125494970009,41622
1240,0.0738119166603,0.126418363008,41948
1250,0.0764991511558,0.127371842009,42276
1260,0.0770455062409,0.128304430009,42619
1270,0.0772174210524,0.129239690008,42955
1280,0.0764991511558,0.130160625009,43300
1290,0.0785197229851,0.131067924009,43637
1300,0.0872793476418,0.131936479009,43958
1310,0.0811748055519,0.132880949008,44289
1320,0.0789100237579,0.133836527008,44633
1330,0.0867261680451,0.134739743009,44965
1340,0.0882251989819,0.13567515001,45307
1350,0.0864397386931,0.136566636009,45644
1360,0.084652318504,0.13748828301,45979
1370,0.0863444587583,0.13840547701,46316
1380,0.0930407695807,0.139308247009,46650
1390,0.0899293185598,0.14021429001,46979
1400,0.0899293185598,0.141136175009,47307
1410,0.0899293185598,0.142082640008,47639
1420,0.090558767536,0.142935665008,47961
1430,0.0936780316149,0.143806542008,48290
1440,0.0827049714463,0.144720031009,48621
1450,0.0827049714463,0.145598979008,48945
1460,0.0869401967279,0.146978724009,49268
1470,0.0856040848635,0.148261588009,49607
1480,0.0874621952272,0.149519726008,49952
1490,0.0916031388832,0.150706930008,50285
1500,0.0896602883807,0.151921897008,50631
1510,0.0822203224394,0.153142777008,50964
1520,0.0875963611356,0.154395207008,51306
1530,0.0800306327973,0.155628981007,51643
1540,0.0746595137276,0.156723588008,51974
1550,0.0759478894009,0.157816966008,52307
1560,0.0782673771868,0.158908035008,52651
1570,0.0804434557461,0.159842924008,52978
1580,0.0796268188227,0.160757374008,53313
1590,0.0816011150221,0.161676947007,53646
1600,0.0810611619702,0.162610426009,53986
1610,0.0770663210331,0.163572794008,54333
1620,0.0836607694315,0.164521948007,54665
1630,0.0853849077843,0.165425412008,54997
1640,0.0888500124316,0.166319522006,55337
1650,0.089797338232,0.167216198006,55673
1660,0.089797338232,0.168105062006,56012
1670,0.089797338232,0.168966088006,56345
1680,0.0878419261979,0.169801364007,56680
1690,0.0861131183139,0.170764144008,57021
1700,0.0862801208566,0.171653865009,57359
1710,0.0853830682239,0.172563538008,57700
1720,0.079145832304,0.173477790007,58036
1730,0.0768224246008,0.174376351006,58378
1740,0.0779478757698,0.175310930006,58710
1750,0.0764969784042,0.176199713007,59045
1760,0.0758315351539,0.177157072007,59387
1770,0.07286005245,0.178109415006,59721
1780,0.0766599033267,0.179034388007,60059
1790,0.0775404490249,0.179971816007,60389
1800,0.0781919928343,0.180866331006,60723
1810,0.0818522881973,0.181815601005,61057
1820,0.0836875209745,0.182747866005,61386
1830,0.0829335350193,0.183675470005,61729
1840,0.0833985076508,0.184615120006,62068
1850,0.0852125590254,0.185516375006,62405
1860,0.0831916396171,0.186389905006,62738
1870,0.0835736436655,0.187313131006,63060
1880,0.0860172637614,0.188240666004,63404
1890,0.0876708660678,0.189156322003,63744
1900,0.0820723659625,0.190076896004,64073
1910,0.0793958227342,0.191002596004,64418
1920,0.0874571707028,0.191959831003,64755
1930,0.0874571707028,0.192899931004,65089
1940,0.0874571707028,0.193800661003,65419
1950,0.0874571707028,0.194653957004,65758
1960,0.0875935493609,0.195491651004,66101
1970,0.0852763349634,0.196336294004,66444
1980,0.0861539006336,0.197193818005,66781
1990,0.08363600215,0.198137923006,67115
2000,0.0794181204793,0.199067441004,67448
2010,0.0742297981228,0.199996356005,67775
2020,0.079306445268,0.200935568006,68108
2030,0.072197589602,0.201889845004,68439
2040,0.0757982935033,0.202883669004,68772
2050,0.0757982935033,0.203825435005,69108
2060,0.0721102773017,0.204781712004,69440
2070,0.0713256433964,0.205753560003,69780
2080,0.077560646855,0.206707931004,70109
2090,0.0768218088471,0.207643841004,70434
2100,0.0730513151639,0.208577550004,70776
2110,0.0736148396916,0.209482813005,71112
2120,0.0760667402426,0.210408733004,71439
2130,0.077902324569,0.211320282006,71767
2140,0.0852982270275,0.212245297005,72087
2150,0.0800143694036,0.213147309005,72431
2160,0.0852174145285,0.214050663006,72775
2170,0.0800143694036,0.214946101005,73103
2180,0.0803931012902,0.215854354006,73438
2190,0.0873049265939,0.216712486006,73765
2200,0.0887409000855,0.217563017006,74097
2210,0.0865018600302,0.218408533006,74430
2220,0.0889131921751,0.219281657008,74756
2230,0.0842160425867,0.220169163007,75099
2240,0.0767956492524,0.221119692007,75442
2250,0.0817120332675,0.222069127007,75775
2260,0.08391355409,0.223018067007,76097
2270,0.0815752031026,0.223972191008,76437
2280,0.0747005548863,0.224896144007,76762
2290,0.0867815290895,0.225816755006,77094
2300,0.0793081967108,0.226743430007,77428
2310,0.0852483004066,0.227685447006,77771
2320,0.0852483004066,0.228639301005,78114
2330,0.0879445612522,0.229559116005,78447
2340,0.0834923836477,0.230488083005,78779
2350,0.0828418289917,0.231406042005,79118
2360,0.0877616657128,0.232455932006,79467
2370,0.0877616657128,0.233349538006,79787
2380,0.0882050578435,0.234218151007,80118
2390,0.0878461910226,0.235115697005,80454
2400,0.0859273115043,0.235982961005,80787
2410,0.0859273115043,0.236831297005,81108
2420,0.0877866143098,0.237731169005,81437
2430,0.0799008680533,0.238703672007,81780
2440,0.0783330097438,0.239649847006,82114
2450,0.0781067675587,0.240569295005,82449
2460,0.0796952069249,0.241529369005,82784
2470,0.0751333097723,0.242470547004,83129
2480,0.0770187312487,0.243435837005,83468
2490,0.0766619842822,0.244391945005,83801
2500,0.0780561465282,0.245330484006,84131
2510,0.0780561465282,0.246257854007,84467
2520,0.0780561465282,0.247139207007,84806
2530,0.0784118525124,0.248015035007,85134
2540,0.0778035511943,0.248956412008,85466
2550,0.0795998005391,0.249893481008,85802
2560,0.0780127027022,0.250823991008,86140
2570,0.0766110430574,0.251772188009,86485
2580,0.0766110430574,0.25273477601,86820
2590,0.077835383627,0.253703180009,87161
2600,0.0701185555909,0.254679333009,87499
2610,0.0676735436592,0.255610207008,87829
2620,0.0676735436592,0.256527997009,88156
2630,0.071341946999,0.257480557009,88490
2640,0.0709775718533,0.258489332009,88823
2650,0.0693853419565,0.259455219009,89157
2660,0.0693387047194,0.26042322401,89503
2670,0.0699853380108,0.261432680009,89840
2680,0.0737988939454,0.262392861008,90172
2690,0.0812307608499,0.263348533008,90501
2700,0.0812307608499,0.264259312007,90833
2710,0.0792453845346,0.265156274007,91166
2720,0.0792453845346,0.266117059007,91510
2730,0.0665700445676,0.267127203007,91851
2740,0.0702241836252,0.268079108009,92192
2750,0.0705501724149,0.269039771008,92534
2760,0.0681303345249,0.269955599008,92872
2770,0.0745289445995,0.270906287009,93208
2780,0.0731520103014,0.271842529008,93530
2790,0.0731520103014,0.272818011008,93862
2800,0.0669474524971,0.273768130008,94204
2810,0.0665826795564,0.274707067008,94535
2820,0.0744279430826,0.275645001007,94877
2830,0.0714355053845,0.276562844007,95204
2840,0.0813642944112,0.281369076007,95536
2850,0.0810545774134,0.282320121007,95876
2860,0.0756738346378,0.283286926006,96217
2870,0.0745577366219,0.284198961006,96562
2880,0.0738781669513,0.285109569006,96889
2890,0.0730685524926,0.286052437006,97223
2900,0.0730685524926,0.286949631007,97553
2910,0.0729653478802,0.287886334007,97884
2920,0.0824397429583,0.288803062007,98221
2930,0.0815136771928,0.289703167007,98549
2940,0.0799495527023,0.290649558006,98887
2950,0.0760468576862,0.291582595008,99222
2960,0.0772202128548,0.292498893008,99551
2970,0.0790564524278,0.293394341008,99887
2980,0.0795157147434,0.294298622008,100214
2990,0.0795157147434,0.295193349008,100549
3000,0.081229762272,0.296082121007,100881
