iterations,fitness,time,fevals
0,0.031520151755,0.00267839700064,687
10,0.0382006160223,0.00526109199927,1263
20,0.049729190899,0.00779808900006,1834
30,0.0451950984902,0.0103763899988,2416
40,0.0603316253297,0.0128713969989,2996
50,0.0605067865931,0.0152453129976,3574
60,0.0586196115777,0.0175645889976,4151
70,0.0568278663502,0.0199400609981,4733
80,0.0606464218964,0.0224240639982,5310
90,0.0574699637689,0.0247381459994,5888
100,0.0692895113159,0.0269922360003,6459
110,0.0681647786031,0.0292048610008,7043
120,0.0765900149102,0.031418079001,7618
130,0.0765752045239,0.0336158110022,8207
140,0.0729913136164,0.0357746060017,8790
150,0.0780384972954,0.0380026170023,9384
160,0.070248196681,0.0401946500024,9967
170,0.0657180173469,0.0424668530031,10535
180,0.0666655491823,0.0447463120036,11118
190,0.0723781117075,0.0469580650024,11692
200,0.0704039125436,0.0501733150013,12261
210,0.072349220302,0.0532035210017,12833
220,0.0659835004425,0.0562684050019,13410
230,0.068886072214,0.0590596440015,13997
240,0.0722661208647,0.0615996710003,14573
250,0.0713867465669,0.0638765190015,15147
260,0.0789481725743,0.0661106270018,15722
270,0.0803851905843,0.0683096340035,16303
280,0.0853703761308,0.0704437050026,16878
290,0.0799636470534,0.0725778700016,17464
300,0.0795180524916,0.0746418900017,18036
310,0.0765602028284,0.0767677370022,18604
320,0.08738672134,0.0788401260033,19191
330,0.0916193644788,0.0808816480039,19768
340,0.0897709124111,0.082858511003,20335
350,0.085385979899,0.084951169003,20913
360,0.082710920913,0.0870557160033,21489
370,0.08129994374,0.0892306970036,22064
380,0.0849156729025,0.0913918130045,22645
390,0.0765045870921,0.093473839006,23211
400,0.0742444544309,0.0956249310057,23799
410,0.078563183245,0.0977454030053,24369
420,0.0841431529349,0.0999754250042,24948
430,0.0877945588719,0.103210934003,25523
440,0.0858303880705,0.106217216004,26104
450,0.075045854966,0.109104066003,26686
460,0.082117480848,0.111784619003,27263
470,0.0824333981529,0.114163900002,27844
480,0.0772054965215,0.116292679002,28418
490,0.0746391244018,0.118469763001,28996
500,0.0775105495699,0.120608607001,29565
510,0.0797391139521,0.122801851001,30132
520,0.0856145986717,0.125785540002,30698
530,0.0891957865792,0.131221854002,31263
540,0.0892895796229,0.133278659003,31845
550,0.0852724495206,0.135309760002,32410
560,0.0918026576924,0.137346245001,33009
570,0.0836826193086,0.139424572,33593
580,0.0874540833929,0.141562454,34190
590,0.0959823638798,0.143613999,34787
600,0.0900779423163,0.145653021,35360
610,0.0807383677946,0.147694292998,35936
620,0.0870605451795,0.149721573,36514
630,0.0937542844898,0.151801186001,37090
640,0.105636896352,0.153771908001,37665
650,0.104572081303,0.155702259,38236
660,0.0952054833738,0.157612305,38807
670,0.0990729833989,0.159606108,39384
680,0.099281875802,0.161852667999,39943
690,0.0988994675864,0.163916669,40523
700,0.0964574535342,0.16590795,41082
710,0.0981390417473,0.16780809,41639
720,0.097140672888,0.169871253,42221
730,0.102455816376,0.171816197,42797
740,0.100875064041,0.173819169,43389
750,0.0948996076151,0.175854739,43953
760,0.085299480687,0.17789399,44518
770,0.0869674524181,0.179861815001,45091
780,0.0926869080904,0.181857531001,45663
790,0.0897167177794,0.183855893001,46231
800,0.0884576406964,0.185913099,46814
810,0.0898233910112,0.187942226999,47397
820,0.0837829894429,0.190052980999,47974
830,0.0926522581398,0.192124620999,48565
840,0.095641773002,0.194070191999,49145
850,0.0920337023257,0.196026972,49725
860,0.0924948328082,0.198042980001,50314
870,0.0940893218611,0.200057214,50893
880,0.0961133990719,0.202014136999,51472
890,0.0960271286624,0.203909133999,52051
900,0.0941204983464,0.205853426998,52616
910,0.0919483165151,0.207888859999,53182
920,0.0853339223422,0.209914187999,53750
930,0.0847516399903,0.211978302999,54326
940,0.0826945840276,0.214082512999,54915
950,0.0890366929253,0.216117536998,55505
960,0.0950771153071,0.218101487999,56088
970,0.0861427336779,0.220058045999,56662
980,0.0883990589419,0.222105446999,57249
990,0.106046009965,0.224112473999,57821
1000,0.101117836435,0.226061887999,58401
1010,0.098839432643,0.227979177,58979
1020,0.101012260969,0.229843535999,59566
1030,0.103871021245,0.231760065999,60139
1040,0.110779841068,0.233752175,60724
1050,0.113677869628,0.235702958,61308
1060,0.101832589049,0.237587926998,61886
1070,0.099569052164,0.239473891997,62468
1080,0.101589879719,0.241298320998,63042
1090,0.102606049109,0.243134201999,63615
1100,0.105697007278,0.244984317,64198
1110,0.0957914695987,0.246788450999,64772
1120,0.108631859862,0.248685761999,65340
1130,0.100500604822,0.250515925998,65918
1140,0.0977734802657,0.252285948998,66505
1150,0.101455979988,0.254078762999,67099
1160,0.100335510799,0.255895092998,67672
1170,0.109045860661,0.257770134996,68255
1180,0.0955875739196,0.259651677996,68835
1190,0.101746094961,0.261558493996,69413
1200,0.104520378353,0.263390182996,70000
1210,0.102473507745,0.265296549995,70583
1220,0.0982920530589,0.267153979994,71152
1230,0.0915511597314,0.269058566993,71733
1240,0.0969817007827,0.270958591993,72315
1250,0.0961548464323,0.272977388991,72900
1260,0.102054347438,0.27492904099,73473
1270,0.101525434083,0.276843638991,74049
1280,0.0919006520327,0.278824050991,74625
1290,0.0923817367863,0.280768527991,75204
1300,0.110334353589,0.282663218992,75783
1310,0.106694408099,0.284653626992,76355
1320,0.0990222119225,0.286643572992,76933
1330,0.105974800606,0.288586950992,77516
1340,0.103383880833,0.290467732992,78087
1350,0.104997409754,0.292316383991,78654
1360,0.104380405346,0.294194936991,79235
1370,0.100740818795,0.296986174992,79810
1380,0.10692597343,0.299633444993,80386
1390,0.100966434115,0.302257090992,80962
1400,0.101129422148,0.304803834993,81528
1410,0.104863633588,0.306860436993,82096
1420,0.103157969922,0.309034156991,82681
1430,0.11727189226,0.310966053992,83247
1440,0.108559738733,0.312871124994,83832
1450,0.0987981765837,0.314755599993,84408
1460,0.103580679214,0.316643353994,84982
1470,0.102846551951,0.318495746993,85569
1480,0.102628138991,0.320312604994,86148
1490,0.102669749442,0.322118524993,86694
1500,0.103575497971,0.323914219993,87278
1510,0.103207033586,0.325822622994,87846
1520,0.102258550212,0.327773241994,88407
1530,0.0964622625488,0.329779546993,88970
1540,0.101684480225,0.331802393994,89544
1550,0.0967587504947,0.333847622993,90124
1560,0.0946191152193,0.335856277992,90699
1570,0.0976922450138,0.337810567993,91276
1580,0.095353789465,0.339775548993,91846
1590,0.101474773784,0.341673480993,92427
1600,0.0949739648602,0.343624014991,93007
1610,0.0992325579098,0.345590232992,93578
1620,0.0963869893272,0.347567387993,94159
1630,0.0963620675665,0.349487874993,94735
1640,0.0981998751285,0.351520109994,95315
1650,0.0971647698101,0.353602159996,95902
1660,0.0933385395312,0.355632926996,96469
1670,0.0979580243778,0.357682276996,97051
1680,0.0988758918909,0.359712522995,97632
1690,0.0904164164872,0.361794059996,98217
1700,0.0901997734066,0.363734332997,98806
1710,0.0962600201469,0.365667247997,99390
1720,0.0901313951526,0.367607693997,99973
1730,0.0874331165505,0.369677585997,100562
1740,0.0853773296836,0.371856491998,101157
1750,0.0944436786971,0.373992837,101730
1760,0.0886625211555,0.376060383,102305
1770,0.0944379005718,0.378158354,102888
1780,0.0898597212198,0.380280292999,103463
1790,0.0866063362639,0.382373740998,104018
1800,0.103632006556,0.384449561998,104596
1810,0.0974334454932,0.386403335999,105173
1820,0.0943572975866,0.388437077998,105756
1830,0.0923797473373,0.390479318998,106329
1840,0.100205171575,0.392533440998,106907
1850,0.104460768064,0.394502108998,107488
1860,0.0912506525147,0.396613629999,108063
1870,0.0972999783025,0.398620034999,108651
1880,0.0910788074049,0.400832422998,109229
1890,0.0920967430493,0.402863165998,109816
1900,0.0922713733565,0.404907610997,110394
1910,0.0928342566523,0.407016449997,110969
1920,0.0970821976843,0.409086153997,111561
1930,0.0999509366658,0.411101431997,112124
1940,0.100345074378,0.413125787996,112692
1950,0.101543870985,0.415165015997,113265
1960,0.0979004068582,0.417217639997,113853
1970,0.0893125270432,0.419404064998,114448
1980,0.0828791202479,0.421492958998,115035
1990,0.0777808739054,0.423547139997,115609
2000,0.0795122216825,0.425626109996,116170
2010,0.0840986702301,0.427745862997,116757
2020,0.0788110440922,0.429925948996,117337
2030,0.0885322060314,0.432104622996,117930
2040,0.0817334566394,0.434248372996,118502
2050,0.0790449163843,0.436428037996,119093
2060,0.0836068169907,0.438573160996,119679
2070,0.0820583676549,0.440731602997,120247
2080,0.0795029971,0.442927417998,120825
2090,0.0779839223226,0.445047984998,121398
2100,0.0773662145484,0.447158636998,121965
2110,0.0815159182703,0.449302228999,122547
2120,0.0909476979468,0.451575052,123134
2130,0.100118259087,0.453620779001,123704
2140,0.0981337725276,0.455608996001,124270
2150,0.0953426563994,0.457623236,124848
2160,0.0930463048712,0.459601574001,125414
2170,0.0843861512302,0.461661246001,125987
2180,0.0861608269623,0.463682161,126577
2190,0.0807751738122,0.465792868999,127155
2200,0.0885090342252,0.467867284999,127742
2210,0.0885090342252,0.470027806998,128323
2220,0.0821537318932,0.472033177997,128880
2230,0.090229659287,0.474123237997,129464
2240,0.0814739063065,0.476242065997,130034
2250,0.0749784455299,0.478450496998,130630
2260,0.0812070637986,0.480567292996,131216
2270,0.0841638925186,0.482772221996,131806
2280,0.0819680754225,0.484889334997,132356
2290,0.0776971221749,0.486928966997,132931
2300,0.0832744838426,0.488979093996,133492
2310,0.0792481943156,0.491113580996,134065
2320,0.0932568050891,0.493259763996,134649
2330,0.0997766856318,0.495373779997,135222
2340,0.0874743303027,0.497410133998,135806
2350,0.0904876879007,0.499453216999,136389
2360,0.104583211189,0.501441266999,136968
2370,0.0972501703712,0.503549309999,137553
2380,0.0969102643381,0.505612515999,138118
2390,0.100717458422,0.507615959998,138687
2400,0.0946297933814,0.509594366997,139263
2410,0.103767294256,0.511493669996,139837
2420,0.0974913698155,0.513447986996,140409
2430,0.0929870647587,0.515438291995,140977
2440,0.0996950807571,0.517461309995,141555
2450,0.10133320312,0.519496355995,142138
2460,0.0982253220986,0.521479924995,142697
2470,0.0956832582696,0.523546347995,143275
2480,0.0976738147042,0.525514077994,143852
2490,0.0945025138827,0.527470109993,144428
2500,0.100507432839,0.529493765995,145007
2510,0.0949687273797,0.531515678995,145587
2520,0.0901966436246,0.533517878996,146164
2530,0.0962302683435,0.535545249995,146736
2540,0.0894927204266,0.537617395996,147320
2550,0.0882350527076,0.539673248995,147899
2560,0.0851843236191,0.541797916994,148475
2570,0.0900587851317,0.543899452994,149048
2580,0.0908726268864,0.545922579995,149608
2590,0.100849106802,0.547905185995,150169
2600,0.0935207102261,0.549923635996,150729
2610,0.0917890774189,0.551987527995,151305
2620,0.0925742532003,0.554082518995,151888
2630,0.0985472391982,0.557126759995,152451
2640,0.0888510058519,0.559929533996,153025
2650,0.10134711751,0.562651572996,153601
2660,0.10134711751,0.565146366996,154175
2670,0.101429894821,0.567389303997,154746
2680,0.101817814907,0.569367876997,155315
2690,0.103462152289,0.571359051997,155894
2700,0.0930711987474,0.573371786997,156485
2710,0.0918952191471,0.575376042998,157055
2720,0.089412690368,0.577483411998,157630
2730,0.0881657041123,0.57960123,158204
2740,0.0832127751388,0.581706341,158767
2750,0.0891171816985,0.583927885,159335
2760,0.0893371532763,0.586062339,159906
2770,0.0962380652494,0.588081993001,160485
2780,0.0899814783717,0.590155684002,161050
2790,0.0961759306181,0.592298402002,161618
2800,0.091759257537,0.594240249002,162209
2810,0.0937418610932,0.596124132002,162789
2820,0.0888439271554,0.598053967002,163375
2830,0.093171288236,0.600106939,163953
2840,0.0866597002134,0.602199174,164542
2850,0.0940668760813,0.604338969999,165121
2860,0.109266436002,0.606302570997,165700
2870,0.0962752953491,0.608181193997,166273
2880,0.103750018028,0.610168698997,166860
2890,0.102202404626,0.612116426995,167454
2900,0.099416987242,0.614106452995,168031
2910,0.0981388597875,0.616446158994,168604
2920,0.0974714524394,0.618475763995,169173
2930,0.0881299840997,0.620448817996,169749
2940,0.0963766021488,0.622477003997,170327
2950,0.101051988037,0.624488114998,170907
2960,0.105866534398,0.626631497998,171483
2970,0.104695623222,0.628580264998,172057
2980,0.103787674809,0.630575198997,172636
2990,0.103787674809,0.632501029997,173222
3000,0.101741178427,0.634451328997,173799
