iterations,fitness,time,fevals
0,0.033670911049,0.0174448799989,787
10,0.0417130701034,0.0255014409995,1492
20,0.0571688983574,0.0335064520004,2189
30,0.0531652304903,0.0410306009999,2885
40,0.0527384514707,0.0490706569999,3582
50,0.0561105758011,0.0568607349996,4280
60,0.0665948698668,0.0646232089985,4967
70,0.0627741553026,0.0722178609994,5657
80,0.0677008748674,0.0798000089999,6331
90,0.0703018737656,0.0872922269991,7028
100,0.0807705686318,0.0972907329997,7712
110,0.0746151746804,0.105180701001,8405
120,0.081741874285,0.112773010002,9104
130,0.0818834598469,0.120026182001,9802
140,0.0791624342367,0.127262170001,10498
150,0.0778022352655,0.132431258002,11185
160,0.0779589035686,0.135780952001,11882
170,0.090705291978,0.139049367001,12590
180,0.0820902617101,0.142315902001,13275
190,0.0797740840737,0.145689532001,13964
200,0.0856988981329,0.148872472,14660
210,0.0867790734,0.15208095,15355
220,0.0851489784129,0.155348419999,16054
230,0.0904378231087,0.158567203998,16764
240,0.0960001213618,0.161653862999,17478
250,0.101870252457,0.164760374999,18179
260,0.0827945973726,0.167863072998,18850
270,0.0857757180432,0.171127003998,19554
280,0.0849418071739,0.174421671998,20239
290,0.0922635793524,0.177788076999,20923
300,0.084321492881,0.181148690999,21628
310,0.0865293746465,0.184372248001,22319
320,0.0830980197681,0.187683037,23024
330,0.0750006111806,0.191045584001,23720
340,0.0743017454778,0.194441876001,24408
350,0.0880630578972,0.197798081001,25105
360,0.085120141064,0.201002743001,25798
370,0.0832043349527,0.204321982999,26494
380,0.0810605397383,0.207582354,27193
390,0.0835082167985,0.210745772001,27883
400,0.0832335129811,0.214076657001,28571
410,0.0878127771594,0.217863527001,29277
420,0.0937315830416,0.221366239,29979
430,0.093706083461,0.224532924001,30673
440,0.0950729549658,0.227527807001,31373
450,0.0954907342474,0.230626502,32074
460,0.091818881103,0.233733773999,32768
470,0.0859300334605,0.236914311998,33454
480,0.0945154695893,0.240092029997,34151
490,0.099588396638,0.243350394996,34849
500,0.0990447766996,0.246362692997,35550
510,0.0939981168896,0.249438313997,36233
520,0.0986462168333,0.252593209996,36921
530,0.105917532226,0.255748276995,37639
540,0.108121030041,0.258760735995,38328
550,0.101257567086,0.261877545996,39020
560,0.100491679319,0.265052029996,39725
570,0.098457947114,0.268543820996,40419
580,0.101469332283,0.272797471996,41124
590,0.0969404985231,0.276908022995,41821
600,0.0978364320221,0.280451349996,42514
610,0.0994089622832,0.283595302995,43212
620,0.0941345798192,0.286691392996,43910
630,0.0965610104496,0.289813612995,44602
640,0.0976179644229,0.293003846995,45300
650,0.099622360197,0.295964335994,46000
660,0.101834341143,0.299028692994,46700
670,0.102801243999,0.301945441995,47407
680,0.0995686139604,0.304951726996,48115
690,0.0984298527108,0.307932176996,48815
700,0.0989542718748,0.310918416997,49517
710,0.0919523071762,0.313959836996,50195
720,0.0940289989552,0.317009259996,50900
730,0.0997113829443,0.320265689996,51601
740,0.098284993584,0.323391076996,52290
750,0.0997713214869,0.326418295996,52986
760,0.0967426320151,0.329741774996,53692
770,0.105981485061,0.332878209996,54388
780,0.0964673976503,0.336090226996,55084
790,0.0981870534735,0.339282575997,55778
800,0.103390428921,0.342487607997,56487
810,0.089552122088,0.345531511997,57194
820,0.0911890995413,0.348612780997,57887
830,0.108807008469,0.351707765998,58589
840,0.0967772566085,0.354840904998,59300
850,0.0906329072765,0.358051639998,59998
860,0.0965654057133,0.361045665997,60706
870,0.0947797005664,0.364096469997,61384
880,0.106590151191,0.367322304997,62084
890,0.0969792032515,0.370469125997,62778
900,0.103144957171,0.373607196998,63470
910,0.10117906137,0.376624566998,64172
920,0.0977211943515,0.379685036998,64864
930,0.0999283709603,0.382786912998,65557
940,0.0982570866461,0.385951582997,66266
950,0.0985372788363,0.389071106996,66963
960,0.10514740293,0.392319444996,67665
970,0.105473026186,0.395334947996,68377
980,0.102480551091,0.398388836997,69085
990,0.100045633543,0.401528523997,69782
1000,0.10285733552,0.404593409998,70477
1010,0.0996159432058,0.407655647998,71176
1020,0.0993872080214,0.410690519999,71885
1030,0.0956765414394,0.413845768999,72576
1040,0.0928532845245,0.417091271998,73278
1050,0.0978933935326,0.420248432998,73966
1060,0.089431828162,0.423478789999,74673
1070,0.085315565142,0.426777904999,75377
1080,0.0927035258049,0.430210162,76077
1090,0.0894084721136,0.433461411001,76763
1100,0.0879078247269,0.436876037002,77465
1110,0.0840797884019,0.440321260001,78153
1120,0.0852365456043,0.443591411002,78851
1130,0.0852205607912,0.44687286,79548
1140,0.0859161602551,0.450155568,80245
1150,0.0817147919605,0.453442328,80936
1160,0.0805162484962,0.456966735001,81631
1170,0.0805514558801,0.460395247999,82326
1180,0.0866325490155,0.463615207,83022
1190,0.0771134917721,0.466964333998,83720
1200,0.0794633779888,0.470386061999,84422
1210,0.0831120039201,0.473850385999,85134
1220,0.0946240757286,0.477271386999,85821
1230,0.0786030289312,0.480656187998,86520
1240,0.0814132683855,0.484219757996,87202
1250,0.0848890323599,0.487802753996,87906
1260,0.0923942798012,0.491307316996,88600
1270,0.0882654810973,0.494401584996,89287
1280,0.0918775558597,0.497724410996,89977
1290,0.0884676726601,0.500852913996,90667
1300,0.0989780792185,0.503999999995,91363
1310,0.0966692740807,0.507094246996,92060
1320,0.0936230819005,0.510474843995,92759
1330,0.0864352302402,0.513626010996,93442
1340,0.0817277793387,0.516879175995,94144
1350,0.0796981421694,0.520503371996,94843
1360,0.0867452350852,0.523914936995,95557
1370,0.0900956877188,0.527258760994,96263
1380,0.0850929981901,0.530516162995,96944
1390,0.103178099286,0.533848694995,97643
1400,0.0926977297619,0.537187533993,98348
1410,0.0951962513808,0.540528411993,99032
1420,0.0944905517699,0.543904319993,99729
1430,0.103083006565,0.546976214993,100415
1440,0.104273680013,0.550187537992,101110
1450,0.104605274767,0.553273888992,101793
1460,0.102643659238,0.556295272992,102502
1470,0.0958279052736,0.559276899992,103203
1480,0.102608082714,0.562466293994,103896
1490,0.0988407591388,0.565690267995,104598
1500,0.10382585112,0.568727146994,105296
1510,0.105479231229,0.571717309995,105994
1520,0.104991945066,0.574771670996,106683
1530,0.0890467011019,0.577839395995,107390
1540,0.0861463889813,0.580916148996,108089
1550,0.0879061472696,0.584191314996,108777
1560,0.103658339389,0.587423689996,109475
1570,0.110304185362,0.590596981996,110169
1580,0.109488724753,0.593737072995,110858
1590,0.109703348726,0.596923381994,111558
1600,0.0988816143671,0.600152935993,112250
1610,0.103548241932,0.603370539991,112964
1620,0.0951911164295,0.606554366992,113659
1630,0.106378392806,0.609654759992,114338
1640,0.110125509326,0.612774796991,115034
1650,0.0961920809593,0.615875410991,115740
1660,0.098135509956,0.619101010991,116443
1670,0.0978621222422,0.62226779599,117131
1680,0.0919750233978,0.62559013499,117828
1690,0.101413289125,0.628732418991,118508
1700,0.0952920398099,0.631884822989,119186
1710,0.0945733641471,0.63496316099,119892
1720,0.0956610138456,0.638319028991,120590
1730,0.103104046124,0.641597015991,121263
1740,0.0955066040806,0.64465330599,121960
1750,0.0986299269778,0.64787950999,122660
1760,0.105285705834,0.65093505199,123360
1770,0.102359640195,0.65399623399,124059
1780,0.0972536570853,0.657085775989,124752
1790,0.100520334918,0.660235541989,125452
1800,0.0975550773845,0.663314504989,126132
1810,0.102769457485,0.666278230989,126826
1820,0.101584931303,0.669125428989,127524
1830,0.102711562578,0.671950355989,128213
1840,0.100991314631,0.674816055989,128915
1850,0.102850433993,0.679111590989,129624
1860,0.0997255971688,0.683196083988,130327
1870,0.100386281113,0.686920918988,131019
1880,0.104099856928,0.690180291987,131704
1890,0.100552564722,0.693171479988,132404
1900,0.089878997304,0.696043068989,133086
1910,0.101568665578,0.69896590699,133792
1920,0.0952073841567,0.70191930299,134487
1930,0.0972173636365,0.704986042991,135185
1940,0.0986300137348,0.708049043991,135886
1950,0.0940634852213,0.711122925992,136596
1960,0.0981755275822,0.714176303991,137296
1970,0.0963366484373,0.717285323992,138005
1980,0.0927709287525,0.720374249991,138683
1990,0.101242562862,0.723401118992,139376
2000,0.0979099294589,0.726687549992,140088
2010,0.0982690626726,0.72960048899,140787
2020,0.0939623537351,0.73253397599,141487
2030,0.0977006512394,0.73560065299,142190
2040,0.10016965806,0.73860773599,142893
2050,0.0979483006089,0.74168548299,143590
2060,0.0976101688557,0.744779797989,144288
2070,0.104681569602,0.747793654989,144973
2080,0.101250897986,0.75066259599,145664
2090,0.0990389308424,0.75356488199,146365
2100,0.0967108799131,0.756450968991,147050
2110,0.10018310397,0.759425809991,147735
2120,0.108974624543,0.762431626992,148432
2130,0.108500915918,0.765439856992,149126
2140,0.102350464769,0.768346410992,149812
2150,0.104619133166,0.771311556991,150509
2160,0.101373437648,0.774258748992,151214
2170,0.104484230809,0.777147192992,151912
2180,0.0998378193477,0.780197372993,152605
2190,0.105187541653,0.783082411992,153296
2200,0.100709334406,0.785963742992,153998
2210,0.100920384696,0.790207492992,154716
2220,0.101921383709,0.794316543992,155415
2230,0.0976582797377,0.798104981992,156119
2240,0.0979339517678,0.801335682991,156826
2250,0.0994776450825,0.804308297991,157519
2260,0.108651998501,0.807166382992,158218
2270,0.0973565153908,0.810005874991,158910
2280,0.103549911511,0.812992256991,159609
2290,0.101427651587,0.815886541992,160301
2300,0.10377334874,0.818763439993,161005
2310,0.108981136158,0.821668274992,161699
2320,0.0953622947726,0.824630466992,162409
2330,0.10441933304,0.827528378992,163104
2340,0.102258662513,0.830380455991,163788
2350,0.102954468928,0.83317201399,164482
2360,0.102825614429,0.83612200899,165205
2370,0.0993173622974,0.83900435999,165893
2380,0.098231399275,0.84189529299,166595
2390,0.100714139095,0.844717344989,167296
2400,0.0980368422025,0.847636310989,167996
2410,0.0944929370341,0.85059341799,168697
2420,0.0990954015957,0.853483415989,169393
2430,0.103162590213,0.856357817989,170080
2440,0.102474477436,0.859272164989,170770
2450,0.0957538251942,0.862225477989,171469
2460,0.105066940985,0.865223358989,172150
2470,0.109463786287,0.86812955299,172857
2480,0.100176945429,0.870951623991,173568
2490,0.101473757142,0.873862690991,174262
2500,0.0994181028364,0.876807703991,174985
2510,0.0990169856723,0.879820787992,175685
2520,0.107504029742,0.882791515993,176382
2530,0.0981647052636,0.885912587994,177076
2540,0.102867823611,0.888982281995,177770
2550,0.0987852513819,0.891913156995,178475
2560,0.102940023344,0.894822140994,179171
2570,0.100769966777,0.897757272993,179858
2580,0.101892542404,0.900683937993,180545
2590,0.104062990149,0.903557011994,181239
2600,0.107203618156,0.906356180993,181951
2610,0.103875697869,0.909222782991,182664
2620,0.105600121364,0.912191165991,183352
2630,0.105019614573,0.915106758992,184029
2640,0.0990252099147,0.917961554991,184740
2650,0.100770203283,0.920857860991,185438
2660,0.0954629208675,0.923758062991,186119
2670,0.101520647206,0.92664158699,186806
2680,0.0991562622155,0.92953344399,187508
2690,0.0997532420601,0.932372131991,188203
2700,0.102015337836,0.935262920992,188901
2710,0.0992294680382,0.938116885993,189591
2720,0.100178783406,0.941069211993,190291
2730,0.10594071278,0.943929054993,190976
2740,0.0979708750436,0.947008819992,191672
2750,0.0997160459095,0.949998088992,192380
2760,0.104836288963,0.953035296992,193075
2770,0.103798882272,0.955870803991,193759
2780,0.0989523829338,0.958737981991,194448
2790,0.104177806552,0.961642905992,195158
2800,0.100870583918,0.964671352991,195882
2810,0.104938533809,0.967547678991,196577
2820,0.101031774861,0.97045618899,197278
2830,0.106838499853,0.97323443799,197981
2840,0.108477620395,0.97621214599,198682
2850,0.100559882183,0.979151626991,199366
2860,0.107204321838,0.981883253991,200054
2870,0.112660287843,0.984604717991,200748
2880,0.109521054213,0.98736027899,201438
2890,0.113718232418,0.990140362992,202142
2900,0.106693203692,0.992917292993,202825
2910,0.105761645955,0.995678206993,203517
2920,0.103410680566,0.998364567993,204218
2930,0.10384962187,1.00119255199,204919
2940,0.109311330487,1.00402271399,205620
2950,0.112043368207,1.00679071999,206311
2960,0.111157607794,1.00950505699,207007
2970,0.107440554499,1.012215242,207706
2980,0.112168884061,1.015004943,208412
2990,0.106077874117,1.01785602,209116
3000,0.1121161147,1.020551095,209818
