iterations,fitness,time,fevals
0,0.0354428162301,0.00577840799997,736
10,0.0465511423637,0.0108513880004,1361
20,0.051579253551,0.015034344,1992
30,0.0549957080961,0.0186342960005,2619
40,0.0618763200036,0.0222006120002,3248
50,0.0679056455573,0.0272812380008,3856
60,0.0799391393302,0.0319165570018,4499
70,0.0716804467919,0.035976717003,5137
80,0.0774850381098,0.0393917920028,5781
90,0.0849260738201,0.0427395310035,6406
100,0.0821921371574,0.045905584002,7047
110,0.0783367476882,0.0490560160015,7684
120,0.0883374622959,0.052281061,8321
130,0.0891403545834,0.055304907999,8955
140,0.0946087545116,0.0583443489977,9582
150,0.091357847876,0.0615105219986,10207
160,0.0928447472358,0.0646162519988,10830
170,0.0878388264462,0.0676855379988,11471
180,0.0881206935701,0.0707070959979,12099
190,0.0832182351562,0.0737166649978,12727
200,0.0877774706746,0.0767106809981,13348
210,0.0946921468037,0.0797289979982,13979
220,0.0941566413409,0.0827849439975,14613
230,0.0918776287117,0.0857518219982,15244
240,0.0890202295063,0.0888178829991,15875
250,0.092525455758,0.0920306599983,16503
260,0.0912274868145,0.0951883039979,17129
270,0.0860223686336,0.0983146239978,17761
280,0.0873916290345,0.101455479999,18404
290,0.0983514592709,0.104529820999,19036
300,0.098374334165,0.107569861999,19662
310,0.102410329609,0.110459031999,20282
320,0.103435947283,0.113772367999,20923
330,0.103859564538,0.116675633999,21552
340,0.106497067094,0.119568442999,22191
350,0.100547242995,0.122392803998,22819
360,0.10862218516,0.125166464997,23443
370,0.101927103398,0.128018781998,24078
380,0.0992433526494,0.130957846997,24721
390,0.099269139917,0.133854239997,25366
400,0.103264800908,0.136496841997,25996
410,0.098257926281,0.139214960996,26630
420,0.101600804896,0.141951285997,27260
430,0.100028538926,0.144737066996,27886
440,0.101072158336,0.147579708997,28521
450,0.105945569899,0.150342587996,29150
460,0.107684052603,0.153195643996,29784
470,0.106491533678,0.156013462994,30413
480,0.109748826291,0.158879625995,31045
490,0.108265061546,0.161665727996,31669
500,0.115501112037,0.164311608994,32293
510,0.112348720871,0.166796383994,32925
520,0.113119346018,0.169285497994,33543
530,0.109391319686,0.171830960993,34168
540,0.103864322195,0.174459577995,34786
550,0.105838294118,0.177307172995,35417
560,0.102482872553,0.180114249995,36037
570,0.114226501816,0.182810574996,36672
580,0.107569707852,0.185500886997,37298
590,0.111768817563,0.188178717997,37929
600,0.10498838895,0.190857851998,38567
610,0.116627804744,0.193474148997,39195
620,0.115359208494,0.196063512996,39819
630,0.115928523241,0.198723388996,40444
640,0.116191640871,0.201327837996,41071
650,0.113276777782,0.203855089998,41708
660,0.111966302007,0.206487740998,42347
670,0.107569532757,0.209117078997,42979
680,0.105838382046,0.211796379997,43605
690,0.104503718046,0.214474123999,44229
700,0.105859282427,0.217323858998,44852
710,0.101431715363,0.220284680998,45487
720,0.109171320939,0.223163065997,46106
730,0.106771538502,0.225882820996,46743
740,0.104859114637,0.228511619996,47387
750,0.0898681341217,0.231445264995,48019
760,0.098027512744,0.234428521995,48647
770,0.0998314095912,0.237465367994,49271
780,0.102455721114,0.240402313995,49920
790,0.102578485877,0.243304455995,50552
800,0.102300862846,0.246174528995,51181
810,0.100366573975,0.249107163994,51827
820,0.0954938864593,0.252055096993,52462
830,0.10188034066,0.254905519992,53091
840,0.103334340964,0.257741493991,53712
850,0.104335604022,0.260514235992,54347
860,0.0984579406952,0.263287459991,54969
870,0.0964454509255,0.26617308899,55596
880,0.0993022221648,0.26901118899,56229
890,0.107118507597,0.271847843989,56857
900,0.0904973098239,0.27484638699,57492
910,0.103097183591,0.27780365899,58121
920,0.100730568249,0.280664298989,58750
930,0.097666556494,0.283494881989,59375
940,0.0940642750628,0.286344396989,60009
950,0.104402530183,0.289265844989,60634
960,0.100137320633,0.292079518988,61266
970,0.0940817189872,0.294933490988,61899
980,0.0850294849336,0.297952190989,62549
990,0.0864745231937,0.300965597989,63173
1000,0.0890507384744,0.304007307988,63806
1010,0.0875273279607,0.306970667987,64423
1020,0.0937997264089,0.309912828987,65048
1030,0.100351089264,0.312875729987,65676
1040,0.0802371135474,0.316028213987,66304
1050,0.0888368673047,0.319207910987,66937
1060,0.079256686991,0.322296949988,67550
1070,0.0890627808188,0.325515597988,68194
1080,0.0973171466737,0.328527930988,68838
1090,0.0950043921596,0.331401256988,69458
1100,0.0892138206735,0.334351305988,70111
1110,0.0891500917199,0.337391369987,70741
1120,0.0865323003019,0.340514866986,71376
1130,0.0864168079561,0.343647535987,72004
1140,0.087085071611,0.346619544987,72640
1150,0.0866947535184,0.349735301987,73279
1160,0.0850704277139,0.352695857988,73895
1170,0.0911480993321,0.357362970988,74522
1180,0.0949609491126,0.361665271988,75155
1190,0.0983298942227,0.365158624987,75795
1200,0.0950124791029,0.368298086987,76438
1210,0.0990244950527,0.371531810988,77073
1220,0.0945712759355,0.374431899989,77691
1230,0.0951029940196,0.377229339989,78329
1240,0.100107330161,0.380116088989,78957
1250,0.106783145701,0.382985585989,79593
1260,0.0936431081615,0.38595570599,80232
1270,0.101807568459,0.388751680988,80849
1280,0.107096001176,0.391768969988,81472
1290,0.0990372926807,0.394757496988,82099
1300,0.0947446945318,0.397760681988,82731
1310,0.0916251341209,0.400683085987,83358
1320,0.090027394817,0.403679164987,83990
1330,0.0971886964387,0.406645939986,84618
1340,0.0956949235964,0.409882570986,85241
1350,0.0987034618647,0.412823920986,85878
1360,0.0959854086916,0.415685608987,86517
1370,0.0929578573944,0.418519913987,87154
1380,0.0943336167544,0.421421657986,87785
1390,0.0898927152087,0.424421949985,88417
1400,0.0849661661566,0.427288294986,89047
1410,0.0842774034595,0.430275229986,89665
1420,0.082775605043,0.433279648987,90290
1430,0.0811867048285,0.436274800988,90922
1440,0.08268690759,0.439438313988,91552
1450,0.0805931279177,0.442592006988,92193
1460,0.0744935545977,0.445682669988,92828
1470,0.0801430953049,0.448777933989,93458
1480,0.081990165544,0.452056898988,94094
1490,0.0798530130259,0.455229984989,94730
1500,0.0879586382619,0.458289175989,95354
1510,0.0831357805245,0.461331418988,95992
1520,0.0791277391552,0.464466457988,96636
1530,0.0885442378626,0.467625362988,97263
1540,0.0890608571561,0.470607856987,97897
1550,0.0854125841915,0.473620882987,98515
1560,0.0834738153645,0.476824795987,99147
1570,0.0808188861782,0.479843919988,99772
1580,0.0884416983368,0.482871636987,100405
1590,0.0889608733733,0.485914317987,101029
1600,0.0825388468103,0.489095726987,101648
1610,0.0845274819339,0.492166177986,102281
1620,0.0935567248358,0.495117359987,102907
1630,0.0908684966171,0.497962468988,103541
1640,0.0893675261638,0.500865177986,104168
1650,0.0865104801798,0.503788206986,104790
1660,0.0793935142537,0.506745237986,105418
1670,0.0865492497354,0.509724653986,106053
1680,0.0837685016271,0.512807420986,106663
1690,0.0896232796081,0.515868544986,107299
1700,0.0897744485833,0.518792427985,107930
1710,0.0924021136528,0.521706227984,108562
1720,0.0971471206448,0.524682657984,109184
1730,0.0997441759056,0.527634375983,109816
1740,0.100585398403,0.530442534984,110441
1750,0.0985697835803,0.533216268985,111074
1760,0.0933760193457,0.535999034984,111714
1770,0.0981768016983,0.538672141985,112336
1780,0.0969057583486,0.541234438984,112958
1790,0.0986629560557,0.543897518983,113587
1800,0.0966648580802,0.546606952983,114208
1810,0.100350994506,0.549419627981,114850
1820,0.0943111436909,0.552145948983,115468
1830,0.0844085838843,0.554980102983,116095
1840,0.078010814449,0.557908597983,116726
1850,0.0791969619406,0.560999013984,117356
1860,0.078643903026,0.564117312984,117977
1870,0.0814676914011,0.633569400985,118626
1880,0.0916908086848,0.636697952985,119252
1890,0.0952926618161,0.639728269985,119879
1900,0.0908977636344,0.642696581986,120512
1910,0.0935057190147,0.645710122986,121143
1920,0.0921397721902,0.648757066987,121774
1930,0.0919119597309,0.651879451987,122394
1940,0.0925036634024,0.654886442986,123016
1950,0.0950005961561,0.657799829985,123645
1960,0.102344578772,0.660660005984,124275
1970,0.0997733835602,0.663438127986,124900
1980,0.102233279522,0.666198607985,125539
1990,0.104537134226,0.668990260987,126158
2000,0.100019169519,0.671911105987,126785
2010,0.101396127424,0.674747359988,127425
2020,0.0936657877206,0.677582945988,128059
2030,0.0996120880516,0.680558578986,128701
2040,0.104182009951,0.683446438985,129324
2050,0.106550222605,0.686304225985,129946
2060,0.102698920568,0.689104141986,130574
2070,0.0984572517122,0.691952390987,131194
2080,0.109719135652,0.694744002989,131833
2090,0.105812108734,0.69750100799,132450
2100,0.104367774126,0.700383770991,133082
2110,0.102635233281,0.702981234992,133712
2120,0.110013679075,0.705542930991,134345
2130,0.106294860043,0.708131465992,134973
2140,0.105390086479,0.710807024991,135599
2150,0.108557419856,0.713470898991,136232
2160,0.0980956756468,0.716102492992,136871
2170,0.105466378104,0.718797052992,137494
2180,0.103229127214,0.721530727993,138123
2190,0.103660965716,0.724211586994,138751
2200,0.101771158587,0.726980812995,139398
2210,0.0969423274338,0.729775436996,140028
2220,0.103978609969,0.732475897996,140670
2230,0.101427846102,0.735067090996,141295
2240,0.107689141768,0.737713318997,141931
2250,0.0953929813515,0.740541379997,142557
2260,0.0936566498319,0.743357097997,143177
2270,0.100151522576,0.746136566999,143796
2280,0.0982589729728,0.749045015998,144421
2290,0.100259070587,0.751842251999,145055
2300,0.100255921496,0.754691929998,145701
2310,0.0971751547864,0.758739958999,146338
2320,0.0987088262131,0.762556287,146953
2330,0.0969502448812,0.766178383001,147570
2340,0.100733510386,0.769119179,148198
2350,0.102045124992,0.771704636001,148810
2360,0.101826421494,0.774394149003,149441
2370,0.0938526066284,0.777181376003,150075
2380,0.0985617299207,0.781550769003,150730
2390,0.104912113676,0.785534473003,151352
2400,0.105857728058,0.789163483005,151992
2410,0.109325741843,0.792113158004,152625
2420,0.107226732753,0.794783386003,153263
2430,0.108481539711,0.797418318003,153893
2440,0.108551601704,0.800060855003,154521
2450,0.106112383804,0.802594933002,155152
2460,0.106814582376,0.805222891004,155787
2470,0.107495336611,0.807954831003,156413
2480,0.107087384658,0.810589063003,157038
2490,0.105343050707,0.813163761004,157670
2500,0.107355641509,0.815779236003,158298
2510,0.106739009515,0.818307002004,158933
2520,0.10644841498,0.820902529003,159562
2530,0.104028230249,0.823517102004,160195
2540,0.106109621473,0.826030950004,160822
2550,0.107018722611,0.828640853002,161458
2560,0.104980415281,0.831222378003,162091
2570,0.107445787727,0.833866022003,162724
2580,0.106843045415,0.836459345004,163355
2590,0.106974046964,0.838996595005,163987
2600,0.107833625898,0.841637809004,164612
2610,0.104697948442,0.844359809003,165248
2620,0.10533129828,0.847022862003,165875
2630,0.108629050244,0.849681503003,166508
2640,0.107556826692,0.852293347003,167144
2650,0.104813708227,0.854883271004,167765
2660,0.108533348425,0.857602917004,168394
2670,0.107249191561,0.860151916002,169020
2680,0.105650801591,0.862718410002,169647
2690,0.109411789368,0.865327954003,170290
2700,0.0996436806136,0.867993840002,170918
2710,0.104570412709,0.870769120002,171545
2720,0.106429823818,0.873452661002,172173
2730,0.104012690413,0.876073923004,172803
2740,0.104598770196,0.878656707006,173439
2750,0.108376025393,0.881311102006,174051
2760,0.107156747306,0.883998389007,174686
2770,0.103431419468,0.886750592006,175302
2780,0.105461018114,0.889410903006,175938
2790,0.10658382601,0.892041910007,176575
2800,0.107615446344,0.894739933006,177202
2810,0.106334220906,0.897375799006,177835
2820,0.108187163513,0.899964200005,178467
2830,0.103822625885,0.902488560005,179090
2840,0.105048866604,0.904961239004,179716
2850,0.104997540766,0.907543443005,180347
2860,0.105312009038,0.910233175005,180966
2870,0.104208195533,0.912864951006,181596
2880,0.106996869642,0.915402495006,182224
2890,0.104252174671,0.918028694005,182849
2900,0.107016720999,0.920750941004,183470
2910,0.105387973194,0.923457650004,184105
2920,0.107046804423,0.926025730003,184738
2930,0.102256810618,0.928618864004,185362
2940,0.107015874207,0.931270255003,186002
2950,0.103065975858,0.933933055005,186620
2960,0.106099906742,0.936595506004,187260
2970,0.107684919398,0.939157552004,187895
2980,0.108401337149,0.941690250005,188521
2990,0.103424403616,0.944391909004,189163
3000,0.106899953724,0.947123041005,189785
