iterations,fitness,time,fevals
0,0.0261375043105,0.00127272099962,555
10,0.028088729296,0.00258423800005,1016
20,0.0322700495655,0.00375525799973,1465
30,0.0344987944309,0.00492914200004,1908
40,0.0361068460904,0.00612498099872,2367
50,0.0384264440928,0.00727298899801,2831
60,0.0427726086304,0.00838089299759,3289
70,0.0421967291806,0.009524314999,3730
80,0.0437515182735,0.0106809949993,4190
90,0.0388064774666,0.0118472019985,4654
100,0.0472718163212,0.0130211379983,5103
110,0.045267388582,0.0142467449987,5566
120,0.0460675930245,0.0154213019978,6020
130,0.0496202862731,0.0164976639971,6460
140,0.0487873484994,0.017627201998,6919
150,0.048232135265,0.0187500359971,7373
160,0.0485242748769,0.0198790969971,7829
170,0.0510949029147,0.0210117259958,8273
180,0.0490140729795,0.022173325995,8736
190,0.0481780950824,0.0233469489958,9190
200,0.0436143659918,0.0244956849965,9647
210,0.0493740635023,0.0256956189969,10102
220,0.0482937896088,0.0268645829965,10549
230,0.0505249008775,0.0280275849964,11023
240,0.0510716878587,0.0291300819954,11485
250,0.0512838636436,0.0302778909954,11947
260,0.0518466225078,0.0313814309957,12394
270,0.0556304307282,0.0325375519951,12871
280,0.0553495297325,0.0336866069938,13322
290,0.0524395491789,0.0347786939947,13770
300,0.0564729103552,0.0358872109955,14212
310,0.0492795558564,0.0369947579948,14661
320,0.0496512807031,0.0381107009962,15128
330,0.0507820193999,0.0392696229956,15582
340,0.0524992335792,0.0404246779963,16047
350,0.0524992335792,0.0415460759959,16490
360,0.0530792259118,0.0426012559965,16928
370,0.0568770044856,0.043685249997,17386
380,0.0535634450059,0.0447631579955,17850
390,0.0567098385864,0.0458718409955,18314
400,0.0509858159513,0.0473259099963,18765
410,0.0505574222257,0.0484649059963,19220
420,0.0496365093089,0.0496096929965,19669
430,0.051317808567,0.0507595389972,20121
440,0.05104869151,0.0518740909974,20573
450,0.0490331422769,0.0529945189974,21018
460,0.052270896111,0.0541164079987,21465
470,0.052997634079,0.0552629509984,21931
480,0.0554759217032,0.0564134909982,22394
490,0.0571978566939,0.0575461389981,22846
500,0.0561083492374,0.0586948239979,23297
510,0.0541511142545,0.0598274729964,23745
520,0.0579305412236,0.0609638189962,24201
530,0.0547965977098,0.062077153998,24655
540,0.0535635942595,0.0632104219967,25111
550,0.0574396226422,0.0643499339967,25553
560,0.0542591582419,0.065498963997,26010
570,0.0542591582419,0.0666694029969,26478
580,0.0561730879357,0.0677896099969,26936
590,0.0520149783056,0.0688852169969,27391
600,0.0588096514166,0.0700105709966,27846
610,0.0532580448346,0.0711158219965,28282
620,0.0510168125072,0.0722464709961,28735
630,0.0483033005159,0.073368663996,29182
640,0.052672372633,0.0745363619953,29642
650,0.0514197388043,0.0757261089948,30099
660,0.0565804616789,0.0768309199939,30561
670,0.0541857318757,0.0779693909935,31018
680,0.0533116046611,0.0791228059934,31481
690,0.0551950962641,0.0802502049937,31949
700,0.0522467613373,0.0813908059936,32386
710,0.0554855136141,0.082491886993,32841
720,0.0567069169459,0.0835930389931,33298
730,0.052942904612,0.0847175999934,33769
740,0.0533421551263,0.0858277259922,34199
750,0.0524909070652,0.0869582739924,34661
760,0.0584275308316,0.0880889139917,35113
770,0.0557539888063,0.0892182679927,35566
780,0.0566950220099,0.0903443889929,36024
790,0.0559944364367,0.0914973639938,36467
800,0.0552348443003,0.0926098019936,36927
810,0.0598335079065,0.093717623995,37370
820,0.0647240160854,0.0948538999946,37838
830,0.0574118583505,0.0959133769957,38296
840,0.0560164373025,0.0969394459953,38743
850,0.062037126435,0.0980134199963,39201
860,0.0607617162402,0.0990990569953,39669
870,0.0592556820438,0.100167636996,40103
880,0.0569591149073,0.101271814996,40553
890,0.0531468979623,0.102430994995,41012
900,0.0573319458726,0.103535934995,41464
910,0.058896144616,0.104623855996,41907
920,0.0552649258746,0.105738295995,42366
930,0.0559159332855,0.106855873995,42818
940,0.0536050128037,0.107943494995,43275
950,0.0589055964402,0.109051096995,43728
960,0.0574115208195,0.110194682997,44202
970,0.0538962675168,0.111311332998,44648
980,0.0544477048266,0.112525958997,45114
990,0.0630118256031,0.113709219997,45559
1000,0.0604719148977,0.115443440996,46030
1010,0.0561438703343,0.117033902998,46482
1020,0.0608678180182,0.118531277998,46940
1030,0.0630474853598,0.120034118998,47396
1040,0.0600456157726,0.121535735998,47853
1050,0.0551365681124,0.123021447998,48315
1060,0.0592812438916,0.124275362998,48761
1070,0.0657437651021,0.125532525997,49210
1080,0.0585383616822,0.126785342996,49671
1090,0.0580673340164,0.127903401997,50128
1100,0.0602682869731,0.129043438998,50591
1110,0.062605237967,0.130150266998,51050
1120,0.0618601914823,0.131236102998,51510
1130,0.0639247727829,0.132361300997,51953
1140,0.0634086087147,0.133453303997,52412
1150,0.0602344890634,0.134527471997,52866
1160,0.0613386080592,0.135639799995,53325
1170,0.0620151229826,0.136747426995,53784
1180,0.0606315155279,0.137847031994,54247
1190,0.0554007203539,0.138956075994,54691
1200,0.0564300355453,0.140063900993,55155
1210,0.0568934669975,0.141153087992,55600
1220,0.0557113749908,0.142226809992,56053
1230,0.0537515958674,0.143326313993,56505
1240,0.0584957323135,0.147550382993,56944
1250,0.0552574764479,0.148683608993,57386
1260,0.0541632641688,0.149794453993,57842
1270,0.0536092254828,0.150963111993,58295
1280,0.0562975535449,0.152083584993,58761
1290,0.0529577549319,0.153181357993,59217
1300,0.0516092408354,0.154300746994,59670
1310,0.052781221882,0.155397103994,60115
1320,0.0551332015675,0.156524211992,60577
1330,0.0561922577142,0.157635901993,61043
1340,0.0525609800216,0.158746287992,61498
1350,0.0550746576409,0.159897169993,61958
1360,0.0520803293775,0.161025253992,62416
1370,0.056849544045,0.162131660993,62880
1380,0.0582230822224,0.163208239994,63331
1390,0.0596763044576,0.164321008993,63801
1400,0.0523520392547,0.165436622994,64255
1410,0.0548412307737,0.166512019994,64693
1420,0.056018197892,0.167600491994,65137
1430,0.0553006377916,0.168683792994,65586
1440,0.0519294442801,0.169785602995,66039
1450,0.0511624927774,0.170888875995,66507
1460,0.0535395289229,0.172008936994,66959
1470,0.0572947215478,0.173137687994,67414
1480,0.0551686470761,0.174273556993,67877
1490,0.0610950198571,0.175351668993,68317
1500,0.06123512007,0.176440736994,68773
1510,0.0630730121775,0.177510522994,69223
1520,0.0606303304531,0.178577355995,69660
1530,0.0632599572394,0.179657837996,70114
1540,0.0571251566254,0.180780126997,70567
1550,0.057556731552,0.181942855997,71027
1560,0.0650541555675,0.183042665998,71488
1570,0.0620452737363,0.184189169999,71951
1580,0.0611942324672,0.185288834,72410
1590,0.0590056227521,0.186405945,72851
1600,0.0584381856061,0.187529031,73292
1610,0.0624213196991,0.188610200001,73745
1620,0.063132177599,0.189725715001,74195
1630,0.0650836590878,0.190837268003,74646
1640,0.0703112176761,0.191903440003,75102
1650,0.0622650518715,0.193008134003,75562
1660,0.0631512586498,0.194115680002,76025
1670,0.0624732797683,0.195253407002,76496
1680,0.0544131614873,0.196366692002,76951
1690,0.0570923230424,0.197507390001,77390
1700,0.0513261388274,0.198648553001,77845
1710,0.0550176721998,0.199768623001,78301
1720,0.0591108392161,0.200912218001,78762
1730,0.0608741161945,0.201986478,79215
1740,0.0567250763273,0.203095199999,79671
1750,0.0611437001195,0.204256590998,80135
1760,0.0618619503771,0.205385555999,80590
1770,0.0597980203419,0.206480825,81044
1780,0.061815788319,0.207615758001,81516
1790,0.062698878804,0.208706923002,81966
1800,0.062698878804,0.209820930002,82419
1810,0.060273947335,0.210895732002,82868
1820,0.0599435541811,0.211980115002,83317
1830,0.0593901105594,0.213090713001,83762
1840,0.063521708698,0.214199079001,84213
1850,0.0573178600243,0.215292160001,84660
1860,0.0605854198764,0.216418060001,85128
1870,0.0536611734717,0.217560666,85578
1880,0.0564925628501,0.218692357001,86040
1890,0.0623504860563,0.219795710002,86485
1900,0.0684114722118,0.220928690002,86933
1910,0.0684114722118,0.222024656001,87382
1920,0.0646716754778,0.223097622002,87834
1930,0.059352516363,0.224198309003,88293
1940,0.0586378393704,0.225260535004,88735
1950,0.0636964979538,0.226334544004,89191
1960,0.0641189892198,0.227448702004,89637
1970,0.0644693309059,0.228577016003,90080
1980,0.0602968470638,0.229682956004,90533
1990,0.0667578156352,0.230782087003,90984
2000,0.0659558357299,0.231921324003,91451
2010,0.0624210983708,0.232992663003,91892
2020,0.0615024502736,0.234119389002,92358
2030,0.0624948873393,0.235223687003,92808
2040,0.0655614145855,0.236354418004,93267
2050,0.067324297735,0.237455834005,93732
2060,0.061727169585,0.238537876006,94191
2070,0.0653733023093,0.239610396005,94644
2080,0.0665357293562,0.240708336005,95109
2090,0.0692421481268,0.241731252005,95565
2100,0.0688489597447,0.242810127005,96016
2110,0.0691115793406,0.243848666005,96473
2120,0.0658323725934,0.244919107006,96926
2130,0.0670080559661,0.245977701006,97385
2140,0.0670080559661,0.247102615007,97853
2150,0.0655545019924,0.248180263006,98312
2160,0.0598121299369,0.249248931006,98771
2170,0.0577375241065,0.250342441006,99229
2180,0.0575028696408,0.251453855006,99694
2190,0.0576374909408,0.252569591004,100138
2200,0.0568229875981,0.253666910005,100595
2210,0.0554047693634,0.254755790003,101042
2220,0.0560422219215,0.255847601004,101504
2230,0.051528303107,0.256927244003,101952
2240,0.0572888011664,0.258060661004,102401
2250,0.0574411775293,0.259178607004,102863
2260,0.0593003405182,0.260260730005,103308
2270,0.0618335239106,0.261379367004,103758
2280,0.0548707821234,0.262498753005,104212
2290,0.0576636834895,0.263579929006,104663
2300,0.0638010806135,0.264682783005,105113
2310,0.0597095101791,0.265770050006,105565
2320,0.0601402636528,0.266883698005,106016
2330,0.0557675916669,0.268000071004,106479
2340,0.0566058700726,0.269082899003,106941
2350,0.0558348687296,0.270172679004,107398
2360,0.0586239906883,0.271242481005,107854
2370,0.063519623427,0.272345707004,108302
2380,0.068078107816,0.273439896006,108765
2390,0.0622840049353,0.274529154007,109226
2400,0.0649654172564,0.275638751007,109678
2410,0.0627312495778,0.276682956006,110121
2420,0.0534850115336,0.277773403006,110578
2430,0.0521831567333,0.278873908006,111056
2440,0.053515258667,0.279985002006,111511
2450,0.0524646362669,0.281074518005,111962
2460,0.0523174005554,0.282197871005,112437
2470,0.0518801570573,0.283348148005,112892
2480,0.0526892466621,0.284469275004,113340
2490,0.0590471529101,0.285579719004,113791
2500,0.0581471196764,0.286709675003,114242
2510,0.058164527042,0.287810862003,114690
2520,0.0555402345981,0.288920636001,115140
2530,0.0571914904462,0.290025879001,115615
2540,0.0549985847088,0.291155283001,116073
2550,0.053748362866,0.292260871001,116517
2560,0.0528739881324,0.293379174002,116994
2570,0.0540836076796,0.294524222001,117448
2580,0.0490133835969,0.295691045001,117907
2590,0.0554083708505,0.296844148001,118358
2600,0.0569342445825,0.297969741001,118830
2610,0.0511922705075,0.299095727001,119284
2620,0.0540576932014,0.300226021001,119741
2630,0.0567627812926,0.301377482001,120199
2640,0.0535389389939,0.302480676,120649
2650,0.0592839025657,0.303612603,121109
2660,0.059758419459,0.30471767,121566
2670,0.058202803756,0.305845663001,122033
2680,0.0562213264857,0.306947274001,122486
2690,0.0570629245603,0.308077047001,122948
2700,0.0535924280539,0.309203173001,123400
2710,0.0555589175509,0.310307928001,123854
2720,0.0586808699368,0.311457561,124320
2730,0.0530965836016,0.312591633001,124773
2740,0.0563505912118,0.313717704001,125220
2750,0.0547212644454,0.314836302001,125677
2760,0.059626697836,0.315969051002,126143
2770,0.0598952743857,0.317128804001,126602
2780,0.0555067896207,0.318274996001,127054
2790,0.0580749879028,0.319405638002,127497
2800,0.0617555328631,0.320490699001,127954
2810,0.0571078297868,0.322191347001,128405
2820,0.0555563355651,0.323773316,128859
2830,0.05748712519,0.325309501,129303
2840,0.0559691777001,0.326790158002,129756
2850,0.0557703634798,0.328294642002,130221
2860,0.0577995842085,0.329795360003,130659
2870,0.0522171228342,0.331039785004,131114
2880,0.05420773039,0.332252630003,131571
2890,0.0513823312959,0.333518215004,132026
2900,0.0520738157131,0.334662501004,132489
2910,0.0485857857125,0.335789623003,132942
2920,0.0523730613495,0.336926526003,133390
2930,0.0471761764458,0.338089304003,133845
2940,0.0503403424461,0.339252931002,134307
2950,0.0480169664144,0.340423738002,134749
2960,0.0456339047238,0.341567056003,135211
2970,0.0478049180434,0.342716937002,135666
2980,0.0497922881986,0.343859549002,136118
2990,0.0498211407938,0.344974541003,136570
3000,0.0550775694679,0.346084065004,137025
