iterations,fitness,time,fevals
0,0.0406153484357,0.00408245799917,652
10,0.0490835926547,0.00778884699866,1198
20,0.0583141880995,0.0113394779983,1751
30,0.0584477676377,0.015010535999,2302
40,0.0639207268945,0.0184173439993,2853
50,0.0726482347595,0.0216265729996,3396
60,0.0776870498352,0.0248219009991,3943
70,0.079860952494,0.0278739570003,4486
80,0.0782849197392,0.0309556140019,5029
90,0.0732928649103,0.034008124001,5577
100,0.0765637688861,0.0371502350026,6118
110,0.0702140536113,0.0402704300031,6671
120,0.0724550721511,0.0434493670036,7224
130,0.0694598650923,0.046712909003,7774
140,0.0801204516637,0.0498782100021,8318
150,0.0860166551246,0.0529696930007,8856
160,0.0855337027447,0.0559868380005,9406
170,0.089593719749,0.0589838920005,9956
180,0.0879655093346,0.0619060690005,10511
190,0.0831159165053,0.0649338080002,11060
200,0.0789130493271,0.0680184190005,11611
210,0.0851957891691,0.0711091830017,12155
220,0.0897086424903,0.0741717410019,12703
230,0.0868071426554,0.0770802490006,13250
240,0.0911348939439,0.079922318002,13800
250,0.0912099147057,0.0827695860007,14347
260,0.0927978602328,0.0856187880017,14896
270,0.0990024044845,0.0883107960017,15443
280,0.102077075162,0.0908771850009,15995
290,0.103185611297,0.0934688480011,16551
300,0.110435505242,0.0959988400009,17095
310,0.10123364325,0.0986211210002,17639
320,0.0957695162393,0.101369109001,18195
330,0.10771667282,0.104060276002,18739
340,0.113552883205,0.106553631002,19283
350,0.113552883205,0.108871016,19827
360,0.11185631469,0.111982557,20377
370,0.110698602293,0.115129484,20926
380,0.10620879643,0.118464309,21477
390,0.108842557294,0.121402391,22022
400,0.108828540623,0.123995285001,22576
410,0.112168559382,0.126367397001,23117
420,0.109505846791,0.128751609,23656
430,0.110678970473,0.131313853999,24207
440,0.105670970517,0.133818928,24753
450,0.102531636643,0.137607729999,25300
460,0.0985580754294,0.141297722001,25851
470,0.106448921177,0.144936752,26407
480,0.104006146837,0.147908732,26954
490,0.100531832625,0.150771072002,27500
500,0.100198888128,0.153568313002,28051
510,0.104813303357,0.156264623003,28601
520,0.101624041562,0.159036515002,29152
530,0.102531340534,0.161801427003,29704
540,0.0993747837261,0.164646803003,30254
550,0.107693307015,0.167346016004,30803
560,0.100532522343,0.170121023004,31352
570,0.0948346284456,0.172935170003,31905
580,0.0996874446717,0.175736680003,32444
590,0.107087292126,0.178517120003,32997
600,0.10755306315,0.181064549002,33545
610,0.10846490911,0.183543082003,34087
620,0.108763578452,0.185983026002,34635
630,0.108758024207,0.188327010001,35165
640,0.108164445528,0.191821584001,35717
650,0.10618216083,0.195206322001,36266
660,0.104191512513,0.198756111002,36820
670,0.105565295376,0.201619413001,37371
680,0.103575277407,0.204384470002,37918
690,0.107130500088,0.206848504004,38461
700,0.104340163389,0.209301241002,39009
710,0.108765525469,0.211734341001,39553
720,0.107468640332,0.214198713002,40100
730,0.108144973214,0.216673369001,40638
740,0.103070864121,0.219154187002,41176
750,0.10153476024,0.221687268002,41726
760,0.0997380099092,0.224294728001,42282
770,0.100348482983,0.227052222002,42836
780,0.101645912671,0.229749972003,43380
790,0.098193355186,0.232414189002,43928
800,0.0963414211429,0.235053180004,44482
810,0.104378087699,0.237672977004,45026
820,0.103679501652,0.240190207003,45567
830,0.107289971199,0.242757792003,46123
840,0.103486789616,0.245329444004,46664
850,0.103321961401,0.247898538004,47213
860,0.10338602995,0.250369974005,47760
870,0.104456391273,0.252837162005,48302
880,0.103253512843,0.255492846005,48848
890,0.110643245883,0.258119015005,49396
900,0.109346828551,0.260650377006,49941
910,0.109194665236,0.263116461005,50489
920,0.111518416066,0.265599015005,51036
930,0.110436290339,0.268206543005,51573
940,0.110054512033,0.270848468006,52123
950,0.111229156084,0.273304709008,52674
960,0.107614419636,0.275826528006,53221
970,0.11054715206,0.278340207007,53766
980,0.108898012613,0.280991633006,54314
990,0.109460803941,0.283534755006,54859
1000,0.113318389256,0.286047556006,55407
1010,0.111508860732,0.288560021007,55962
1020,0.111737333284,0.291009777007,56500
1030,0.110540742237,0.293628225007,57047
1040,0.108998294608,0.296172692008,57596
1050,0.109640743643,0.298676046008,58141
1060,0.108772628109,0.301147093009,58687
1070,0.112634374803,0.303638051009,59232
1080,0.110856166004,0.30618658701,59779
1090,0.11107572388,0.308713432009,60327
1100,0.108777391874,0.311183522008,60879
1110,0.108455701299,0.313687122007,61422
1120,0.102027068443,0.316294379007,61972
1130,0.105203122143,0.319924665007,62523
1140,0.105010154772,0.323461011008,63073
1150,0.102098912244,0.32702402601,63614
1160,0.108146777433,0.32987712801,64166
1170,0.104059171454,0.33256855901,64714
1180,0.102125472233,0.33529477101,65268
1190,0.101634361505,0.338116011009,65826
1200,0.0947988233601,0.341045700008,66369
1210,0.0897787884529,0.343834214007,66911
1220,0.0939089323218,0.346920699007,67468
1230,0.0970219603041,0.349851227007,68018
1240,0.0958934005355,0.352703878007,68563
1250,0.0947861418251,0.355524074006,69106
1260,0.0965222805067,0.358385129006,69651
1270,0.102773978049,0.361368776006,70195
1280,0.0896626973747,0.364301183006,70750
1290,0.0999819896221,0.367084863006,71299
1300,0.0949038826197,0.369851349005,71849
1310,0.111837486069,0.372643855004,72398
1320,0.111649575698,0.375465383004,72944
1330,0.104936676692,0.378244418003,73497
1340,0.105011167253,0.381015421002,74044
1350,0.10607196051,0.383602509002,74588
1360,0.113038878511,0.386145640003,75141
1370,0.107150289738,0.388796058003,75693
1380,0.104118636758,0.391366965003,76234
1390,0.115709859097,0.393982509002,76787
1400,0.111797130613,0.396672099003,77341
1410,0.103954787619,0.399441138003,77889
1420,0.100826514218,0.402255699004,78442
1430,0.0943023127159,0.405239174004,78988
1440,0.0993736990873,0.408049968004,79538
1450,0.0940764371687,0.410788531004,80080
1460,0.0987031730751,0.413651141005,80632
1470,0.105387065755,0.416401863005,81177
1480,0.113625079816,0.419134391006,81726
1490,0.107296236411,0.421802524006,82279
1500,0.110993788991,0.424515113007,82825
1510,0.112683364939,0.427506789007,83375
1520,0.112968094029,0.430246753005,83921
1530,0.109871523357,0.432950034005,84463
1540,0.106562017108,0.435702631004,85015
1550,0.10870428593,0.438353627005,85560
1560,0.112875107568,0.441044384004,86110
1570,0.111517207667,0.443693572004,86658
1580,0.11018524128,0.446340131004,87202
1590,0.111417128712,0.449002813004,87758
1600,0.109857319383,0.451566483003,88301
1610,0.108900668386,0.454213207002,88851
1620,0.109496655783,0.456894852003,89396
1630,0.106124774542,0.459592362004,89944
1640,0.102754206554,0.462223431005,90487
1650,0.114155237256,0.464868979005,91036
1660,0.110948170212,0.467463575005,91590
1670,0.108316468548,0.470057923005,92131
1680,0.110299932145,0.472609399005,92675
1690,0.10407051642,0.475169602005,93224
1700,0.103056148406,0.477877825004,93775
1710,0.108398525728,0.480754163003,94321
1720,0.106394742535,0.483565884004,94867
1730,0.103486744907,0.486269319004,95411
1740,0.107115664538,0.489085654004,95961
1750,0.0994798565677,0.491900050005,96512
1760,0.112494267971,0.494750047004,97061
1770,0.103671979738,0.497734675006,97608
1780,0.108334506523,0.500421664005,98157
1790,0.109579707722,0.502979779005,98712
1800,0.107355478814,0.505552360004,99259
1810,0.103323928747,0.508289952004,99807
1820,0.106253508226,0.511180865004,100357
1830,0.109337716041,0.513916218004,100909
1840,0.105175631726,0.516597528003,101455
1850,0.111440879639,0.519170076002,102014
1860,0.103070237103,0.521830198002,102565
1870,0.106740328888,0.524452597003,103117
1880,0.103200602824,0.527191566003,103667
1890,0.108376879347,0.529922983002,104212
1900,0.112142521454,0.532647728001,104762
1910,0.106641937647,0.535399629001,105309
1920,0.107940843363,0.538131410001,105855
1930,0.104199498091,0.540808145002,106403
1940,0.106569872704,0.543491690003,106949
1950,0.104669294668,0.546177927003,107498
1960,0.109048524026,0.549024963002,108044
1970,0.107909259306,0.551580012003,108595
1980,0.107436090626,0.554263350003,109148
1990,0.105098005075,0.556925833003,109703
2000,0.104846037793,0.559633699004,110244
2010,0.107681481579,0.562257190004,110798
2020,0.106990480075,0.564952407003,111342
2030,0.101980925902,0.567767125003,111892
2040,0.102278228904,0.570552698002,112443
2050,0.103133115955,0.573310359001,112987
2060,0.104728065174,0.575956387,113535
2070,0.103518394175,0.578616204999,114077
2080,0.100689243879,0.581269336999,114627
2090,0.107872604648,0.583892245,115174
2100,0.103022351253,0.586674359001,115732
2110,0.102245889242,0.58925782,116280
2120,0.0963555659914,0.591912196001,116827
2130,0.103780775719,0.594619660002,117379
2140,0.100064331702,0.597275226002,117919
2150,0.0967155451166,0.600161890001,118459
2160,0.101812850316,0.602904612,119016
2170,0.101870157957,0.605505763999,119563
2180,0.098247637297,0.608117881999,120109
2190,0.0973113333476,0.610718492999,120656
2200,0.104575298368,0.613362275999,121204
2210,0.104166964824,0.616063215999,121753
2220,0.100861604389,0.618747699,122304
2230,0.102680499233,0.621376984,122848
2240,0.102348138757,0.623962759,123397
2250,0.103812985927,0.626661946,123937
2260,0.097831567193,0.629516047,124488
2270,0.0986964944448,0.632304515,125033
2280,0.107346501192,0.635041850999,125574
2290,0.101884085097,0.637644963999,126116
2300,0.105726323178,0.640486995999,126659
2310,0.101233638258,0.643100208999,127209
2320,0.0968770149065,0.645678183,127763
2330,0.098168644809,0.648435771,128305
2340,0.100380633578,0.651117058,128850
2350,0.0967829798105,0.653936234999,129396
2360,0.0988144517686,0.656570519999,129942
2370,0.100998346239,0.659257628999,130484
2380,0.100149617653,0.662049979999,131030
2390,0.104459919655,0.664891738001,131577
2400,0.106795783536,0.66779227,132131
2410,0.10118707584,0.670598495,132685
2420,0.102963271231,0.673443133001,133228
2430,0.109931212759,0.676112398001,133779
2440,0.110091227956,0.67870052,134335
2450,0.101823363914,0.681327884,134884
2460,0.101189340061,0.684071905,135437
2470,0.0982254902111,0.686666739,135989
2480,0.100944658035,0.689294344,136542
2490,0.0942616261029,0.692155762999,137089
2500,0.0946928314644,0.695016033,137635
2510,0.102650198634,0.697933350999,138175
2520,0.0990319587429,0.700697604998,138729
2530,0.10172785898,0.703361497997,139280
2540,0.0974859505291,0.706074117998,139819
2550,0.0956146911816,0.708922326998,140369
2560,0.096695847769,0.711878506998,140917
2570,0.0934117354785,0.714670737998,141461
2580,0.088051710239,0.717483462997,142014
2590,0.103127571594,0.720399048998,142557
2600,0.0958869049159,0.723329944998,143100
2610,0.110458621863,0.726137849999,143645
2620,0.113338993107,0.728922125998,144193
2630,0.117067173029,0.731559813998,144738
2640,0.108718437289,0.734260843998,145278
2650,0.107042382962,0.736993577999,145827
2660,0.108041943969,0.739524443999,146376
2670,0.116696726165,0.742096128,146923
2680,0.116267752343,0.744440414001,147479
2690,0.115524474152,0.746876637,148028
2700,0.117329580547,0.749258718,148579
2710,0.118291813289,0.751621457001,149130
2720,0.120209946053,0.754089537,149680
2730,0.117641544372,0.756587768001,150231
2740,0.118433885267,0.759341408,150781
2750,0.115327364883,0.762032475001,151326
2760,0.116463921494,0.764563732999,151878
2770,0.121645564627,0.767082393999,152423
2780,0.120628328541,0.769628742,152966
2790,0.122423379528,0.772284633,153524
2800,0.124812778697,0.774755316001,154077
2810,0.12327891013,0.777135124999,154625
2820,0.12345851632,0.779360785,155165
2830,0.123591891286,0.781733588001,155712
2840,0.124057684523,0.784107319001,156265
2850,0.124629930796,0.786515961001,156810
2860,0.124225171649,0.788920881001,157350
2870,0.12527201398,0.791288363002,157889
2880,0.125397509923,0.793702576,158438
2890,0.125070565534,0.79615004,158988
2900,0.118692926029,0.798622202001,159542
2910,0.112319997734,0.801110688002,160094
2920,0.113964069637,0.803609496003,160643
2930,0.124430753995,0.806091642002,161191
2940,0.123552285044,0.808536548002,161741
2950,0.127793020806,0.811001709002,162289
2960,0.125702612108,0.813520129002,162839
2970,0.124373346926,0.815900477002,163390
2980,0.122574697942,0.818436768002,163939
2990,0.109762444959,0.821034941004,164489
3000,0.112684141124,0.823729745005,165036
