iterations,fitness,time,fevals
0,0.0254859978872,0.00128731900077,545
10,0.0275320686453,0.00248334400021,1008
20,0.0345161896682,0.00368889399942,1453
30,0.0368580270751,0.00486108599944,1901
40,0.0379913950611,0.00604049300091,2349
50,0.0357588269283,0.00721881400023,2793
60,0.0379598800478,0.00840916800007,3254
70,0.0398799392395,0.00957604699943,3725
80,0.0398119307407,0.0107393309991,4186
90,0.0420872359891,0.011920732999,4646
100,0.0399353944564,0.0130513789991,5100
110,0.0447706965206,0.014236645,5540
120,0.0417700005661,0.015380937999,5992
130,0.0411219066614,0.0165435500003,6446
140,0.0414023531362,0.0177145920006,6897
150,0.0432727250157,0.0188868669993,7349
160,0.0465919665034,0.0200861029989,7817
170,0.0459646693844,0.0212433219986,8276
180,0.0459588060173,0.0223800099993,8719
190,0.0515539847749,0.0235187239996,9165
200,0.0441396376625,0.0246978529995,9624
210,0.0493806269065,0.0258384019999,10084
220,0.0471616501225,0.0269610340001,10534
230,0.045740352249,0.0280680779997,10992
240,0.0481975838017,0.0292317010008,11450
250,0.0513064070042,0.0303934020012,11904
260,0.0459546856458,0.0315569300019,12362
270,0.0455384023685,0.0327207150021,12829
280,0.0544666916386,0.0338520020032,13287
290,0.0468035630745,0.0350084670044,13736
300,0.0508790500178,0.0361712800041,14207
310,0.0548331784101,0.0373135800037,14672
320,0.0527196074266,0.0384868130022,15134
330,0.0487153994052,0.0396202780012,15595
340,0.0541356953483,0.0407744270015,16054
350,0.0519071958888,0.0418827400026,16503
360,0.0539270125447,0.0430429230037,16977
370,0.0523537226271,0.0441837040034,17424
380,0.0543911861789,0.0453072210039,17868
390,0.0506776057717,0.046437922003,18335
400,0.0543499702289,0.0475638610023,18782
410,0.0573233280433,0.0487040770022,19238
420,0.0506483879154,0.0498530340028,19701
430,0.0579181305383,0.0509987650039,20162
440,0.0595636960193,0.0520607430026,20606
450,0.0579181305383,0.0531563810018,21073
460,0.0550896575071,0.0541810960021,21531
470,0.0570153912726,0.0552704500024,22005
480,0.0543369097599,0.0563770140034,22453
490,0.0552233948551,0.0574847450025,22911
500,0.0549313774838,0.0585926610038,23362
510,0.0505235373746,0.0596710470036,23819
520,0.0545956852049,0.060760377004,24274
530,0.0576790459331,0.0618751310049,24740
540,0.0526430534567,0.0629652960033,25183
550,0.0524153959319,0.0641638910038,25638
560,0.0494853460125,0.0653459240039,26085
570,0.048338716683,0.0664929930044,26544
580,0.0474301245053,0.0676734100052,27000
590,0.0538137086951,0.0688132570049,27449
600,0.0523795005576,0.0699346490037,27898
610,0.0572561922439,0.0714215630032,28366
620,0.0533997160586,0.0725527810027,28815
630,0.0539073533577,0.0737119300011,29274
640,0.0535196261898,0.0748401170003,29732
650,0.0477084307288,0.0759950180018,30170
660,0.0484376208512,0.0771540900023,30630
670,0.0561538661717,0.0782571160016,31063
680,0.0481838862644,0.0793771880017,31521
690,0.0474046271381,0.0805254880015,31984
700,0.0528976968439,0.0816730490005,32437
710,0.0506925500649,0.082818148001,32885
720,0.0540300180898,0.0839618549999,33343
730,0.054253132576,0.08510269,33800
740,0.0493900611102,0.0862531570001,34260
750,0.0521797027487,0.0873562220004,34715
760,0.0529211452794,0.0885225520015,35175
770,0.050180344041,0.0896683950014,35639
780,0.0518281213438,0.0908001650023,36110
790,0.0507176132933,0.0919337330033,36552
800,0.0542649206341,0.0930866940034,37025
810,0.0534624131769,0.0941918690023,37474
820,0.052379447557,0.095337828001,37932
830,0.0570063987203,0.0964666470009,38373
840,0.0532464478719,0.097588169001,38838
850,0.0525296082395,0.0986663210024,39290
860,0.0564759249528,0.0998448260016,39740
870,0.0576731523999,0.100964539,40190
880,0.0562665285031,0.102074224,40628
890,0.0573564767766,0.103224868,41097
900,0.0560771831437,0.104415787,41544
910,0.0553130461741,0.105558649,41995
920,0.0535040210249,0.106695242999,42454
930,0.0525994643219,0.107841627998,42899
940,0.0510752269104,0.109096755998,43327
950,0.0518813340752,0.110204914998,43779
960,0.0489398086883,0.111355099998,44250
970,0.0527419959143,0.112498698998,44699
980,0.0491893338534,0.113615181999,45149
990,0.0531739025965,0.114711643999,45594
1000,0.0536758182414,0.115829181999,46046
1010,0.0628037695937,0.116925247999,46505
1020,0.0609739307232,0.118006908,46966
1030,0.0640483532733,0.119109713001,47431
1040,0.061272195156,0.120164247001,47892
1050,0.0692197339578,0.121246881001,48352
1060,0.0697280497572,0.122332563,48803
1070,0.0653942389261,0.123429378,49248
1080,0.0634584911953,0.124521121999,49722
1090,0.0742368034954,0.125569099,50166
1100,0.0726677767004,0.126621279001,50622
1110,0.0685040602134,0.127705125002,51072
1120,0.0674131213532,0.128808404002,51531
1130,0.0726149974982,0.129872495003,51991
1140,0.0655659684801,0.130942011003,52444
1150,0.0722427587043,0.132009851002,52913
1160,0.0644870517258,0.133068457002,53362
1170,0.069269900229,0.134125800003,53810
1180,0.0641169552966,0.135191738003,54260
1190,0.0644143660965,0.136233286004,54707
1200,0.0681206154814,0.137327892004,55165
1210,0.0726992596481,0.138402434004,55627
1220,0.0704912329568,0.139425835005,56071
1230,0.0647771150647,0.140515748004,56529
1240,0.0714537750978,0.141621684004,56988
1250,0.0714537750978,0.142680973004,57444
1260,0.0676810247102,0.143738845003,57904
1270,0.0689114891511,0.144842275002,58355
1280,0.0675896628452,0.145952147002,58822
1290,0.063080321489,0.147055944002,59277
1300,0.0747380082033,0.148117905002,59735
1310,0.0720860871993,0.149199955002,60187
1320,0.0684073607224,0.150266196002,60645
1330,0.063293602238,0.151342488001,61107
1340,0.070944829925,0.152424674001,61549
1350,0.0815298260591,0.153467197,62004
1360,0.0689337604394,0.154533213999,62453
1370,0.0714999427925,0.155593719999,62911
1380,0.0630649534197,0.156659713999,63372
1390,0.0696260615953,0.157780141999,63823
1400,0.0645700377345,0.158902724999,64280
1410,0.0605097248098,0.160004849999,64730
1420,0.056925302564,0.161147774998,65198
1430,0.057665970882,0.162259951998,65664
1440,0.066098360601,0.163415344998,66113
1450,0.0651354561284,0.164518997997,66567
1460,0.062076634387,0.165660742998,67020
1470,0.0627063402103,0.166734603998,67477
1480,0.0624462090405,0.167831910998,67945
1490,0.0699457018801,0.168960858999,68404
1500,0.0616672374083,0.170026370997,68858
1510,0.0663191837549,0.171139186996,69336
1520,0.0622250866241,0.172230350996,69794
1530,0.068821183319,0.173281039995,70234
1540,0.067310631924,0.174364181994,70695
1550,0.0642859294314,0.175443703993,71151
1560,0.0650691906555,0.176541275992,71596
1570,0.0658230526669,0.177647779994,72065
1580,0.0620475189759,0.178740074994,72529
1590,0.0635008640014,0.179853044994,72979
1600,0.0606750006371,0.180979925994,73454
1610,0.0653391925394,0.182074525992,73898
1620,0.0585049810149,0.183204337993,74359
1630,0.0552030530928,0.184324526994,74821
1640,0.0555755619239,0.185453947994,75276
1650,0.0582171702209,0.186581826993,75748
1660,0.0571782364017,0.187665865991,76195
1670,0.0557992512793,0.188725105991,76654
1680,0.058562946855,0.18979663499,77122
1690,0.0543386316248,0.19085785799,77570
1700,0.0577694585504,0.191982885988,78025
1710,0.0537186995873,0.193084792989,78468
1720,0.0537186995873,0.194146560989,78920
1730,0.0543131350988,0.195230450989,79361
1740,0.0549313811634,0.196328739989,79826
1750,0.0527582696607,0.197424948989,80268
1760,0.0572758415566,0.198523416988,80728
1770,0.0523038024204,0.199603284987,81181
1780,0.0547563850983,0.200723222988,81642
1790,0.0542818701988,0.201879031987,82111
1800,0.0522712085726,0.202996782988,82561
1810,0.0534165030438,0.204152833987,83005
1820,0.050961296048,0.205266717987,83463
1830,0.0491219438295,0.206391317986,83923
1840,0.0503112277664,0.207531674987,84383
1850,0.0563983895263,0.208678045987,84833
1860,0.0527986234325,0.209771756987,85281
1870,0.0518236538438,0.210909467987,85724
1880,0.0528294969523,0.212004093988,86167
1890,0.0546516791772,0.213176705987,86628
1900,0.0568261582059,0.214365671987,87087
1910,0.0498240819254,0.215574257987,87548
1920,0.0503262213194,0.216718481986,87996
1930,0.0511116842263,0.217883281986,88452
1940,0.0542748704752,0.219062165987,88917
1950,0.0643340749536,0.220164654987,89367
1960,0.0642066062935,0.221246198988,89813
1970,0.059842751366,0.222375994988,90276
1980,0.0555400405665,0.223485152988,90724
1990,0.0632864338959,0.224611440988,91173
2000,0.0582832198777,0.225715225988,91626
2010,0.0716319007019,0.226894096988,92082
2020,0.0699395652544,0.227970603988,92530
2030,0.0652188648722,0.229076717987,93000
2040,0.0641025964958,0.230150112988,93443
2050,0.0681198501628,0.231252727988,93903
2060,0.0679554883209,0.232347900988,94366
2070,0.0656494498255,0.233445852988,94817
2080,0.0642689452788,0.234557569987,95274
2090,0.0674795409526,0.235683912988,95734
2100,0.0605016567366,0.236774364988,96197
2110,0.062485275403,0.237933094988,96654
2120,0.069786048141,0.239038851989,97120
2130,0.0674982345279,0.240119680988,97572
2140,0.0608828767638,0.241225662989,98035
2150,0.0633473899899,0.242330359988,98480
2160,0.0669169411776,0.243493809987,98934
2170,0.0674891749639,0.244556342986,99384
2180,0.0748246249563,0.245612192986,99840
2190,0.0749950334095,0.246691168986,100270
2200,0.0686729564642,0.247723651986,100714
2210,0.0679284458598,0.248803224988,101166
2220,0.0662159479835,0.249967848988,101620
2230,0.063896538079,0.251071566987,102067
2240,0.0665634445955,0.252128003985,102517
2250,0.0666783772194,0.253197192986,102977
2260,0.0680908708558,0.254243098985,103422
2270,0.0742989844025,0.255338610987,103877
2280,0.0637358514122,0.256405467986,104333
2290,0.0715995565645,0.257498485986,104792
2300,0.0642575612267,0.258608409986,105235
2310,0.059435420282,0.259731290986,105691
2320,0.0598485049792,0.260840497986,106135
2330,0.06728664747,0.261977482985,106584
2340,0.0639394103082,0.263077871985,107039
2350,0.0615356181247,0.264206557986,107502
2360,0.0695141176976,0.265281126985,107956
2370,0.0701152587949,0.266323985987,108411
2380,0.073482595427,0.270841729985,108866
2390,0.073482595427,0.271925616986,109336
2400,0.0746011766945,0.273240530987,109775
2410,0.0666869334327,0.274317855989,110231
2420,0.0657046786603,0.275410638989,110689
2430,0.0640311355994,0.276472311991,111130
2440,0.0626535200023,0.277592342991,111596
2450,0.0650133325619,0.27870057399,112059
2460,0.0738449000003,0.279770473991,112530
2470,0.0698035952051,0.280856503992,112980
2480,0.0735403487614,0.281923142991,113433
2490,0.0714622008317,0.282966869991,113883
2500,0.0714622008317,0.28400133899,114332
2510,0.0782459041114,0.285018272991,114789
2520,0.0712989510596,0.28603130599,115236
2530,0.0712989510596,0.287047865992,115693
2540,0.078242046581,0.28809240699,116163
2550,0.0727902811974,0.289130977992,116612
2560,0.0661275921172,0.290170285991,117059
2570,0.0698970006964,0.291228123991,117512
2580,0.0690157154725,0.292252771993,117958
2590,0.0672794555983,0.293288042994,118410
2600,0.0665850196379,0.294382163995,118866
2610,0.0601883538174,0.295488313996,119327
2620,0.0677723185304,0.296553351995,119797
2630,0.0591282771539,0.297639984994,120259
2640,0.0585814285744,0.298735239994,120704
2650,0.0679821401779,0.299834291995,121165
2660,0.0679821401779,0.300923529994,121617
2670,0.054722805305,0.302046062994,122071
2680,0.0590601613374,0.303165964993,122524
2690,0.0578669778095,0.304279919994,122983
2700,0.0562276310485,0.305321349995,123437
2710,0.0572695818848,0.306377346997,123894
2720,0.057536161188,0.307462352996,124345
2730,0.0589600655025,0.308562863995,124792
2740,0.0572162633236,0.309699935995,125251
2750,0.0538700598721,0.310808840995,125693
2760,0.0581813939277,0.311931236996,126153
2770,0.0601538946237,0.313023036995,126601
2780,0.0575134638427,0.314131515996,127059
2790,0.058095070019,0.315263957997,127524
2800,0.0574424386661,0.316405953996,127986
2810,0.06541136662,0.317500955995,128443
2820,0.0714265123282,0.318583135993,128903
2830,0.0677443024686,0.319660927993,129359
2840,0.0658018430399,0.320709461992,129798
2850,0.0732217653195,0.321780364993,130255
2860,0.0630185709261,0.322893848992,130699
2870,0.0613901233472,0.323975766993,131146
2880,0.0606033641968,0.325083585993,131598
2890,0.0623519436772,0.326187971992,132057
2900,0.0557115037048,0.327292045993,132524
2910,0.0593389473851,0.328384809993,132969
2920,0.0564718923634,0.329486557994,133417
2930,0.0485313550534,0.330643132993,133874
2940,0.0615935751057,0.331774366992,134330
2950,0.0614975171503,0.332930827992,134798
2960,0.0581268811291,0.333997949992,135261
2970,0.0580371566963,0.335111137992,135710
2980,0.0576730887302,0.336242919991,136165
2990,0.0601110034878,0.337359410993,136630
3000,0.0622042430081,0.338476213992,137093
