num,var
2,0.84029511183
5,4.53551788981
10,27.4629675724
15,94.6089565087
20,176.27216157
25,167.672993338
30,158.991988166
35,156.237723771
40,179.010752833
45,153.853530215
50,139.878825268
55,130.959212679
60,127.274124334
