,x,y,target
0,-34.9827308655,-2.11179924011,0.0
1,28.2122898102,2.10985136032,1.0
2,4.37224054337,20.8119831085,2.0
3,-6.46707820892,-26.065820694,3.0
4,37.611038208,29.2663841248,4.0
5,-24.9405536652,-4.9898686409,5.0
6,-4.01500797272,17.8830986023,6.0
7,40.8082008362,-23.1716098785,7.0
8,7.10905170441,-10.5067119598,8.0
9,-25.8654079437,-7.21392154694,9.0
10,-35.9939002991,-4.61216688156,0.0
11,35.9200363159,-1.0134408474,1.0
12,1.34404039383,42.6571083069,2.0
13,1.91969764233,-34.6071510315,3.0
14,47.1159744263,32.9513626099,4.0
15,-16.9975700378,-41.3751296997,5.0
16,-7.09297180176,13.4805736542,6.0
17,32.5128211975,-34.6382789612,7.0
18,16.2534294128,-11.7311229706,8.0
19,-15.8369140625,-20.3225288391,9.0
20,-32.5077285767,13.2453622818,0.0
21,34.5157585144,3.21460390091,1.0
22,0.4189658463,40.9407920837,2.0
23,7.2830619812,-35.5014381409,3.0
24,44.0518112183,18.0826034546,4.0
25,-14.8755350113,31.0505065918,5.0
26,-4.32123994827,19.2210216522,6.0
27,38.9825592041,-36.8497810364,7.0
28,7.60616588593,-10.4143352509,8.0
29,-15.6240606308,-20.3015098572,9.0
30,-39.8892097473,-4.96856451035,0.0
31,-16.2214126587,-20.326997757,9.0
32,-18.0334606171,-37.4137802124,5.0
33,-7.7786822319,-46.809589386,5.0
34,-2.17917847633,9.96455192566,6.0
35,-7.77499437332,-46.7860717773,5.0
36,-26.8262939453,5.33699417114,0.0
37,-2.52566456795,-17.2112598419,9.0
38,17.8702793121,-13.1448297501,8.0
39,-29.8225212097,-26.7805194855,9.0
40,14.9368886948,-12.7844724655,8.0
41,48.1930732727,24.6138381958,4.0
42,34.3204116821,-1.5153273344,1.0
43,34.6732139587,-33.2626609802,7.0
44,39.6332511902,-22.8097934723,7.0
45,-1.1497849226,-38.6472091675,3.0
46,-24.191493988,-3.11084890366,5.0
47,31.8336830139,2.42689824104,1.0
48,-36.3585777283,1.66281282902,0.0
49,-39.8867988586,11.2717523575,0.0
50,4.77573537827,21.9988708496,2.0
51,6.46520996094,20.00481987,2.0
52,37.3680686951,-37.2646179199,7.0
53,14.9710845947,-9.08692550659,8.0
54,6.5880651474,21.2852840424,2.0
55,-29.9976139069,11.8263664246,0.0
56,33.4719047546,0.531275689602,1.0
57,4.35714769363,21.0133304596,2.0
58,-5.84603404999,19.2770137787,6.0
59,-2.48198199272,-33.8075447083,3.0
60,-0.317463070154,-38.0917778015,3.0
61,33.378868103,-35.1024627686,7.0
62,-0.0293170623481,-38.0819511414,3.0
63,1.5556396246,-39.7921905518,3.0
64,46.5192604065,22.2097969055,4.0
65,-5.08401155472,12.6671419144,6.0
66,-15.0797843933,22.7004356384,6.0
67,-11.2809791565,20.1304473877,6.0
68,43.5146064758,32.2763061523,4.0
69,24.6411800385,-1.64159297943,9.0
70,30.2742366791,3.73225450516,1.0
71,-20.9294185638,36.0013885498,5.0
72,-32.3806648254,11.848572731,0.0
73,-16.5778026581,-18.0691814423,9.0
74,-26.2864646912,-5.00956010818,5.0
75,6.61797189713,19.5501251221,2.0
76,9.95485687256,-2.95744419098,8.0
77,6.97689008713,18.8687381744,2.0
78,-42.7254333496,12.4594802856,0.0
79,-39.5082855225,7.53682756424,0.0
80,33.0525856018,0.800628662109,1.0
81,38.9525642395,-26.5791969299,7.0
82,-3.82735037804,19.0582771301,6.0
83,1.31491827965,-41.3321838379,3.0
84,3.53022193909,38.2904472351,2.0
85,32.9673690796,-1.1436971426,1.0
86,34.5310516357,-36.2701072693,7.0
87,17.337310791,-26.0086784363,4.0
88,-4.13937330246,17.034614563,6.0
89,-0.0768327564001,-37.3495903015,3.0
90,34.1364212036,-1.5809533596,1.0
91,3.10545969009,-38.1296424866,3.0
92,-31.5066432953,-26.6148872375,9.0
93,28.3819389343,2.14799404144,1.0
94,30.4956607819,-32.6909332275,7.0
95,6.13593482971,3.37272715569,6.0
96,20.6840381622,-8.14734458923,8.0
97,44.5415344238,20.7786254883,4.0
98,1.79014050961,-38.9378433228,3.0
99,19.9339637756,3.96934342384,1.0
100,44.5087013245,20.7876110077,4.0
101,-37.824836731,13.8679046631,0.0
102,4.40975284576,12.0935602188,5.0
103,3.35151267052,-40.0653038025,3.0
104,5.2960190773,2.60022187233,6.0
105,-20.0766201019,-21.5054569244,9.0
106,-2.51586318016,20.6606578827,6.0
107,37.0476303101,-2.23649573326,1.0
108,34.268032074,-33.8625679016,7.0
109,-15.8964090347,30.1899299622,5.0
110,40.0357589722,17.6794509888,4.0
111,44.4334945679,31.7609825134,4.0
112,36.2048149109,-28.9783725739,7.0
113,-8.77632713318,36.794342041,2.0
114,8.43203258514,-0.947995185852,8.0
115,5.86221313477,22.0433540344,2.0
116,5.1033821106,22.3158893585,2.0
117,-19.9545383453,33.310749054,5.0
118,30.0968666077,-27.2803573608,7.0
119,-20.8969535828,-21.8441390991,9.0
120,-27.0761222839,-4.67198324203,5.0
121,51.1599006653,26.3705635071,4.0
122,16.5197181702,-10.5735683441,8.0
123,6.17606401443,-0.303868323565,8.0
124,48.2478637695,24.9972267151,4.0
125,-19.3982105255,-17.3081912994,9.0
126,-31.5075683594,12.1222858429,0.0
127,17.3758087158,-12.4590740204,8.0
128,-16.7959671021,-29.3711357117,9.0
129,19.5064735413,-7.69439125061,8.0
130,-36.0666313171,14.17491436,0.0
131,38.355266571,3.47169017792,1.0
132,0.625108957291,31.4135932922,2.0
133,1.37440598011,-40.2256317139,3.0
134,50.0347137451,25.5793094635,4.0
135,-19.327501297,31.3210067749,5.0
136,-8.70051193237,17.5768890381,6.0
137,28.7380905151,-28.8747196198,7.0
138,8.96406555176,-12.9868497849,8.0
139,-19.1963748932,-18.9063282013,9.0
140,-28.0097675323,9.23167514801,0.0
141,37.65417099,-1.76428604126,1.0
142,-2.3566672802,28.8998718262,2.0
143,-1.85850715637,-41.6396713257,3.0
144,45.4688491821,13.1067266464,4.0
145,-8.8781785965,-40.1400604248,5.0
146,-6.46339845657,8.67033004761,6.0
147,28.5156726837,-28.9014396667,7.0
148,3.29372000694,-10.2813138962,8.0
149,-16.3059539795,-17.5553417206,9.0
150,-35.9595489502,11.3459253311,0.0
151,38.6037139893,-1.38214373589,1.0
152,1.86169326305,34.25522995,2.0
153,5.79943990707,-45.1790618896,3.0
154,46.6870880127,13.9007368088,4.0
155,-23.4106197357,30.4247379303,5.0
156,-4.33017539978,16.59466362,6.0
157,33.9488296509,-22.9084606171,7.0
158,13.9540557861,-6.88329553604,8.0
159,-18.9912853241,-18.4558925629,9.0
160,-30.8238277435,6.01448583603,0.0
161,-18.1574764252,-18.923084259,9.0
162,-4.9193277359,-43.7244644165,5.0
163,-38.5259971619,-38.1184387207,5.0
164,-14.359826088,15.427025795,6.0
165,-18.5058803558,30.6068134308,5.0
166,-29.6242866516,4.26398134232,0.0
167,-21.2467632294,-24.2849464417,9.0
168,9.35243797302,-11.8795442581,8.0
169,-19.4316482544,-19.7248897552,9.0
170,19.1593170166,-4.70215320587,8.0
171,54.7553939819,11.4198923111,4.0
172,38.1942596436,2.35715007782,1.0
173,39.3392105103,-34.7717857361,7.0
174,30.1387805939,-37.2086715698,7.0
175,3.71933484077,-32.8415603638,3.0
176,-5.0896692276,-43.6963691711,5.0
177,37.7460708618,-0.425882518291,1.0
178,-42.2642555237,3.27584886551,0.0
179,-30.6135883331,10.4898490906,0.0
180,8.20829963684,35.6074028015,2.0
181,2.8383898735,31.5610904694,2.0
182,32.2901153564,-27.8885154724,7.0
183,10.1177167892,-9.65049362183,8.0
184,4.00086164474,33.4991455078,2.0
185,-29.5294914246,11.8423576355,0.0
186,34.1004981995,4.39443922043,1.0
187,8.83696269989,35.5802993774,2.0
188,-11.1916255951,17.6308364868,6.0
189,-1.21710026264,-41.0361289978,3.0
190,2.30377674103,-42.3933944702,3.0
191,37.3407554626,-20.8676052094,7.0
192,6.58436393738,-34.9695930481,3.0
193,-0.231961369514,-40.2341079712,3.0
194,51.9381790161,11.0544967651,4.0
195,-3.17604470253,11.6281547546,6.0
196,-11.0756483078,17.9596691132,6.0
197,-14.0545778275,13.7262706757,6.0
198,54.8522529602,9.4061870575,4.0
199,-19.1685028076,-15.6435632706,9.0
200,35.6935997009,-2.8122677803,1.0
201,-20.9265518188,30.2432384491,5.0
202,-38.1307945251,11.8194961548,0.0
203,-13.7029075623,-16.5655860901,9.0
204,-23.4881515503,30.5710792542,5.0
205,4.21823835373,28.5225410461,2.0
206,19.1432132721,-4.7895989418,8.0
207,3.44574213028,29.8570728302,2.0
208,-28.5943908691,11.0205125809,0.0
209,-38.5511322021,14.3320417404,0.0
210,38.1333732605,1.01383149624,1.0
211,37.8069038391,-16.0524749756,7.0
212,-10.92507267,20.1312522888,6.0
213,1.61886143684,-42.2930183411,3.0
214,1.51681900024,30.3947162628,2.0
215,36.405620575,-4.77419614792,1.0
216,30.0530376434,-26.156993866,7.0
217,3.75540018082,-42.881275177,3.0
218,38.3588142395,-1.16844201088,1.0
219,2.67308497429,-42.4446487427,3.0
220,-21.8163490295,-12.9312047958,9.0
221,36.197479248,0.830921590328,1.0
222,40.805770874,-32.4527664185,7.0
223,-4.7087430954,15.4142189026,6.0
224,10.9431476593,-9.12021064758,8.0
225,46.7767181396,12.2547702789,4.0
226,1.41984069347,-43.0726013184,3.0
227,35.6934127808,-1.51854157448,1.0
228,46.7382965088,12.3146266937,4.0
229,-39.0971794128,6.46179056168,0.0
230,-5.46331167221,-46.693775177,5.0
231,7.56563711166,-35.6610717773,3.0
232,-8.50831508636,6.30148983002,6.0
233,-17.6591205597,-17.9143562317,9.0
234,-14.5719585419,9.48270702362,6.0
235,37.5657157898,0.58722692728,1.0
236,36.9035835266,-24.4835205078,7.0
237,-16.8547916412,30.5086250305,5.0
238,54.7897796631,9.42990016937,4.0
239,48.4185371399,11.9023160934,4.0
240,32.362033844,-27.6425590515,7.0
241,3.9549665451,33.4922218323,2.0
242,9.35251331329,-7.93528652191,8.0
243,6.55707931519,38.5011558533,2.0
244,2.37157511711,29.2893390656,2.0
245,-21.179649353,32.0251426697,5.0
246,-5.27083158493,-47.2497787476,5.0
247,48.5297584534,10.6700458527,4.0
248,9.69439220428,-6.55397367477,8.0
249,10.0696935654,-9.65868377686,8.0
250,45.6817245483,13.0620164871,4.0
251,-25.6986026764,-8.92420291901,9.0
252,-36.1710777283,12.758392334,0.0
253,11.8562030792,-5.56288099289,8.0
254,-26.3857040405,-12.1843776703,9.0
255,8.25263118744,-5.81637907028,8.0
256,-36.4418869019,-5.17175960541,0.0
257,15.5392723083,0.894740521908,1.0
258,-1.45922768116,35.7887420654,2.0
259,-6.94860315323,-25.2068195343,3.0
260,44.9504547119,31.6685180664,4.0
261,-25.362455368,-36.1658477783,5.0
262,-13.8822317123,10.717250824,6.0
263,-38.4045715332,27.2814846039,7.0
264,-2.91773867607,-11.2984809875,8.0
265,24.4090595245,15.177977562,9.0
266,-37.0948905945,6.21991491318,0.0
267,33.9567718506,-3.9797770977,1.0
268,-2.51692867279,36.4200172424,2.0
269,-2.49224472046,-22.1637992859,3.0
270,48.7557029724,28.2731742859,4.0
271,19.2886123657,28.6482162476,5.0
272,-12.5231151581,12.4275436401,6.0
273,37.6254501343,-26.9844665527,7.0
274,23.6695899963,-10.7393188477,8.0
275,24.6282482147,16.9307117462,9.0
276,-35.4223403931,-0.134394064546,0.0
277,32.3762664795,-3.38153839111,1.0
278,-4.77269363403,35.8678245544,2.0
279,-9.93778038025,-26.7939224243,3.0
280,46.6987457275,28.6446762085,4.0
281,-22.4848518372,-38.3537979126,5.0
282,-13.8980474472,15.7405033112,6.0
283,-38.3396949768,29.4651889801,7.0
284,25.6473350525,-10.9854621887,8.0
285,-29.1600074768,-22.2828369141,9.0
286,-37.0252342224,-5.76261091232,0.0
287,-22.6847076416,-23.8705253601,9.0
288,-24.3267688751,-36.8901290894,5.0
289,-14.3308553696,-24.9442176819,5.0
290,-9.55772399902,11.1883068085,6.0
291,-50.7499008179,7.59723758698,5.0
292,-37.7984466553,-5.04204654694,0.0
293,-19.0061683655,-12.5837697983,9.0
294,5.60928869247,-14.8685531616,8.0
295,-27.6910839081,-17.5480442047,9.0
296,5.39147853851,-9.72428321838,8.0
297,45.366519928,25.8850536346,4.0
298,9.45634746552,2.7721092701,1.0
299,33.9219360352,-25.8723831177,7.0
300,30.3931331635,-38.4635124207,7.0
301,-2.04394960403,-21.9264621735,3.0
302,-15.4700584412,-37.967956543,5.0
303,7.77216386795,7.3145813942,1.0
304,-36.034992218,2.27859067917,0.0
305,-36.1282691956,0.790034472942,0.0
306,-4.60320425034,34.4573059082,2.0
307,0.916303515434,29.4694747925,2.0
308,40.8467407227,-33.3157119751,7.0
309,-3.70089006424,-12.9526453018,8.0
310,-1.21352446079,36.481086731,2.0
311,-37.0518455505,-1.37254524231,0.0
312,36.3251571655,-4.61448478699,1.0
313,-3.08605575562,36.0883140564,2.0
314,-17.0549583435,7.48510789871,6.0
315,-1.26934480667,-26.6559810638,3.0
316,-1.67494249344,-22.9011077881,3.0
317,-38.6641540527,30.2203998566,7.0
318,1.55705988407,-25.1201686859,3.0
319,0.862074196339,-26.2504615784,3.0
320,48.2058067322,28.6159610748,4.0
321,-13.9389476776,18.0765705109,6.0
322,-13.4902973175,18.0089302063,6.0
323,-16.880651474,18.2221488953,6.0
324,54.3167419434,23.055639267,4.0
325,23.1389808655,13.9783620834,9.0
326,14.2886066437,4.19166517258,1.0
327,-51.3154563904,-12.6234378815,5.0
328,-32.8599739075,1.15147185326,0.0
329,24.4858779907,16.2265548706,9.0
330,-23.9513206482,-36.9373092651,5.0
331,-0.0937863886356,37.1030731201,2.0
332,3.13087463379,-10.3915262222,8.0
333,-4.59081459045,35.186958313,2.0
334,-35.4901542664,-4.04488801956,0.0
335,-33.4293556213,-2.33955979347,0.0
336,33.1235237122,-4.15748167038,1.0
337,26.441280365,-32.0412750244,7.0
338,-3.94286131859,11.541434288,6.0
339,-2.31620144844,-21.9303417206,3.0
340,0.653981804848,29.3981227875,2.0
341,33.3268470764,-4.94377279282,1.0
342,27.0095291138,-31.138463974,7.0
343,48.4966506958,27.9583015442,4.0
344,-14.8785600662,10.2731714249,6.0
345,3.79476237297,-32.0279541016,3.0
346,12.4497718811,3.83592200279,1.0
347,-2.01860594749,-28.020149231,3.0
348,23.2632961273,15.5527191162,9.0
349,11.9902629852,6.25672054291,1.0
350,28.3784332275,-28.1253662109,7.0
351,-8.88433837891,10.6519708633,6.0
352,8.84170341492,-14.6212472916,8.0
353,42.4590263367,27.2107391357,4.0
354,-2.26299381256,-28.504360199,3.0
355,17.8307819366,6.80386161804,1.0
356,45.7801208496,37.9993972778,4.0
357,-36.6686134338,7.42192077637,0.0
358,-22.8650245667,-30.7747497559,5.0
359,-8.42300796509,-27.8965702057,3.0
360,-13.2650575638,12.5898914337,6.0
361,22.7428016663,13.8770971298,9.0
362,-13.7583312988,18.7407588959,6.0
363,18.6799621582,2.12146854401,1.0
364,33.0964012146,-22.334192276,7.0
365,-17.8505420685,-40.8994178772,5.0
366,37.0223770142,23.4117069244,4.0
367,46.7594261169,26.1102676392,4.0
368,27.5816707611,-31.1018810272,7.0
369,-1.49373042583,35.8011398315,2.0
370,4.68102693558,-10.5256462097,8.0
371,-5.1938700676,35.5548744202,2.0
372,4.59196853638,37.634098053,2.0
373,-13.9935522079,-24.9407291412,5.0
374,32.2296257019,-36.619934082,7.0
375,33.0342330933,16.076997757,9.0
376,-10.4218358994,-42.878528595,5.0
377,47.288860321,28.3368988037,4.0
378,-5.89071893692,-15.8721103668,8.0
379,11.789311409,-21.1590633392,8.0
380,48.9515571594,26.1501312256,4.0
381,31.7545375824,15.9165496826,9.0
382,-36.122959137,4.83279705048,0.0
383,24.1423015594,-10.9170064926,8.0
384,23.9086265564,14.9343938828,9.0
385,-2.91805052757,-33.1056060791,3.0
386,-41.6842460632,12.8474159241,0.0
387,36.1622314453,7.43750715256,1.0
388,1.20171129704,41.9117202759,2.0
389,7.98666906357,-22.4146442413,3.0
390,52.9846725464,10.4259605408,4.0
391,-20.1713638306,-47.5792503357,5.0
392,-7.13726711273,5.83017396927,6.0
393,-33.4309005737,33.5898551941,7.0
394,-1.3719650507,-8.08685874939,8.0
395,-16.8203868866,-29.7944126129,9.0
396,-38.3162193298,6.23213100433,0.0
397,32.0269584656,5.85263299942,1.0
398,2.6207485199,47.3747406006,2.0
399,-5.03512954712,-24.2933540344,3.0
400,52.9258651733,14.9613647461,4.0
401,-17.600320816,-44.9550018311,5.0
402,-5.00736141205,2.68594169617,6.0
403,-36.3743896484,31.5027389526,7.0
404,9.81680011749,-13.4620304108,8.0
405,-23.378993988,-22.1516723633,9.0
406,-36.5339164734,12.5130052567,0.0
407,33.2329559326,4.05963850021,1.0
408,5.31144332886,41.1409225464,2.0
409,-7.54391670227,-19.6756649017,3.0
410,52.1084709167,13.430305481,4.0
411,-18.776550293,-45.0019645691,5.0
412,-5.56867599487,5.57057094574,6.0
413,-37.4561576843,30.9488277435,7.0
414,1.41381180286,-2.29887652397,8.0
415,-23.3115139008,-22.2033462524,9.0
416,-25.8810710907,3.47497868538,0.0
417,-27.1021232605,-9.65799045563,9.0
418,-20.3409423828,-47.6347885132,5.0
419,-17.8710250854,-43.2939872742,5.0
420,-4.51451969147,3.16474699974,6.0
421,-20.7317428589,-48.7700996399,5.0
422,-40.6672592163,7.81406068802,0.0
423,-27.8412704468,-9.50793266296,9.0
424,1.47546875477,-7.35466241837,8.0
425,-27.7229061127,-15.3557271957,9.0
426,0.0247812215239,-9.7627286911,8.0
427,46.2051963806,15.1481513977,4.0
428,33.4444732666,2.68901467323,1.0
429,-33.7991981506,33.3546295166,7.0
430,10.9337778091,15.7982225418,7.0
431,-14.9103956223,-30.2771625519,3.0
432,-18.1617450714,-46.4237518311,5.0
433,31.9501457214,6.00214004517,1.0
434,-39.0525093079,7.59819507599,0.0
435,-38.0854187012,11.1317720413,0.0
436,1.62502086163,48.1925125122,2.0
437,2.20692276955,36.0212211609,2.0
438,-33.5098266602,33.5403556824,7.0
439,-4.26176023483,-8.01324748993,8.0
440,2.73879218102,41.8509635925,2.0
441,-39.9675750732,6.57778263092,0.0
442,-12.0542469025,58.4892425537,1.0
443,3.73179864883,45.814781189,2.0
444,-8.1600112915,5.2824754715,6.0
445,-15.2412252426,-30.2153282166,3.0
446,-7.7090344429,-21.2842350006,3.0
447,-38.4023017883,31.0189189911,7.0
448,-8.17006874084,-23.300579071,3.0
449,-7.42038488388,-23.3290042877,3.0
450,52.7021865845,13.8030424118,4.0
451,-5.33993148804,5.07958078384,6.0
452,-6.84758281708,3.52335715294,6.0
453,-5.19542360306,4.9730682373,6.0
454,51.8221969604,11.8980798721,4.0
455,-27.0173931122,-14.9383916855,9.0
456,34.8462333679,3.87517523766,1.0
457,-21.3614387512,-33.5414199829,5.0
458,-26.2718048096,4.37479543686,0.0
459,-27.9617881775,-9.60715961456,9.0
460,-19.1499290466,-44.8000717163,5.0
461,3.51227903366,42.6578903198,2.0
462,-0.47948256135,-8.94942378998,8.0
463,1.53335106373,35.7612953186,2.0
464,-39.5508422852,2.52398657799,0.0
465,-39.3563995361,14.9221611023,0.0
466,31.8071632385,5.38577222824,1.0
467,-35.7290992737,32.244468689,7.0
468,-2.83363389969,12.584815979,6.0
469,-7.57188463211,-21.4320049286,3.0
470,9.53205966949,39.0816345215,2.0
471,35.5742454529,0.447437018156,1.0
472,11.6996183395,15.5211582184,7.0
473,44.0265655518,16.9598731995,4.0
474,-4.89986515045,6.79933166504,6.0
475,-6.34451818466,-25.9177837372,3.0
476,34.0189323425,2.17837882042,1.0
477,-2.35863494873,-17.7852077484,3.0
478,-28.7723655701,-14.9374170303,9.0
479,33.661529541,5.28356027603,1.0
480,25.0985794067,13.1824560165,7.0
481,-4.02814006805,3.44202709198,6.0
482,-8.3672246933,-11.5912294388,8.0
483,53.3971710205,13.5857973099,4.0
484,-2.64486432076,-25.4610996246,3.0
485,32.5856895447,5.29021263123,1.0
486,50.4699325562,12.6693763733,4.0
487,-41.34349823,14.2810821533,0.0
488,-13.0161018372,-33.9017524719,5.0
489,-6.40939855576,-23.0459537506,3.0
490,-5.99944353104,7.58169746399,6.0
491,-28.1116027832,-9.34915351868,9.0
492,21.6830825806,-2.64056777954,6.0
493,33.5184059143,4.63542509079,1.0
494,-37.9131965637,30.758228302,7.0
495,-15.7303819656,-45.4108657837,5.0
496,45.3509216309,16.413602829,4.0
497,51.7203559875,12.6304626465,4.0
498,-36.098941803,31.6632881165,7.0
499,0.797614097595,35.7041282654,2.0
500,-5.55560874939,-5.49736261368,8.0
501,4.63887882233,41.8114624023,2.0
502,13.4355278015,3.6393661499,2.0
503,17.6741142273,23.9199428558,5.0
504,11.6898488998,15.5331449509,7.0
505,-29.1675682068,-15.0645399094,9.0
506,-18.1722164154,-46.4931182861,5.0
507,44.3064231873,17.0379066467,4.0
508,7.87601613998,-13.0216655731,8.0
509,2.73590922356,-8.48081016541,8.0
510,53.1050338745,10.2488126755,4.0
511,-35.8332176208,-9.00503730774,9.0
512,-34.4479904175,3.39687228203,0.0
513,3.91175127029,-7.28084611893,8.0
514,-28.2586669922,-14.6798934937,9.0
515,0.443859875202,-9.62682342529,8.0
516,-29.4096984863,4.19738435745,0.0
517,-8.69448757172,55.0008201599,1.0
518,-6.39037799835,48.2227363586,2.0
519,-10.3862104416,-6.4115395546,3.0
520,56.0710487366,22.1068878174,4.0
521,-21.316652298,-1.57145512104,5.0
522,-2.29105186462,13.5112047195,6.0
523,37.7860069275,-16.0140666962,7.0
524,-43.359588623,-31.6120223999,8.0
525,-37.5196342468,-15.9799509048,9.0
526,-37.5608596802,-0.161441981792,0.0
527,-11.1455316544,56.8688316345,1.0
528,5.8172712326,44.5448760986,2.0
529,-8.67796039581,-7.6720867157,3.0
530,55.2797431946,24.6770477295,4.0
531,-29.0004310608,-34.3446426392,5.0
532,-10.9452409744,3.80684733391,6.0
533,41.1999778748,-26.8860740662,7.0
534,-36.7072753906,-47.6883506775,8.0
535,-37.301574707,-14.6560907364,9.0
536,-31.5866394043,3.78749775887,0.0
537,-14.5514087677,52.187587738,1.0
538,2.70972323418,49.4646682739,2.0
539,0.28321814537,0.0535587333143,3.0
540,55.3439178467,16.7566757202,4.0
541,-22.3453388214,-34.2078056335,5.0
542,-1.70116555691,14.362370491,6.0
543,40.3139686584,-34.4931793213,7.0
544,-36.5756721497,-48.7428092957,8.0
545,-37.1789283752,-18.0189590454,9.0
546,-31.2818870544,3.96933317184,0.0
547,5.33217573166,-19.3260860443,9.0
548,-18.7004890442,-37.0010566711,5.0
549,-24.2308712006,-33.3322639465,5.0
550,-7.92954397202,0.594621837139,6.0
551,-23.0944900513,-33.8909606934,5.0
552,-41.2981796265,5.06003713608,0.0
553,-18.5415439606,-28.2229747772,9.0
554,-44.1386756897,-31.7565956116,8.0
555,-38.122467041,-17.6341915131,9.0
556,-36.3131942749,-49.103061676,8.0
557,52.4836959839,20.4626808167,4.0
558,-16.3526477814,51.7963027954,1.0
559,35.2324562073,-29.3236560822,7.0
560,42.8225364685,-26.2756099701,7.0
561,-9.92197799683,-6.68679523468,3.0
562,-22.1935329437,-35.2283172607,5.0
563,-16.6380558014,50.5491485596,1.0
564,-28.1284770966,-0.25724413991,0.0
565,-43.7318916321,3.74726986885,0.0
566,12.802230835,55.305683136,2.0
567,-3.69247984886,56.1190185547,2.0
568,43.496837616,-21.6993179321,7.0
569,-37.2507972717,-49.6051673889,8.0
570,-3.79313325882,48.3673210144,2.0
571,-29.5836524963,-1.76187610626,0.0
572,-12.0989685059,54.4798278809,1.0
573,-3.6227645874,56.1455345154,2.0
574,-6.41391563416,-0.47263905406,6.0
575,-22.6153678894,13.8852157593,3.0
576,7.61830329895,-29.4300270081,3.0
577,42.2194442749,-36.3447952271,7.0
578,-10.0230197906,-5.20970106125,3.0
579,-9.03748130798,-6.66095876694,3.0
580,51.9739646912,23.0569133759,4.0
581,-8.87840461731,0.590417921543,6.0
582,-1.52753484249,13.6000642776,6.0
583,-12.5695858002,3.82770037651,6.0
584,55.4962463379,23.2591190338,4.0
585,21.0319671631,43.7627372742,9.0
586,-16.95753479,51.6624794006,1.0
587,-22.5090579987,-36.8286514282,5.0
588,-28.4577331543,2.83417439461,0.0
589,-33.3699531555,-16.0905056,9.0
590,-30.1579284668,-33.8675079346,5.0
591,-2.35760474205,52.1780204773,2.0
592,-35.5267944336,-50.4526748657,8.0
593,-2.05954432487,37.0063858032,2.0
594,-43.8296813965,10.3517427444,0.0
595,-44.8980560303,-2.39777112007,0.0
596,-16.6579666138,50.3359985352,1.0
597,42.3587913513,-25.148443222,7.0
598,-8.91069412231,0.582900226116,6.0
599,-22.630695343,13.9093790054,3.0
600,-6.07798099518,57.3165893555,2.0
601,-16.0974884033,50.8908805847,1.0
602,41.5233268738,-25.6307220459,7.0
603,56.5641517639,21.1745452881,4.0
604,-6.05214262009,-0.305980741978,6.0
605,-8.68908882141,-5.49368906021,3.0
606,-14.729631424,51.7911376953,1.0
607,-8.26439380646,-6.59798574448,3.0
608,-38.4773521423,-17.1802444458,9.0
609,-17.487241745,50.6365699768,1.0
610,31.9316635132,-29.5185222626,7.0
611,-1.98876225948,13.6869945526,6.0
612,-36.067401886,-48.8961601257,8.0
613,54.7617721558,19.985200882,4.0
614,-9.48375034332,-7.30711936951,3.0
615,9.01350402832,0.93579095602,1.0
616,55.6254806519,20.13438797,4.0
617,-44.4161872864,-3.05700016022,0.0
618,-26.7349720001,-33.9073066711,5.0
619,-10.0153741837,-7.67129659653,3.0
620,-2.56002426147,14.7545461655,6.0
621,-38.088722229,-17.4958820343,9.0
622,-6.84976482391,-0.371696084738,6.0
623,-7.24974918365,55.1347045898,1.0
624,39.4004974365,-27.9941692352,7.0
625,-21.9092273712,-36.9379386902,5.0
626,57.6953659058,17.4830875397,4.0
627,42.8696060181,28.2592029572,4.0
628,44.9969329834,-22.7698154449,7.0
629,-5.44218158722,55.3364219666,2.0
630,-45.1032829285,-31.0218696594,8.0
631,-1.41867864132,37.8216667175,2.0
632,-5.43135595322,54.4825897217,2.0
633,-15.5262804031,-36.1003074646,5.0
634,41.4230194092,-26.96043396,7.0
635,-22.6047477722,-16.2488689423,9.0
636,-29.9944133759,-33.8348884583,5.0
637,56.7019081116,21.4699420929,4.0
638,-43.7528495789,-31.0384883881,8.0
639,-35.2773590088,-48.9863510132,8.0
640,56.9699897766,22.9203338623,4.0
641,-22.4975471497,-19.1471939087,9.0
642,-34.4278831482,2.44358587265,0.0
643,-35.7946815491,-49.9427833557,8.0
644,-29.9610786438,-17.9712677002,9.0
645,-44.2292823792,-31.7904720306,8.0
646,-34.2174415588,-3.98288273811,0.0
647,16.6915683746,1.08695304394,1.0
648,3.99011707306,-21.8652076721,2.0
649,-1.19105112553,-20.8413887024,3.0
650,48.253692627,14.4740724564,4.0
651,-15.2919750214,0.237196370959,5.0
652,-15.1351680756,17.8338489532,6.0
653,40.2990150452,-28.2786712646,7.0
654,3.23405337334,-12.1057252884,8.0
655,41.8585472107,42.4201622009,9.0
656,-43.3914375305,-7.49460172653,0.0
657,8.3562412262,3.46960043907,1.0
658,11.6558465958,28.5655632019,2.0
659,-0.619934618473,-19.7134132385,3.0
660,49.0893478394,13.9758377075,4.0
661,-14.2548389435,31.3784542084,5.0
662,-15.7829179764,16.5753917694,6.0
663,42.8416023254,-36.3966674805,7.0
664,10.9799165726,-15.7223796844,8.0
665,31.4159126282,14.320643425,9.0
666,-32.7268867493,6.42578172684,0.0
667,7.64745187759,3.5491130352,1.0
668,8.57796955109,31.99102211,2.0
669,11.6413707733,26.1814651489,3.0
670,47.0925941467,18.0017356873,4.0
671,-14.1247282028,31.4035644531,5.0
672,-15.2947387695,16.462469101,6.0
673,-40.4711227417,33.4460296631,7.0
674,3.64902806282,-12.4203605652,8.0
675,32.8547134399,14.2682762146,9.0
676,-31.0889167786,-1.49628174305,0.0
677,31.3306884766,13.9480381012,9.0
678,-15.6685028076,-0.385897874832,5.0
679,17.9664916992,22.8120346069,5.0
680,-14.8726234436,13.7311048508,6.0
681,-12.4340715408,28.7603168488,5.0
682,-38.2764434814,9.83988761902,0.0
683,33.2382202148,11.7553224564,9.0
684,12.168885231,-13.1624202728,8.0
685,31.365146637,14.2332935333,9.0
686,12.1197566986,-13.1541900635,8.0
687,48.3547210693,15.1692123413,4.0
688,17.2020206451,-2.37540149689,1.0
689,40.8337593079,42.645816803,7.0
690,31.5876274109,16.9081230164,7.0
691,-12.110786438,-21.5779781342,3.0
692,17.1593132019,24.0444030762,5.0
693,17.1055603027,-2.36832261086,1.0
694,-33.9763298035,5.79001045227,0.0
695,-26.6001281738,1.78750216961,0.0
696,11.9735088348,31.4970397949,2.0
697,11.6200885773,29.2498989105,2.0
698,42.7040939331,-31.9819221497,7.0
699,16.9886741638,-6.35928630829,8.0
700,13.0149850845,31.9330158234,2.0
701,-26.8254928589,10.5164175034,0.0
702,17.8180484772,4.82855701447,1.0
703,12.8948450089,31.9390964508,2.0
704,-11.9473648071,19.6349067688,6.0
705,-0.551028430462,-21.0472507477,3.0
706,0.240477219224,-22.9815788269,3.0
707,43.2377471924,-31.5172595978,7.0
708,0.616611897945,-22.0856342316,3.0
709,0.726377129555,-26.442111969,3.0
710,50.5636062622,24.7691822052,4.0
711,-16.1836528778,10.3238601685,6.0
712,-11.2987623215,12.8947143555,6.0
713,-15.9502973557,14.5503435135,6.0
714,47.9857292175,13.283331871,4.0
715,32.1274147034,13.5037584305,9.0
716,19.1204929352,0.0360000617802,1.0
717,-16.7880496979,-7.26576566696,5.0
718,-32.9165000916,2.7923271656,0.0
719,30.3170852661,12.8143072128,9.0
720,-16.8216018677,-8.07930183411,5.0
721,11.5699567795,30.2366714478,2.0
722,1.87623310089,-5.61755657196,8.0
723,11.6606559753,28.6509819031,2.0
724,-26.3407974243,4.70965003967,0.0
725,-32.848487854,1.29299855232,0.0
726,18.7162189484,6.54970407486,1.0
727,42.2381706238,-33.9830169678,7.0
728,-16.3796749115,16.3650665283,6.0
729,-0.134010121226,-22.2473926544,3.0
730,-4.12917232513,28.5583438873,2.0
731,20.3564987183,-0.541779994965,1.0
732,-40.7787055969,33.6242866516,7.0
733,47.5817489624,13.7976226807,4.0
734,-16.3841571808,21.5333023071,6.0
735,1.22363317013,-22.0553951263,3.0
736,19.2749481201,1.9573751688,1.0
737,5.50921344757,-24.9146595001,3.0
738,31.4218196869,13.1950263977,9.0
739,18.566570282,-0.112198889256,1.0
740,43.5683822632,-33.091178894,7.0
741,-14.9050264359,11.2612867355,6.0
742,4.53392124176,-1.32279193401,8.0
743,57.3001365662,22.5769443512,4.0
744,5.61690425873,-24.9550609589,3.0
745,20.0729808807,-1.15858674049,1.0
746,44.8199768066,-26.4163379669,4.0
747,-33.9086532593,8.78238677979,0.0
748,-14.5273418427,-4.28093099594,5.0
749,0.193423762918,-24.8174209595,3.0
750,-14.200009346,21.3994750977,6.0
751,29.9317092896,15.6875724792,9.0
752,-14.1833667755,21.1285476685,6.0
753,15.6014041901,-2.39146280289,1.0
754,43.5577507019,-33.8285140991,7.0
755,16.1045475006,25.3625392914,5.0
756,59.0120620728,17.0834579468,4.0
757,-39.8343544006,25.7500457764,4.0
758,43.8570365906,-34.0484809875,7.0
759,9.07339000702,30.444726944,2.0
760,23.7741241455,-10.0807180405,8.0
761,9.4390630722,30.4237270355,2.0
762,8.5145149231,29.8677482605,2.0
763,16.3945236206,20.778263092,5.0
764,42.9093055725,-27.0360107422,7.0
765,30.0447826385,15.6034793854,9.0
766,-25.4390544891,29.9694156647,5.0
767,56.8244476318,15.2727270126,4.0
768,2.47302865982,-9.99138736725,8.0
769,26.4505214691,-8.1568069458,8.0
770,46.2073822021,-26.8531856537,4.0
771,42.2796554565,42.4334411621,9.0
772,-33.3650360107,4.12679386139,0.0
773,4.14349031448,-12.5997886658,8.0
774,32.7397422791,12.4936656952,9.0
775,12.7657833099,-12.5906476974,8.0
776,-39.5870933533,-1.89428091049,0.0
777,15.753613472,5.36814594269,1.0
778,0.546771764755,32.266834259,2.0
779,6.81908464432,-25.5268096924,3.0
780,55.8415679932,14.7335929871,4.0
781,-12.616569519,-41.20677948,5.0
782,-1.64336001873,4.0260052681,6.0
783,26.2051811218,-30.930524826,7.0
784,9.45977783203,11.8976545334,8.0
785,-23.7473697662,-17.9130039215,9.0
786,-41.7727012634,1.1854903698,0.0
787,10.7698640823,6.40974092484,1.0
788,-2.3193693161,32.2352294922,2.0
789,-0.987428665161,-29.0542755127,3.0
790,49.9170951843,17.8303260803,4.0
791,-19.8653488159,27.7774162292,5.0
792,-17.3547229767,3.9924223423,6.0
793,35.6258277893,-26.9813022614,7.0
794,29.9326400757,-0.0575549453497,8.0
795,-17.7185707092,-26.5042724609,9.0
796,-36.2358894348,-6.36350917816,0.0
797,17.2219200134,4.82091140747,1.0
798,-4.43130207062,30.4198989868,2.0
799,-5.00204658508,-32.2950630188,3.0
800,28.606546402,36.0148277283,4.0
801,-20.0088939667,29.0965232849,5.0
802,-3.00430750847,5.83152151108,6.0
803,31.0294208527,-29.0969753265,7.0
804,16.9746665955,-0.42752289772,8.0
805,-29.9881820679,-18.1305503845,9.0
806,-36.5659484863,-0.921726405621,0.0
807,-16.189786911,-28.8174381256,9.0
808,19.4413318634,28.7234802246,5.0
809,16.5740337372,24.3730487823,5.0
810,-17.3662376404,5.51124715805,6.0
811,-13.6843709946,-41.2700691223,5.0
812,-34.8380699158,0.733480334282,0.0
813,-11.846329689,-6.04988384247,9.0
814,-4.77282619476,-10.3228998184,8.0
815,-21.9173717499,-18.5920696259,9.0
816,-2.497838974,-3.23378324509,8.0
817,41.4643516541,23.2968235016,4.0
818,11.1338424683,-0.00528513640165,1.0
819,28.8484153748,-25.3155441284,7.0
820,30.4292926788,-31.4136867523,7.0
821,-6.99035406113,-33.7224807739,3.0
822,17.913318634,25.4316539764,5.0
823,11.1587963104,2.40686964989,1.0
824,-32.0503501892,-4.93207836151,0.0
825,-35.4964179993,-5.98190498352,0.0
826,2.63749456406,30.2794761658,2.0
827,-5.19713306427,30.759223938,2.0
828,30.0019893646,-25.3169746399,7.0
829,-2.81858491898,-3.09129619598,8.0
830,-3.975274086,29.7521190643,2.0
831,-33.5870857239,-5.1124958992,0.0
832,-12.7830104828,56.5321922302,1.0
833,8.70401573181,39.7780990601,2.0
834,-3.23209619522,10.128247261,6.0
835,-6.776512146,-33.8628997803,3.0
836,-5.58628463745,-36.666229248,3.0
837,30.7209014893,-30.0850315094,7.0
838,6.87965393066,-32.9347724915,3.0
839,4.03448486328,-33.5608634949,3.0
840,52.0298080444,18.5913543701,4.0
841,-2.96409845352,8.63496112823,6.0
842,-18.135219574,5.47091007233,6.0
843,-1.29986917973,3.5352833271,6.0
844,55.1604766846,14.6490459442,4.0
845,-29.8096027374,-18.6658859253,9.0
846,14.0415802002,-2.82182645798,1.0
847,21.8000850677,28.7004833221,5.0
848,-28.2709197998,4.47921085358,0.0
849,-26.9455337524,-12.6462955475,9.0
850,21.8509502411,28.7057037354,5.0
851,-5.83841562271,30.0856590271,2.0
852,4.49352645874,-4.03115129471,8.0
853,-1.43591821194,30.7557582855,2.0
854,-27.7752151489,6.64779472351,0.0
855,-38.4895477295,3.53186321259,0.0
856,10.0737705231,3.37233901024,1.0
857,29.6798496246,-30.5990486145,7.0
858,-18.0173568726,11.4438533783,6.0
859,2.44539737701,-29.2327594757,3.0
860,7.08004617691,22.9066905975,2.0
861,15.2813539505,-0.303839504719,1.0
862,37.6866188049,-34.2466621399,7.0
863,40.7877731323,26.1868934631,4.0
864,-1.84815096855,4.84572172165,6.0
865,-4.80206251144,-35.7832565308,3.0
866,16.4640769958,2.25205349922,1.0
867,-2.0290491581,-31.679605484,3.0
868,-17.5146903992,-28.2648410797,9.0
869,13.4265413284,2.99087977409,1.0
870,29.9633140564,-25.1412277222,7.0
871,-4.59019327164,8.07232093811,6.0
872,0.598847568035,-0.0109397163615,8.0
873,28.1468353271,36.9330482483,4.0
874,-3.07093667984,-30.4787559509,3.0
875,15.6672554016,4.3801612854,1.0
876,35.0606651306,22.6770477295,4.0
877,-34.0360717773,-2.61181855202,0.0
878,-15.2496042252,-45.5505218506,5.0
879,-0.25045466423,-32.339214325,3.0
880,-1.82786273956,9.64110088348,6.0
881,-21.6240539551,-24.1282749176,9.0
882,-13.7306919098,14.1222343445,6.0
883,14.4049777985,-2.91819882393,1.0
884,25.7796020508,-29.8382034302,7.0
885,-20.8715133667,29.8855648041,5.0
886,54.6537094116,15.5594577789,4.0
887,42.1194915771,23.0931529999,4.0
888,30.4224414825,-30.613740921,7.0
889,-6.18501758575,30.2022476196,2.0
890,-0.239068627357,-3.00346207619,8.0
891,7.79834842682,22.1882514954,2.0
892,7.9433298111,30.575094223,2.0
893,-14.1767349243,-41.6257667542,5.0
894,36.9155845642,-18.7096176147,7.0
895,-39.0232315063,-13.2421712875,9.0
896,-20.3226966858,29.0541229248,5.0
897,29.0298290253,35.1094703674,4.0
898,-0.317981570959,-3.11864757538,8.0
899,-5.35860395432,-17.9070892334,8.0
900,29.3392677307,34.853717804,4.0
901,-39.0283851624,-13.2746353149,9.0
902,-30.1365394592,2.22252678871,0.0
903,0.657368779182,-1.96015524864,8.0
904,-17.2752914429,-30.2001094818,9.0
905,1.66374003887,1.34998083115,8.0
906,-11.8087520599,56.9292793274,1.0
907,-3.79871344566,38.6104888916,2.0
908,-9.38561153412,-30.3062171936,3.0
909,40.2767295837,28.158164978,4.0
910,-21.2393455505,-36.7776985168,5.0
911,-12.2270555496,14.9490184784,6.0
912,26.7620029449,-35.4626922607,7.0
913,8.05818462372,-13.2860765457,8.0
914,-25.4132099152,-20.205537796,9.0
915,-37.9413909912,0.553993940353,0.0
916,-12.3073158264,55.4515953064,1.0
917,11.2406425476,42.2059516907,2.0
918,-10.7250442505,-32.8076515198,3.0
919,28.2977695465,36.7662200928,4.0
920,-24.8639602661,-30.1057052612,5.0
921,-16.7109832764,13.6438694,6.0
922,22.4329547882,-38.749420166,7.0
923,0.711832642555,-12.3909883499,8.0
924,-26.5843925476,-16.7119159698,9.0
925,-37.2448005676,1.06145203114,0.0
926,-12.6420707703,58.3095932007,1.0
927,-2.11649417877,39.8902015686,2.0
928,-3.44583320618,-26.211561203,3.0
929,38.3432769775,32.3514328003,4.0
930,-25.1014938354,-28.3361339569,5.0
931,-16.7315731049,9.85571956635,6.0
932,25.300327301,-39.1505241394,7.0
933,1.65052437782,-13.4190940857,8.0
934,-25.6584529877,-18.7440299988,9.0
935,-36.5747489929,9.81473922729,0.0
936,-27.103597641,-22.8313465118,9.0
937,-26.8773975372,-38.6366539001,5.0
938,-25.2678947449,-37.299407959,5.0
939,-11.5064067841,10.7919254303,6.0
940,-26.6706733704,-29.5609321594,5.0
941,-39.3160324097,1.44229924679,0.0
942,-24.9855041504,-22.5530509949,9.0
943,1.49913048744,-12.1904468536,8.0
944,-26.1183071136,-25.4006385803,9.0
945,-0.0366853773594,-10.2657251358,8.0
946,43.7879142761,38.793170929,4.0
947,-8.07749080658,55.0899124146,1.0
948,23.6856231689,-37.7302207947,7.0
949,28.3613510132,-40.797706604,7.0
950,-11.6381187439,-33.7757225037,3.0
951,-27.6893596649,-30.1200752258,5.0
952,-10.2345523834,55.0281066895,1.0
953,-1.97723865509,40.2502632141,2.0
954,22.7618656158,-38.6059989929,7.0
955,-1.93636274338,-12.2947721481,8.0
956,-3.46662950516,51.7889480591,2.0
957,-38.3841896057,2.88627839088,0.0
958,-10.8031892776,55.0038871765,1.0
959,-4.53192710876,47.3708992004,2.0
960,-12.3045387268,15.1815595627,6.0
961,-8.32012176514,-31.3261222839,3.0
962,-10.9914894104,-32.9624328613,3.0
963,23.9159011841,-39.4530448914,7.0
964,-9.74559307098,-30.108669281,3.0
965,-11.6721954346,-50.0315284729,3.0
966,38.1134300232,32.7080345154,4.0
967,-10.1088914871,5.53841638565,6.0
968,-11.7490739822,9.68069553375,6.0
969,-11.857755661,14.6043930054,6.0
970,38.2728614807,32.3902893066,4.0
971,-24.685464859,-20.5453147888,9.0
972,-8.45132732391,55.5656280518,1.0
973,-26.1033973694,-36.9653129578,5.0
974,-40.326084137,3.77662301064,0.0
975,-25.1406898499,-20.0950984955,9.0
976,-26.9472064972,-36.9818572998,5.0
977,-2.78543376923,46.2166786194,2.0
978,1.19096171856,-11.0955114365,8.0
979,-3.60237622261,51.8697662354,2.0
980,-39.8238220215,-1.92031884193,0.0
981,-43.4237594604,8.00422096252,0.0
982,-9.70314311981,54.9014511108,1.0
983,29.6334095001,-35.9556007385,7.0
984,-12.067358017,10.9322366714,6.0
985,-9.84993076324,-17.6813755035,3.0
986,-4.35004281998,38.9122848511,2.0
987,-11.8901195526,56.3009147644,1.0
988,59.6923294067,16.941198349,4.0
989,-7.49434947968,12.8204526901,6.0
990,-8.5627412796,-30.9093055725,3.0
991,-9.56287479401,55.5129776001,1.0
992,-7.68220567703,-18.9970188141,3.0
993,-24.8902168274,-22.8210430145,9.0
994,-9.15126419067,57.1180000305,1.0
995,24.2172260284,-39.8901786804,7.0
996,-12.4853496552,4.93477153778,6.0
997,-4.20913743973,-13.333735466,8.0
998,40.5298576355,41.2422332764,4.0
999,-8.5083732605,-33.4248085022,3.0
1000,-8.66067123413,56.3018035889,1.0
1001,44.7817153931,41.6978225708,4.0
1002,-39.8050613403,2.3328666687,0.0
1003,-18.610490799,-41.4970741272,5.0
1004,-11.666226387,-50.026966095,3.0
1005,-13.851193428,8.87497806549,6.0
1006,-25.9171028137,-17.3646621704,9.0
1007,-14.1948509216,5.97199726105,6.0
1008,-11.2071170807,55.4235839844,1.0
1009,-38.4003143311,26.979391098,7.0
1010,-26.9560127258,-31.0460739136,5.0
1011,39.775806427,28.769109726,4.0
1012,43.8793907166,42.6020584106,4.0
1013,24.1854991913,-37.0471954346,7.0
1014,-4.46059846878,40.9436721802,2.0
1015,0.419360488653,-13.7425432205,8.0
1016,-5.39467430115,47.6786613464,2.0
1017,5.75097036362,43.4753799438,2.0
1018,-26.8922042847,-30.7798194885,5.0
1019,27.8452911377,-35.346370697,7.0
1020,-24.5933494568,-24.3954296112,9.0
1021,-25.2863731384,-38.622253418,5.0
1022,-40.8878517151,33.6856880188,4.0
1023,41.2798500061,40.9815979004,4.0
1024,-37.209903717,-20.6843032837,9.0
1025,-41.9776420593,-0.351807355881,0.0
1026,-3.43849110603,-11.426820755,8.0
1027,-26.5641040802,-16.1413650513,9.0
1028,2.24257349968,-12.1581039429,8.0
1029,-33.0881958008,0.0251632705331,0.0
1030,12.2439079285,0.0190743263811,1.0
1031,3.99312376976,38.1642494202,2.0
1032,-8.83195209503,-27.4003620148,3.0
1033,42.04164505,41.1781692505,4.0
1034,20.5197067261,21.3599090576,5.0
1035,-15.7034749985,11.6275072098,6.0
1036,24.0279331207,-34.5801429749,7.0
1037,5.22852230072,5.61565113068,8.0
1038,2.36507678032,-26.4290523529,9.0
1039,-36.074798584,9.79980564117,0.0
1040,11.4893598557,1.48615241051,1.0
1041,-9.41106319427,37.5923652649,2.0
1042,-9.93729400635,-27.7429580688,3.0
1043,21.9821548462,-21.4215621948,4.0
1044,-14.5122213364,-39.5956954956,5.0
1045,-16.3968143463,6.58122968674,6.0
1046,24.4550495148,-37.0967445374,7.0
1047,21.3279018402,-14.8722372055,8.0
1048,-39.9863967896,-22.6571788788,9.0
1049,-34.6031913757,15.6781215668,0.0
1050,12.8881368637,5.37342596054,1.0
1051,-5.40136003494,48.6946754456,2.0
1052,-12.1509981155,-24.4412670135,3.0
1053,44.6595230103,37.878288269,4.0
1054,-15.9031677246,-37.001789093,5.0
1055,-10.5547161102,11.1308422089,6.0
1056,23.1520671844,-34.0173606873,7.0
1057,8.35581493378,-17.6083087921,8.0
1058,-29.04114151,-37.6275062561,9.0
1059,-39.9453964233,10.0777711868,0.0
1060,-21.0528964996,-8.59198188782,9.0
1061,21.1319618225,23.0462188721,5.0
1062,18.3573036194,18.4446144104,5.0
1063,-5.86308240891,13.8420410156,6.0
1064,21.1320533752,23.084394455,5.0
1065,-36.3904914856,10.4640350342,0.0
1066,-39.3078384399,-22.872428894,9.0
1067,2.35877609253,-14.7664613724,8.0
1068,-20.4492835999,-7.39433479309,9.0
1069,7.91491222382,-7.07789754868,8.0
1070,21.9909877777,-21.4354038239,4.0
1071,14.7590770721,-0.643040299416,1.0
1072,25.3408088684,-39.8627662659,7.0
1073,29.2217731476,-32.3784217834,7.0
1074,-11.5138912201,-22.2560005188,3.0
1075,-18.2161846161,-41.1438560486,5.0
1076,13.7551841736,4.19823455811,1.0
1077,-46.9091186523,8.71665096283,0.0
1078,-48.1593132019,8.48282337189,0.0
1079,22.1379127502,-34.1080322266,7.0
1080,21.2437744141,-15.2192745209,8.0
1081,-6.16966247559,46.284866333,2.0
1082,-42.9791946411,1.79863500595,0.0
1083,20.1174983978,1.08570289612,1.0
1084,-3.56320738792,46.4193611145,2.0
1085,-2.27815079689,16.1624851227,6.0
1086,12.9217948914,55.2394485474,3.0
1087,5.69308567047,-32.0784072876,3.0
1088,-37.5962486267,25.092124939,7.0
1089,-4.57605600357,-21.7990264893,3.0
1090,-10.8520488739,-22.1466121674,3.0
1091,44.094455719,39.8692512512,4.0
1092,-15.4039888382,20.7629051208,6.0
1093,-8.19047641754,12.1578826904,6.0
1094,-19.7879543304,20.5864448547,6.0
1095,24.8593940735,17.4888744354,4.0
1096,-40.4961547852,-22.3917922974,9.0
1097,14.1635103226,6.17707824707,1.0
1098,-11.7632160187,-12.5070781708,5.0
1099,-39.604259491,9.26659965515,0.0
1100,-34.0151863098,-13.19789505,9.0
1101,19.1672210693,22.8969268799,5.0
1102,2.3641679287,47.8416900635,2.0
1103,5.32108020782,-16.3070335388,8.0
1104,-8.03440475464,47.5414466858,2.0
1105,-43.5623779297,1.26641070843,0.0
1106,-43.3771133423,2.9992017746,0.0
1107,13.9196481705,3.30346131325,1.0
1108,44.149974823,-24.3120441437,7.0
1109,-15.5056390762,22.2822399139,6.0
1110,-10.7784395218,-26.4907417297,3.0
1111,0.0119609953836,46.4857597351,2.0
1112,12.5914974213,7.9750828743,1.0
1113,-12.254817009,-1.42636990547,7.0
1114,44.9864044189,37.9015235901,4.0
1115,-16.6727771759,20.698425293,6.0
1116,-10.7359657288,-26.5271530151,3.0
1117,13.7996730804,-1.55229437351,1.0
1118,5.90892076492,-45.2368354797,3.0
1119,-38.6640434265,-22.6807327271,9.0
1120,12.4798688889,4.44316339493,1.0
1121,23.4945068359,-36.3843727112,7.0
1122,-14.0660018921,11.8210248947,6.0
1123,5.3591170311,-16.0686855316,8.0
1124,45.3379402161,37.5625991821,4.0
1125,-11.6094064713,-26.8029232025,3.0
1126,16.1589107513,3.39296627045,1.0
1127,47.0392074585,31.0693798065,4.0
1128,-31.4448204041,0.268125116825,0.0
1129,4.55894517899,11.5646457672,5.0
1130,-11.4258985519,-24.2171154022,3.0
1131,-3.34919905663,20.9069061279,6.0
1132,-17.2374591827,-22.7260780334,9.0
1133,-10.5385074615,8.91479492188,6.0
1134,13.8733787537,3.70232200623,1.0
1135,-38.0435829163,25.7790203094,7.0
1136,-11.8151702881,-11.9414520264,5.0
1137,46.8156166077,26.0599918365,4.0
1138,43.7712097168,40.174659729,4.0
1139,31.9079608917,-25.3081550598,7.0
1140,1.03100824356,46.427986145,2.0
1141,6.70981454849,-5.88335752487,8.0
1142,-9.5608253479,37.789932251,2.0
1143,-4.1427283287,52.0522651672,2.0
1144,20.4379463196,21.0361442566,5.0
1145,-37.9222869873,25.6503047943,7.0
1146,-19.6903533936,-14.8533067703,9.0
1147,-11.7857694626,-11.8239831924,5.0
1148,48.0078811646,30.3282318115,4.0
1149,35.6554718018,-18.7969493866,8.0
1150,14.5263128281,-22.7958450317,8.0
1151,45.8509063721,36.5765609741,4.0
1152,-39.1925964355,-24.8505363464,9.0
1153,-41.2492904663,4.83549165726,0.0
1154,8.67933654785,-18.4328136444,8.0
1155,-17.3866634369,-22.9970912933,9.0
1156,8.53214931488,-18.1454315186,8.0
1157,-33.8526039124,9.47560787201,0.0
1158,30.4971847534,2.94605660439,1.0
1159,-0.335645377636,32.8744659424,2.0
1160,-1.50994336605,-24.9678287506,3.0
1161,46.8161811829,32.1567306519,4.0
1162,-14.4876852036,-9.54019641876,5.0
1163,-15.6657333374,9.26621341705,6.0
1164,42.1808013916,-21.8712406158,7.0
1165,-51.5283317566,-13.0334920883,8.0
1166,-24.616235733,-9.19655323029,9.0
1167,-32.4007492065,-1.01140034199,0.0
1168,30.8854484558,2.7824845314,1.0
1169,-3.66743612289,47.7313766479,2.0
1170,5.53421497345,-29.6221790314,3.0
1171,41.2726287842,25.2802677155,4.0
1172,-14.6673955917,-4.47791528702,5.0
1173,-6.18784332275,17.4604854584,6.0
1174,33.7200660706,-31.2964344025,7.0
1175,21.6985301971,-8.48230552673,8.0
1176,-22.8648433685,20.5298290253,9.0
1177,-32.152130127,-2.78726196289,0.0
1178,26.675994873,6.61274814606,1.0
1179,9.60524082184,32.6050949097,2.0
1180,2.62141561508,-23.5949649811,3.0
1181,40.9908981323,18.0565547943,4.0
1182,-4.93908405304,-47.0100097656,5.0
1183,-8.29750537872,12.674574852,6.0
1184,41.9798278809,-35.8391342163,7.0
1185,18.9086494446,-9.03021526337,8.0
1186,-24.7559719086,-9.16509246826,9.0
1187,-40.9323348999,-7.47254896164,0.0
1188,-32.3300285339,-14.6705141068,9.0
1189,-19.1879940033,-40.4444999695,5.0
1190,-14.5423336029,-42.2096557617,5.0
1191,-20.0729980469,20.5805644989,6.0
1192,-12.4614896774,-41.1840362549,5.0
1193,-37.2630195618,-3.84655594826,0.0
1194,-32.8542671204,-18.8740558624,9.0
1195,22.7811889648,-7.76286792755,8.0
1196,-33.0682983398,-15.309671402,9.0
1197,16.7629375458,-15.2080459595,8.0
1198,40.0956611633,28.0170307159,4.0
1199,11.9339494705,2.66561937332,1.0
1200,41.482334137,-21.2718505859,7.0
1201,41.4276199341,-23.4008541107,7.0
1202,14.6983423233,-35.3385047913,3.0
1203,-16.3596000671,-7.72063302994,5.0
1204,28.0681552887,6.06784677505,1.0
1205,-41.4220275879,-4.47307825089,0.0
1206,-40.5574150085,-4.64752578735,0.0
1207,6.18323326111,35.9412117004,2.0
1208,8.73127555847,31.1835136414,2.0
1209,41.2810745239,-28.0217094421,7.0
1210,7.25897121429,-3.41242074966,8.0
1211,-3.90360736847,30.9397888184,2.0
1212,-40.6758651733,-8.14734554291,0.0
1213,15.8700313568,8.41975307465,1.0
1214,6.05117416382,36.1948814392,2.0
1215,-22.2740306854,22.394569397,6.0
1216,2.30785369873,-24.354839325,3.0
1217,2.54730463028,-31.7701339722,3.0
1218,43.9202041626,-21.1327915192,7.0
1219,7.07107591629,-30.2488231659,3.0
1220,4.75083017349,-34.9142723083,3.0
1221,39.2736663818,22.1777572632,4.0
1222,-8.20141887665,10.8542890549,6.0
1223,-4.13943386078,13.3042984009,6.0
1224,-3.71183443069,13.8794612885,6.0
1225,48.1267127991,31.0451259613,4.0
1226,-17.5076351166,-16.1912345886,9.0
1227,14.2072200775,2.8287050724,1.0
1228,16.4881343842,23.2631492615,5.0
1229,-42.7089500427,-8.29774665833,0.0
1230,-22.0040493011,-11.1699571609,9.0
1231,-19.5984592438,-39.9619102478,5.0
1232,-2.52913093567,38.8851585388,2.0
1233,24.0208206177,-12.8045463562,8.0
1234,-2.82142019272,44.5111427307,2.0
1235,-42.7040481567,-7.91768836975,0.0
1236,-40.8659133911,-7.85806322098,0.0
1237,14.9470405579,5.61045980453,1.0
1238,41.8861465454,-20.4968528748,7.0
1239,-8.9846496582,8.63143920898,6.0
1240,3.65313625336,-36.6002311707,3.0
1241,0.482258230448,27.9470539093,2.0
1242,26.9834041595,7.02172136307,1.0
1243,44.8114128113,-22.6040267944,7.0
1244,46.6565704346,24.5241909027,4.0
1245,-8.73439788818,9.03828239441,6.0
1246,0.13792322576,-34.4251670837,3.0
1247,15.29845047,2.35530090332,1.0
1248,-51.45129776,-12.8664035797,3.0
1249,-33.4259529114,-15.5383167267,9.0
1250,15.0603427887,2.34024977684,1.0
1251,42.612701416,-28.7336654663,7.0
1252,-7.7050409317,10.6155672073,6.0
1253,19.8744125366,-11.6982812881,8.0
1254,47.5064964294,23.7804832458,4.0
1255,2.48992371559,-29.3077278137,3.0
1256,17.2958106995,3.28814983368,1.0
1257,42.4183540344,26.9538993835,4.0
1258,-30.9004592896,13.2948541641,0.0
1259,-10.0294494629,-43.0782012939,5.0
1260,3.78895926476,-36.7518463135,3.0
1261,-4.19360971451,9.3771944046,6.0
1262,-21.7460384369,-11.0630321503,9.0
1263,-20.9716949463,20.7115364075,6.0
1264,12.1028175354,55.7376480103,1.0
1265,42.891544342,-20.4158363342,7.0
1266,-18.1302242279,30.3218746185,5.0
1267,39.5574645996,24.9033107758,4.0
1268,44.1634750366,41.711681366,4.0
1269,41.5989265442,-32.3491401672,7.0
1270,-3.34408998489,31.4559020996,2.0
1271,13.7466163635,54.7527580261,8.0
1272,-5.00768852234,33.1070404053,2.0
1273,-53.0761108398,-12.0291423798,2.0
1274,-25.5392093658,29.9365596771,5.0
1275,39.1096763611,-33.5504798889,7.0
1276,-22.0150051117,-11.5736570358,9.0
1277,-6.23002624512,-43.6928443909,5.0
1278,46.989315033,22.0760593414,4.0
1279,19.6658687592,-8.6296453476,8.0
1280,16.0569534302,-14.3470058441,8.0
1281,40.3422622681,17.7999744415,4.0
1282,-28.7132453918,-21.5178928375,9.0
1283,-43.5364570618,-6.83475589752,0.0
1284,19.7960777283,-10.1137275696,8.0
1285,-18.9998569489,-12.3606700897,9.0
1286,19.880153656,-11.109708786,8.0
1287,-34.2808570862,15.9885530472,0.0
1288,33.3460121155,8.38057994843,1.0
1289,-6.14168453217,45.5504608154,2.0
1290,3.71636843681,-35.6898574829,3.0
1291,34.3835220337,23.8436107635,4.0
1292,-24.1524200439,-42.827003479,5.0
1293,-23.3650684357,21.4896450043,6.0
1294,41.7143936157,-19.1715679169,7.0
1295,8.22273731232,-4.50591182709,8.0
1296,-23.8341197968,-8.48397350311,9.0
1297,-28.0128650665,0.564468383789,0.0
1298,27.7919368744,6.17995452881,1.0
1299,-6.92446136475,53.8302345276,2.0
1300,5.63368463516,-33.0347747803,3.0
1301,33.4777183533,23.6818714142,4.0
1302,-23.4345645905,-45.0380554199,5.0
1303,-6.9782242775,11.6247005463,6.0
1304,32.2373161316,-31.9019050598,7.0
1305,-53.0524330139,-12.0387897491,8.0
1306,-23.0077896118,-14.7936649323,9.0
1307,-33.6720848083,10.5153675079,0.0
1308,39.165561676,-1.83602154255,1.0
1309,-6.2437787056,-55.2912635803,2.0
1310,-3.56662559509,-24.4275951385,3.0
1311,33.1056861877,23.5292167664,4.0
1312,-15.107670784,-8.46240329742,5.0
1313,-24.0018692017,20.3172492981,6.0
1314,33.034526825,-30.7234210968,7.0
1315,16.3922691345,-9.36964797974,8.0
1316,-32.2390594482,-13.3150281906,9.0
1317,-44.3623161316,5.79509019852,0.0
1318,-29.6805114746,-12.6246862411,9.0
1319,-23.422958374,-43.9946861267,5.0
1320,-14.4829711914,-8.1799621582,5.0
1321,-23.5528945923,20.8403072357,6.0
1322,-19.9334659576,34.4740371704,5.0
1323,-27.8572349548,7.60159158707,0.0
1324,-28.2672576904,-13.1317968369,9.0
1325,15.9610042572,-9.5735912323,8.0
1326,-36.3726081848,-17.1845607758,9.0
1327,9.51826286316,-5.722864151,8.0
1328,34.9397354126,24.5837306976,4.0
1329,16.3807849884,8.14843845367,1.0
1330,31.8293495178,-32.6040992737,7.0
1331,43.5931472778,-28.1291465759,7.0
1332,-4.28171348572,-20.334526062,3.0
1333,-22.0833148956,-43.4073524475,5.0
1334,13.8199653625,7.53270721436,1.0
1335,-33.6796112061,7.25735473633,0.0
1336,-33.3684158325,7.76223611832,0.0
1337,-8.22324085236,47.6759262085,2.0
1338,-8.20918083191,48.6054382324,2.0
1339,32.9406700134,-31.066865921,7.0
1340,7.91907072067,-3.96421337128,8.0
1341,-7.45050001144,53.3900642395,2.0
1342,-33.4439849854,-4.41999864578,0.0
1343,31.1954746246,3.8097987175,1.0
1344,-7.4196805954,48.7093505859,2.0
1345,-3.32322406769,6.94419956207,6.0
1346,-0.468110352755,-33.1995811462,3.0
1347,-2.73271369934,-20.2738857269,3.0
1348,38.9409484863,-22.4557723999,7.0
1349,-10.0577335358,-21.5270996094,3.0
1350,-4.68531847,-20.9788475037,3.0
1351,34.8273277283,24.641620636,4.0
1352,-2.7611451149,6.69756364822,6.0
1353,-1.8353728056,6.01112508774,6.0
1354,-4.28633880615,8.58610534668,6.0
1355,38.3564453125,25.9080314636,4.0
1356,-22.693479538,-24.1149806976,9.0
1357,13.06524086,6.60579490662,1.0
1358,-14.9793128967,-7.99517965317,5.0
1359,-29.4994792938,-0.523119390011,0.0
1360,-22.2760696411,-15.4371681213,9.0
1361,-12.0275678635,2.25626444817,5.0
1362,-0.0606391020119,45.0026092529,2.0
1363,5.51979351044,-0.0548247992992,8.0
1364,-11.7600078583,46.123210907,2.0
1365,-32.5729637146,-0.0950370803475,0.0
1366,-34.5175666809,7.79152393341,0.0
1367,30.0859470367,4.26842403412,1.0
1368,42.2703514099,-22.5173950195,7.0
1369,-6.92508935928,8.9106426239,6.0
1370,0.331397384405,-28.5646820068,3.0
1371,-5.26442480087,49.7142410278,2.0
1372,11.0933237076,7.79595136642,1.0
1373,28.6557579041,-25.4372596741,7.0
1374,38.0079345703,25.8729801178,4.0
1375,-23.8687648773,20.2787971497,6.0
1376,0.810974657536,-30.3190689087,3.0
1377,15.217833519,7.09016990662,1.0
1378,-4.53219747543,-27.9941177368,3.0
1379,-28.5125846863,-20.5436992645,9.0
1380,11.692284584,6.99748325348,1.0
1381,31.9953899384,-33.9635810852,7.0
1382,-5.48803138733,9.86585617065,6.0
1383,17.3617610931,-10.3725986481,8.0
1384,34.6135673523,24.9456729889,4.0
1385,-3.81333732605,-20.7502002716,3.0
1386,14.3300323486,5.31711959839,1.0
1387,47.5921134949,24.6545505524,4.0
1388,-33.4547653198,10.5607833862,0.0
1389,5.40339756012,12.8086891174,5.0
1390,-1.04525601864,-24.9573726654,3.0
1391,6.81263828278,9.55978965759,6.0
1392,21.0091571808,43.6305656433,9.0
1393,-23.2336387634,22.0389003754,6.0
1394,17.1578121185,8.043592453,1.0
1395,36.4947357178,-29.4737453461,7.0
1396,-15.4889421463,26.9842433929,5.0
1397,47.4085540771,18.96342659,4.0
1398,47.6230506897,18.9882049561,4.0
1399,42.6832351685,-32.5076560974,7.0
1400,-7.72414541245,49.6396903992,2.0
1401,13.6717748642,-10.6164569855,8.0
1402,-6.04109573364,46.702041626,2.0
1403,-6.5796546936,50.0058326721,2.0
1404,-15.0271539688,-7.04933261871,5.0
1405,42.7197570801,-27.9467983246,7.0
1406,-31.7148895264,-13.0901737213,9.0
1407,-19.8154449463,35.3033714294,5.0
1408,48.2061309814,18.1066570282,4.0
1409,10.0392770767,-5.22120714188,8.0
1410,16.105424881,-6.572016716,8.0
1411,38.1773033142,26.0521678925,4.0
1412,21.103887558,44.3380088806,9.0
1413,-31.0258579254,7.73269319534,0.0
1414,15.8728933334,-11.8853521347,8.0
1415,-39.4494628906,4.62357568741,0.0
1416,35.4836769104,8.48899745941,1.0
1417,6.09479951859,39.2089881897,2.0
1418,-7.47967386246,-24.5027351379,3.0
1419,55.2108230591,21.8997535706,4.0
1420,-23.9577484131,-40.4429702759,5.0
1421,-15.7973089218,7.04308366776,6.0
1422,28.7909698486,-38.3490638733,7.0
1423,-4.6019692421,-9.69244289398,8.0
1424,-28.9640350342,-24.2049179077,9.0
1425,-42.2768058777,10.3657827377,0.0
1426,37.8083190918,7.17276334763,1.0
1427,10.3974504471,41.5816688538,2.0
1428,-4.52991724014,-25.4909477234,3.0
1429,54.475189209,18.0827178955,4.0
1430,-25.4964923859,-41.0944900513,5.0
1431,-14.7250061035,7.48388719559,6.0
1432,29.3535709381,-39.4358253479,7.0
1433,-3.88462090492,-11.4990272522,8.0
1434,-31.9098072052,-22.4370803833,9.0
1435,-37.4846954346,-1.11012732983,0.0
1436,35.7113456726,4.42194795609,1.0
1437,8.25655174255,42.5376205444,2.0
1438,-5.10325288773,-35.8990020752,3.0
1439,54.0231361389,21.3789081573,4.0
1440,-50.6495704651,7.63138771057,5.0
1441,-15.370631218,8.62262916565,6.0
1442,28.7090244293,-39.2594528198,7.0
1443,-4.92378950119,-11.1621618271,8.0
1444,-28.1080989838,-24.3716945648,9.0
1445,-41.5961303711,9.7430639267,0.0
1446,-27.8483963013,-24.0891456604,9.0
1447,-25.354139328,-41.1706161499,5.0
1448,-24.2144355774,-41.0535316467,5.0
1449,-10.8956975937,5.42818975449,6.0
1450,-25.2721385956,-41.5652961731,5.0
1451,-37.8658180237,8.39505290985,0.0
1452,-30.0589103699,-22.2585144043,9.0
1453,0.60192668438,-6.73713064194,8.0
1454,-29.4353504181,-26.5345535278,9.0
1455,-2.01400923729,-7.64187479019,8.0
1456,50.5739173889,20.5825634003,4.0
1457,37.8777198792,4.05605459213,1.0
1458,29.3100605011,-34.3928108215,7.0
1459,28.4912662506,-33.3625030518,7.0
1460,-5.50052881241,-29.2814464569,3.0
1461,-27.628692627,-34.5838279724,5.0
1462,38.6249465942,5.32852125168,1.0
1463,-36.9410247803,3.78657245636,0.0
1464,-36.6687240601,4.02981090546,0.0
1465,2.5374455452,-47.913318634,2.0
1466,6.05924797058,39.2740135193,2.0
1467,29.4889202118,-40.6905975342,7.0
1468,-3.54567551613,-2.54598164558,8.0
1469,9.06233215332,42.906085968,2.0
1470,-44.0344543457,6.21816062927,0.0
1471,37.3761558533,8.24507713318,1.0
1472,9.02691650391,39.8179244995,2.0
1473,-15.5630025864,7.78579235077,6.0
1474,-2.35025978088,-26.3174591064,3.0
1475,-6.06379890442,-27.9552574158,3.0
1476,29.6227226257,-38.0342597961,7.0
1477,-4.71632289886,-25.8616485596,3.0
1478,-7.2384095192,-31.614522934,3.0
1479,55.1761245728,18.5304470062,4.0
1480,-13.5714216232,8.49147129059,6.0
1481,-17.0779266357,12.9167785645,6.0
1482,-13.2134313583,9.92405605316,6.0
1483,51.1984558105,20.1914634705,4.0
1484,-26.9516620636,-25.7882442474,9.0
1485,37.0126838684,8.31721115112,1.0
1486,-26.0178909302,-42.1259231567,5.0
1487,-43.7947158813,4.6246752739,0.0
1488,-27.7834568024,-26.4850406647,9.0
1489,-29.2577953339,-41.6699485779,5.0
1490,8.00061225891,40.7395324707,2.0
1491,-3.27720665932,-7.16102838516,8.0
1492,9.10914611816,41.9298934937,2.0
1493,-43.7484741211,6.46066570282,0.0
1494,-36.9502296448,3.22303247452,0.0
1495,37.6129989624,8.82930660248,1.0
1496,30.4604320526,-34.0995979309,7.0
1497,-14.6661586761,6.40039491653,6.0
1498,-3.5120241642,-29.2055912018,3.0
1499,10.2790260315,43.0751228333,2.0
1500,34.9642486572,8.53224372864,1.0
1501,27.0606899261,-32.0417251587,7.0
1502,53.0406227112,17.8818531036,4.0
1503,-13.7283277512,7.38542079926,6.0
1504,0.252113908529,-27.4997787476,3.0
1505,36.0611801147,4.49989128113,1.0
1506,-5.62907218933,-29.473526001,3.0
1507,-30.0091533661,-22.471824646,9.0
1508,38.3824081421,6.35960149765,1.0
1509,29.3362960815,-34.2794036865,7.0
1510,-12.2805643082,8.0368680954,6.0
1511,-2.60952782631,-6.89064598083,8.0
1512,54.0530700684,20.5806102753,4.0
1513,-6.03883266449,-28.17527771,3.0
1514,38.6036643982,5.68213129044,1.0
1515,53.4479675293,22.1403751373,4.0
1516,-41.6319580078,8.97151660919,0.0
1517,-27.6427326202,-34.4593162537,5.0
1518,-3.03134536743,-29.291595459,3.0
1519,-12.0839195251,7.19203853607,6.0
1520,-27.5621395111,-25.722650528,9.0
1521,-5.75857257843,12.0722446442,6.0
1522,36.9738006592,9.11043739319,1.0
1523,27.7120361328,-37.7616462708,7.0
1524,-24.7322654724,-32.8327445984,5.0
1525,53.2890777588,18.4726104736,4.0
1526,54.7556381226,24.8154144287,4.0
1527,29.5608711243,-38.7511329651,7.0
1528,6.91637086868,42.3026542664,2.0
1529,-2.01374959946,-5.49918746948,8.0
1530,-1.02406191826,45.5289955139,2.0
1531,9.30287265778,41.1576805115,2.0
1532,-28.8471488953,-40.6369400024,5.0
1533,27.9842662811,-37.7315826416,7.0
1534,-31.33751297,-9.229637146,9.0
1535,-22.0601844788,-37.7838783264,5.0
1536,53.9595718384,18.7866325378,4.0
1537,-1.2237534523,-4.91640138626,8.0
1538,-2.89745545387,-10.2469091415,8.0
1539,51.7692527771,17.9961338043,4.0
1540,-32.7352180481,-21.7308807373,9.0
1541,-37.6601486206,3.97272229195,0.0
1542,-1.76609683037,-5.45812606812,8.0
1543,-30.7960414886,-21.9420070648,9.0
1544,0.350734442472,-5.77833461761,8.0
1545,-31.9321022034,7.78674125671,0.0
1546,16.8271923065,6.52791261673,1.0
1547,0.652453482151,39.9218254089,2.0
1548,-1.65296983719,-35.1977348328,3.0
1549,49.9606704712,29.6235866547,4.0
1550,15.1117420197,19.2039089203,5.0
1551,1.07987689972,5.91791296005,6.0
1552,36.1033401489,-16.6733760834,7.0
1553,25.3305854797,4.09161090851,8.0
1554,29.6368217468,13.5155363083,9.0
1555,-31.4098033905,8.50132083893,0.0
1556,14.9669103622,3.54808735847,1.0
1557,3.54495239258,48.1398162842,2.0
1558,5.63265800476,-29.5018024445,3.0
1559,45.7155723572,31.1821498871,4.0
1560,15.7438793182,20.5674667358,5.0
1561,1.3005412817,8.6243686676,6.0
1562,-15.1386651993,-13.7316980362,9.0
1563,-29.2796707153,5.3191409111,0.0
1564,21.2970066071,3.82891941071,1.0
1565,3.83566832542,48.1594429016,2.0
1566,-11.3357496262,-23.5543727875,3.0
1567,51.7688789368,31.6812210083,4.0
1568,18.0371627808,19.6300964355,5.0
1569,-1.58109211922,18.2524852753,6.0
1570,37.1589813232,-17.5444374084,7.0
1571,22.8027038574,-0.0392348468304,8.0
1572,-39.541015625,30.887008667,9.0
1573,-27.0194129944,8.07009887695,0.0
1574,34.1961021423,12.8473024368,9.0
1575,18.8392314911,16.8055076599,5.0
1576,-38.3605422974,-39.047580719,5.0
1577,-10.335062027,13.0957965851,6.0
1578,15.2717227936,20.6788635254,5.0
1579,-28.9859218597,0.96287381649,0.0
1580,25.5533542633,11.9037370682,9.0
1581,21.339176178,1.55672621727,8.0
1582,18.9903717041,16.3512477875,9.0
1583,11.7139949799,-8.57370948792,8.0
1584,45.2474021912,29.2513275146,4.0
1585,14.9344711304,8.23812675476,1.0
1586,31.2238445282,-24.5534591675,7.0
1587,43.0371627808,-16.9693717957,7.0
1588,5.169257164,-40.0899543762,3.0
1589,-22.824962616,31.5103054047,5.0
1590,15.7847356796,6.30073928833,1.0
1591,-29.6200294495,9.32943630219,0.0
1592,-30.7898597717,0.867977797985,0.0
1593,-12.0770082474,46.0259590149,2.0
1594,-2.1120057106,40.1334381104,2.0
1595,40.1602668762,-20.0580368042,7.0
1596,15.5851917267,-7.03912878036,8.0
1597,-7.73799371719,46.0919303894,2.0
1598,-31.7394962311,9.44897842407,0.0
1599,21.3078155518,4.03467035294,1.0
1600,7.45849084854,29.5564975739,2.0
1601,0.531737565994,7.09107255936,6.0
1602,22.0496826172,-5.58981657028,3.0
1603,5.0677728653,-40.1048812866,3.0
1604,43.1152458191,-16.8614501953,7.0
1605,10.1653404236,-36.6888160706,3.0
1606,19.9450759888,-12.5791482925,3.0
1607,51.2760772705,31.0727939606,4.0
1608,-7.42295742035,15.1615104675,6.0
1609,-1.02142107487,10.6746959686,6.0
1610,-6.49539470673,9.59122467041,6.0
1611,25.5488033295,-2.4041082859,4.0
1612,33.3852386475,16.2383079529,9.0
1613,14.2829751968,6.71099805832,1.0
1614,16.9087371826,20.5916633606,5.0
1615,-30.497467041,9.17456531525,0.0
1616,-21.2009029388,-21.4158611298,9.0
1617,4.08973026276,12.4149703979,5.0
1618,-17.0214347839,49.3671951294,2.0
1619,12.0248327255,-5.81227397919,8.0
1620,-42.0264091492,1.60744142532,0.0
1621,16.0168914795,7.16140174866,1.0
1622,39.7209663391,-21.3321933746,7.0
1623,0.512024998665,6.87242650986,6.0
1624,4.01534843445,-31.6328964233,3.0
1625,1.28755664825,32.6171722412,2.0
1626,15.3282489777,9.34060382843,1.0
1627,29.5581264496,-23.7395343781,7.0
1628,25.4321613312,-2.34146547318,4.0
1629,-0.986662447453,10.4697370529,6.0
1630,-1.65496993065,-35.2017669678,3.0
1631,16.3293380737,9.46040821075,1.0
1632,-13.9520015717,-17.5798721313,3.0
1633,21.313791275,14.4180965424,9.0
1634,16.5926513672,7.54979658127,1.0
1635,42.1817321777,-18.0630970001,7.0
1636,-9.09567832947,15.1600599289,6.0
1637,11.8356676102,-7.98874139786,8.0
1638,44.5154876709,28.2939834595,4.0
1639,0.102085456252,-33.2757911682,3.0
1640,14.1404752731,8.59321212769,1.0
1641,50.1258659363,29.4418010712,4.0
1642,-29.1660938263,8.32279777527,0.0
1643,18.4552688599,17.1233100891,5.0
1644,-0.20751568675,-34.1587333679,3.0
1645,0.511366486549,9.63386535645,6.0
1646,-16.3771629333,-16.1232681274,9.0
1647,-1.92815709114,7.98124885559,6.0
1648,14.991818428,8.1443195343,1.0
1649,37.9633865356,-26.4707870483,7.0
1650,12.8709897995,21.3267669678,5.0
1651,49.9798698425,28.1772956848,4.0
1652,51.9444656372,31.8560085297,4.0
1653,36.9774894714,-24.3330688477,7.0
1654,10.1520938873,35.4336700439,2.0
1655,-2.86810064316,45.1657600403,2.0
1656,15.6355018616,19.4802093506,5.0
1657,-38.3191795349,-39.3333015442,7.0
1658,0.760547876358,-32.9976768494,9.0
1659,17.939458847,19.3262023926,5.0
1660,25.8004245758,-2.90971112251,4.0
1661,45.4618606567,29.5570793152,4.0
1662,18.8103313446,15.9111623764,9.0
1663,-29.4124202728,-0.0533815324306,0.0
1664,12.8343887329,-8.4015827179,8.0
1665,21.3313388824,14.1520423889,9.0
1666,13.5246448517,-6.4537987709,8.0
1667,-37.9933624268,6.84547042847,0.0
1668,7.24224996567,4.73179197311,1.0
1669,2.03810882568,35.3732147217,2.0
1670,9.526014328,-26.4072818756,3.0
1671,36.9320678711,-5.66189289093,4.0
1672,-18.5266990662,-2.93904852867,5.0
1673,-7.60674858093,20.5646705627,6.0
1674,40.1384658813,-24.9267559052,7.0
1675,13.6756105423,-18.7510490417,8.0
1676,-26.3253250122,-16.4010944366,9.0
1677,-38.9488716125,11.2261304855,0.0
1678,12.92466259,0.368476212025,1.0
1679,8.26053333282,28.3570251465,2.0
1680,10.8832139969,-31.9920768738,3.0
1681,43.8744049072,26.1172466278,4.0
1682,-18.2233085632,-3.22445249557,5.0
1683,-13.5916280746,6.57323408127,6.0
1684,37.1815071106,-37.3684463501,7.0
1685,18.4296646118,-18.0690498352,8.0
1686,-21.5520515442,-15.2899494171,9.0
1687,-40.9467353821,13.7352724075,0.0
1688,6.19381093979,2.30073070526,1.0
1689,1.97085213661,-49.5764579773,2.0
1690,10.5464525223,-26.7158813477,3.0
1691,43.9409980774,25.8726825714,4.0
1692,-18.7960395813,-3.80416274071,5.0
1693,-8.17480373383,18.8424625397,6.0
1694,40.7379455566,-25.2928066254,7.0
1695,14.0925130844,-15.794295311,8.0
1696,-21.0839824677,-21.0391197205,9.0
1697,-34.235534668,0.804521679878,0.0
1698,-20.2030467987,-17.5951442719,9.0
1699,-11.5891141891,27.355588913,5.0
1700,-16.7707462311,-36.9573478699,5.0
1701,-8.52131462097,18.3235206604,6.0
1702,-21.0309486389,36.1316108704,5.0
1703,-31.4496917725,6.00838279724,0.0
1704,-31.183713913,-24.0760803223,9.0
1705,6.95623683929,-8.55654430389,8.0
1706,-30.7187747955,-23.7535171509,9.0
1707,22.1430511475,-13.8719320297,8.0
1708,-32.7571411133,34.2457695007,4.0
1709,8.4592590332,4.41331720352,1.0
1710,23.7170066833,-41.2477416992,7.0
1711,41.3754425049,-34.1811256409,7.0
1712,14.6749811172,-35.3201217651,3.0
1713,-18.1550216675,-2.72453451157,5.0
1714,10.2003803253,1.97017157078,1.0
1715,-41.7204551697,6.79566144943,0.0
1716,-34.1970252991,-1.10932731628,0.0
1717,7.73757505417,37.5206184387,2.0
1718,9.74212741852,44.1158714294,2.0
1719,35.0400390625,-28.0991344452,7.0
1720,23.5639247894,-11.6039571762,8.0
1721,10.3791122437,44.1618804932,2.0
1722,-25.0474433899,3.4582285881,0.0
1723,7.23282623291,1.76862037182,1.0
1724,11.9773817062,41.503452301,2.0
1725,-10.6713933945,6.9830532074,6.0
1726,12.875295639,-29.6554946899,3.0
1727,13.1757545471,-29.9175758362,3.0
1728,22.3587722778,-29.0796165466,7.0
1729,-8.82765293121,-14.6869754791,3.0
1730,11.7888040543,-32.1105499268,3.0
1731,44.260219574,42.6185531616,4.0
1732,-4.66120767593,21.0282764435,6.0
1733,-9.05552577972,18.2724571228,6.0
1734,-8.63636398315,20.716053009,6.0
1735,30.9144268036,34.3862342834,4.0
1736,-25.3568897247,-14.5889730453,9.0
1737,14.1745204926,-0.265128791332,1.0
1738,-20.7735176086,-1.83363282681,5.0
1739,-37.5069389343,5.67111730576,0.0
1740,-21.2705688477,-15.8092460632,9.0
1741,-19.7518634796,-4.00732946396,5.0
1742,1.94349217415,-46.9157600403,2.0
1743,10.7810029984,-11.0492515564,8.0
1744,8.97884941101,32.7000694275,2.0
1745,-34.5408744812,5.14218568802,0.0
1746,-41.0319709778,13.6569099426,0.0
1747,10.2127285004,-0.948475837708,1.0
1748,34.1074104309,-23.1192378998,7.0
1749,-6.43623685837,20.3356704712,6.0
1750,9.00261211395,-32.7044792175,3.0
1751,7.60167646408,32.9413528442,2.0
1752,21.6004066467,6.90557003021,1.0
1753,33.7106170654,-27.9644813538,7.0
1754,30.8360023499,34.4119033813,4.0
1755,-4.99755859375,18.4047203064,6.0
1756,8.62082958221,-32.729801178,3.0
1757,12.893658638,-2.8646800518,1.0
1758,3.21648144722,-28.2396621704,3.0
1759,-25.6720027924,-14.3902730942,9.0
1760,8.38235855103,3.4430410862,1.0
1761,38.6041564941,-28.6804065704,7.0
1762,-6.21384096146,18.0267486572,6.0
1763,12.0202970505,-20.7368583679,8.0
1764,40.4216880798,24.20054245,4.0
1765,9.85497093201,-26.4860782623,3.0
1766,11.6951856613,0.0826767086983,1.0
1767,45.7755279541,23.2573223114,4.0
1768,-35.2216720581,12.9418315887,0.0
1769,-22.9929695129,-30.1682472229,5.0
1770,-0.961316525936,-30.7024383545,3.0
1771,-3.26518654823,18.5896892548,6.0
1772,-24.5725517273,-13.8740692139,9.0
1773,-11.3229694366,7.27826404572,6.0
1774,11.7665958405,-1.35638070107,1.0
1775,42.2785568237,-24.3694400787,7.0
1776,-17.664056778,-2.27262401581,5.0
1777,38.3582038879,29.398147583,4.0
1778,29.6894550323,34.7211112976,4.0
1779,35.8381538391,-31.8872013092,7.0
1780,2.42338895798,-47.934135437,2.0
1781,16.2404880524,-21.7317810059,8.0
1782,4.68272018433,42.0065765381,2.0
1783,10.463602066,38.796497345,2.0
1784,-18.4308624268,-4.27053260803,5.0
1785,36.4413414001,-25.5905647278,7.0
1786,-14.6659154892,-17.5220298767,9.0
1787,-23.1495056152,-29.3554077148,5.0
1788,41.3038978577,24.9696006775,4.0
1789,14.3910541534,-17.8246555328,8.0
1790,13.9630308151,-18.330160141,8.0
1791,41.7754974365,23.7438316345,4.0
1792,-21.1867256165,-17.2326278687,9.0
1793,-29.9921550751,6.59805393219,0.0
1794,8.50754737854,-8.18783378601,8.0
1795,-25.4930019379,-10.9222040176,9.0
1796,16.2980041504,-21.7008609772,8.0
