,mean_fit_time,mean_score_time,mean_test_score,mean_train_score,param_NN__alpha,param_NN__hidden_layer_sizes,param_km__n_clusters,params,rank_test_score,split0_test_score,split0_train_score,split1_test_score,split1_train_score,split2_test_score,split2_train_score,split3_test_score,split3_train_score,split4_test_score,split4_train_score,std_fit_time,std_score_time,std_test_score,std_train_score
0,0.184640693665,0.00131998062134,0.221480244853,0.233153735972,0.1,"(50, 50)",2,"{'NN__hidden_layer_sizes': (50, 50), 'km__n_clusters': 2, 'NN__alpha': 0.1}",99,0.233516483516,0.234473133287,0.185082872928,0.229268292683,0.206128133705,0.194019471488,0.299719887955,0.273611111111,0.183098591549,0.23439667129,0.0352624628339,0.000145419667135,0.0430167008879,0.0252454836629
1,0.355910205841,0.00131077766418,0.520311630495,0.549141646716,0.1,"(50, 50)",5,"{'NN__hidden_layer_sizes': (50, 50), 'km__n_clusters': 5, 'NN__alpha': 0.1}",37,0.480769230769,0.508025122121,0.618784530387,0.645993031359,0.50139275766,0.57719054242,0.436974789916,0.454166666667,0.56338028169,0.560332871012,0.0919653537788,2.20860553489e-05,0.0639359881864,0.0648120207814
2,0.355362987518,0.00149536132812,0.512520868114,0.548225432257,0.1,"(50, 50)",10,"{'NN__hidden_layer_sizes': (50, 50), 'km__n_clusters': 10, 'NN__alpha': 0.1}",39,0.631868131868,0.630844382415,0.524861878453,0.609059233449,0.529247910864,0.583449235049,0.210084033613,0.215277777778,0.664788732394,0.702496532594,0.0756655310191,0.000177946785547,0.160385689375,0.171126311009
3,0.2709192276,0.00144944190979,0.167501391208,0.182246047106,0.1,"(50, 50)",15,"{'NN__hidden_layer_sizes': (50, 50), 'km__n_clusters': 15, 'NN__alpha': 0.1}",125,0.0961538461538,0.0900209351012,0.276243093923,0.338675958188,0.105849582173,0.104311543811,0.193277310924,0.197916666667,0.166197183099,0.180305131761,0.0202809298767,0.00010240488466,0.0656114073909,0.0886554122873
4,0.380409622192,0.00134959220886,0.254869226489,0.265227803957,0.1,"(50, 50)",20,"{'NN__hidden_layer_sizes': (50, 50), 'km__n_clusters': 20, 'NN__alpha': 0.1}",81,0.101648351648,0.102581995813,0.668508287293,0.733101045296,0.264623955432,0.253824756606,0.117647058824,0.111111111111,0.118309859155,0.125520110957,0.135463637913,3.55717324046e-05,0.216023859341,0.240316147129
5,0.471865606308,0.00143918991089,0.373956594324,0.372335077046,0.1,"(50, 50)",25,"{'NN__hidden_layer_sizes': (50, 50), 'km__n_clusters': 25, 'NN__alpha': 0.1}",54,0.703296703297,0.664340544313,0.149171270718,0.161672473868,0.690807799443,0.773991655076,0.190476190476,0.164583333333,0.129577464789,0.0970873786408,0.159987104506,6.38703037649e-05,0.265879805849,0.286320105637
6,0.488646602631,0.00145559310913,0.381190873678,0.407055018287,0.1,"(50, 50)",30,"{'NN__hidden_layer_sizes': (50, 50), 'km__n_clusters': 30, 'NN__alpha': 0.1}",52,0.67032967033,0.707606420098,0.174033149171,0.157491289199,0.186629526462,0.241307371349,0.700280112045,0.715277777778,0.171830985915,0.21359223301,0.107252319802,3.83293441646e-05,0.249054613059,0.250005840423
7,0.607102012634,0.0014582157135,0.57429048414,0.592030325802,0.1,"(50, 50)",35,"{'NN__hidden_layer_sizes': (50, 50), 'km__n_clusters': 35, 'NN__alpha': 0.1}",27,0.733516483516,0.695045359386,0.640883977901,0.670383275261,0.760445682451,0.800417246175,0.198879551821,0.194444444444,0.532394366197,0.599861303745,0.0906844979889,1.0803703187e-05,0.203216838609,0.20895561619
8,0.545945119858,0.00148186683655,0.341124095715,0.370623500782,0.1,"(50, 50)",40,"{'NN__hidden_layer_sizes': (50, 50), 'km__n_clusters': 40, 'NN__alpha': 0.1}",58,0.173076923077,0.143056524773,0.301104972376,0.369337979094,0.50139275766,0.561891515994,0.484593837535,0.5375,0.247887323944,0.24133148405,0.071518669287,2.53660337694e-05,0.13031089969,0.16305583483
9,0.165402603149,0.000925970077515,0.206455203116,0.203700209648,0.1,"(50,)",2,"{'NN__hidden_layer_sizes': (50,), 'km__n_clusters': 2, 'NN__alpha': 0.1}",113,0.230769230769,0.233775296581,0.182320441989,0.188850174216,0.214484679666,0.21488178025,0.201680672269,0.196527777778,0.202816901408,0.184466019417,0.0281137065385,2.11246933794e-05,0.0160347049666,0.0182836526998
10,0.20687379837,0.00109677314758,0.219810795771,0.234470333438,0.1,"(50,)",5,"{'NN__hidden_layer_sizes': (50,), 'km__n_clusters': 5, 'NN__alpha': 0.1}",103,0.489010989011,0.461270062805,0.0745856353591,0.0815331010453,0.309192200557,0.359527121001,0.15406162465,0.185416666667,0.0676056338028,0.0846047156727,0.0487733814356,9.46477197131e-05,0.161118728534,0.151876976544
11,0.206147432327,0.0011486530304,0.129104062326,0.135197249706,0.1,"(50,)",10,"{'NN__hidden_layer_sizes': (50,), 'km__n_clusters': 10, 'NN__alpha': 0.1}",158,0.129120879121,0.129797627355,0.116022099448,0.10243902439,0.122562674095,0.145340751043,0.145658263305,0.152777777778,0.132394366197,0.145631067961,0.0116128015399,0.000146624084373,0.00998021412472,0.0180171440434
12,0.263484621048,0.00108075141907,0.140790205899,0.149863309219,0.1,"(50,)",15,"{'NN__hidden_layer_sizes': (50,), 'km__n_clusters': 15, 'NN__alpha': 0.1}",145,0.0906593406593,0.108862526169,0.0939226519337,0.0878048780488,0.091922005571,0.111265646732,0.243697478992,0.2375,0.185915492958,0.203883495146,0.0232225920932,3.77888559135e-05,0.0627275410879,0.0593640677483
13,0.39783782959,0.00111336708069,0.371174179188,0.371652677286,0.1,"(50,)",20,"{'NN__hidden_layer_sizes': (50,), 'km__n_clusters': 20, 'NN__alpha': 0.1}",55,0.744505494505,0.709699930216,0.174033149171,0.147735191638,0.66852367688,0.734353268428,0.117647058824,0.128472222222,0.143661971831,0.138002773925,0.11261825245,1.23613997931e-05,0.276983431956,0.286250140777
14,0.389473152161,0.00114059448242,0.298274902615,0.300554029999,0.1,"(50,)",25,"{'NN__hidden_layer_sizes': (50,), 'km__n_clusters': 25, 'NN__alpha': 0.1}",65,0.214285714286,0.203768318214,0.138121546961,0.137282229965,0.194986072423,0.189847009736,0.703081232493,0.720138888889,0.245070422535,0.25173370319,0.103540926005,1.85807477996e-05,0.204551107323,0.212939464237
15,0.475048351288,0.00120887756348,0.362270450751,0.372350896378,0.1,"(50,)",30,"{'NN__hidden_layer_sizes': (50,), 'km__n_clusters': 30, 'NN__alpha': 0.1}",56,0.214285714286,0.172365666434,0.0801104972376,0.0843205574913,0.699164345404,0.767037552156,0.733893557423,0.720138888889,0.087323943662,0.117891816921,0.130773197522,3.95086563216e-05,0.292435545924,0.304775010595
16,0.473733329773,0.00123844146729,0.287701725097,0.293604670108,0.1,"(50,)",35,"{'NN__hidden_layer_sizes': (50,), 'km__n_clusters': 35, 'NN__alpha': 0.1}",69,0.184065934066,0.203070481507,0.14364640884,0.138675958188,0.660167130919,0.684979137691,0.193277310924,0.175694444444,0.259154929577,0.26560332871,0.0728575439971,4.88392995922e-05,0.189745805666,0.200030105432
17,0.509727239609,0.00134878158569,0.302726766834,0.327122160823,0.1,"(50,)",40,"{'NN__hidden_layer_sizes': (50,), 'km__n_clusters': 40, 'NN__alpha': 0.1}",63,0.131868131868,0.111653872994,0.406077348066,0.466898954704,0.183844011142,0.218358831711,0.198879551821,0.202083333333,0.597183098592,0.636615811373,0.0665394106995,0.000180733700429,0.173664951527,0.194532580838
18,0.144284629822,0.000894784927368,0.106844741235,0.107276163033,0.1,"(25,)",2,"{'NN__hidden_layer_sizes': (25,), 'km__n_clusters': 2, 'NN__alpha': 0.1}",173,0.107142857143,0.101186322401,0.110497237569,0.138675958188,0.100278551532,0.10083449235,0.126050420168,0.0881944444444,0.0901408450704,0.107489597781,0.0152212122533,0.00012148141372,0.0118202644985,0.016903762626
19,0.201158380508,0.000960636138916,0.149693934335,0.170993617703,0.1,"(25,)",5,"{'NN__hidden_layer_sizes': (25,), 'km__n_clusters': 5, 'NN__alpha': 0.1}",131,0.101648351648,0.1123517097,0.127071823204,0.179094076655,0.100278551532,0.0987482614743,0.100840336134,0.102083333333,0.321126760563,0.362690707351,0.0754701798292,3.6569835135e-05,0.0856652750228,0.100220041686
20,0.207527589798,0.00101056098938,0.154145798553,0.159151008477,0.1,"(25,)",10,"{'NN__hidden_layer_sizes': (25,), 'km__n_clusters': 10, 'NN__alpha': 0.1}",127,0.200549450549,0.218422889044,0.135359116022,0.105923344948,0.114206128134,0.120305980529,0.103641456583,0.145138888889,0.216901408451,0.205963938974,0.00343590345143,3.41472008345e-05,0.0459422708435,0.0452616087741
21,0.262827777863,0.00103101730347,0.104618809126,0.110570243324,0.1,"(25,)",15,"{'NN__hidden_layer_sizes': (25,), 'km__n_clusters': 15, 'NN__alpha': 0.1}",180,0.145604395604,0.114445219819,0.0441988950276,0.0641114982578,0.0947075208914,0.130041724618,0.142857142857,0.10625,0.0957746478873,0.138002773925,0.0253889529266,2.94500898136e-05,0.0374328350169,0.0257828518876
22,0.290697002411,0.00104899406433,0.140233722871,0.137595873327,0.1,"(25,)",20,"{'NN__hidden_layer_sizes': (25,), 'km__n_clusters': 20, 'NN__alpha': 0.1}",147,0.101648351648,0.105373342638,0.132596685083,0.14425087108,0.261838440111,0.213490959666,0.134453781513,0.127083333333,0.0704225352113,0.0977808599168,0.0297265274568,2.98468828853e-05,0.0650922464933,0.0413240690144
23,0.343337011337,0.00119223594666,0.173622704508,0.166645412736,0.1,"(25,)",25,"{'NN__hidden_layer_sizes': (25,), 'km__n_clusters': 25, 'NN__alpha': 0.1}",121,0.351648351648,0.36287508723,0.0690607734807,0.0745644599303,0.128133704735,0.107788595271,0.134453781513,0.147222222222,0.183098591549,0.140776699029,0.0400634725373,0.000103506135899,0.0967374434047,0.101484543318
24,0.375582170486,0.00124940872192,0.131886477462,0.140017405655,0.1,"(25,)",30,"{'NN__hidden_layer_sizes': (25,), 'km__n_clusters': 30, 'NN__alpha': 0.1}",152,0.0879120879121,0.117236566643,0.0994475138122,0.101045296167,0.100278551532,0.0987482614743,0.212885154062,0.184027777778,0.160563380282,0.199029126214,0.0269055446255,0.000138569288391,0.0476353146388,0.0428024069956
25,0.44344997406,0.00119199752808,0.129660545353,0.137988193078,0.1,"(25,)",35,"{'NN__hidden_layer_sizes': (25,), 'km__n_clusters': 35, 'NN__alpha': 0.1}",156,0.153846153846,0.157711095604,0.127071823204,0.112891986063,0.0724233983287,0.0910987482615,0.140056022409,0.160416666667,0.154929577465,0.167822468793,0.0146411307924,5.06309457888e-05,0.0303633867491,0.0303662739261
26,0.476056003571,0.00115432739258,0.129104062326,0.127103060241,0.1,"(25,)",40,"{'NN__hidden_layer_sizes': (25,), 'km__n_clusters': 40, 'NN__alpha': 0.1}",158,0.104395604396,0.0956036287509,0.121546961326,0.0996515679443,0.153203342618,0.162726008345,0.0868347338936,0.102083333333,0.180281690141,0.175450762829,0.023486742375,3.5161559483e-05,0.0335196150138,0.0345782594277
27,0.149384021759,0.00104684829712,0.121869782972,0.113661837797,0.1,"(25, 25)",2,"{'NN__hidden_layer_sizes': (25, 25), 'km__n_clusters': 2, 'NN__alpha': 0.1}",166,0.0961538461538,0.0969993021633,0.151933701657,0.136585365854,0.0974930362117,0.0966620305981,0.173669467787,0.143055555556,0.0901408450704,0.0950069348128,0.0165422941195,0.00012940163933,0.0341567147434,0.0214668010012
28,0.303870773315,0.00120043754578,0.289371174179,0.3130156842,0.1,"(25, 25)",5,"{'NN__hidden_layer_sizes': (25, 25), 'km__n_clusters': 5, 'NN__alpha': 0.1}",67,0.151098901099,0.154221912073,0.555248618785,0.651567944251,0.217270194986,0.189847009736,0.0756302521008,0.0673611111111,0.447887323944,0.502080443828,0.14765324256,0.000140758662318,0.182186036087,0.224096081998
29,0.260092258453,0.00127139091492,0.217028380634,0.235610222391,0.1,"(25, 25)",10,"{'NN__hidden_layer_sizes': (25, 25), 'km__n_clusters': 10, 'NN__alpha': 0.1}",108,0.123626373626,0.133984647592,0.577348066298,0.654355400697,0.161559888579,0.153685674548,0.179271708683,0.174305555556,0.0394366197183,0.0617198335645,0.0822660040529,7.48944977378e-05,0.187214950888,0.212783008179
30,0.335393285751,0.0012068271637,0.262103505843,0.293339772496,0.1,"(25, 25)",15,"{'NN__hidden_layer_sizes': (25, 25), 'km__n_clusters': 15, 'NN__alpha': 0.1}",79,0.0961538461538,0.0969993021633,0.533149171271,0.63275261324,0.197771587744,0.199582753825,0.378151260504,0.439583333333,0.104225352113,0.0977808599168,0.0642017654672,6.57424090065e-05,0.169717701295,0.210794450913
31,0.314318275452,0.00123815536499,0.148024485253,0.15677548557,0.1,"(25, 25)",20,"{'NN__hidden_layer_sizes': (25, 25), 'km__n_clusters': 20, 'NN__alpha': 0.1}",137,0.0824175824176,0.118632240056,0.132596685083,0.152613240418,0.242339832869,0.24826147427,0.12324929972,0.111111111111,0.160563380282,0.153259361997,0.0241158397667,3.89498617743e-05,0.0533846230275,0.0488661760549
32,0.39297785759,0.00135798454285,0.225375626043,0.23137712284,0.1,"(25, 25)",25,"{'NN__hidden_layer_sizes': (25, 25), 'km__n_clusters': 25, 'NN__alpha': 0.1}",93,0.186813186813,0.173761339846,0.444751381215,0.518466898955,0.24791086351,0.218358831711,0.103641456583,0.08125,0.140845070423,0.165048543689,0.0761130331156,0.000177185232439,0.120220986463,0.150231306543
33,0.440313386917,0.00131406784058,0.219254312743,0.229368894674,0.1,"(25, 25)",30,"{'NN__hidden_layer_sizes': (25, 25), 'km__n_clusters': 30, 'NN__alpha': 0.1}",105,0.112637362637,0.122121423587,0.0966850828729,0.101742160279,0.654596100279,0.669680111266,0.128851540616,0.129861111111,0.104225352113,0.123439667129,0.107625370094,2.96202246191e-05,0.217781477283,0.220357605306
34,0.451229572296,0.00147180557251,0.145798553144,0.152495437006,0.1,"(25, 25)",35,"{'NN__hidden_layer_sizes': (25, 25), 'km__n_clusters': 35, 'NN__alpha': 0.1}",138,0.175824175824,0.174459176553,0.174033149171,0.162369337979,0.105849582173,0.118915159944,0.100840336134,0.154861111111,0.171830985915,0.151872399445,0.0166070344681,0.000196844789767,0.0346043789791,0.0185122628147
35,0.558336639404,0.00136795043945,0.226488592098,0.280114878484,0.1,"(25, 25)",40,"{'NN__hidden_layer_sizes': (25, 25), 'km__n_clusters': 40, 'NN__alpha': 0.1}",92,0.0934065934066,0.107466852756,0.160220994475,0.194425087108,0.350974930362,0.517385257302,0.0868347338936,0.115277777778,0.445070422535,0.466019417476,0.109187899804,7.13249571989e-05,0.144503505143,0.176169850534
36,0.25976896286,0.00164980888367,0.262103505843,0.250721665635,0.1,"(100, 25, 100)",2,"{'NN__hidden_layer_sizes': (100, 25, 100), 'km__n_clusters': 2, 'NN__alpha': 0.1}",79,0.307692307692,0.314026517795,0.201657458564,0.19512195122,0.261838440111,0.251043115438,0.310924369748,0.253472222222,0.228169014085,0.239944521498,0.0682449584473,0.00013029974742,0.043104938781,0.0380069685119
37,0.417701148987,0.00172958374023,0.563160823595,0.564276821531,0.1,"(100, 25, 100)",5,"{'NN__hidden_layer_sizes': (100, 25, 100), 'km__n_clusters': 5, 'NN__alpha': 0.1}",30,0.590659340659,0.556873691556,0.574585635359,0.578397212544,0.504178272981,0.543115438108,0.607843137255,0.601388888889,0.538028169014,0.54160887656,0.0640644834564,7.7753207968e-05,0.03736169371,0.0227733932338
38,0.47395195961,0.0017906665802,0.690595436839,0.696860787127,0.1,"(100, 25, 100)",10,"{'NN__hidden_layer_sizes': (100, 25, 100), 'km__n_clusters': 10, 'NN__alpha': 0.1}",4,0.681318681319,0.643405443126,0.698895027624,0.787456445993,0.660167130919,0.667593880389,0.72268907563,0.696527777778,0.69014084507,0.68932038835,0.0732740246746,0.000147210574261,0.0205169205693,0.0489460264915
39,0.533950567245,0.00205826759338,0.638842515303,0.678075879179,0.1,"(100, 25, 100)",15,"{'NN__hidden_layer_sizes': (100, 25, 100), 'km__n_clusters': 15, 'NN__alpha': 0.1}",16,0.708791208791,0.70341939986,0.651933701657,0.760975609756,0.699164345404,0.757301808067,0.591036414566,0.620138888889,0.540845070423,0.54854368932,0.0990433609226,0.00030664755898,0.0640606348046,0.0823731633869
40,0.566597986221,0.00182437896729,0.570395102949,0.582633190645,0.1,"(100, 25, 100)",20,"{'NN__hidden_layer_sizes': (100, 25, 100), 'km__n_clusters': 20, 'NN__alpha': 0.1}",29,0.39010989011,0.396371249128,0.558011049724,0.561672473868,0.721448467967,0.776077885953,0.613445378151,0.590972222222,0.571830985915,0.588072122053,0.0692357079147,0.000124936795297,0.107431791916,0.120542800756
41,0.579360818863,0.00189571380615,0.61101836394,0.672323680034,0.1,"(100, 25, 100)",25,"{'NN__hidden_layer_sizes': (100, 25, 100), 'km__n_clusters': 25, 'NN__alpha': 0.1}",21,0.5,0.531751570133,0.549723756906,0.634146341463,0.604456824513,0.710013908206,0.686274509804,0.694444444444,0.718309859155,0.791262135922,0.0783615711039,0.000101468818506,0.0816164732491,0.0863414906859
42,0.650180435181,0.00179572105408,0.574846967168,0.620041653315,0.1,"(100, 25, 100)",30,"{'NN__hidden_layer_sizes': (100, 25, 100), 'km__n_clusters': 30, 'NN__alpha': 0.1}",26,0.771978021978,0.780181437544,0.665745856354,0.768641114983,0.601671309192,0.675938803894,0.686274509804,0.697222222222,0.140845070423,0.178224687933,0.119028029456,2.38858770274e-05,0.222163903561,0.224503947876
43,0.736057281494,0.00193290710449,0.668336115748,0.720872386451,0.1,"(100, 25, 100)",35,"{'NN__hidden_layer_sizes': (100, 25, 100), 'km__n_clusters': 35, 'NN__alpha': 0.1}",11,0.708791208791,0.708304256804,0.723756906077,0.816027874564,0.693593314763,0.78511821975,0.582633053221,0.63125,0.630985915493,0.663661581137,0.0942076957878,8.4220484812e-05,0.0530327948588,0.0702072650015
44,0.737601184845,0.00201077461243,0.644963828603,0.684633983781,0.1,"(100, 25, 100)",40,"{'NN__hidden_layer_sizes': (100, 25, 100), 'km__n_clusters': 40, 'NN__alpha': 0.1}",15,0.461538461538,0.485694347523,0.685082872928,0.787456445993,0.637883008357,0.714186369958,0.764705882353,0.735416666667,0.678873239437,0.700416088766,0.0961294460731,6.7394383284e-05,0.101118679271,0.103779320539
45,0.196641731262,0.00122890472412,0.224262659989,0.233853604265,0.01,"(50, 50)",2,"{'NN__hidden_layer_sizes': (50, 50), 'km__n_clusters': 2, 'NN__alpha': 0.01}",97,0.247252747253,0.238660153524,0.193370165746,0.230662020906,0.206128133705,0.194019471488,0.294117647059,0.272916666667,0.180281690141,0.233009708738,0.0335997218632,0.000108831811267,0.0414314667258,0.0250865791134
46,0.354423379898,0.00138702392578,0.501391207568,0.533439919033,0.01,"(50, 50)",5,"{'NN__hidden_layer_sizes': (50, 50), 'km__n_clusters': 5, 'NN__alpha': 0.01}",42,0.480769230769,0.508025122121,0.629834254144,0.636933797909,0.459610027855,0.539638386648,0.442577030812,0.45625,0.492957746479,0.526352288488,0.0818362984428,7.97327623735e-05,0.0667797249824,0.058998023653
47,0.351513433456,0.00135178565979,0.500834724541,0.54487152642,0.01,"(50, 50)",10,"{'NN__hidden_layer_sizes': (50, 50), 'km__n_clusters': 10, 'NN__alpha': 0.01}",43,0.56043956044,0.59665038381,0.530386740331,0.623693379791,0.540389972145,0.589707927677,0.210084033613,0.214583333333,0.661971830986,0.69972260749,0.0637801407458,4.00578406468e-05,0.152091722072,0.16968994391
48,0.298943567276,0.00154876708984,0.220367278798,0.242455106339,0.01,"(50, 50)",15,"{'NN__hidden_layer_sizes': (50, 50), 'km__n_clusters': 15, 'NN__alpha': 0.01}",102,0.0961538461538,0.0900209351012,0.538674033149,0.639721254355,0.105849582173,0.104311543811,0.193277310924,0.197916666667,0.166197183099,0.180305131761,0.0483829902223,0.000175245537873,0.163954727003,0.202971182554
49,0.420565223694,0.00140357017517,0.327212020033,0.357440662505,0.01,"(50, 50)",20,"{'NN__hidden_layer_sizes': (50, 50), 'km__n_clusters': 20, 'NN__alpha': 0.01}",61,0.101648351648,0.102581995813,0.665745856354,0.736585365854,0.629526462396,0.71140472879,0.117647058824,0.111111111111,0.118309859155,0.125520110957,0.144070591296,0.00012810858346,0.262673472552,0.299486091966
50,0.471358442307,0.00152077674866,0.361713967724,0.363531267269,0.01,"(50, 50)",25,"{'NN__hidden_layer_sizes': (50, 50), 'km__n_clusters': 25, 'NN__alpha': 0.01}",57,0.612637362637,0.603628750872,0.149171270718,0.161672473868,0.721448467967,0.792767732962,0.190476190476,0.1625,0.129577464789,0.0970873786408,0.154387872735,7.64299610777e-05,0.253333259016,0.280728920418
51,0.517438745499,0.00142917633057,0.397328881469,0.41761018669,0.01,"(50, 50)",30,"{'NN__hidden_layer_sizes': (50, 50), 'km__n_clusters': 30, 'NN__alpha': 0.01}",49,0.659340659341,0.706908583391,0.174033149171,0.15818815331,0.186629526462,0.241307371349,0.792717086835,0.767361111111,0.171830985915,0.214285714286,0.139031185272,2.93913543438e-05,0.271886000672,0.262961056678
52,0.636822652817,0.00146398544312,0.583194212577,0.613770753051,0.01,"(50, 50)",35,"{'NN__hidden_layer_sizes': (50, 50), 'km__n_clusters': 35, 'NN__alpha': 0.01}",22,0.596153846154,0.582693649686,0.718232044199,0.783275261324,0.732590529248,0.792767732962,0.193277310924,0.194444444444,0.67323943662,0.715672676838,0.12740852344,5.56931920075e-05,0.199930219219,0.222690834413
53,0.593001937866,0.00151481628418,0.397885364496,0.432057791639,0.01,"(50, 50)",40,"{'NN__hidden_layer_sizes': (50, 50), 'km__n_clusters': 40, 'NN__alpha': 0.01}",48,0.173076923077,0.143056524773,0.309392265193,0.373519163763,0.635097493036,0.716272600834,0.635854341737,0.684722222222,0.239436619718,0.242718446602,0.125275903889,5.86093972344e-05,0.198156530347,0.231264032236
54,0.165872192383,0.000902414321899,0.204229271007,0.206064604641,0.01,"(50,)",2,"{'NN__hidden_layer_sizes': (50,), 'km__n_clusters': 2, 'NN__alpha': 0.01}",115,0.230769230769,0.233775296581,0.182320441989,0.188850174216,0.203342618384,0.226703755216,0.201680672269,0.196527777778,0.202816901408,0.184466019417,0.0276047338343,1.24590532636e-05,0.0155310116296,0.0202368157048
55,0.211588048935,0.00114760398865,0.221480244853,0.231270960812,0.01,"(50,)",5,"{'NN__hidden_layer_sizes': (50,), 'km__n_clusters': 5, 'NN__alpha': 0.01}",99,0.486263736264,0.460572226099,0.0745856353591,0.0815331010453,0.320334261838,0.344228094576,0.15406162465,0.185416666667,0.0676056338028,0.0846047156727,0.0471051674468,8.21670261562e-05,0.161496412024,0.149247053393
56,0.220996809006,0.00119619369507,0.141903171953,0.14216579269,0.01,"(50,)",10,"{'NN__hidden_layer_sizes': (50,), 'km__n_clusters': 10, 'NN__alpha': 0.01}",142,0.129120879121,0.129797627355,0.168508287293,0.136585365854,0.130919220056,0.146036161335,0.148459383754,0.153472222222,0.132394366197,0.144937586685,0.0151647935211,0.00010089928351,0.0150396228353,0.00818059437441
57,0.27155175209,0.00111794471741,0.140790205899,0.14972442033,0.01,"(50,)",15,"{'NN__hidden_layer_sizes': (50,), 'km__n_clusters': 15, 'NN__alpha': 0.01}",145,0.0906593406593,0.108862526169,0.0939226519337,0.0878048780488,0.091922005571,0.111265646732,0.243697478992,0.236805555556,0.185915492958,0.203883495146,0.0221851212741,3.38225137429e-05,0.0627275410879,0.0591593287225
58,0.347273540497,0.00114760398865,0.235392320534,0.239114458844,0.01,"(50,)",20,"{'NN__hidden_layer_sizes': (50,), 'km__n_clusters': 20, 'NN__alpha': 0.01}",88,0.14010989011,0.118632240056,0.174033149171,0.147735191638,0.601671309192,0.664116828929,0.117647058824,0.128472222222,0.143661971831,0.136615811373,0.0770233483694,2.35981887218e-05,0.183891770066,0.212716161753
59,0.397898674011,0.00119371414185,0.283249860879,0.293464229453,0.01,"(50,)",25,"{'NN__hidden_layer_sizes': (50,), 'km__n_clusters': 25, 'NN__alpha': 0.01}",72,0.214285714286,0.20446615492,0.138121546961,0.137282229965,0.139275766017,0.166203059805,0.683473389356,0.705555555556,0.245070422535,0.253814147018,0.10293235005,2.61363315728e-05,0.203610436275,0.209714219652
60,0.45765042305,0.00139236450195,0.29938786867,0.324281625786,0.01,"(50,)",30,"{'NN__hidden_layer_sizes': (50,), 'km__n_clusters': 30, 'NN__alpha': 0.01}",64,0.214285714286,0.172365666434,0.0801104972376,0.0843205574913,0.657381615599,0.717663421419,0.456582633053,0.529166666667,0.0901408450704,0.117891816921,0.0928107219735,0.000166543799592,0.224310424537,0.252975747185
61,0.494164180756,0.00122518539429,0.286588759043,0.301114329656,0.01,"(50,)",35,"{'NN__hidden_layer_sizes': (50,), 'km__n_clusters': 35, 'NN__alpha': 0.01}",71,0.184065934066,0.203070481507,0.14364640884,0.138675958188,0.657381615599,0.721140472879,0.193277310924,0.175694444444,0.256338028169,0.266990291262,0.102405959894,2.99427158853e-05,0.188739449997,0.214156661946
62,0.521281433105,0.00134782791138,0.279910962716,0.30090992226,0.01,"(50,)",40,"{'NN__hidden_layer_sizes': (50,), 'km__n_clusters': 40, 'NN__alpha': 0.01}",75,0.131868131868,0.111653872994,0.406077348066,0.468292682927,0.183844011142,0.219054242003,0.198879551821,0.200694444444,0.481690140845,0.504854368932,0.0503298234303,0.000120662924469,0.137249783967,0.156314856917
63,0.146787691116,0.000903081893921,0.106844741235,0.107276163033,0.01,"(25,)",2,"{'NN__hidden_layer_sizes': (25,), 'km__n_clusters': 2, 'NN__alpha': 0.01}",173,0.107142857143,0.101186322401,0.110497237569,0.138675958188,0.100278551532,0.10083449235,0.126050420168,0.0881944444444,0.0901408450704,0.107489597781,0.016848561709,0.000115773410704,0.0118202644985,0.016903762626
64,0.175622606277,0.00105037689209,0.105731775181,0.120092092044,0.01,"(25,)",5,"{'NN__hidden_layer_sizes': (25,), 'km__n_clusters': 5, 'NN__alpha': 0.01}",177,0.101648351648,0.1123517097,0.127071823204,0.179094076655,0.100278551532,0.0987482614743,0.100840336134,0.102083333333,0.0985915492958,0.108183079057,0.0138970961418,0.000181753324392,0.010764845591,0.0298758992865
65,0.211449146271,0.00115222930908,0.153589315526,0.159012119588,0.01,"(25,)",10,"{'NN__hidden_layer_sizes': (25,), 'km__n_clusters': 10, 'NN__alpha': 0.01}",128,0.200549450549,0.218422889044,0.132596685083,0.105923344948,0.114206128134,0.120305980529,0.103641456583,0.144444444444,0.216901408451,0.205963938974,0.00351465416137,0.000134116450282,0.0461825590755,0.0453054372537
66,0.265258741379,0.00120363235474,0.110740122426,0.116141289447,0.01,"(25,)",15,"{'NN__hidden_layer_sizes': (25,), 'km__n_clusters': 15, 'NN__alpha': 0.01}",171,0.145604395604,0.114445219819,0.0745856353591,0.0878048780488,0.0947075208914,0.130041724618,0.142857142857,0.106944444444,0.0957746478873,0.141470180305,0.0274719671808,0.000225445340709,0.0284614646692,0.0185751749986
67,0.309528398514,0.00108242034912,0.140233722871,0.137595873327,0.01,"(25,)",20,"{'NN__hidden_layer_sizes': (25,), 'km__n_clusters': 20, 'NN__alpha': 0.01}",147,0.101648351648,0.105373342638,0.132596685083,0.14425087108,0.261838440111,0.213490959666,0.134453781513,0.127083333333,0.0704225352113,0.0977808599168,0.0330788943549,2.75358492787e-05,0.0650922464933,0.0413240690144
68,0.360092782974,0.00125441551208,0.168057874235,0.160504449722,0.01,"(25,)",25,"{'NN__hidden_layer_sizes': (25,), 'km__n_clusters': 25, 'NN__alpha': 0.01}",123,0.326923076923,0.332170272156,0.0690607734807,0.0745644599303,0.128133704735,0.107788595271,0.134453781513,0.147222222222,0.180281690141,0.140776699029,0.0357405082179,0.000144386071037,0.0875145192545,0.0896653773345
69,0.379653358459,0.001154088974,0.131886477462,0.140017405655,0.01,"(25,)",30,"{'NN__hidden_layer_sizes': (25,), 'km__n_clusters': 30, 'NN__alpha': 0.01}",152,0.0879120879121,0.117236566643,0.0994475138122,0.101045296167,0.100278551532,0.0987482614743,0.212885154062,0.184027777778,0.160563380282,0.199029126214,0.0328298852269,0.000127283781717,0.0476353146388,0.0428024069956
70,0.441203212738,0.00122456550598,0.129660545353,0.137849496822,0.01,"(25,)",35,"{'NN__hidden_layer_sizes': (25,), 'km__n_clusters': 35, 'NN__alpha': 0.01}",156,0.153846153846,0.157711095604,0.127071823204,0.112891986063,0.0724233983287,0.0910987482615,0.140056022409,0.160416666667,0.154929577465,0.167128987517,0.00707250106855,0.000128895566779,0.0303633867491,0.0302309730925
71,0.480416536331,0.00120887756348,0.128547579299,0.127381515121,0.01,"(25,)",40,"{'NN__hidden_layer_sizes': (25,), 'km__n_clusters': 40, 'NN__alpha': 0.01}",162,0.104395604396,0.0956036287509,0.121546961326,0.100348432056,0.150417827298,0.163421418637,0.0868347338936,0.102083333333,0.180281690141,0.175450762829,0.025273422316,5.78968679228e-05,0.0331358314881,0.0346125609125
72,0.148276853561,0.00102119445801,0.121869782972,0.113661837797,0.01,"(25, 25)",2,"{'NN__hidden_layer_sizes': (25, 25), 'km__n_clusters': 2, 'NN__alpha': 0.01}",166,0.0961538461538,0.0969993021633,0.151933701657,0.136585365854,0.0974930362117,0.0966620305981,0.173669467787,0.143055555556,0.0901408450704,0.0950069348128,0.0130368475338,4.76995441869e-05,0.0341567147434,0.0214668010012
73,0.295210504532,0.00111036300659,0.278241513634,0.306323759028,0.01,"(25, 25)",5,"{'NN__hidden_layer_sizes': (25, 25), 'km__n_clusters': 5, 'NN__alpha': 0.01}",77,0.151098901099,0.154221912073,0.5,0.616027874564,0.217270194986,0.189847009736,0.0756302521008,0.0673611111111,0.447887323944,0.504160887656,0.123603439958,3.74829797759e-05,0.166626916684,0.213944441721
74,0.221968603134,0.00128078460693,0.125208681135,0.139722591735,0.01,"(25, 25)",10,"{'NN__hidden_layer_sizes': (25, 25), 'km__n_clusters': 10, 'NN__alpha': 0.01}",165,0.123626373626,0.134682484299,0.118784530387,0.174912891986,0.161559888579,0.153685674548,0.179271708683,0.174305555556,0.0422535211268,0.0610263522885,0.0076072085312,8.14449870805e-05,0.0470417832165,0.0420661552463
75,0.332982540131,0.00127325057983,0.224819143016,0.249207949035,0.01,"(25, 25)",15,"{'NN__hidden_layer_sizes': (25, 25), 'km__n_clusters': 15, 'NN__alpha': 0.01}",96,0.0961538461538,0.0969993021633,0.602209944751,0.682926829268,0.197771587744,0.199582753825,0.120448179272,0.16875,0.104225352113,0.0977808599168,0.0945297395989,0.000105679378762,0.192943995062,0.22052022317
76,0.310473775864,0.00132541656494,0.149693934335,0.157192345942,0.01,"(25, 25)",20,"{'NN__hidden_layer_sizes': (25, 25), 'km__n_clusters': 20, 'NN__alpha': 0.01}",131,0.0824175824176,0.118632240056,0.132596685083,0.152613240418,0.24791086351,0.249652294854,0.12324929972,0.111111111111,0.16338028169,0.153952843273,0.0228741006498,0.00012307225249,0.0554868792286,0.0493774578269
77,0.395754146576,0.00133624076843,0.225375626043,0.230959004373,0.01,"(25, 25)",25,"{'NN__hidden_layer_sizes': (25, 25), 'km__n_clusters': 25, 'NN__alpha': 0.01}",93,0.186813186813,0.173761339846,0.444751381215,0.51637630662,0.24791086351,0.218358831711,0.103641456583,0.08125,0.140845070423,0.165048543689,0.0746540477028,0.000183895735273,0.120220986463,0.149432492061
78,0.446342945099,0.00129461288452,0.216471897607,0.232984835024,0.01,"(25, 25)",30,"{'NN__hidden_layer_sizes': (25, 25), 'km__n_clusters': 30, 'NN__alpha': 0.01}",109,0.112637362637,0.122121423587,0.0966850828729,0.101742160279,0.637883008357,0.687065368567,0.131652661064,0.130555555556,0.104225352113,0.123439667129,0.108174279977,7.0536449911e-05,0.210880660789,0.227242763455
79,0.445531415939,0.00133585929871,0.145798553144,0.152216496843,0.01,"(25, 25)",35,"{'NN__hidden_layer_sizes': (25, 25), 'km__n_clusters': 35, 'NN__alpha': 0.01}",138,0.175824175824,0.173761339846,0.174033149171,0.161672473868,0.105849582173,0.118915159944,0.100840336134,0.154861111111,0.171830985915,0.151872399445,0.0119196464892,3.99152863099e-05,0.0346043789791,0.0182739551735
80,0.56253247261,0.00139670372009,0.182526432944,0.236567145052,0.01,"(25, 25)",40,"{'NN__hidden_layer_sizes': (25, 25), 'km__n_clusters': 40, 'NN__alpha': 0.01}",119,0.0934065934066,0.107466852756,0.160220994475,0.193031358885,0.350974930362,0.525034770515,0.0868347338936,0.115277777778,0.222535211268,0.242024965326,0.108104191615,6.93733992354e-05,0.0975349245165,0.152654328143
81,0.262905073166,0.00153799057007,0.243183082916,0.243224481756,0.01,"(100, 25, 100)",2,"{'NN__hidden_layer_sizes': (100, 25, 100), 'km__n_clusters': 2, 'NN__alpha': 0.01}",83,0.31043956044,0.318213538032,0.201657458564,0.195818815331,0.236768802228,0.244784422809,0.238095238095,0.217361111111,0.228169014085,0.239944521498,0.0967493205405,3.10930735947e-05,0.036352867316,0.0413588231624
82,0.408029222488,0.00179462432861,0.539232053422,0.553277765042,0.01,"(100, 25, 100)",5,"{'NN__hidden_layer_sizes': (100, 25, 100), 'km__n_clusters': 5, 'NN__alpha': 0.01}",36,0.491758241758,0.531751570133,0.569060773481,0.580487804878,0.537604456825,0.531293463143,0.56862745098,0.579166666667,0.529577464789,0.543689320388,0.058736697273,0.000186797169682,0.0287465944067,0.0221325387759
83,0.450123071671,0.00172867774963,0.687256538676,0.694912758209,0.01,"(100, 25, 100)",10,"{'NN__hidden_layer_sizes': (100, 25, 100), 'km__n_clusters': 10, 'NN__alpha': 0.01}",5,0.662087912088,0.642009769714,0.707182320442,0.783972125436,0.651810584958,0.666898470097,0.728291316527,0.69375,0.687323943662,0.687933425798,0.0666281995748,9.69744937318e-05,0.0281748358646,0.0480939923659
84,0.535332155228,0.00169262886047,0.653311074012,0.694847790812,0.01,"(100, 25, 100)",15,"{'NN__hidden_layer_sizes': (100, 25, 100), 'km__n_clusters': 15, 'NN__alpha': 0.01}",12,0.700549450549,0.700628053036,0.649171270718,0.758885017422,0.699164345404,0.750347705146,0.582633053221,0.616666666667,0.633802816901,0.647711511789,0.084817997032,2.435727892e-05,0.0440803964478,0.0557647474433
85,0.542738199234,0.00172715187073,0.55592654424,0.577049002936,0.01,"(100, 25, 100)",20,"{'NN__hidden_layer_sizes': (100, 25, 100), 'km__n_clusters': 20, 'NN__alpha': 0.01}",31,0.398351648352,0.404745289602,0.618784530387,0.651567944251,0.729805013928,0.783031988873,0.610644257703,0.59375,0.422535211268,0.452149791956,0.0964907856724,4.42291590653e-05,0.12639373175,0.136784040696
86,0.560700464249,0.00175313949585,0.578185865331,0.642353454955,0.01,"(100, 25, 100)",25,"{'NN__hidden_layer_sizes': (100, 25, 100), 'km__n_clusters': 25, 'NN__alpha': 0.01}",24,0.502747252747,0.529658060014,0.602209944751,0.662717770035,0.632311977716,0.743393602225,0.459383753501,0.494444444444,0.695774647887,0.781553398058,0.104707032235,3.41308166668e-05,0.0859640206131,0.113646617442
87,0.71520524025,0.00191059112549,0.687256538676,0.721497360723,0.01,"(100, 25, 100)",30,"{'NN__hidden_layer_sizes': (100, 25, 100), 'km__n_clusters': 30, 'NN__alpha': 0.01}",5,0.791208791209,0.765526866713,0.657458563536,0.700348432056,0.610027855153,0.682197496523,0.72268907563,0.7375,0.653521126761,0.721914008322,0.106178244418,0.00019949242606,0.0635099662888,0.0289365235186
88,0.726824522018,0.00194878578186,0.67612687813,0.725238684045,0.01,"(100, 25, 100)",35,"{'NN__hidden_layer_sizes': (100, 25, 100), 'km__n_clusters': 35, 'NN__alpha': 0.01}",10,0.642857142857,0.654570830426,0.693370165746,0.796515679443,0.66573816156,0.749652294854,0.733893557423,0.752777777778,0.645070422535,0.672676837725,0.0481660923942,0.000192600271645,0.0340462345693,0.0532757531583
89,0.769837427139,0.00185360908508,0.701168614357,0.747160631873,0.01,"(100, 25, 100)",40,"{'NN__hidden_layer_sizes': (100, 25, 100), 'km__n_clusters': 40, 'NN__alpha': 0.01}",1,0.791208791209,0.796929518493,0.657458563536,0.788153310105,0.635097493036,0.719054242003,0.750700280112,0.73125,0.670422535211,0.700416088766,0.0435365043335,5.61947280363e-05,0.0597773775804,0.0384330883807
90,0.20823302269,0.00122375488281,0.238174735671,0.245576875662,0.001,"(50, 50)",2,"{'NN__hidden_layer_sizes': (50, 50), 'km__n_clusters': 2, 'NN__alpha': 0.001}",85,0.315934065934,0.297278436846,0.190607734807,0.230662020906,0.206128133705,0.194019471488,0.294117647059,0.271527777778,0.183098591549,0.23439667129,0.0447069499972,5.43835653325e-05,0.0557381173998,0.0356429980131
91,0.347639751434,0.00139918327332,0.513077351141,0.543454795384,0.001,"(50, 50)",5,"{'NN__hidden_layer_sizes': (50, 50), 'km__n_clusters': 5, 'NN__alpha': 0.001}",38,0.486263736264,0.508722958828,0.629834254144,0.637630662021,0.515320334262,0.587621696801,0.442577030812,0.458333333333,0.49014084507,0.524965325936,0.0720519871065,0.000132635544858,0.0631201046661,0.0626316745589
92,0.359683847427,0.00133013725281,0.507512520868,0.551500291286,0.001,"(50, 50)",10,"{'NN__hidden_layer_sizes': (50, 50), 'km__n_clusters': 10, 'NN__alpha': 0.001}",41,0.565934065934,0.571528262387,0.530386740331,0.625087108014,0.540389972145,0.592489568846,0.210084033613,0.213888888889,0.69014084507,0.754507628294,0.0769489277967,2.69562755584e-05,0.158670247852,0.180382758602
93,0.289764213562,0.00145201683044,0.218697829716,0.240643259649,0.001,"(50, 50)",15,"{'NN__hidden_layer_sizes': (50, 50), 'km__n_clusters': 15, 'NN__alpha': 0.001}",106,0.0961538461538,0.0900209351012,0.530386740331,0.630662020906,0.105849582173,0.104311543811,0.193277310924,0.197916666667,0.166197183099,0.180305131761,0.0511380445274,0.00014717557066,0.160715297412,0.199426330735
94,0.408699035645,0.00142164230347,0.322760155815,0.351020015065,0.001,"(50, 50)",20,"{'NN__hidden_layer_sizes': (50, 50), 'km__n_clusters': 20, 'NN__alpha': 0.001}",62,0.101648351648,0.102581995813,0.613259668508,0.682229965157,0.66295264624,0.732962447844,0.114845938375,0.111805555556,0.118309859155,0.125520110957,0.124609274904,0.000125428513592,0.258591033162,0.291676281791
95,0.410653877258,0.0014636516571,0.278797996661,0.265207145409,0.001,"(50, 50)",25,"{'NN__hidden_layer_sizes': (50, 50), 'km__n_clusters': 25, 'NN__alpha': 0.001}",76,0.626373626374,0.614096301465,0.149171270718,0.161672473868,0.292479108635,0.289986091794,0.190476190476,0.1625,0.129577464789,0.0977808599168,0.109168219666,8.26119516491e-05,0.183961674053,0.185276758608
96,0.44836730957,0.0014368057251,0.335002782415,0.365865279962,0.001,"(50, 50)",30,"{'NN__hidden_layer_sizes': (50, 50), 'km__n_clusters': 30, 'NN__alpha': 0.001}",59,0.56043956044,0.62247034194,0.171270718232,0.15818815331,0.186629526462,0.241307371349,0.582633053221,0.606944444444,0.171830985915,0.200416088766,0.0692994719009,3.67463597028e-05,0.193739412916,0.204930826271
97,0.664180517197,0.00147705078125,0.634390651085,0.677514539698,0.001,"(50, 50)",35,"{'NN__hidden_layer_sizes': (50, 50), 'km__n_clusters': 35, 'NN__alpha': 0.001}",19,0.71978021978,0.685275645499,0.723756906077,0.783275261324,0.727019498607,0.796244784423,0.46218487395,0.522222222222,0.535211267606,0.600554785021,0.0751963625221,3.37775772309e-05,0.112403099728,0.105243473642
98,0.642959833145,0.00151462554932,0.459654980523,0.505934000665,0.001,"(50, 50)",40,"{'NN__hidden_layer_sizes': (50, 50), 'km__n_clusters': 40, 'NN__alpha': 0.001}",46,0.173076923077,0.143056524773,0.649171270718,0.754703832753,0.635097493036,0.717663421419,0.59943977591,0.671527777778,0.242253521127,0.242718446602,0.136861905314,2.82025699009e-05,0.207939548777,0.258882045109
99,0.165613603592,0.000943756103516,0.204229271007,0.206203300897,0.001,"(50,)",2,"{'NN__hidden_layer_sizes': (50,), 'km__n_clusters': 2, 'NN__alpha': 0.001}",115,0.230769230769,0.233775296581,0.182320441989,0.188850174216,0.203342618384,0.226703755216,0.201680672269,0.196527777778,0.202816901408,0.185159500693,0.0241270551415,3.44795142726e-05,0.0155310116296,0.0200901560645
100,0.209769392014,0.00119042396545,0.219810795771,0.23168869227,0.001,"(50,)",5,"{'NN__hidden_layer_sizes': (50,), 'km__n_clusters': 5, 'NN__alpha': 0.001}",103,0.483516483516,0.461270062805,0.0745856353591,0.0815331010453,0.314763231198,0.34561891516,0.15406162465,0.185416666667,0.0676056338028,0.0846047156727,0.0485895313298,0.000156466322799,0.159910274328,0.14967244201
101,0.221155834198,0.0011549949646,0.141903171953,0.138960508541,0.001,"(50,)",10,"{'NN__hidden_layer_sizes': (50,), 'km__n_clusters': 10, 'NN__alpha': 0.001}",142,0.129120879121,0.129797627355,0.171270718232,0.121254355401,0.122562674095,0.145340751043,0.15406162465,0.153472222222,0.132394366197,0.144937586685,0.0163641169528,0.000102343584925,0.018132622599,0.0117003336888
102,0.272651767731,0.00114521980286,0.149693934335,0.16097442033,0.001,"(50,)",15,"{'NN__hidden_layer_sizes': (50,), 'km__n_clusters': 15, 'NN__alpha': 0.001}",131,0.0906593406593,0.108862526169,0.0939226519337,0.0878048780488,0.091922005571,0.111265646732,0.285714285714,0.293055555556,0.188732394366,0.203883495146,0.0250677571813,7.91455745868e-05,0.0773043829557,0.0772360130863
103,0.350094079971,0.00127935409546,0.235948803561,0.23967117288,0.001,"(50,)",20,"{'NN__hidden_layer_sizes': (50,), 'km__n_clusters': 20, 'NN__alpha': 0.001}",87,0.14010989011,0.118632240056,0.174033149171,0.147735191638,0.604456824513,0.667593880389,0.117647058824,0.128472222222,0.143661971831,0.135922330097,0.0813310145973,0.000171677668116,0.185000215128,0.21417260353
104,0.384637784958,0.00124039649963,0.263216471898,0.278465873753,0.001,"(50,)",25,"{'NN__hidden_layer_sizes': (50,), 'km__n_clusters': 25, 'NN__alpha': 0.001}",78,0.214285714286,0.205163991626,0.138121546961,0.137282229965,0.147632311978,0.169680111266,0.574229691877,0.626388888889,0.245070422535,0.253814147018,0.0794157405352,0.000144124975667,0.159962603422,0.178212491935
105,0.425798845291,0.00128264427185,0.234835837507,0.255961141121,0.001,"(50,)",30,"{'NN__hidden_layer_sizes': (50,), 'km__n_clusters': 30, 'NN__alpha': 0.001}",89,0.214285714286,0.17306350314,0.0801104972376,0.0843205574913,0.679665738162,0.762169680111,0.109243697479,0.141666666667,0.0901408450704,0.118585298197,0.0862542971242,0.000120335164132,0.227395084031,0.25476064939
106,0.490142774582,0.00123209953308,0.28102392877,0.289152786144,0.001,"(50,)",35,"{'NN__hidden_layer_sizes': (50,), 'km__n_clusters': 35, 'NN__alpha': 0.001}",74,0.184065934066,0.203070481507,0.140883977901,0.136585365854,0.635097493036,0.664116828929,0.193277310924,0.175694444444,0.253521126761,0.266296809986,0.0850508947102,3.31020478864e-05,0.180513829,0.192187515325
107,0.568119049072,0.00130820274353,0.391764051196,0.417275460187,0.001,"(50,)",40,"{'NN__hidden_layer_sizes': (50,), 'km__n_clusters': 40, 'NN__alpha': 0.001}",50,0.131868131868,0.111653872994,0.408839779006,0.45574912892,0.183844011142,0.219054242003,0.686274509804,0.742361111111,0.554929577465,0.557558945908,0.0865193444367,3.67467928359e-05,0.211821146479,0.227831765075
108,0.153712797165,0.000908184051514,0.106844741235,0.107276163033,0.001,"(25,)",2,"{'NN__hidden_layer_sizes': (25,), 'km__n_clusters': 2, 'NN__alpha': 0.001}",173,0.107142857143,0.101186322401,0.110497237569,0.138675958188,0.100278551532,0.10083449235,0.126050420168,0.0881944444444,0.0901408450704,0.107489597781,0.0137028875337,0.000193502516381,0.0118202644985,0.016903762626
109,0.178439807892,0.00119142532349,0.105731775181,0.120092092044,0.001,"(25,)",5,"{'NN__hidden_layer_sizes': (25,), 'km__n_clusters': 5, 'NN__alpha': 0.001}",177,0.101648351648,0.1123517097,0.127071823204,0.179094076655,0.100278551532,0.0987482614743,0.100840336134,0.102083333333,0.0985915492958,0.108183079057,0.0170053687557,0.000173998355996,0.010764845591,0.0298758992865
110,0.213470602036,0.00100541114807,0.153589315526,0.159012119588,0.001,"(25,)",10,"{'NN__hidden_layer_sizes': (25,), 'km__n_clusters': 10, 'NN__alpha': 0.001}",128,0.200549450549,0.218422889044,0.132596685083,0.105923344948,0.114206128134,0.120305980529,0.103641456583,0.144444444444,0.216901408451,0.205963938974,0.00510095081497,3.14914753991e-05,0.0461825590755,0.0453054372537
111,0.261593055725,0.00110054016113,0.110740122426,0.116141289447,0.001,"(25,)",15,"{'NN__hidden_layer_sizes': (25,), 'km__n_clusters': 15, 'NN__alpha': 0.001}",171,0.145604395604,0.114445219819,0.0745856353591,0.0878048780488,0.0947075208914,0.130041724618,0.145658263305,0.106944444444,0.0929577464789,0.141470180305,0.0240037944456,0.000136375343883,0.0294207838711,0.0185751749986
112,0.301176023483,0.00106973648071,0.140233722871,0.137595873327,0.001,"(25,)",20,"{'NN__hidden_layer_sizes': (25,), 'km__n_clusters': 20, 'NN__alpha': 0.001}",147,0.101648351648,0.105373342638,0.132596685083,0.14425087108,0.261838440111,0.213490959666,0.134453781513,0.127083333333,0.0704225352113,0.0977808599168,0.0278944450277,4.11716235136e-05,0.0650922464933,0.0413240690144
113,0.342425870895,0.00113434791565,0.168057874235,0.160644017063,0.001,"(25,)",25,"{'NN__hidden_layer_sizes': (25,), 'km__n_clusters': 25, 'NN__alpha': 0.001}",123,0.326923076923,0.332868108863,0.0690607734807,0.0745644599303,0.128133704735,0.107788595271,0.134453781513,0.147222222222,0.180281690141,0.140776699029,0.0286794492719,4.10366512691e-05,0.0875145192545,0.0899326175175
114,0.377461194992,0.00113220214844,0.131886477462,0.139877838314,0.001,"(25,)",30,"{'NN__hidden_layer_sizes': (25,), 'km__n_clusters': 30, 'NN__alpha': 0.001}",152,0.0879120879121,0.116538729937,0.0994475138122,0.101045296167,0.100278551532,0.0987482614743,0.212885154062,0.184027777778,0.160563380282,0.199029126214,0.0239166562265,7.80312212323e-05,0.0476353146388,0.0428775335467
115,0.433991384506,0.00117521286011,0.129104062326,0.137849689456,0.001,"(25,)",35,"{'NN__hidden_layer_sizes': (25,), 'km__n_clusters': 35, 'NN__alpha': 0.001}",158,0.153846153846,0.157711095604,0.127071823204,0.112891986063,0.0724233983287,0.0910987482615,0.140056022409,0.161111111111,0.152112676056,0.166435506241,0.00881023687747,8.86807383651e-05,0.0299177132209,0.0302034950762
116,0.47018904686,0.00121464729309,0.128547579299,0.127798182324,0.001,"(25,)",40,"{'NN__hidden_layer_sizes': (25,), 'km__n_clusters': 40, 'NN__alpha': 0.001}",162,0.104395604396,0.0956036287509,0.121546961326,0.100348432056,0.150417827298,0.164116828929,0.0868347338936,0.102777777778,0.180281690141,0.176144244105,0.0145924258311,8.76495703138e-05,0.0331358314881,0.0348493457448
117,0.150071382523,0.00107045173645,0.121869782972,0.113523141541,0.001,"(25, 25)",2,"{'NN__hidden_layer_sizes': (25, 25), 'km__n_clusters': 2, 'NN__alpha': 0.001}",166,0.0961538461538,0.0969993021633,0.151933701657,0.136585365854,0.0974930362117,0.0966620305981,0.173669467787,0.143055555556,0.0901408450704,0.0943134535368,0.0118096169174,0.000155125571309,0.0341567147434,0.0215887753752
118,0.232845020294,0.00116400718689,0.218697829716,0.225862921795,0.001,"(25, 25)",5,"{'NN__hidden_layer_sizes': (25, 25), 'km__n_clusters': 5, 'NN__alpha': 0.001}",106,0.151098901099,0.154221912073,0.292817679558,0.313588850174,0.217270194986,0.188456189152,0.0756302521008,0.0673611111111,0.357746478873,0.405686546463,0.0707188734577,0.000155650224981,0.0995922721502,0.11973879606
119,0.218381643295,0.0012583732605,0.125765164162,0.139445199225,0.001,"(25, 25)",10,"{'NN__hidden_layer_sizes': (25, 25), 'km__n_clusters': 10, 'NN__alpha': 0.001}",164,0.123626373626,0.134682484299,0.121546961326,0.174912891986,0.161559888579,0.153685674548,0.179271708683,0.174305555556,0.0422535211268,0.0596393897365,0.00649118049012,0.00013171559502,0.0469787939293,0.0425855456518
120,0.362477016449,0.00122380256653,0.282693377852,0.317991248903,0.001,"(25, 25)",15,"{'NN__hidden_layer_sizes': (25, 25), 'km__n_clusters': 15, 'NN__alpha': 0.001}",73,0.0961538461538,0.0969993021633,0.613259668508,0.734494773519,0.194986072423,0.190542420028,0.403361344538,0.470138888889,0.104225352113,0.0977808599168,0.119964572855,5.69350355993e-05,0.199456958629,0.249077237135
121,0.311773967743,0.00133686065674,0.149137451308,0.157469738453,0.001,"(25, 25)",20,"{'NN__hidden_layer_sizes': (25, 25), 'km__n_clusters': 20, 'NN__alpha': 0.001}",135,0.0824175824176,0.118632240056,0.132596685083,0.152613240418,0.24791086351,0.249652294854,0.12324929972,0.111111111111,0.160563380282,0.155339805825,0.0216316770529,0.000210124741759,0.0553608093418,0.0493623733253
122,0.371102142334,0.00143055915833,0.199220923762,0.204338795314,0.001,"(25, 25)",25,"{'NN__hidden_layer_sizes': (25, 25), 'km__n_clusters': 25, 'NN__alpha': 0.001}",118,0.186813186813,0.173761339846,0.314917127072,0.383275261324,0.24791086351,0.218358831711,0.103641456583,0.08125,0.140845070423,0.165048543689,0.0358694127911,0.000205817323734,0.0754279674208,0.099844255194
123,0.435507583618,0.00140562057495,0.214245965498,0.22769923287,0.001,"(25, 25)",30,"{'NN__hidden_layer_sizes': (25, 25), 'km__n_clusters': 30, 'NN__alpha': 0.001}",110,0.112637362637,0.122121423587,0.0966850828729,0.101045296167,0.626740947075,0.660639777469,0.131652661064,0.13125,0.104225352113,0.123439667129,0.102038336655,0.000156404085268,0.206432639735,0.216701601389
124,0.44227604866,0.00141196250916,0.145798553144,0.151798667791,0.001,"(25, 25)",35,"{'NN__hidden_layer_sizes': (25, 25), 'km__n_clusters': 35, 'NN__alpha': 0.001}",138,0.175824175824,0.17306350314,0.174033149171,0.160975609756,0.105849582173,0.118915159944,0.100840336134,0.154166666667,0.171830985915,0.151872399445,0.0170061009,0.000199499936943,0.0346043789791,0.0180185872343
125,0.540407800674,0.00130925178528,0.205342237062,0.246737881996,0.001,"(25, 25)",40,"{'NN__hidden_layer_sizes': (25, 25), 'km__n_clusters': 40, 'NN__alpha': 0.001}",114,0.0934065934066,0.107466852756,0.160220994475,0.193031358885,0.24791086351,0.357440890125,0.0868347338936,0.115972222222,0.442253521127,0.459778085992,0.0816674050373,4.71646187173e-05,0.131103579163,0.139299499291
126,0.231957578659,0.00166659355164,0.22815804118,0.226391457044,0.001,"(100, 25, 100)",2,"{'NN__hidden_layer_sizes': (100, 25, 100), 'km__n_clusters': 2, 'NN__alpha': 0.001}",91,0.307692307692,0.30565247732,0.207182320442,0.2,0.16713091922,0.175938803894,0.235294117647,0.213888888889,0.222535211268,0.236477115118,0.0499714429409,0.000151324660942,0.0461558315748,0.0442319415338
127,0.410391998291,0.00176463127136,0.544240400668,0.552577415371,0.001,"(100, 25, 100)",5,"{'NN__hidden_layer_sizes': (100, 25, 100), 'km__n_clusters': 5, 'NN__alpha': 0.001}",34,0.494505494505,0.527564549895,0.566298342541,0.579790940767,0.537604456825,0.528511821975,0.59943977591,0.58125,0.523943661972,0.545769764216,0.0398398991799,0.000227758142673,0.0359800439155,0.0237227039471
128,0.504024028778,0.00222678184509,0.70061213133,0.715362906972,0.001,"(100, 25, 100)",10,"{'NN__hidden_layer_sizes': (100, 25, 100), 'km__n_clusters': 10, 'NN__alpha': 0.001}",2,0.678571428571,0.667829727844,0.71546961326,0.811846689895,0.674094707521,0.669680111266,0.725490196078,0.697222222222,0.70985915493,0.730235783634,0.0644207066974,0.00068169333575,0.0205717712043,0.0533023980928
129,0.578930425644,0.00175361633301,0.680022259321,0.714298391591,0.001,"(100, 25, 100)",15,"{'NN__hidden_layer_sizes': (100, 25, 100), 'km__n_clusters': 15, 'NN__alpha': 0.001}",9,0.703296703297,0.699930216329,0.657458563536,0.755400696864,0.690807799443,0.760778859527,0.747899159664,0.730555555556,0.6,0.624826629681,0.0636545562806,4.99190433699e-05,0.0491514143111,0.0496503160476
130,0.543762302399,0.00174541473389,0.54980523094,0.568899035983,0.001,"(100, 25, 100)",20,"{'NN__hidden_layer_sizes': (100, 25, 100), 'km__n_clusters': 20, 'NN__alpha': 0.001}",32,0.453296703297,0.422889043964,0.687845303867,0.750522648084,0.629526462396,0.680111265647,0.49299719888,0.490972222222,0.484507042254,0.5,0.133816401149,5.41627823591e-05,0.0920778725784,0.124494079964
131,0.594569587708,0.001881980896,0.613800779076,0.670315195302,0.001,"(100, 25, 100)",25,"{'NN__hidden_layer_sizes': (100, 25, 100), 'km__n_clusters': 25, 'NN__alpha': 0.001}",20,0.532967032967,0.565247732031,0.596685082873,0.662020905923,0.604456824513,0.712795549374,0.708683473389,0.7,0.628169014085,0.711511789182,0.0645538161474,0.000138663934054,0.0568269826389,0.0556612873259
132,0.6794485569,0.00228786468506,0.545353366722,0.566644952711,0.001,"(100, 25, 100)",30,"{'NN__hidden_layer_sizes': (100, 25, 100), 'km__n_clusters': 30, 'NN__alpha': 0.001}",33,0.769230769231,0.721563154222,0.555248618785,0.568641114983,0.57938718663,0.649513212796,0.689075630252,0.71875,0.12676056338,0.174757281553,0.128593029906,0.000430156779964,0.221635361556,0.203756067183
133,0.760679721832,0.00198745727539,0.648859209794,0.716056548118,0.001,"(100, 25, 100)",35,"{'NN__hidden_layer_sizes': (100, 25, 100), 'km__n_clusters': 35, 'NN__alpha': 0.001}",14,0.678571428571,0.690160502442,0.618784530387,0.733797909408,0.679665738162,0.792767732962,0.563025210084,0.624305555556,0.704225352113,0.739251040222,0.0929634567146,0.000166580930213,0.0511845461901,0.0562604586942
134,0.732923030853,0.00200762748718,0.65164162493,0.710167241621,0.001,"(100, 25, 100)",40,"{'NN__hidden_layer_sizes': (100, 25, 100), 'km__n_clusters': 40, 'NN__alpha': 0.001}",13,0.760989010989,0.758548499651,0.624309392265,0.764459930314,0.635097493036,0.7280945758,0.579831932773,0.607638888889,0.656338028169,0.692094313454,0.0447517220684,0.000132072066043,0.0604644192894,0.0573559505741
135,0.18178524971,0.00128836631775,0.213689482471,0.227619381492,0.0001,"(50, 50)",2,"{'NN__hidden_layer_sizes': (50, 50), 'km__n_clusters': 2, 'NN__alpha': 0.0001}",111,0.247252747253,0.245638520586,0.201657458564,0.241114982578,0.206128133705,0.194019471488,0.238095238095,0.230555555556,0.174647887324,0.226768377254,0.027804674867,0.000116545615344,0.0262338972571,0.0181390181707
136,0.328372192383,0.00133776664734,0.493600445186,0.517133154292,0.0001,"(50, 50)",5,"{'NN__hidden_layer_sizes': (50, 50), 'km__n_clusters': 5, 'NN__alpha': 0.0001}",44,0.494505494505,0.509420795534,0.616022099448,0.638327526132,0.309192200557,0.353268428373,0.521008403361,0.531944444444,0.52676056338,0.552704576976,0.0892899330965,3.63185925661e-05,0.100893186787,0.0928266180271
137,0.367629766464,0.00135245323181,0.511407902059,0.55802013629,0.0001,"(50, 50)",10,"{'NN__hidden_layer_sizes': (50, 50), 'km__n_clusters': 10, 'NN__alpha': 0.0001}",40,0.56043956044,0.598743893929,0.67955801105,0.786759581882,0.448467966574,0.500695410292,0.210084033613,0.213194444444,0.656338028169,0.690707350902,0.078048486621,5.42905019059e-05,0.170767824363,0.196863880534
138,0.310822963715,0.00143995285034,0.237061769616,0.264058570363,0.0001,"(50, 50)",15,"{'NN__hidden_layer_sizes': (50, 50), 'km__n_clusters': 15, 'NN__alpha': 0.0001}",86,0.0961538461538,0.0900209351012,0.621546961326,0.748432055749,0.105849582173,0.104311543811,0.193277310924,0.197916666667,0.166197183099,0.179611650485,0.0826615577411,0.000134058473899,0.196504214197,0.245736410825
139,0.43305721283,0.00143475532532,0.331663884252,0.364543249523,0.0001,"(50, 50)",20,"{'NN__hidden_layer_sizes': (50, 50), 'km__n_clusters': 20, 'NN__alpha': 0.0001}",60,0.101648351648,0.102581995813,0.67679558011,0.759581881533,0.643454038997,0.723226703755,0.114845938375,0.111805555556,0.118309859155,0.125520110957,0.162532018674,0.000205690239933,0.26919345278,0.308006961703
140,0.495403623581,0.00143980979919,0.380077907624,0.377622622216,0.0001,"(50, 50)",25,"{'NN__hidden_layer_sizes': (50, 50), 'km__n_clusters': 25, 'NN__alpha': 0.0001}",53,0.700549450549,0.667829727844,0.149171270718,0.161672473868,0.724233983287,0.797635605007,0.190476190476,0.163194444444,0.129577464789,0.0977808599168,0.183259614263,3.53615826583e-05,0.273394465919,0.293787811793
141,0.492009782791,0.0014087677002,0.38286032276,0.397892729496,0.0001,"(50, 50)",30,"{'NN__hidden_layer_sizes': (50, 50), 'km__n_clusters': 30, 'NN__alpha': 0.0001}",51,0.675824175824,0.698534542917,0.171270718232,0.15818815331,0.186629526462,0.241307371349,0.736694677871,0.723611111111,0.140845070423,0.167822468793,0.117554802139,2.78961556339e-05,0.265594074603,0.257444187034
142,0.660214233398,0.00142736434937,0.685587089594,0.712081895762,0.0001,"(50, 50)",35,"{'NN__hidden_layer_sizes': (50, 50), 'km__n_clusters': 35, 'NN__alpha': 0.0001}",7,0.703296703297,0.674808094906,0.726519337017,0.777700348432,0.735376044568,0.792767732962,0.72268907563,0.711111111111,0.538028169014,0.604022191401,0.0522851286415,1.18342106476e-05,0.0739673289642,0.0691131883439
143,0.647934007645,0.00148415565491,0.469671675014,0.517458114815,0.0001,"(50, 50)",40,"{'NN__hidden_layer_sizes': (50, 50), 'km__n_clusters': 40, 'NN__alpha': 0.0001}",45,0.173076923077,0.143056524773,0.635359116022,0.758885017422,0.596100278552,0.69471488178,0.711484593838,0.747222222222,0.233802816901,0.243411927878,0.141948513695,5.74490827704e-05,0.221696962848,0.267498156626
144,0.171119260788,0.00106992721558,0.204229271007,0.20592513678,0.0001,"(50,)",2,"{'NN__hidden_layer_sizes': (50,), 'km__n_clusters': 2, 'NN__alpha': 0.0001}",115,0.230769230769,0.233775296581,0.182320441989,0.188850174216,0.203342618384,0.225312934631,0.201680672269,0.196527777778,0.202816901408,0.185159500693,0.0284114033968,0.000140714201026,0.0155310116296,0.0198120894976
145,0.212531614304,0.00108594894409,0.221480244853,0.231549610212,0.0001,"(50,)",5,"{'NN__hidden_layer_sizes': (50,), 'km__n_clusters': 5, 'NN__alpha': 0.0001}",99,0.486263736264,0.461270062805,0.0745856353591,0.0815331010453,0.320334261838,0.344923504868,0.15406162465,0.185416666667,0.0676056338028,0.0846047156727,0.0506128685049,4.45832288079e-05,0.161496412024,0.149566794352
146,0.220168924332,0.0010998249054,0.141346688926,0.14188733781,0.0001,"(50,)",10,"{'NN__hidden_layer_sizes': (50,), 'km__n_clusters': 10, 'NN__alpha': 0.0001}",144,0.129120879121,0.129797627355,0.168508287293,0.135888501742,0.122562674095,0.145340751043,0.15406162465,0.153472222222,0.132394366197,0.144937586685,0.012935378902,2.75952382926e-05,0.0172433898285,0.00821689431663
147,0.265876579285,0.00124959945679,0.149693934335,0.161390894363,0.0001,"(50,)",15,"{'NN__hidden_layer_sizes': (50,), 'km__n_clusters': 15, 'NN__alpha': 0.0001}",131,0.0906593406593,0.108862526169,0.0939226519337,0.0878048780488,0.091922005571,0.111265646732,0.285714285714,0.294444444444,0.188732394366,0.204576976422,0.0265785769163,0.00021447425091,0.0773043829557,0.0777881180967
148,0.362995290756,0.00114197731018,0.253199777407,0.257334693779,0.0001,"(50,)",20,"{'NN__hidden_layer_sizes': (50,), 'km__n_clusters': 20, 'NN__alpha': 0.0001}",82,0.14010989011,0.119330076762,0.174033149171,0.147735191638,0.690807799443,0.754520166898,0.117647058824,0.128472222222,0.143661971831,0.136615811373,0.110807324423,6.31675886081e-05,0.219388619512,0.248768689756
149,0.404386663437,0.00121150016785,0.288258208125,0.296105055827,0.0001,"(50,)",25,"{'NN__hidden_layer_sizes': (50,), 'km__n_clusters': 25, 'NN__alpha': 0.0001}",68,0.214285714286,0.205861828332,0.138121546961,0.137282229965,0.147632311978,0.169680111266,0.697478991597,0.7125,0.247887323944,0.25520110957,0.113299681839,3.59130246796e-05,0.207823441293,0.21185357164
150,0.447570610046,0.0013279914856,0.297161936561,0.322891676824,0.0001,"(50,)",30,"{'NN__hidden_layer_sizes': (50,), 'km__n_clusters': 30, 'NN__alpha': 0.0001}",66,0.214285714286,0.17306350314,0.0801104972376,0.0843205574913,0.640668523677,0.71140472879,0.46218487395,0.527777777778,0.0901408450704,0.117891816921,0.0929669516447,0.00010517216178,0.219844367094,0.250723077949
151,0.500969552994,0.00126538276672,0.28714524207,0.30264374581,0.0001,"(50,)",35,"{'NN__hidden_layer_sizes': (50,), 'km__n_clusters': 35, 'NN__alpha': 0.0001}",70,0.184065934066,0.203070481507,0.14364640884,0.136585365854,0.66573816156,0.73157162726,0.193277310924,0.175694444444,0.250704225352,0.266296809986,0.108077722422,6.59720364115e-05,0.192218279652,0.218589374336
152,0.566858530045,0.00134682655334,0.406789092933,0.443824619069,0.0001,"(50,)",40,"{'NN__hidden_layer_sizes': (50,), 'km__n_clusters': 40, 'NN__alpha': 0.0001}",47,0.131868131868,0.111653872994,0.618784530387,0.680139372822,0.194986072423,0.235744089013,0.53781512605,0.633333333333,0.554929577465,0.558252427184,0.0771851578684,0.00012933288269,0.202660702098,0.22737055677
153,0.142781209946,0.00081639289856,0.106844741235,0.107276163033,0.0001,"(25,)",2,"{'NN__hidden_layer_sizes': (25,), 'km__n_clusters': 2, 'NN__alpha': 0.0001}",173,0.107142857143,0.101186322401,0.110497237569,0.138675958188,0.100278551532,0.10083449235,0.126050420168,0.0881944444444,0.0901408450704,0.107489597781,0.0168376450884,5.36817842715e-06,0.0118202644985,0.016903762626
154,0.17567281723,0.000974416732788,0.105731775181,0.120092092044,0.0001,"(25,)",5,"{'NN__hidden_layer_sizes': (25,), 'km__n_clusters': 5, 'NN__alpha': 0.0001}",177,0.101648351648,0.1123517097,0.127071823204,0.179094076655,0.100278551532,0.0987482614743,0.100840336134,0.102083333333,0.0985915492958,0.108183079057,0.0167905510374,5.94379000044e-05,0.010764845591,0.0298758992865
155,0.213817405701,0.0010395526886,0.153589315526,0.159012119588,0.0001,"(25,)",10,"{'NN__hidden_layer_sizes': (25,), 'km__n_clusters': 10, 'NN__alpha': 0.0001}",128,0.200549450549,0.218422889044,0.132596685083,0.105923344948,0.114206128134,0.120305980529,0.103641456583,0.144444444444,0.216901408451,0.205963938974,0.0076522256986,5.59209036535e-05,0.0461825590755,0.0453054372537
156,0.261088752747,0.00110931396484,0.112409571508,0.117112356403,0.0001,"(25,)",15,"{'NN__hidden_layer_sizes': (25,), 'km__n_clusters': 15, 'NN__alpha': 0.0001}",170,0.145604395604,0.114445219819,0.0745856353591,0.0878048780488,0.0947075208914,0.13073713491,0.145658263305,0.10625,0.101408450704,0.146324549237,0.0247674895854,5.60080511721e-05,0.0285924805039,0.0201147681627
157,0.299778652191,0.00105199813843,0.140233722871,0.137595873327,0.0001,"(25,)",20,"{'NN__hidden_layer_sizes': (25,), 'km__n_clusters': 20, 'NN__alpha': 0.0001}",147,0.101648351648,0.105373342638,0.132596685083,0.14425087108,0.261838440111,0.213490959666,0.134453781513,0.127083333333,0.0704225352113,0.0977808599168,0.023596642758,3.10481412782e-05,0.0650922464933,0.0413240690144
158,0.361574983597,0.00110859870911,0.168614357262,0.160783584404,0.0001,"(25,)",25,"{'NN__hidden_layer_sizes': (25,), 'km__n_clusters': 25, 'NN__alpha': 0.0001}",122,0.32967032967,0.333565945569,0.0690607734807,0.0745644599303,0.128133704735,0.107788595271,0.134453781513,0.147222222222,0.180281690141,0.140776699029,0.0427071044578,4.53297363761e-05,0.088525825522,0.09019992975
159,0.366605329514,0.00123763084412,0.131886477462,0.139739142059,0.0001,"(25,)",30,"{'NN__hidden_layer_sizes': (25,), 'km__n_clusters': 30, 'NN__alpha': 0.0001}",152,0.0879120879121,0.116538729937,0.0994475138122,0.101045296167,0.100278551532,0.0987482614743,0.212885154062,0.184027777778,0.160563380282,0.198335644938,0.017856201633,0.000126683706958,0.0476353146388,0.0426866689426
160,0.431683015823,0.0012909412384,0.129104062326,0.137710607933,0.0001,"(25,)",35,"{'NN__hidden_layer_sizes': (25,), 'km__n_clusters': 35, 'NN__alpha': 0.0001}",158,0.153846153846,0.157711095604,0.127071823204,0.112891986063,0.0724233983287,0.0910987482615,0.140056022409,0.159722222222,0.152112676056,0.167128987517,0.0124324226714,0.000173168625124,0.0299177132209,0.0301283958472
161,0.521931791306,0.00117239952087,0.223706176962,0.248228127071,0.0001,"(25,)",40,"{'NN__hidden_layer_sizes': (25,), 'km__n_clusters': 40, 'NN__alpha': 0.0001}",98,0.104395604396,0.0956036287509,0.610497237569,0.731707317073,0.133704735376,0.13421418637,0.0868347338936,0.102777777778,0.180281690141,0.176837725381,0.100157368436,5.4104020899e-05,0.196809232466,0.243432921722
162,0.146967792511,0.000991201400757,0.121869782972,0.113523141541,0.0001,"(25, 25)",2,"{'NN__hidden_layer_sizes': (25, 25), 'km__n_clusters': 2, 'NN__alpha': 0.0001}",166,0.0961538461538,0.0969993021633,0.151933701657,0.136585365854,0.0974930362117,0.0966620305981,0.173669467787,0.143055555556,0.0901408450704,0.0943134535368,0.0175137482399,2.69717070211e-05,0.0341567147434,0.0215887753752
163,0.261050367355,0.00119500160217,0.242626599889,0.251939265946,0.0001,"(25, 25)",5,"{'NN__hidden_layer_sizes': (25, 25), 'km__n_clusters': 5, 'NN__alpha': 0.0001}",84,0.151098901099,0.154221912073,0.292817679558,0.314285714286,0.217270194986,0.189847009736,0.0756302521008,0.0673611111111,0.478873239437,0.533980582524,0.127176910508,0.000138104784625,0.1374735443,0.161807050928
164,0.218089008331,0.00123238563538,0.135225375626,0.144021499079,0.0001,"(25, 25)",10,"{'NN__hidden_layer_sizes': (25, 25), 'km__n_clusters': 10, 'NN__alpha': 0.0001}",151,0.123626373626,0.134682484299,0.118784530387,0.174216027875,0.161559888579,0.153685674548,0.179271708683,0.174305555556,0.0929577464789,0.0832177531207,0.0151091938125,7.28398999837e-05,0.0309614428916,0.0337832581407
165,0.320654630661,0.00131673812866,0.213132999444,0.214543522192,0.0001,"(25, 25)",15,"{'NN__hidden_layer_sizes': (25, 25), 'km__n_clusters': 15, 'NN__alpha': 0.0001}",112,0.0961538461538,0.0969993021633,0.204419889503,0.175609756098,0.183844011142,0.175938803894,0.478991596639,0.526388888889,0.104225352113,0.0977808599168,0.063530898781,0.0001461082587,0.139080619499,0.15981480414
166,0.314051532745,0.00129723548889,0.149137451308,0.157331141677,0.0001,"(25, 25)",20,"{'NN__hidden_layer_sizes': (25, 25), 'km__n_clusters': 20, 'NN__alpha': 0.0001}",135,0.0824175824176,0.119330076762,0.132596685083,0.152613240418,0.24791086351,0.24826147427,0.12324929972,0.111111111111,0.160563380282,0.155339805825,0.0231678021914,0.00011741837871,0.0553608093418,0.0487338107609
167,0.394756603241,0.00141220092773,0.225375626043,0.22858937563,0.0001,"(25, 25)",25,"{'NN__hidden_layer_sizes': (25, 25), 'km__n_clusters': 25, 'NN__alpha': 0.0001}",93,0.184065934066,0.173761339846,0.447513812155,0.503832752613,0.24791086351,0.219054242003,0.103641456583,0.08125,0.140845070423,0.165048543689,0.0648691781798,0.000164661157259,0.121421695286,0.144639052672
168,0.414600372314,0.00138421058655,0.178631051753,0.187086690955,0.0001,"(25, 25)",30,"{'NN__hidden_layer_sizes': (25, 25), 'km__n_clusters': 30, 'NN__alpha': 0.0001}",120,0.112637362637,0.121423586881,0.0966850828729,0.101742160279,0.451253481894,0.456189151599,0.128851540616,0.132638888889,0.104225352113,0.123439667129,0.043827455914,0.000122752592603,0.136634390476,0.134927368069
169,0.452809333801,0.00131306648254,0.145798553144,0.151937556679,0.0001,"(25, 25)",35,"{'NN__hidden_layer_sizes': (25, 25), 'km__n_clusters': 35, 'NN__alpha': 0.0001}",138,0.175824175824,0.17306350314,0.174033149171,0.160975609756,0.105849582173,0.118915159944,0.100840336134,0.154861111111,0.171830985915,0.151872399445,0.00902188148148,6.11515723068e-05,0.0346043789791,0.0180389695903
170,0.529323577881,0.00140380859375,0.159710628826,0.200953984679,0.0001,"(25, 25)",40,"{'NN__hidden_layer_sizes': (25, 25), 'km__n_clusters': 40, 'NN__alpha': 0.0001}",126,0.0796703296703,0.0963014654571,0.160220994475,0.191637630662,0.25069637883,0.359527121001,0.0868347338936,0.115972222222,0.222535211268,0.24133148405,0.0671753137037,0.000139595330214,0.0691837266778,0.0949069293577
171,0.232662773132,0.001575756073,0.229827490262,0.235956211965,0.0001,"(100, 25, 100)",2,"{'NN__hidden_layer_sizes': (100, 25, 100), 'km__n_clusters': 2, 'NN__alpha': 0.0001}",90,0.255494505495,0.266573621773,0.209944751381,0.196515679443,0.222841225627,0.262865090403,0.232492997199,0.209027777778,0.228169014085,0.24479889043,0.024580975888,8.90728748324e-06,0.0149929235104,0.0283563137872
172,0.394534873962,0.00171403884888,0.543683917641,0.55145806672,0.0001,"(100, 25, 100)",5,"{'NN__hidden_layer_sizes': (100, 25, 100), 'km__n_clusters': 5, 'NN__alpha': 0.0001}",35,0.513736263736,0.519190509421,0.580110497238,0.580487804878,0.487465181058,0.525730180807,0.602240896359,0.586805555556,0.535211267606,0.54507628294,0.0556696287852,0.00013221632519,0.0421397524606,0.0276984374878
173,0.465278196335,0.00184626579285,0.692821368948,0.704396913675,0.0001,"(100, 25, 100)",10,"{'NN__hidden_layer_sizes': (100, 25, 100), 'km__n_clusters': 10, 'NN__alpha': 0.0001}",3,0.675824175824,0.660851360782,0.71546961326,0.815331010453,0.660167130919,0.668289290682,0.72268907563,0.686805555556,0.69014084507,0.690707350902,0.0845051856983,0.000163152145379,0.0235269571424,0.0565742157743
174,0.499881982803,0.00182738304138,0.577072899277,0.626899192416,0.0001,"(100, 25, 100)",15,"{'NN__hidden_layer_sizes': (100, 25, 100), 'km__n_clusters': 15, 'NN__alpha': 0.0001}",25,0.653846153846,0.653872993719,0.469613259669,0.554006968641,0.610027855153,0.698887343533,0.638655462185,0.692361111111,0.512676056338,0.535367545076,0.091448914942,0.000125696445614,0.0728680671758,0.069117959184
175,0.546094036102,0.00183796882629,0.58041179744,0.576503002405,0.0001,"(100, 25, 100)",20,"{'NN__hidden_layer_sizes': (100, 25, 100), 'km__n_clusters': 20, 'NN__alpha': 0.0001}",23,0.445054945055,0.426378227495,0.555248618785,0.514982578397,0.688022284123,0.735744089013,0.624649859944,0.600694444444,0.591549295775,0.604715672677,0.0558594697146,7.1699883731e-05,0.0810275680223,0.103015644353
176,0.590566253662,0.00177392959595,0.63550361714,0.688614690301,0.0001,"(100, 25, 100)",25,"{'NN__hidden_layer_sizes': (100, 25, 100), 'km__n_clusters': 25, 'NN__alpha': 0.0001}",17,0.494505494505,0.533147243545,0.613259668508,0.675958188153,0.640668523677,0.739221140473,0.711484593838,0.7125,0.721126760563,0.782246879334,0.0867675002879,2.43642791172e-05,0.0820195920748,0.0851220555309
177,0.627285242081,0.00184617042542,0.572064552031,0.606316542214,0.0001,"(100, 25, 100)",30,"{'NN__hidden_layer_sizes': (100, 25, 100), 'km__n_clusters': 30, 'NN__alpha': 0.0001}",28,0.722527472527,0.699232379623,0.591160220994,0.673867595819,0.715877437326,0.778859527121,0.6918767507,0.708333333333,0.132394366197,0.171289875173,0.0853801736399,8.49705352326e-05,0.223229754185,0.220283093329
178,0.767020177841,0.00190625190735,0.682804674457,0.737752647539,0.0001,"(100, 25, 100)",35,"{'NN__hidden_layer_sizes': (100, 25, 100), 'km__n_clusters': 35, 'NN__alpha': 0.0001}",8,0.714285714286,0.712491277041,0.696132596685,0.788850174216,0.559888579387,0.698887343533,0.745098039216,0.733333333333,0.698591549296,0.75520110957,0.0657428116559,0.000110622993784,0.0638356248248,0.0318860003536
179,0.813578605652,0.00208859443665,0.634947134112,0.696580935362,0.0001,"(100, 25, 100)",40,"{'NN__hidden_layer_sizes': (100, 25, 100), 'km__n_clusters': 40, 'NN__alpha': 0.0001}",18,0.450549450549,0.479413817167,0.668508287293,0.799303135889,0.635097493036,0.715577190542,0.773109243697,0.788194444444,0.650704225352,0.700416088766,0.135592931519,0.00016340663273,0.104669740894,0.115310024599
