,mean_fit_time,mean_score_time,mean_test_score,mean_train_score,param_NN__alpha,param_NN__hidden_layer_sizes,param_filter__n,params,rank_test_score,split0_test_score,split0_train_score,split1_test_score,split1_train_score,split2_test_score,split2_train_score,split3_test_score,split3_train_score,split4_test_score,split4_train_score,std_fit_time,std_score_time,std_test_score,std_train_score
0,0.565849351883,0.142027044296,0.616372391653,0.616372690763,0.1,"(50, 50)",1,"{'NN__hidden_layer_sizes': (50, 50), 'filter__n': 1, 'NN__alpha': 0.1}",89,0.616,0.616465863454,0.616,0.616465863454,0.616,0.616465863454,0.616,0.616465863454,0.617886178862,0.616,0.023666323722,0.018946482315,0.000750814039095,0.000186345381526
1,0.575521755219,0.15370965004,0.616372391653,0.616372690763,0.1,"(50, 50)",2,"{'NN__hidden_layer_sizes': (50, 50), 'filter__n': 2, 'NN__alpha': 0.1}",89,0.616,0.616465863454,0.616,0.616465863454,0.616,0.616465863454,0.616,0.616465863454,0.617886178862,0.616,0.00908545407018,0.00392874825439,0.000750814039095,0.000186345381526
2,0.593056631088,0.150626802444,0.776886035313,0.776885140562,0.1,"(50, 50)",3,"{'NN__hidden_layer_sizes': (50, 50), 'filter__n': 3, 'NN__alpha': 0.1}",35,0.76,0.781124497992,0.752,0.78313253012,0.816,0.767068273092,0.784,0.775100401606,0.772357723577,0.778,0.0475438596424,0.00308645872539,0.0224195600918,0.00561784868676
3,0.583081769943,0.14443397522,0.786516853933,0.788139759036,0.1,"(50, 50)",4,"{'NN__hidden_layer_sizes': (50, 50), 'filter__n': 4, 'NN__alpha': 0.1}",9,0.784,0.793172690763,0.792,0.791164658635,0.768,0.79718875502,0.832,0.793172690763,0.756097560976,0.766,0.0111667242568,0.0204498807404,0.0259588124119,0.0112415664354
4,0.584602546692,0.152010583878,0.786516853933,0.7664562249,0.1,"(50, 50)",5,"{'NN__hidden_layer_sizes': (50, 50), 'filter__n': 5, 'NN__alpha': 0.1}",9,0.784,0.799196787149,0.776,0.789156626506,0.824,0.765060240964,0.768,0.71686746988,0.780487804878,0.762,0.0198565134605,0.00276481569874,0.0195277651995,0.0285240389336
5,0.560887765884,0.15302400589,0.784911717496,0.784925301205,0.1,"(50, 50)",6,"{'NN__hidden_layer_sizes': (50, 50), 'filter__n': 6, 'NN__alpha': 0.1}",20,0.768,0.79718875502,0.8,0.785140562249,0.784,0.791164658635,0.816,0.78313253012,0.756097560976,0.768,0.0284908361279,0.0039953968874,0.0214724174556,0.00978823852352
6,0.594223976135,0.151560163498,0.776886035313,0.783702811245,0.1,"(50, 50)",7,"{'NN__hidden_layer_sizes': (50, 50), 'filter__n': 7, 'NN__alpha': 0.1}",35,0.752,0.785140562249,0.752,0.791164658635,0.784,0.787148594378,0.792,0.765060240964,0.80487804878,0.79,0.00924035287147,0.00342722401501,0.0214291073471,0.0095584489193
7,0.566424560547,0.154997396469,0.383627608347,0.383627309237,0.1,"(50,)",1,"{'NN__hidden_layer_sizes': (50,), 'filter__n': 1, 'NN__alpha': 0.1}",133,0.384,0.383534136546,0.384,0.383534136546,0.384,0.383534136546,0.384,0.383534136546,0.382113821138,0.384,0.00969451613546,0.00193336165439,0.000750814039095,0.000186345381526
8,0.548598051071,0.142493534088,0.762439807384,0.747228915663,0.1,"(50,)",2,"{'NN__hidden_layer_sizes': (50,), 'filter__n': 2, 'NN__alpha': 0.1}",52,0.76,0.791164658635,0.808,0.779116465863,0.816,0.777108433735,0.736,0.68875502008,0.691056910569,0.7,0.0258441307304,0.0189393945942,0.0462550832945,0.0435653943119
9,0.547720384598,0.152326011658,0.70304975923,0.699914859438,0.1,"(50,)",3,"{'NN__hidden_layer_sizes': (50,), 'filter__n': 3, 'NN__alpha': 0.1}",69,0.752,0.767068273092,0.776,0.761044176707,0.776,0.761044176707,0.608,0.604417670683,0.60162601626,0.606,0.0222022110108,0.0019971785829,0.0803736325154,0.0773600435734
10,0.557210922241,0.144848775864,0.38683788122,0.380425702811,0.1,"(50,)",4,"{'NN__hidden_layer_sizes': (50,), 'filter__n': 4, 'NN__alpha': 0.1}",129,0.384,0.39156626506,0.416,0.383534136546,0.384,0.39156626506,0.384,0.36546184739,0.365853658537,0.37,0.0303333364694,0.0177432482267,0.0161992638077,0.0108673719263
11,0.543206787109,0.152311849594,0.704654895666,0.701466666667,0.1,"(50,)",5,"{'NN__hidden_layer_sizes': (50,), 'filter__n': 5, 'NN__alpha': 0.1}",65,0.728,0.744979919679,0.72,0.708835341365,0.744,0.704819277108,0.656,0.674698795181,0.674796747967,0.674,0.0331820966343,0.00479120074765,0.0334393124115,0.0261911331292
12,0.59613070488,0.133008909225,0.61797752809,0.618348594378,0.1,"(50,)",6,"{'NN__hidden_layer_sizes': (50,), 'filter__n': 6, 'NN__alpha': 0.1}",85,0.344,0.333333333333,0.712,0.730923694779,0.768,0.708835341365,0.64,0.66265060241,0.626016260163,0.656,0.0437404464083,0.0220275236362,0.146494094118,0.145241178665
13,0.544704151154,0.154933214188,0.593900481541,0.595127710843,0.1,"(50,)",7,"{'NN__hidden_layer_sizes': (50,), 'filter__n': 7, 'NN__alpha': 0.1}",113,0.568,0.562248995984,0.568,0.560240963855,0.584,0.556224899598,0.696,0.730923694779,0.552845528455,0.566,0.0296243878038,0.00340550657488,0.052088296514,0.0679713123619
14,0.550713825226,0.153528022766,0.616372391653,0.616372690763,0.1,"(25,)",1,"{'NN__hidden_layer_sizes': (25,), 'filter__n': 1, 'NN__alpha': 0.1}",89,0.616,0.616465863454,0.616,0.616465863454,0.616,0.616465863454,0.616,0.616465863454,0.617886178862,0.616,0.0232544311478,0.00267793492199,0.000750814039095,0.000186345381526
15,0.554901599884,0.154420423508,0.776886035313,0.781302811245,0.1,"(25,)",2,"{'NN__hidden_layer_sizes': (25,), 'filter__n': 2, 'NN__alpha': 0.1}",35,0.76,0.781124497992,0.752,0.78313253012,0.816,0.789156626506,0.784,0.775100401606,0.772357723577,0.778,0.019669602924,0.00261379038081,0.0224195600918,0.00478415151053
16,0.566513156891,0.153222417831,0.499197431782,0.501085943775,0.1,"(25,)",3,"{'NN__hidden_layer_sizes': (25,), 'filter__n': 3, 'NN__alpha': 0.1}",121,0.464,0.453815261044,0.4,0.469879518072,0.488,0.447791164659,0.472,0.4859437751,0.674796747967,0.648,0.0112125967486,0.00226641024636,0.0921103462503,0.0746481307478
17,0.549519824982,0.155469036102,0.515248796148,0.507228915663,0.1,"(25,)",4,"{'NN__hidden_layer_sizes': (25,), 'filter__n': 4, 'NN__alpha': 0.1}",117,0.504,0.518072289157,0.544,0.508032128514,0.576,0.5,0.456,0.510040160643,0.49593495935,0.5,0.0178633417758,0.0020316438617,0.0413490205916,0.00679178093385
18,0.561388444901,0.151870775223,0.446227929374,0.440159036145,0.1,"(25,)",5,"{'NN__hidden_layer_sizes': (25,), 'filter__n': 5, 'NN__alpha': 0.1}",125,0.464,0.455823293173,0.464,0.429718875502,0.416,0.441767068273,0.368,0.371485943775,0.520325203252,0.502,0.00813965447033,0.00304119213561,0.0512045694527,0.0421835278183
19,0.527287387848,0.154871797562,0.791332263242,0.775283534137,0.1,"(25,)",6,"{'NN__hidden_layer_sizes': (25,), 'filter__n': 6, 'NN__alpha': 0.1}",1,0.808,0.781124497992,0.76,0.777108433735,0.8,0.763052208835,0.8,0.78313253012,0.788617886179,0.772,0.0247957097738,0.00327396484703,0.0168616874061,0.00720334325588
20,0.548647403717,0.152019405365,0.691813804173,0.691023293173,0.1,"(25,)",7,"{'NN__hidden_layer_sizes': (25,), 'filter__n': 7, 'NN__alpha': 0.1}",77,0.704,0.728915662651,0.712,0.720883534137,0.704,0.722891566265,0.632,0.606425702811,0.707317073171,0.676,0.0191133675507,0.00243652380156,0.0301104378999,0.0463152331694
21,0.549472808838,0.151719617844,0.616372391653,0.616372690763,0.1,"(25, 25)",1,"{'NN__hidden_layer_sizes': (25, 25), 'filter__n': 1, 'NN__alpha': 0.1}",89,0.616,0.616465863454,0.616,0.616465863454,0.616,0.616465863454,0.616,0.616465863454,0.617886178862,0.616,0.0291679172978,0.00140351908779,0.000750814039095,0.000186345381526
22,0.552533817291,0.155651426315,0.616372391653,0.616372690763,0.1,"(25, 25)",2,"{'NN__hidden_layer_sizes': (25, 25), 'filter__n': 2, 'NN__alpha': 0.1}",89,0.616,0.616465863454,0.616,0.616465863454,0.616,0.616465863454,0.616,0.616465863454,0.617886178862,0.616,0.0158970239239,0.0034025229215,0.000750814039095,0.000186345381526
23,0.563351774216,0.1524497509,0.616372391653,0.616372690763,0.1,"(25, 25)",3,"{'NN__hidden_layer_sizes': (25, 25), 'filter__n': 3, 'NN__alpha': 0.1}",89,0.616,0.616465863454,0.616,0.616465863454,0.616,0.616465863454,0.616,0.616465863454,0.617886178862,0.616,0.00978579235934,0.00272578222155,0.000750814039095,0.000186345381526
24,0.559854412079,0.144958353043,0.383627608347,0.383627309237,0.1,"(25, 25)",4,"{'NN__hidden_layer_sizes': (25, 25), 'filter__n': 4, 'NN__alpha': 0.1}",133,0.384,0.383534136546,0.384,0.383534136546,0.384,0.383534136546,0.384,0.383534136546,0.382113821138,0.384,0.0182667987586,0.0165306004937,0.000750814039095,0.000186345381526
25,0.55026922226,0.153871011734,0.69823434992,0.691518072289,0.1,"(25, 25)",5,"{'NN__hidden_layer_sizes': (25, 25), 'filter__n': 5, 'NN__alpha': 0.1}",73,0.76,0.789156626506,0.792,0.771084337349,0.816,0.765060240964,0.536,0.572289156627,0.585365853659,0.56,0.0348560356422,0.00204443587311,0.114490982131,0.102747327019
26,0.590613603592,0.155398607254,0.736757624398,0.739551807229,0.1,"(25, 25)",6,"{'NN__hidden_layer_sizes': (25, 25), 'filter__n': 6, 'NN__alpha': 0.1}",57,0.8,0.732931726908,0.608,0.684738955823,0.768,0.753012048193,0.744,0.769076305221,0.764227642276,0.758,0.0123143382372,0.00235138668845,0.0669640757439,0.0298043085062
27,0.564075613022,0.15150437355,0.781701444623,0.768862650602,0.1,"(25, 25)",7,"{'NN__hidden_layer_sizes': (25, 25), 'filter__n': 7, 'NN__alpha': 0.1}",24,0.76,0.781124497992,0.792,0.769076305221,0.816,0.767068273092,0.784,0.761044176707,0.756097560976,0.766,0.016569303742,0.00164264257784,0.0219612104936,0.00667744925667
28,0.565994167328,0.151848936081,0.646869983949,0.650772690763,0.1,"(100, 25, 100)",1,"{'NN__hidden_layer_sizes': (100, 25, 100), 'filter__n': 1, 'NN__alpha': 0.1}",81,0.616,0.616465863454,0.616,0.616465863454,0.616,0.616465863454,0.616,0.616465863454,0.772357723577,0.788,0.0246582341609,0.00400143455257,0.0622398948271,0.0686136546185
29,0.567793416977,0.154363203049,0.789727126806,0.785307630522,0.1,"(100, 25, 100)",2,"{'NN__hidden_layer_sizes': (100, 25, 100), 'filter__n': 2, 'NN__alpha': 0.1}",5,0.76,0.791164658635,0.808,0.779116465863,0.816,0.777108433735,0.76,0.787148594378,0.80487804878,0.792,0.0255327073336,0.00319471894109,0.0246054073069,0.00613252123096
30,0.574464416504,0.156921958923,0.75922953451,0.753617670683,0.1,"(100, 25, 100)",3,"{'NN__hidden_layer_sizes': (100, 25, 100), 'filter__n': 3, 'NN__alpha': 0.1}",56,0.752,0.769076305221,0.784,0.761044176707,0.776,0.753012048193,0.752,0.738955823293,0.731707317073,0.746,0.0224793300643,0.00230718778578,0.0187099476185,0.0106535236201
31,0.611952447891,0.152735185623,0.780096308186,0.781297991968,0.1,"(100, 25, 100)",4,"{'NN__hidden_layer_sizes': (100, 25, 100), 'filter__n': 4, 'NN__alpha': 0.1}",31,0.776,0.779116465863,0.736,0.779116465863,0.784,0.785140562249,0.816,0.779116465863,0.788617886179,0.784,0.015047273572,0.00452879671448,0.0258756496916,0.00269604755907
32,0.593756580353,0.153918790817,0.723916532905,0.72601124498,0.1,"(100, 25, 100)",5,"{'NN__hidden_layer_sizes': (100, 25, 100), 'filter__n': 5, 'NN__alpha': 0.1}",61,0.712,0.71686746988,0.696,0.720883534137,0.784,0.787148594378,0.808,0.789156626506,0.617886178862,0.616,0.0290539603862,0.0023617229354,0.0674339728576,0.0631466400738
33,0.599167537689,0.1512758255,0.776886035313,0.790920481928,0.1,"(100, 25, 100)",6,"{'NN__hidden_layer_sizes': (100, 25, 100), 'filter__n': 6, 'NN__alpha': 0.1}",35,0.752,0.781124497992,0.76,0.775100401606,0.784,0.795180722892,0.8,0.799196787149,0.788617886179,0.804,0.014834100214,0.00228941379392,0.01805528641,0.0109905133349
34,0.60182762146,0.153215456009,0.776886035313,0.788922088353,0.1,"(100, 25, 100)",7,"{'NN__hidden_layer_sizes': (100, 25, 100), 'filter__n': 7, 'NN__alpha': 0.1}",35,0.76,0.805220883534,0.752,0.777108433735,0.776,0.777108433735,0.808,0.793172690763,0.788617886179,0.792,0.0253851924065,0.00213392201295,0.0200758540616,0.0106987546582
35,0.542295980453,0.149545860291,0.616372391653,0.616372690763,0.01,"(50, 50)",1,"{'NN__hidden_layer_sizes': (50, 50), 'filter__n': 1, 'NN__alpha': 0.01}",89,0.616,0.616465863454,0.616,0.616465863454,0.616,0.616465863454,0.616,0.616465863454,0.617886178862,0.616,0.0178650829507,0.00293164958357,0.000750814039095,0.000186345381526
36,0.596247673035,0.153616905212,0.616372391653,0.616372690763,0.01,"(50, 50)",2,"{'NN__hidden_layer_sizes': (50, 50), 'filter__n': 2, 'NN__alpha': 0.01}",89,0.616,0.616465863454,0.616,0.616465863454,0.616,0.616465863454,0.616,0.616465863454,0.617886178862,0.616,0.0674096726149,0.00307415268371,0.000750814039095,0.000186345381526
37,0.606983852386,0.1550573349,0.776886035313,0.776885140562,0.01,"(50, 50)",3,"{'NN__hidden_layer_sizes': (50, 50), 'filter__n': 3, 'NN__alpha': 0.01}",35,0.76,0.781124497992,0.752,0.78313253012,0.816,0.767068273092,0.784,0.775100401606,0.772357723577,0.778,0.0487046221372,0.00156620990804,0.0224195600918,0.00561784868676
38,0.57494058609,0.151762962341,0.786516853933,0.788139759036,0.01,"(50, 50)",4,"{'NN__hidden_layer_sizes': (50, 50), 'filter__n': 4, 'NN__alpha': 0.01}",9,0.784,0.793172690763,0.792,0.791164658635,0.768,0.79718875502,0.832,0.793172690763,0.756097560976,0.766,0.0288228443773,0.00248199504507,0.0259588124119,0.0112415664354
39,0.563837051392,0.151621341705,0.786516853933,0.7664562249,0.01,"(50, 50)",5,"{'NN__hidden_layer_sizes': (50, 50), 'filter__n': 5, 'NN__alpha': 0.01}",9,0.784,0.799196787149,0.776,0.789156626506,0.824,0.765060240964,0.768,0.71686746988,0.780487804878,0.762,0.0275490869626,0.00301784423257,0.0195277651995,0.0285240389336
40,0.577142381668,0.152886772156,0.786516853933,0.785326907631,0.01,"(50, 50)",6,"{'NN__hidden_layer_sizes': (50, 50), 'filter__n': 6, 'NN__alpha': 0.01}",9,0.768,0.799196787149,0.8,0.785140562249,0.784,0.791164658635,0.824,0.78313253012,0.756097560976,0.768,0.0123345361973,0.00271259611805,0.0238983516146,0.0103104281184
41,0.575604534149,0.155039453506,0.775280898876,0.782101204819,0.01,"(50, 50)",7,"{'NN__hidden_layer_sizes': (50, 50), 'filter__n': 7, 'NN__alpha': 0.01}",46,0.752,0.785140562249,0.752,0.791164658635,0.784,0.785140562249,0.792,0.765060240964,0.79674796748,0.784,0.0202674920821,0.00457071824984,0.0194889216465,0.00888393442674
42,0.544935560226,0.154690217972,0.383627608347,0.383627309237,0.01,"(50,)",1,"{'NN__hidden_layer_sizes': (50,), 'filter__n': 1, 'NN__alpha': 0.01}",133,0.384,0.383534136546,0.384,0.383534136546,0.384,0.383534136546,0.384,0.383534136546,0.382113821138,0.384,0.0251041915894,0.00390858036861,0.000750814039095,0.000186345381526
43,0.558239412308,0.151239204407,0.762439807384,0.747228915663,0.01,"(50,)",2,"{'NN__hidden_layer_sizes': (50,), 'filter__n': 2, 'NN__alpha': 0.01}",52,0.76,0.791164658635,0.808,0.779116465863,0.816,0.777108433735,0.736,0.68875502008,0.691056910569,0.7,0.0186460639678,0.00243036045395,0.0462550832945,0.0435653943119
44,0.538941144943,0.148548412323,0.70304975923,0.699914859438,0.01,"(50,)",3,"{'NN__hidden_layer_sizes': (50,), 'filter__n': 3, 'NN__alpha': 0.01}",69,0.752,0.767068273092,0.776,0.761044176707,0.776,0.761044176707,0.608,0.604417670683,0.60162601626,0.606,0.0203689800122,0.00187305546664,0.0803736325154,0.0773600435734
45,0.543958091736,0.150486183167,0.38683788122,0.380425702811,0.01,"(50,)",4,"{'NN__hidden_layer_sizes': (50,), 'filter__n': 4, 'NN__alpha': 0.01}",129,0.384,0.39156626506,0.416,0.383534136546,0.384,0.39156626506,0.384,0.36546184739,0.365853658537,0.37,0.00526037120057,0.0023954637927,0.0161992638077,0.0108673719263
46,0.554107427597,0.151386785507,0.704654895666,0.701466666667,0.01,"(50,)",5,"{'NN__hidden_layer_sizes': (50,), 'filter__n': 5, 'NN__alpha': 0.01}",65,0.728,0.744979919679,0.72,0.708835341365,0.744,0.704819277108,0.656,0.674698795181,0.674796747967,0.674,0.0207751635252,0.00396885622821,0.0334393124115,0.0261911331292
47,0.566359329224,0.150214481354,0.61797752809,0.618348594378,0.01,"(50,)",6,"{'NN__hidden_layer_sizes': (50,), 'filter__n': 6, 'NN__alpha': 0.01}",85,0.344,0.333333333333,0.712,0.730923694779,0.768,0.708835341365,0.64,0.66265060241,0.626016260163,0.656,0.0194967344849,0.00201298263951,0.146494094118,0.145241178665
48,0.570465660095,0.151692199707,0.593900481541,0.594726104418,0.01,"(50,)",7,"{'NN__hidden_layer_sizes': (50,), 'filter__n': 7, 'NN__alpha': 0.01}",113,0.568,0.562248995984,0.568,0.560240963855,0.584,0.556224899598,0.696,0.728915662651,0.552845528455,0.566,0.0237844026797,0.00383246124972,0.052088296514,0.0671689762883
49,0.540949344635,0.154682683945,0.616372391653,0.616372690763,0.01,"(25,)",1,"{'NN__hidden_layer_sizes': (25,), 'filter__n': 1, 'NN__alpha': 0.01}",89,0.616,0.616465863454,0.616,0.616465863454,0.616,0.616465863454,0.616,0.616465863454,0.617886178862,0.616,0.0192706716108,0.00249376903779,0.000750814039095,0.000186345381526
50,0.538365221024,0.153910017014,0.776886035313,0.781302811245,0.01,"(25,)",2,"{'NN__hidden_layer_sizes': (25,), 'filter__n': 2, 'NN__alpha': 0.01}",35,0.76,0.781124497992,0.752,0.78313253012,0.816,0.789156626506,0.784,0.775100401606,0.772357723577,0.778,0.0254552903489,0.00143742904672,0.0224195600918,0.00478415151053
51,0.56428899765,0.142957878113,0.499197431782,0.501085943775,0.01,"(25,)",3,"{'NN__hidden_layer_sizes': (25,), 'filter__n': 3, 'NN__alpha': 0.01}",121,0.464,0.453815261044,0.4,0.469879518072,0.488,0.447791164659,0.472,0.4859437751,0.674796747967,0.648,0.0141826089383,0.0184916724153,0.0921103462503,0.0746481307478
52,0.546572780609,0.154149150848,0.515248796148,0.507228915663,0.01,"(25,)",4,"{'NN__hidden_layer_sizes': (25,), 'filter__n': 4, 'NN__alpha': 0.01}",117,0.504,0.518072289157,0.544,0.508032128514,0.576,0.5,0.456,0.510040160643,0.49593495935,0.5,0.0182191166808,0.00365229617285,0.0413490205916,0.00679178093385
53,0.573251247406,0.151820993423,0.446227929374,0.440159036145,0.01,"(25,)",5,"{'NN__hidden_layer_sizes': (25,), 'filter__n': 5, 'NN__alpha': 0.01}",125,0.464,0.455823293173,0.464,0.429718875502,0.416,0.441767068273,0.368,0.371485943775,0.520325203252,0.502,0.0646285110916,0.00353778846636,0.0512045694527,0.0421835278183
54,0.575892972946,0.152895212173,0.791332263242,0.775283534137,0.01,"(25,)",6,"{'NN__hidden_layer_sizes': (25,), 'filter__n': 6, 'NN__alpha': 0.01}",1,0.808,0.781124497992,0.76,0.777108433735,0.8,0.763052208835,0.8,0.78313253012,0.788617886179,0.772,0.0177519370708,0.00431245794463,0.0168616874061,0.00720334325588
55,0.568330192566,0.151600933075,0.691813804173,0.691023293173,0.01,"(25,)",7,"{'NN__hidden_layer_sizes': (25,), 'filter__n': 7, 'NN__alpha': 0.01}",77,0.704,0.728915662651,0.712,0.720883534137,0.704,0.722891566265,0.632,0.606425702811,0.707317073171,0.676,0.00955479037057,0.00245427672877,0.0301104378999,0.0463152331694
56,0.560897874832,0.152126693726,0.616372391653,0.616372690763,0.01,"(25, 25)",1,"{'NN__hidden_layer_sizes': (25, 25), 'filter__n': 1, 'NN__alpha': 0.01}",89,0.616,0.616465863454,0.616,0.616465863454,0.616,0.616465863454,0.616,0.616465863454,0.617886178862,0.616,0.0204648263591,0.00233143953114,0.000750814039095,0.000186345381526
57,0.565672588348,0.153516960144,0.616372391653,0.616372690763,0.01,"(25, 25)",2,"{'NN__hidden_layer_sizes': (25, 25), 'filter__n': 2, 'NN__alpha': 0.01}",89,0.616,0.616465863454,0.616,0.616465863454,0.616,0.616465863454,0.616,0.616465863454,0.617886178862,0.616,0.00537213273754,0.00207783971995,0.000750814039095,0.000186345381526
58,0.566760444641,0.152495002747,0.616372391653,0.616372690763,0.01,"(25, 25)",3,"{'NN__hidden_layer_sizes': (25, 25), 'filter__n': 3, 'NN__alpha': 0.01}",89,0.616,0.616465863454,0.616,0.616465863454,0.616,0.616465863454,0.616,0.616465863454,0.617886178862,0.616,0.00499593388493,0.00194969109723,0.000750814039095,0.000186345381526
59,0.591419410706,0.155296468735,0.383627608347,0.383627309237,0.01,"(25, 25)",4,"{'NN__hidden_layer_sizes': (25, 25), 'filter__n': 4, 'NN__alpha': 0.01}",133,0.384,0.383534136546,0.384,0.383534136546,0.384,0.383534136546,0.384,0.383534136546,0.382113821138,0.384,0.0482468829285,0.00225047881305,0.000750814039095,0.000186345381526
60,0.588652801514,0.149827575684,0.69823434992,0.691518072289,0.01,"(25, 25)",5,"{'NN__hidden_layer_sizes': (25, 25), 'filter__n': 5, 'NN__alpha': 0.01}",73,0.76,0.789156626506,0.792,0.771084337349,0.816,0.765060240964,0.536,0.572289156627,0.585365853659,0.56,0.02457604747,0.00187030725844,0.114490982131,0.102747327019
61,0.586576604843,0.143670606613,0.736757624398,0.739551807229,0.01,"(25, 25)",6,"{'NN__hidden_layer_sizes': (25, 25), 'filter__n': 6, 'NN__alpha': 0.01}",57,0.8,0.732931726908,0.608,0.684738955823,0.768,0.753012048193,0.744,0.769076305221,0.764227642276,0.758,0.0390144135487,0.0155743242979,0.0669640757439,0.0298043085062
62,0.564734554291,0.151790380478,0.781701444623,0.768862650602,0.01,"(25, 25)",7,"{'NN__hidden_layer_sizes': (25, 25), 'filter__n': 7, 'NN__alpha': 0.01}",24,0.76,0.781124497992,0.792,0.769076305221,0.816,0.767068273092,0.784,0.761044176707,0.756097560976,0.766,0.022319160564,0.00187500216668,0.0219612104936,0.00667744925667
63,0.572007846832,0.144682025909,0.646869983949,0.650772690763,0.01,"(100, 25, 100)",1,"{'NN__hidden_layer_sizes': (100, 25, 100), 'filter__n': 1, 'NN__alpha': 0.01}",81,0.616,0.616465863454,0.616,0.616465863454,0.616,0.616465863454,0.616,0.616465863454,0.772357723577,0.788,0.0269087756228,0.0180249766699,0.0622398948271,0.0686136546185
64,0.611481952667,0.154070186615,0.789727126806,0.785307630522,0.01,"(100, 25, 100)",2,"{'NN__hidden_layer_sizes': (100, 25, 100), 'filter__n': 2, 'NN__alpha': 0.01}",5,0.76,0.791164658635,0.808,0.779116465863,0.816,0.777108433735,0.76,0.787148594378,0.80487804878,0.792,0.0537122351438,0.00228455227105,0.0246054073069,0.00613252123096
65,0.571790027618,0.152382850647,0.76404494382,0.754019277108,0.01,"(100, 25, 100)",3,"{'NN__hidden_layer_sizes': (100, 25, 100), 'filter__n': 3, 'NN__alpha': 0.01}",49,0.752,0.769076305221,0.784,0.761044176707,0.776,0.753012048193,0.776,0.740963855422,0.731707317073,0.746,0.0188542041041,0.00249484215563,0.0193084815801,0.0101176149442
66,0.582066440582,0.15329785347,0.783306581059,0.781699598394,0.01,"(100, 25, 100)",4,"{'NN__hidden_layer_sizes': (100, 25, 100), 'filter__n': 4, 'NN__alpha': 0.01}",21,0.776,0.779116465863,0.736,0.779116465863,0.792,0.787148594378,0.816,0.779116465863,0.79674796748,0.784,0.0208966302656,0.0037498177655,0.0269262489565,0.00331665873398
67,0.578421354294,0.153383827209,0.723916532905,0.726814457831,0.01,"(100, 25, 100)",5,"{'NN__hidden_layer_sizes': (100, 25, 100), 'filter__n': 5, 'NN__alpha': 0.01}",61,0.712,0.71686746988,0.696,0.720883534137,0.784,0.795180722892,0.808,0.785140562249,0.617886178862,0.616,0.0222094115894,0.0029956455162,0.0674339728576,0.0640153780657
68,0.578493976593,0.154039859772,0.77849117175,0.790118875502,0.01,"(100, 25, 100)",6,"{'NN__hidden_layer_sizes': (100, 25, 100), 'filter__n': 6, 'NN__alpha': 0.01}",32,0.752,0.781124497992,0.76,0.775100401606,0.784,0.795180722892,0.8,0.79718875502,0.79674796748,0.802,0.0108955183704,0.00227137456017,0.0193424206521,0.0102295649925
69,0.611366415024,0.150633192062,0.781701444623,0.79574939759,0.01,"(100, 25, 100)",7,"{'NN__hidden_layer_sizes': (100, 25, 100), 'filter__n': 7, 'NN__alpha': 0.01}",24,0.76,0.805220883534,0.776,0.807228915663,0.776,0.777108433735,0.808,0.79718875502,0.788617886179,0.792,0.0162242636291,0.0020769522845,0.0159921443421,0.0108176119982
70,0.558993673325,0.153511333466,0.616372391653,0.616372690763,0.001,"(50, 50)",1,"{'NN__hidden_layer_sizes': (50, 50), 'filter__n': 1, 'NN__alpha': 0.001}",89,0.616,0.616465863454,0.616,0.616465863454,0.616,0.616465863454,0.616,0.616465863454,0.617886178862,0.616,0.0246007468188,0.00290736573766,0.000750814039095,0.000186345381526
71,0.555004024506,0.154835033417,0.616372391653,0.616372690763,0.001,"(50, 50)",2,"{'NN__hidden_layer_sizes': (50, 50), 'filter__n': 2, 'NN__alpha': 0.001}",89,0.616,0.616465863454,0.616,0.616465863454,0.616,0.616465863454,0.616,0.616465863454,0.617886178862,0.616,0.0158845933403,0.00356780904601,0.000750814039095,0.000186345381526
72,0.560785198212,0.152445602417,0.776886035313,0.776885140562,0.001,"(50, 50)",3,"{'NN__hidden_layer_sizes': (50, 50), 'filter__n': 3, 'NN__alpha': 0.001}",35,0.76,0.781124497992,0.752,0.78313253012,0.816,0.767068273092,0.784,0.775100401606,0.772357723577,0.778,0.0222480788111,0.00270182035787,0.0224195600918,0.00561784868676
73,0.591782808304,0.150846195221,0.786516853933,0.788139759036,0.001,"(50, 50)",4,"{'NN__hidden_layer_sizes': (50, 50), 'filter__n': 4, 'NN__alpha': 0.001}",9,0.784,0.793172690763,0.792,0.791164658635,0.768,0.79718875502,0.832,0.793172690763,0.756097560976,0.766,0.00988821742575,0.00108423919828,0.0259588124119,0.0112415664354
74,0.56472363472,0.156596183777,0.786516853933,0.7664562249,0.001,"(50, 50)",5,"{'NN__hidden_layer_sizes': (50, 50), 'filter__n': 5, 'NN__alpha': 0.001}",9,0.784,0.799196787149,0.776,0.789156626506,0.824,0.765060240964,0.768,0.71686746988,0.780487804878,0.762,0.0282752547077,0.00236704201576,0.0195277651995,0.0285240389336
75,0.557848215103,0.152722167969,0.786516853933,0.785326907631,0.001,"(50, 50)",6,"{'NN__hidden_layer_sizes': (50, 50), 'filter__n': 6, 'NN__alpha': 0.001}",9,0.768,0.799196787149,0.8,0.785140562249,0.784,0.791164658635,0.824,0.78313253012,0.756097560976,0.768,0.023773926699,0.0023183806273,0.0238983516146,0.0103104281184
76,0.597201299667,0.15048289299,0.775280898876,0.782101204819,0.001,"(50, 50)",7,"{'NN__hidden_layer_sizes': (50, 50), 'filter__n': 7, 'NN__alpha': 0.001}",46,0.752,0.785140562249,0.752,0.791164658635,0.784,0.785140562249,0.792,0.765060240964,0.79674796748,0.784,0.0168951940041,0.00203057326655,0.0194889216465,0.00888393442674
77,0.532306003571,0.155745220184,0.383627608347,0.383627309237,0.001,"(50,)",1,"{'NN__hidden_layer_sizes': (50,), 'filter__n': 1, 'NN__alpha': 0.001}",133,0.384,0.383534136546,0.384,0.383534136546,0.384,0.383534136546,0.384,0.383534136546,0.382113821138,0.384,0.0222610305194,0.00330975167458,0.000750814039095,0.000186345381526
78,0.54766664505,0.14826874733,0.762439807384,0.747228915663,0.001,"(50,)",2,"{'NN__hidden_layer_sizes': (50,), 'filter__n': 2, 'NN__alpha': 0.001}",52,0.76,0.791164658635,0.808,0.779116465863,0.816,0.777108433735,0.736,0.68875502008,0.691056910569,0.7,0.0246330451683,0.00205682061557,0.0462550832945,0.0435653943119
79,0.574761581421,0.142045354843,0.70304975923,0.699914859438,0.001,"(50,)",3,"{'NN__hidden_layer_sizes': (50,), 'filter__n': 3, 'NN__alpha': 0.001}",69,0.752,0.767068273092,0.776,0.761044176707,0.776,0.761044176707,0.608,0.604417670683,0.60162601626,0.606,0.00747882005072,0.0198156557976,0.0803736325154,0.0773600435734
80,0.56615023613,0.155479621887,0.38683788122,0.380425702811,0.001,"(50,)",4,"{'NN__hidden_layer_sizes': (50,), 'filter__n': 4, 'NN__alpha': 0.001}",129,0.384,0.39156626506,0.416,0.383534136546,0.384,0.39156626506,0.384,0.36546184739,0.365853658537,0.37,0.00556231572583,0.00169369520206,0.0161992638077,0.0108673719263
81,0.5837246418,0.151501607895,0.704654895666,0.701466666667,0.001,"(50,)",5,"{'NN__hidden_layer_sizes': (50,), 'filter__n': 5, 'NN__alpha': 0.001}",65,0.728,0.744979919679,0.72,0.708835341365,0.744,0.704819277108,0.656,0.674698795181,0.674796747967,0.674,0.0225617058441,0.00206602797173,0.0334393124115,0.0261911331292
82,0.579001426697,0.156542539597,0.61797752809,0.618348594378,0.001,"(50,)",6,"{'NN__hidden_layer_sizes': (50,), 'filter__n': 6, 'NN__alpha': 0.001}",85,0.344,0.333333333333,0.712,0.730923694779,0.768,0.708835341365,0.64,0.66265060241,0.626016260163,0.656,0.0276962365286,0.00144537272939,0.146494094118,0.145241178665
83,0.558728694916,0.153618049622,0.593900481541,0.594726104418,0.001,"(50,)",7,"{'NN__hidden_layer_sizes': (50,), 'filter__n': 7, 'NN__alpha': 0.001}",113,0.568,0.562248995984,0.568,0.560240963855,0.584,0.556224899598,0.696,0.728915662651,0.552845528455,0.566,0.0257119872937,0.00369536899067,0.052088296514,0.0671689762883
84,0.540071964264,0.152352046967,0.616372391653,0.616372690763,0.001,"(25,)",1,"{'NN__hidden_layer_sizes': (25,), 'filter__n': 1, 'NN__alpha': 0.001}",89,0.616,0.616465863454,0.616,0.616465863454,0.616,0.616465863454,0.616,0.616465863454,0.617886178862,0.616,0.0229233769273,0.00286362970092,0.000750814039095,0.000186345381526
85,0.554281616211,0.14646935463,0.776886035313,0.781302811245,0.001,"(25,)",2,"{'NN__hidden_layer_sizes': (25,), 'filter__n': 2, 'NN__alpha': 0.001}",35,0.76,0.781124497992,0.752,0.78313253012,0.816,0.789156626506,0.784,0.775100401606,0.772357723577,0.778,0.0246333784585,0.019277378804,0.0224195600918,0.00478415151053
86,0.549514007568,0.14431643486,0.499197431782,0.501085943775,0.001,"(25,)",3,"{'NN__hidden_layer_sizes': (25,), 'filter__n': 3, 'NN__alpha': 0.001}",121,0.464,0.453815261044,0.4,0.469879518072,0.488,0.447791164659,0.472,0.4859437751,0.674796747967,0.648,0.0177717221576,0.019563705223,0.0921103462503,0.0746481307478
87,0.552767562866,0.153612852097,0.515248796148,0.507228915663,0.001,"(25,)",4,"{'NN__hidden_layer_sizes': (25,), 'filter__n': 4, 'NN__alpha': 0.001}",117,0.504,0.518072289157,0.544,0.508032128514,0.576,0.5,0.456,0.510040160643,0.49593495935,0.5,0.0211404810133,0.00355875557065,0.0413490205916,0.00679178093385
88,0.552879095078,0.149865245819,0.446227929374,0.440159036145,0.001,"(25,)",5,"{'NN__hidden_layer_sizes': (25,), 'filter__n': 5, 'NN__alpha': 0.001}",125,0.464,0.455823293173,0.464,0.429718875502,0.416,0.441767068273,0.368,0.371485943775,0.520325203252,0.502,0.024083146867,0.00377065289198,0.0512045694527,0.0421835278183
89,0.544979190826,0.152884483337,0.791332263242,0.775283534137,0.001,"(25,)",6,"{'NN__hidden_layer_sizes': (25,), 'filter__n': 6, 'NN__alpha': 0.001}",1,0.808,0.781124497992,0.76,0.777108433735,0.8,0.763052208835,0.8,0.78313253012,0.788617886179,0.772,0.0288299113126,0.00295161531891,0.0168616874061,0.00720334325588
90,0.551062822342,0.152093601227,0.691813804173,0.691023293173,0.001,"(25,)",7,"{'NN__hidden_layer_sizes': (25,), 'filter__n': 7, 'NN__alpha': 0.001}",77,0.704,0.728915662651,0.712,0.720883534137,0.704,0.722891566265,0.632,0.606425702811,0.707317073171,0.676,0.0218971666478,0.00145164886632,0.0301104378999,0.0463152331694
91,0.553239011765,0.154102563858,0.616372391653,0.616372690763,0.001,"(25, 25)",1,"{'NN__hidden_layer_sizes': (25, 25), 'filter__n': 1, 'NN__alpha': 0.001}",89,0.616,0.616465863454,0.616,0.616465863454,0.616,0.616465863454,0.616,0.616465863454,0.617886178862,0.616,0.00887164838302,0.00136850218309,0.000750814039095,0.000186345381526
92,0.562177944183,0.154633426666,0.616372391653,0.616372690763,0.001,"(25, 25)",2,"{'NN__hidden_layer_sizes': (25, 25), 'filter__n': 2, 'NN__alpha': 0.001}",89,0.616,0.616465863454,0.616,0.616465863454,0.616,0.616465863454,0.616,0.616465863454,0.617886178862,0.616,0.0287873026831,0.00146289115398,0.000750814039095,0.000186345381526
93,0.527810811996,0.155436372757,0.616372391653,0.616372690763,0.001,"(25, 25)",3,"{'NN__hidden_layer_sizes': (25, 25), 'filter__n': 3, 'NN__alpha': 0.001}",89,0.616,0.616465863454,0.616,0.616465863454,0.616,0.616465863454,0.616,0.616465863454,0.617886178862,0.616,0.0187444530714,0.00399927053529,0.000750814039095,0.000186345381526
94,0.538929414749,0.142895174026,0.383627608347,0.383627309237,0.001,"(25, 25)",4,"{'NN__hidden_layer_sizes': (25, 25), 'filter__n': 4, 'NN__alpha': 0.001}",133,0.384,0.383534136546,0.384,0.383534136546,0.384,0.383534136546,0.384,0.383534136546,0.382113821138,0.384,0.0153286629386,0.018506029741,0.000750814039095,0.000186345381526
95,0.567093038559,0.151003789902,0.69823434992,0.691518072289,0.001,"(25, 25)",5,"{'NN__hidden_layer_sizes': (25, 25), 'filter__n': 5, 'NN__alpha': 0.001}",73,0.76,0.789156626506,0.792,0.771084337349,0.816,0.765060240964,0.536,0.572289156627,0.585365853659,0.56,0.0252410465215,0.00204924616076,0.114490982131,0.102747327019
96,0.634471845627,0.154281759262,0.736757624398,0.739551807229,0.001,"(25, 25)",6,"{'NN__hidden_layer_sizes': (25, 25), 'filter__n': 6, 'NN__alpha': 0.001}",57,0.8,0.732931726908,0.608,0.684738955823,0.768,0.753012048193,0.744,0.769076305221,0.764227642276,0.758,0.0612036740607,0.00295426363974,0.0669640757439,0.0298043085062
97,0.570173454285,0.151239490509,0.781701444623,0.768862650602,0.001,"(25, 25)",7,"{'NN__hidden_layer_sizes': (25, 25), 'filter__n': 7, 'NN__alpha': 0.001}",24,0.76,0.781124497992,0.792,0.769076305221,0.816,0.767068273092,0.784,0.761044176707,0.756097560976,0.766,0.00749174075548,0.00310982461026,0.0219612104936,0.00667744925667
98,0.563601589203,0.152641773224,0.646869983949,0.650772690763,0.001,"(100, 25, 100)",1,"{'NN__hidden_layer_sizes': (100, 25, 100), 'filter__n': 1, 'NN__alpha': 0.001}",81,0.616,0.616465863454,0.616,0.616465863454,0.616,0.616465863454,0.616,0.616465863454,0.772357723577,0.788,0.0104618299372,0.00300234787027,0.0622398948271,0.0686136546185
99,0.568331623077,0.151340818405,0.789727126806,0.785307630522,0.001,"(100, 25, 100)",2,"{'NN__hidden_layer_sizes': (100, 25, 100), 'filter__n': 2, 'NN__alpha': 0.001}",5,0.76,0.791164658635,0.808,0.779116465863,0.816,0.777108433735,0.76,0.787148594378,0.80487804878,0.792,0.00819977689976,0.0021151870969,0.0246054073069,0.00613252123096
100,0.56700835228,0.150851011276,0.76404494382,0.754019277108,0.001,"(100, 25, 100)",3,"{'NN__hidden_layer_sizes': (100, 25, 100), 'filter__n': 3, 'NN__alpha': 0.001}",49,0.752,0.769076305221,0.784,0.761044176707,0.776,0.753012048193,0.776,0.740963855422,0.731707317073,0.746,0.00938261290146,0.0034000402259,0.0193084815801,0.0101176149442
101,0.57851805687,0.15003118515,0.783306581059,0.781699598394,0.001,"(100, 25, 100)",4,"{'NN__hidden_layer_sizes': (100, 25, 100), 'filter__n': 4, 'NN__alpha': 0.001}",21,0.776,0.779116465863,0.736,0.779116465863,0.792,0.787148594378,0.816,0.779116465863,0.79674796748,0.784,0.0118969085089,0.00323889561802,0.0269262489565,0.00331665873398
102,0.587146854401,0.152783966064,0.723916532905,0.72601124498,0.001,"(100, 25, 100)",5,"{'NN__hidden_layer_sizes': (100, 25, 100), 'filter__n': 5, 'NN__alpha': 0.001}",61,0.712,0.71686746988,0.696,0.720883534137,0.784,0.795180722892,0.808,0.781124497992,0.617886178862,0.616,0.0277592857319,0.00242355395026,0.0674339728576,0.0632997052059
103,0.601401519775,0.15398645401,0.77849117175,0.789717269076,0.001,"(100, 25, 100)",6,"{'NN__hidden_layer_sizes': (100, 25, 100), 'filter__n': 6, 'NN__alpha': 0.001}",32,0.752,0.781124497992,0.76,0.775100401606,0.784,0.795180722892,0.8,0.795180722892,0.79674796748,0.802,0.0200467081287,0.000252920065467,0.0193424206521,0.00998050763906
104,0.604256772995,0.152549791336,0.781701444623,0.795347791165,0.001,"(100, 25, 100)",7,"{'NN__hidden_layer_sizes': (100, 25, 100), 'filter__n': 7, 'NN__alpha': 0.001}",24,0.76,0.805220883534,0.776,0.805220883534,0.776,0.777108433735,0.808,0.79718875502,0.788617886179,0.792,0.0132850421501,0.00420040817503,0.0159921443421,0.0104137113357
105,0.529715585709,0.150803470612,0.616372391653,0.616372690763,0.0001,"(50, 50)",1,"{'NN__hidden_layer_sizes': (50, 50), 'filter__n': 1, 'NN__alpha': 0.0001}",89,0.616,0.616465863454,0.616,0.616465863454,0.616,0.616465863454,0.616,0.616465863454,0.617886178862,0.616,0.0311017267105,0.00288390737835,0.000750814039095,0.000186345381526
106,0.550535774231,0.153645467758,0.616372391653,0.616372690763,0.0001,"(50, 50)",2,"{'NN__hidden_layer_sizes': (50, 50), 'filter__n': 2, 'NN__alpha': 0.0001}",89,0.616,0.616465863454,0.616,0.616465863454,0.616,0.616465863454,0.616,0.616465863454,0.617886178862,0.616,0.0316282670524,0.00235234994058,0.000750814039095,0.000186345381526
107,0.54754858017,0.143990278244,0.776886035313,0.776885140562,0.0001,"(50, 50)",3,"{'NN__hidden_layer_sizes': (50, 50), 'filter__n': 3, 'NN__alpha': 0.0001}",35,0.76,0.781124497992,0.752,0.78313253012,0.816,0.767068273092,0.784,0.775100401606,0.772357723577,0.778,0.0297612956848,0.017483827571,0.0224195600918,0.00561784868676
108,0.580679178238,0.15238199234,0.786516853933,0.788139759036,0.0001,"(50, 50)",4,"{'NN__hidden_layer_sizes': (50, 50), 'filter__n': 4, 'NN__alpha': 0.0001}",9,0.784,0.793172690763,0.792,0.791164658635,0.768,0.79718875502,0.832,0.793172690763,0.756097560976,0.766,0.00431070799996,0.00286789783995,0.0259588124119,0.0112415664354
109,0.578930664063,0.15341796875,0.786516853933,0.7664562249,0.0001,"(50, 50)",5,"{'NN__hidden_layer_sizes': (50, 50), 'filter__n': 5, 'NN__alpha': 0.0001}",9,0.784,0.799196787149,0.776,0.789156626506,0.824,0.765060240964,0.768,0.71686746988,0.780487804878,0.762,0.0168022668759,0.00468519035006,0.0195277651995,0.0285240389336
110,0.559432411194,0.152639770508,0.786516853933,0.785326907631,0.0001,"(50, 50)",6,"{'NN__hidden_layer_sizes': (50, 50), 'filter__n': 6, 'NN__alpha': 0.0001}",9,0.768,0.799196787149,0.8,0.785140562249,0.784,0.791164658635,0.824,0.78313253012,0.756097560976,0.768,0.038634382563,0.00179594513482,0.0238983516146,0.0103104281184
111,0.581187200546,0.152867603302,0.775280898876,0.782101204819,0.0001,"(50, 50)",7,"{'NN__hidden_layer_sizes': (50, 50), 'filter__n': 7, 'NN__alpha': 0.0001}",46,0.752,0.785140562249,0.752,0.791164658635,0.784,0.785140562249,0.792,0.765060240964,0.79674796748,0.784,0.0197625838887,0.00299626892362,0.0194889216465,0.00888393442674
112,0.638665390015,0.152865219116,0.383627608347,0.383627309237,0.0001,"(50,)",1,"{'NN__hidden_layer_sizes': (50,), 'filter__n': 1, 'NN__alpha': 0.0001}",133,0.384,0.383534136546,0.384,0.383534136546,0.384,0.383534136546,0.384,0.383534136546,0.382113821138,0.384,0.0730772376262,0.00155204635427,0.000750814039095,0.000186345381526
113,0.554948806763,0.154496765137,0.762439807384,0.747228915663,0.0001,"(50,)",2,"{'NN__hidden_layer_sizes': (50,), 'filter__n': 2, 'NN__alpha': 0.0001}",52,0.76,0.791164658635,0.808,0.779116465863,0.816,0.777108433735,0.736,0.68875502008,0.691056910569,0.7,0.0181953261029,0.00288206716164,0.0462550832945,0.0435653943119
114,0.568590831757,0.154071950912,0.70304975923,0.699914859438,0.0001,"(50,)",3,"{'NN__hidden_layer_sizes': (50,), 'filter__n': 3, 'NN__alpha': 0.0001}",69,0.752,0.767068273092,0.776,0.761044176707,0.776,0.761044176707,0.608,0.604417670683,0.60162601626,0.606,0.0107093048246,0.0029153607411,0.0803736325154,0.0773600435734
115,0.576910400391,0.156968688965,0.38683788122,0.380425702811,0.0001,"(50,)",4,"{'NN__hidden_layer_sizes': (50,), 'filter__n': 4, 'NN__alpha': 0.0001}",129,0.384,0.39156626506,0.416,0.383534136546,0.384,0.39156626506,0.384,0.36546184739,0.365853658537,0.37,0.0633490095508,0.00207457909415,0.0161992638077,0.0108673719263
116,0.566599369049,0.155281209946,0.704654895666,0.701466666667,0.0001,"(50,)",5,"{'NN__hidden_layer_sizes': (50,), 'filter__n': 5, 'NN__alpha': 0.0001}",65,0.728,0.744979919679,0.72,0.708835341365,0.744,0.704819277108,0.656,0.674698795181,0.674796747967,0.674,0.00280137264133,0.00234348748912,0.0334393124115,0.0261911331292
117,0.563154602051,0.152060222626,0.61797752809,0.618348594378,0.0001,"(50,)",6,"{'NN__hidden_layer_sizes': (50,), 'filter__n': 6, 'NN__alpha': 0.0001}",85,0.344,0.333333333333,0.712,0.730923694779,0.768,0.708835341365,0.64,0.66265060241,0.626016260163,0.656,0.0300503422095,0.0025383811506,0.146494094118,0.145241178665
118,0.584555196762,0.154471349716,0.593900481541,0.594726104418,0.0001,"(50,)",7,"{'NN__hidden_layer_sizes': (50,), 'filter__n': 7, 'NN__alpha': 0.0001}",113,0.568,0.562248995984,0.568,0.560240963855,0.584,0.556224899598,0.696,0.728915662651,0.552845528455,0.566,0.0575212781725,0.00317143842737,0.052088296514,0.0671689762883
119,0.537664794922,0.155096054077,0.616372391653,0.616372690763,0.0001,"(25,)",1,"{'NN__hidden_layer_sizes': (25,), 'filter__n': 1, 'NN__alpha': 0.0001}",89,0.616,0.616465863454,0.616,0.616465863454,0.616,0.616465863454,0.616,0.616465863454,0.617886178862,0.616,0.0216850011721,0.00230226070127,0.000750814039095,0.000186345381526
120,0.558151817322,0.154730367661,0.776886035313,0.781302811245,0.0001,"(25,)",2,"{'NN__hidden_layer_sizes': (25,), 'filter__n': 2, 'NN__alpha': 0.0001}",35,0.76,0.781124497992,0.752,0.78313253012,0.816,0.789156626506,0.784,0.775100401606,0.772357723577,0.778,0.0125745692346,0.00264835958391,0.0224195600918,0.00478415151053
121,0.554978942871,0.143724250793,0.499197431782,0.501085943775,0.0001,"(25,)",3,"{'NN__hidden_layer_sizes': (25,), 'filter__n': 3, 'NN__alpha': 0.0001}",121,0.464,0.453815261044,0.4,0.469879518072,0.488,0.447791164659,0.472,0.4859437751,0.674796747967,0.648,0.0198063950395,0.018731660299,0.0921103462503,0.0746481307478
122,0.558584547043,0.155610990524,0.515248796148,0.507228915663,0.0001,"(25,)",4,"{'NN__hidden_layer_sizes': (25,), 'filter__n': 4, 'NN__alpha': 0.0001}",117,0.504,0.518072289157,0.544,0.508032128514,0.576,0.5,0.456,0.510040160643,0.49593495935,0.5,0.0222993599342,0.00233387919268,0.0413490205916,0.00679178093385
123,0.563151168823,0.156480646133,0.446227929374,0.440159036145,0.0001,"(25,)",5,"{'NN__hidden_layer_sizes': (25,), 'filter__n': 5, 'NN__alpha': 0.0001}",125,0.464,0.455823293173,0.464,0.429718875502,0.416,0.441767068273,0.368,0.371485943775,0.520325203252,0.502,0.00741292038004,0.00298606969043,0.0512045694527,0.0421835278183
124,0.556991767883,0.151764631271,0.791332263242,0.775283534137,0.0001,"(25,)",6,"{'NN__hidden_layer_sizes': (25,), 'filter__n': 6, 'NN__alpha': 0.0001}",1,0.808,0.781124497992,0.76,0.777108433735,0.8,0.763052208835,0.8,0.78313253012,0.788617886179,0.772,0.0267597987304,0.00282352175527,0.0168616874061,0.00720334325588
125,0.548813533783,0.152328824997,0.691813804173,0.691023293173,0.0001,"(25,)",7,"{'NN__hidden_layer_sizes': (25,), 'filter__n': 7, 'NN__alpha': 0.0001}",77,0.704,0.728915662651,0.712,0.720883534137,0.704,0.722891566265,0.632,0.606425702811,0.707317073171,0.676,0.0259081470293,0.00204743347399,0.0301104378999,0.0463152331694
126,0.549553442001,0.15222029686,0.616372391653,0.616372690763,0.0001,"(25, 25)",1,"{'NN__hidden_layer_sizes': (25, 25), 'filter__n': 1, 'NN__alpha': 0.0001}",89,0.616,0.616465863454,0.616,0.616465863454,0.616,0.616465863454,0.616,0.616465863454,0.617886178862,0.616,0.0217615556894,0.00320806932448,0.000750814039095,0.000186345381526
127,0.556188201904,0.143792676926,0.616372391653,0.616372690763,0.0001,"(25, 25)",2,"{'NN__hidden_layer_sizes': (25, 25), 'filter__n': 2, 'NN__alpha': 0.0001}",89,0.616,0.616465863454,0.616,0.616465863454,0.616,0.616465863454,0.616,0.616465863454,0.617886178862,0.616,0.0270967880614,0.0188673424376,0.000750814039095,0.000186345381526
128,0.617244148254,0.152021217346,0.616372391653,0.616372690763,0.0001,"(25, 25)",3,"{'NN__hidden_layer_sizes': (25, 25), 'filter__n': 3, 'NN__alpha': 0.0001}",89,0.616,0.616465863454,0.616,0.616465863454,0.616,0.616465863454,0.616,0.616465863454,0.617886178862,0.616,0.053693047905,0.000264124290039,0.000750814039095,0.000186345381526
129,0.552542591095,0.154819631577,0.383627608347,0.383627309237,0.0001,"(25, 25)",4,"{'NN__hidden_layer_sizes': (25, 25), 'filter__n': 4, 'NN__alpha': 0.0001}",133,0.384,0.383534136546,0.384,0.383534136546,0.384,0.383534136546,0.384,0.383534136546,0.382113821138,0.384,0.028606163612,0.00434003478163,0.000750814039095,0.000186345381526
130,0.579961776733,0.153910684586,0.69823434992,0.691518072289,0.0001,"(25, 25)",5,"{'NN__hidden_layer_sizes': (25, 25), 'filter__n': 5, 'NN__alpha': 0.0001}",73,0.76,0.789156626506,0.792,0.771084337349,0.816,0.765060240964,0.536,0.572289156627,0.585365853659,0.56,0.00680843177572,0.00340336589427,0.114490982131,0.102747327019
131,0.593090057373,0.151254367828,0.736757624398,0.739551807229,0.0001,"(25, 25)",6,"{'NN__hidden_layer_sizes': (25, 25), 'filter__n': 6, 'NN__alpha': 0.0001}",57,0.8,0.732931726908,0.608,0.684738955823,0.768,0.753012048193,0.744,0.769076305221,0.764227642276,0.758,0.0167294053507,0.00143292564608,0.0669640757439,0.0298043085062
132,0.569460201263,0.154764556885,0.781701444623,0.768862650602,0.0001,"(25, 25)",7,"{'NN__hidden_layer_sizes': (25, 25), 'filter__n': 7, 'NN__alpha': 0.0001}",24,0.76,0.781124497992,0.792,0.769076305221,0.816,0.767068273092,0.784,0.761044176707,0.756097560976,0.766,0.00624419661939,0.00208876296562,0.0219612104936,0.00667744925667
133,0.578942966461,0.152741289139,0.646869983949,0.650772690763,0.0001,"(100, 25, 100)",1,"{'NN__hidden_layer_sizes': (100, 25, 100), 'filter__n': 1, 'NN__alpha': 0.0001}",81,0.616,0.616465863454,0.616,0.616465863454,0.616,0.616465863454,0.616,0.616465863454,0.772357723577,0.788,0.015310863822,0.00381266947017,0.0622398948271,0.0686136546185
134,0.576859235764,0.151272392273,0.789727126806,0.785307630522,0.0001,"(100, 25, 100)",2,"{'NN__hidden_layer_sizes': (100, 25, 100), 'filter__n': 2, 'NN__alpha': 0.0001}",5,0.76,0.791164658635,0.808,0.779116465863,0.816,0.777108433735,0.76,0.787148594378,0.80487804878,0.792,0.0195996968343,0.00283903815936,0.0246054073069,0.00613252123096
135,0.563549804688,0.152182388306,0.76404494382,0.754019277108,0.0001,"(100, 25, 100)",3,"{'NN__hidden_layer_sizes': (100, 25, 100), 'filter__n': 3, 'NN__alpha': 0.0001}",49,0.752,0.769076305221,0.784,0.761044176707,0.776,0.753012048193,0.776,0.740963855422,0.731707317073,0.746,0.0279486371022,0.00159838076123,0.0193084815801,0.0101176149442
136,0.595280170441,0.153307247162,0.783306581059,0.781699598394,0.0001,"(100, 25, 100)",4,"{'NN__hidden_layer_sizes': (100, 25, 100), 'filter__n': 4, 'NN__alpha': 0.0001}",21,0.776,0.779116465863,0.736,0.779116465863,0.792,0.787148594378,0.816,0.779116465863,0.79674796748,0.784,0.0213354975771,0.00377404454157,0.0269262489565,0.00331665873398
137,0.585744810104,0.151832056046,0.723916532905,0.725609638554,0.0001,"(100, 25, 100)",5,"{'NN__hidden_layer_sizes': (100, 25, 100), 'filter__n': 5, 'NN__alpha': 0.0001}",61,0.712,0.71686746988,0.696,0.720883534137,0.784,0.793172690763,0.808,0.781124497992,0.617886178862,0.616,0.0201149926378,0.0033250717871,0.0674339728576,0.0628644574975
138,0.596128511429,0.15211224556,0.77849117175,0.790118875502,0.0001,"(100, 25, 100)",6,"{'NN__hidden_layer_sizes': (100, 25, 100), 'filter__n': 6, 'NN__alpha': 0.0001}",32,0.752,0.781124497992,0.76,0.775100401606,0.784,0.795180722892,0.8,0.79718875502,0.79674796748,0.802,0.0234587733546,0.00353776772766,0.0193424206521,0.0102295649925
139,0.608722734451,0.151670455933,0.781701444623,0.792536546185,0.0001,"(100, 25, 100)",7,"{'NN__hidden_layer_sizes': (100, 25, 100), 'filter__n': 7, 'NN__alpha': 0.0001}",24,0.76,0.805220883534,0.776,0.807228915663,0.776,0.777108433735,0.808,0.781124497992,0.788617886179,0.792,0.023107998706,0.00377007910477,0.0159921443421,0.0122090746119
